351.000 0.057
352.000 0.058
353.000 0.068
354.000 0.071
355.000 0.070
356.000 0.072
357.000 0.089
358.000 0.086
359.000 0.065
360.000 0.044
361.000 0.073
362.000 0.076
363.000 0.071
364.000 0.089
365.000 0.070
366.000 0.063
367.000 0.077
368.000 0.085
369.000 0.089
370.000 0.077
371.000 0.057
372.000 0.078
373.000 0.079
374.000 0.071
375.000 0.074
376.000 0.079
377.000 0.078
378.000 0.078
379.000 0.085
380.000 0.086
381.000 0.084
382.000 0.081
383.000 0.075
384.000 0.079
385.000 0.085
386.000 0.089
387.000 0.088
388.000 0.097
389.000 0.108
390.000 0.111
391.000 0.110
392.000 0.098
393.000 0.082
394.000 0.079
395.000 0.093
396.000 0.099
397.000 0.096
398.000 0.106
399.000 0.108
400.000 0.113
401.000 0.123
402.000 0.118
403.000 0.115
404.000 0.118
405.000 0.120
406.000 0.118
407.000 0.122
408.000 0.128
409.000 0.124
410.000 0.119
411.000 0.120
412.000 0.127
413.000 0.127
414.000 0.129
415.000 0.133
416.000 0.134
417.000 0.133
418.000 0.134
419.000 0.138
420.000 0.146
421.000 0.142
422.000 0.138
423.000 0.140
424.000 0.142
425.000 0.139
426.000 0.137
427.000 0.142
428.000 0.146
429.000 0.143
430.000 0.142
431.000 0.155
432.000 0.153
433.000 0.152
434.000 0.159
435.000 0.155
436.000 0.156
437.000 0.157
438.000 0.153
439.000 0.159
440.000 0.164
441.000 0.164
442.000 0.160
443.000 0.163
444.000 0.169
445.000 0.172
446.000 0.169
447.000 0.168
448.000 0.172
449.000 0.176
450.000 0.173
451.000 0.173
452.000 0.177
453.000 0.180
454.000 0.182
455.000 0.182
456.000 0.179
457.000 0.181
458.000 0.183
459.000 0.185
460.000 0.187
461.000 0.188
462.000 0.186
463.000 0.185
464.000 0.188
465.000 0.187
466.000 0.188
467.000 0.191
468.000 0.192
469.000 0.196
470.000 0.201
471.000 0.205
472.000 0.199
473.000 0.196
474.000 0.199
475.000 0.201
476.000 0.205
477.000 0.210
478.000 0.214
479.000 0.213
480.000 0.211
481.000 0.211
482.000 0.212
483.000 0.217
484.000 0.220
485.000 0.219
486.000 0.219
487.000 0.219
488.000 0.218
489.000 0.217
490.000 0.220
491.000 0.224
492.000 0.226
493.000 0.221
494.000 0.227
495.000 0.232
496.000 0.230
497.000 0.229
498.000 0.229
499.000 0.230
500.000 0.231
501.000 0.234
502.000 0.237
503.000 0.239
504.000 0.239
505.000 0.234
506.000 0.230
507.000 0.231
508.000 0.231
509.000 0.232
510.000 0.232
511.000 0.231
512.000 0.230
513.000 0.229
514.000 0.229
515.000 0.228
516.000 0.224
517.000 0.222
518.000 0.223
519.000 0.222
520.000 0.221
521.000 0.219
522.000 0.218
523.000 0.216
524.000 0.216
525.000 0.218
526.000 0.215
527.000 0.212
528.000 0.211
529.000 0.213
530.000 0.212
531.000 0.211
532.000 0.211
533.000 0.210
534.000 0.210
535.000 0.211
536.000 0.211
537.000 0.211
538.000 0.211
539.000 0.212
540.000 0.214
541.000 0.214
542.000 0.215
543.000 0.216
544.000 0.217
545.000 0.217
546.000 0.218
547.000 0.218
548.000 0.219
549.000 0.220
550.000 0.221
551.000 0.222
552.000 0.223
553.000 0.223
554.000 0.224
555.000 0.227
556.000 0.229
557.000 0.230
558.000 0.232
559.000 0.232
560.000 0.234
561.000 0.237
562.000 0.238
563.000 0.240
564.000 0.242
565.000 0.244
566.000 0.247
567.000 0.249
568.000 0.252
569.000 0.257
570.000 0.260
571.000 0.261
572.000 0.264
573.000 0.268
574.000 0.271
575.000 0.274
576.000 0.276
577.000 0.279
578.000 0.281
579.000 0.284
580.000 0.288
581.000 0.289
582.000 0.291
583.000 0.295
584.000 0.297
585.000 0.301
586.000 0.305
587.000 0.306
588.000 0.307
589.000 0.309
590.000 0.310
591.000 0.313
592.000 0.316
593.000 0.317
594.000 0.320
595.000 0.320
596.000 0.322
597.000 0.326
598.000 0.328
599.000 0.329
600.000 0.330
601.000 0.330
602.000 0.332
603.000 0.337
604.000 0.341
605.000 0.342
606.000 0.343
607.000 0.345
608.000 0.349
609.000 0.350
610.000 0.354
611.000 0.358
612.000 0.359
613.000 0.361
614.000 0.365
615.000 0.370
616.000 0.375
617.000 0.378
618.000 0.382
619.000 0.387
620.000 0.389
621.000 0.389
622.000 0.391
623.000 0.397
624.000 0.400
625.000 0.403
626.000 0.405
627.000 0.408
628.000 0.410
629.000 0.412
630.000 0.416
631.000 0.418
632.000 0.419
633.000 0.422
634.000 0.427
635.000 0.428
636.000 0.429
637.000 0.432
638.000 0.435
639.000 0.445
640.000 0.454
641.000 0.454
642.000 0.463
643.000 0.470
644.000 0.472
645.000 0.478
646.000 0.480
647.000 0.485
648.000 0.497
649.000 0.503
650.000 0.507
651.000 0.511
652.000 0.514
653.000 0.520
654.000 0.524
655.000 0.525
656.000 0.527
657.000 0.532
658.000 0.540
659.000 0.548
660.000 0.553
661.000 0.560
662.000 0.567
663.000 0.574
664.000 0.580
665.000 0.587
666.000 0.594
667.000 0.598
668.000 0.607
669.000 0.616
670.000 0.623
671.000 0.626
672.000 0.631
673.000 0.636
674.000 0.636
675.000 0.638
676.000 0.641
677.000 0.645
678.000 0.653
679.000 0.657
680.000 0.656
681.000 0.651
682.000 0.651
683.000 0.653
684.000 0.651
685.000 0.643
686.000 0.634
687.000 0.624
688.000 0.611
689.000 0.606
690.000 0.589
691.000 0.564
692.000 0.546
693.000 0.528
694.000 0.510
695.000 0.492
696.000 0.471
697.000 0.454
698.000 0.440
699.000 0.425
700.000 0.414
701.000 0.402
702.000 0.389
703.000 0.378
704.000 0.370
705.000 0.363
706.000 0.356
707.000 0.349
708.000 0.344
709.000 0.339
710.000 0.333
711.000 0.329
712.000 0.326
713.000 0.322
714.000 0.320
715.000 0.317
716.000 0.314
717.000 0.313
718.000 0.310
719.000 0.307
720.000 0.304
721.000 0.302
722.000 0.301
723.000 0.299
724.000 0.298
725.000 0.297
726.000 0.295
727.000 0.294
728.000 0.293
729.000 0.292
730.000 0.291
731.000 0.290
732.000 0.290
733.000 0.289
734.000 0.289
735.000 0.288
736.000 0.289
737.000 0.288
738.000 0.288
739.000 0.289
740.000 0.289
741.000 0.289
742.000 0.289
743.000 0.289
744.000 0.289
745.000 0.290
746.000 0.290
747.000 0.291
748.000 0.292
749.000 0.292
750.000 0.293
751.000 0.293
752.000 0.294
753.000 0.295
754.000 0.296
755.000 0.296
756.000 0.297
757.000 0.298
758.000 0.299
759.000 0.300
760.000 0.300
761.000 0.301
762.000 0.303
763.000 0.304
764.000 0.305
765.000 0.306
766.000 0.307
767.000 0.308
768.000 0.308
769.000 0.309
770.000 0.309
771.000 0.310
772.000 0.311
773.000 0.312
774.000 0.313
775.000 0.314
776.000 0.315
777.000 0.316
778.000 0.316
779.000 0.317
780.000 0.318
781.000 0.319
782.000 0.320
783.000 0.321
784.000 0.322
785.000 0.323
786.000 0.324
787.000 0.325
788.000 0.326
789.000 0.327
790.000 0.328
791.000 0.329
792.000 0.330
793.000 0.330
794.000 0.331
795.000 0.332
796.000 0.333
797.000 0.334
798.000 0.335
799.000 0.336
800.000 0.337
801.000 0.338
802.000 0.338
803.000 0.339
804.000 0.340
805.000 0.341
806.000 0.342
807.000 0.343
808.000 0.344
809.000 0.345
810.000 0.346
811.000 0.347
812.000 0.348
813.000 0.349
814.000 0.350
815.000 0.351
816.000 0.352
817.000 0.353
818.000 0.354
819.000 0.354
820.000 0.356
821.000 0.357
822.000 0.357
823.000 0.358
824.000 0.359
825.000 0.360
826.000 0.360
827.000 0.361
828.000 0.362
829.000 0.363
830.000 0.364
831.000 0.365
832.000 0.365
833.000 0.366
834.000 0.367
835.000 0.368
836.000 0.368
837.000 0.369
838.000 0.369
839.000 0.370
840.000 0.371
841.000 0.372
842.000 0.372
843.000 0.373
844.000 0.373
845.000 0.374
846.000 0.375
847.000 0.376
848.000 0.376
849.000 0.377
850.000 0.378
851.000 0.379
852.000 0.379
853.000 0.380
854.000 0.380
855.000 0.381
856.000 0.382
857.000 0.383
858.000 0.383
859.000 0.384
860.000 0.384
861.000 0.385
862.000 0.386
863.000 0.386
864.000 0.387
865.000 0.388
866.000 0.388
867.000 0.388
868.000 0.389
869.000 0.390
870.000 0.391
871.000 0.392
872.000 0.392
873.000 0.393
874.000 0.393
875.000 0.394
876.000 0.395
877.000 0.396
878.000 0.396
879.000 0.397
880.000 0.398
881.000 0.399
882.000 0.400
883.000 0.400
884.000 0.401
885.000 0.401
886.000 0.402
887.000 0.403
888.000 0.404
889.000 0.405
890.000 0.406
891.000 0.407
892.000 0.407
893.000 0.408
894.000 0.410
895.000 0.411
896.000 0.412
897.000 0.413
898.000 0.413
899.000 0.414
900.000 0.415
901.000 0.416
902.000 0.417
903.000 0.418
904.000 0.420
905.000 0.420
906.000 0.420
907.000 0.420
908.000 0.421
909.000 0.422
910.000 0.423
911.000 0.423
912.000 0.425
913.000 0.425
914.000 0.426
915.000 0.427
916.000 0.428
917.000 0.428
918.000 0.429
919.000 0.430
920.000 0.431
921.000 0.431
922.000 0.431
923.000 0.432
924.000 0.432
925.000 0.433
926.000 0.434
927.000 0.435
928.000 0.435
929.000 0.437
930.000 0.438
931.000 0.438
932.000 0.437
933.000 0.437
934.000 0.437
935.000 0.439
936.000 0.442
937.000 0.443
938.000 0.444
939.000 0.446
940.000 0.444
941.000 0.447
942.000 0.448
943.000 0.444
944.000 0.445
945.000 0.448
946.000 0.452
947.000 0.453
948.000 0.452
949.000 0.451
950.000 0.452
951.000 0.454
952.000 0.455
953.000 0.458
954.000 0.460
955.000 0.458
956.000 0.455
957.000 0.456
958.000 0.458
959.000 0.458
960.000 0.460
961.000 0.459
962.000 0.459
963.000 0.459
964.000 0.461
965.000 0.461
966.000 0.462
967.000 0.463
968.000 0.462
969.000 0.463
970.000 0.464
971.000 0.463
972.000 0.465
973.000 0.465
974.000 0.465
975.000 0.466
976.000 0.464
977.000 0.466
978.000 0.468
979.000 0.468
980.000 0.467
981.000 0.467
982.000 0.469
983.000 0.471
984.000 0.469
985.000 0.467
986.000 0.467
987.000 0.469
988.000 0.474
989.000 0.472
990.000 0.471
991.000 0.473
992.000 0.472
993.000 0.471
994.000 0.471
995.000 0.473
996.000 0.475
997.000 0.476
998.000 0.475
999.000 0.475
1000.000 0.475
1001.000 0.475
1002.000 0.475
1003.000 0.476
1004.000 0.477
1005.000 0.478
1006.000 0.479
1007.000 0.479
1008.000 0.480
1009.000 0.480
1010.000 0.480
1011.000 0.480
1012.000 0.480
1013.000 0.481
1014.000 0.482
1015.000 0.482
1016.000 0.482
1017.000 0.482
1018.000 0.481
1019.000 0.481
1020.000 0.482
1021.000 0.483
1022.000 0.485
1023.000 0.487
1024.000 0.487
1025.000 0.486
1026.000 0.485
1027.000 0.486
1028.000 0.487
1029.000 0.488
1030.000 0.489
1031.000 0.490
1032.000 0.490
1033.000 0.490
1034.000 0.490
1035.000 0.490
1036.000 0.491
1037.000 0.490
1038.000 0.490
1039.000 0.490
1040.000 0.490
1041.000 0.491
1042.000 0.492
1043.000 0.493
1044.000 0.494
1045.000 0.495
1046.000 0.495
1047.000 0.495
1048.000 0.496
1049.000 0.496
1050.000 0.496
1051.000 0.496
1052.000 0.496
1053.000 0.497
1054.000 0.497
1055.000 0.497
1056.000 0.498
1057.000 0.499
1058.000 0.500
1059.000 0.501
1060.000 0.501
1061.000 0.500
1062.000 0.499
1063.000 0.498
1064.000 0.498
1065.000 0.499
1066.000 0.500
1067.000 0.501
1068.000 0.502
1069.000 0.503
1070.000 0.503
1071.000 0.503
1072.000 0.504
1073.000 0.504
1074.000 0.504
1075.000 0.505
1076.000 0.505
1077.000 0.505
1078.000 0.505
1079.000 0.505
1080.000 0.504
1081.000 0.505
1082.000 0.507
1083.000 0.507
1084.000 0.508
1085.000 0.509
1086.000 0.509
1087.000 0.509
1088.000 0.510
1089.000 0.510
1090.000 0.510
1091.000 0.511
1092.000 0.512
1093.000 0.513
1094.000 0.514
1095.000 0.516
1096.000 0.517
1097.000 0.518
1098.000 0.518
1099.000 0.518
1100.000 0.517
1101.000 0.516
1102.000 0.516
1103.000 0.517
1104.000 0.518
1105.000 0.519
1106.000 0.520
1107.000 0.522
1108.000 0.523
1109.000 0.524
1110.000 0.525
1111.000 0.526
1112.000 0.527
1113.000 0.527
1114.000 0.528
1115.000 0.529
1116.000 0.529
1117.000 0.530
1118.000 0.532
1119.000 0.533
1120.000 0.534
1121.000 0.536
1122.000 0.540
1123.000 0.541
1124.000 0.543
1125.000 0.544
1126.000 0.540
1127.000 0.539
1128.000 0.539
1129.000 0.539
1130.000 0.540
1131.000 0.543
1132.000 0.546
1133.000 0.548
1134.000 0.551
1135.000 0.554
1136.000 0.554
1137.000 0.555
1138.000 0.557
1139.000 0.557
1140.000 0.556
1141.000 0.555
1142.000 0.554
1143.000 0.552
1144.000 0.553
1145.000 0.556
1146.000 0.558
1147.000 0.560
1148.000 0.560
1149.000 0.560
1150.000 0.562
1151.000 0.565
1152.000 0.569
1153.000 0.571
1154.000 0.569
1155.000 0.568
1156.000 0.567
1157.000 0.567
1158.000 0.569
1159.000 0.569
1160.000 0.569
1161.000 0.569
1162.000 0.569
1163.000 0.568
1164.000 0.567
1165.000 0.567
1166.000 0.566
1167.000 0.565
1168.000 0.566
1169.000 0.567
1170.000 0.568
1171.000 0.569
1172.000 0.569
1173.000 0.570
1174.000 0.570
1175.000 0.571
1176.000 0.571
1177.000 0.571
1178.000 0.571
1179.000 0.570
1180.000 0.570
1181.000 0.570
1182.000 0.570
1183.000 0.571
1184.000 0.572
1185.000 0.573
1186.000 0.575
1187.000 0.575
1188.000 0.576
1189.000 0.576
1190.000 0.576
1191.000 0.577
1192.000 0.577
1193.000 0.578
1194.000 0.579
1195.000 0.580
1196.000 0.580
1197.000 0.581
1198.000 0.581
1199.000 0.581
1200.000 0.582
1201.000 0.582
1202.000 0.582
1203.000 0.583
1204.000 0.583
1205.000 0.583
1206.000 0.583
1207.000 0.584
1208.000 0.584
1209.000 0.584
1210.000 0.584
1211.000 0.584
1212.000 0.585
1213.000 0.586
1214.000 0.587
1215.000 0.588
1216.000 0.588
1217.000 0.588
1218.000 0.587
1219.000 0.587
1220.000 0.587
1221.000 0.587
1222.000 0.588
1223.000 0.588
1224.000 0.589
1225.000 0.589
1226.000 0.589
1227.000 0.590
1228.000 0.592
1229.000 0.592
1230.000 0.592
1231.000 0.592
1232.000 0.591
1233.000 0.591
1234.000 0.593
1235.000 0.593
1236.000 0.592
1237.000 0.592
1238.000 0.593
1239.000 0.593
1240.000 0.594
1241.000 0.594
1242.000 0.593
1243.000 0.594
1244.000 0.594
1245.000 0.594
1246.000 0.595
1247.000 0.595
1248.000 0.595
1249.000 0.595
1250.000 0.595
1251.000 0.595
1252.000 0.596
1253.000 0.596
1254.000 0.597
1255.000 0.597
1256.000 0.598
1257.000 0.598
1258.000 0.599
1259.000 0.600
1260.000 0.600
1261.000 0.601
1262.000 0.601
1263.000 0.602
1264.000 0.603
1265.000 0.605
1266.000 0.606
1267.000 0.607
1268.000 0.607
1269.000 0.606
1270.000 0.606
1271.000 0.605
1272.000 0.604
1273.000 0.604
1274.000 0.605
1275.000 0.605
1276.000 0.607
1277.000 0.608
1278.000 0.609
1279.000 0.609
1280.000 0.608
1281.000 0.608
1282.000 0.608
1283.000 0.608
1284.000 0.610
1285.000 0.611
1286.000 0.612
1287.000 0.613
1288.000 0.614
1289.000 0.614
1290.000 0.613
1291.000 0.613
1292.000 0.613
1293.000 0.612
1294.000 0.612
1295.000 0.612
1296.000 0.613
1297.000 0.614
1298.000 0.614
1299.000 0.615
1300.000 0.616
1301.000 0.617
1302.000 0.617
1303.000 0.618
1304.000 0.619
1305.000 0.618
1306.000 0.618
1307.000 0.619
1308.000 0.620
1309.000 0.622
1310.000 0.623
1311.000 0.623
1312.000 0.624
1313.000 0.625
1314.000 0.626
1315.000 0.627
1316.000 0.628
1317.000 0.629
1318.000 0.630
1319.000 0.630
1320.000 0.631
1321.000 0.633
1322.000 0.635
1323.000 0.636
1324.000 0.638
1325.000 0.638
1326.000 0.637
1327.000 0.638
1328.000 0.642
1329.000 0.644
1330.000 0.648
1331.000 0.649
1332.000 0.647
1333.000 0.647
1334.000 0.646
1335.000 0.646
1336.000 0.645
1337.000 0.645
1338.000 0.643
1339.000 0.644
1340.000 0.645
1341.000 0.647
1342.000 0.653
1343.000 0.655
1344.000 0.653
1345.000 0.652
1346.000 0.646
1347.000 0.641
1348.000 0.639
1349.000 0.644
1350.000 0.638
1351.000 0.625
1352.000 0.616
1353.000 0.590
1354.000 0.578
1355.000 0.641
1356.000 0.657
1357.000 0.628
1358.000 0.574
1359.000 0.421
1360.000 0.322
1361.000 0.374
1362.000 0.346
1363.000 0.538
1364.000 0.742
1365.000 0.363
1366.000 0.332
1367.000 0.339
1368.000 0.265
1369.000 0.174
1370.000 0.184
1371.000 0.101
1372.000 0.070
1373.000 0.059
1374.000 0.032
1375.000 0.093
1376.000 0.107
1377.000 0.063
1378.000 0.078
1379.000 0.048
1380.000 0.207
1381.000 0.338
1382.000 0.440
1383.000 0.541
1384.000 0.642
1385.000 0.269
1386.000 0.231
1387.000 0.222
1388.000 0.164
1389.000 0.132
1390.000 0.318
1391.000 0.299
1392.000 0.115
1393.000 0.133
1394.000 0.341
1395.000 0.414
1396.000 0.489
1397.000 0.576
1398.000 0.479
1399.000 0.283
1400.000 0.304
1401.000 0.272
1402.000 0.222
1403.000 0.136
1404.000 0.154
1405.000 0.116
1406.000 0.199
1407.000 0.253
1408.000 0.287
1409.000 0.269
1410.000 0.330
1411.000 0.328
1412.000 0.416
1413.000 0.575
1414.000 0.524
1415.000 0.482
1416.000 0.584
1417.000 0.591
1418.000 0.571
1419.000 0.531
1420.000 0.557
1421.000 0.601
1422.000 0.687
1423.000 0.593
1424.000 0.716
1425.000 0.706
1426.000 0.687
1427.000 0.545
1428.000 0.523
1429.000 0.775
1430.000 0.748
1431.000 0.497
1432.000 0.524
1433.000 0.506
1434.000 0.507
1435.000 0.691
1436.000 0.659
1437.000 0.772
1438.000 0.678
1439.000 0.487
1440.000 0.496
1441.000 0.733
1442.000 0.794
1443.000 0.825
1444.000 0.812
1445.000 0.828
1446.000 0.791
1447.000 0.679
1448.000 0.667
1449.000 0.653
1450.000 0.622
1451.000 0.724
1452.000 0.786
1453.000 0.810
1454.000 0.779
1455.000 0.775
1456.000 0.789
1457.000 0.788
1458.000 0.786
1459.000 0.788
1460.000 0.783
1461.000 0.787
1462.000 0.805
1463.000 0.805
1464.000 0.789
1465.000 0.793
1466.000 0.797
1467.000 0.803
1468.000 0.834
1469.000 0.836
1470.000 0.814
1471.000 0.809
1472.000 0.806
1473.000 0.795
1474.000 0.776
1475.000 0.779
1476.000 0.784
1477.000 0.795
1478.000 0.841
1479.000 0.810
1480.000 0.828
1481.000 0.824
1482.000 0.807
1483.000 0.809
1484.000 0.789
1485.000 0.799
1486.000 0.808
1487.000 0.814
1488.000 0.817
1489.000 0.815
1490.000 0.814
1491.000 0.845
1492.000 0.821
1493.000 0.816
1494.000 0.824
1495.000 0.823
1496.000 0.833
1497.000 0.829
1498.000 0.812
1499.000 0.790
1500.000 0.787
1501.000 0.784
1502.000 0.797
1503.000 0.810
1504.000 0.813
1505.000 0.811
1506.000 0.810
1507.000 0.802
1508.000 0.803
1509.000 0.807
1510.000 0.806
1511.000 0.806
1512.000 0.804
1513.000 0.799
1514.000 0.795
1515.000 0.791
1516.000 0.790
1517.000 0.789
1518.000 0.790
1519.000 0.796
1520.000 0.796
1521.000 0.792
1522.000 0.793
1523.000 0.795
1524.000 0.795
1525.000 0.799
1526.000 0.797
1527.000 0.789
1528.000 0.786
1529.000 0.784
1530.000 0.782
1531.000 0.783
1532.000 0.782
1533.000 0.780
1534.000 0.778
1535.000 0.778
1536.000 0.776
1537.000 0.770
1538.000 0.770
1539.000 0.778
1540.000 0.778
1541.000 0.782
1542.000 0.781
1543.000 0.771
1544.000 0.768
1545.000 0.767
1546.000 0.766
1547.000 0.768
1548.000 0.767
1549.000 0.764
1550.000 0.762
1551.000 0.760
1552.000 0.758
1553.000 0.757
1554.000 0.757
1555.000 0.760
1556.000 0.761
1557.000 0.765
1558.000 0.764
1559.000 0.759
1560.000 0.756
1561.000 0.754
1562.000 0.750
1563.000 0.746
1564.000 0.744
1565.000 0.741
1566.000 0.741
1567.000 0.747
1568.000 0.749
1569.000 0.750
1570.000 0.750
1571.000 0.747
1572.000 0.744
1573.000 0.740
1574.000 0.738
1575.000 0.739
1576.000 0.737
1577.000 0.736
1578.000 0.736
1579.000 0.734
1580.000 0.734
1581.000 0.735
1582.000 0.736
1583.000 0.737
1584.000 0.739
1585.000 0.744
1586.000 0.747
1587.000 0.750
1588.000 0.751
1589.000 0.748
1590.000 0.747
1591.000 0.745
1592.000 0.743
1593.000 0.742
1594.000 0.741
1595.000 0.738
1596.000 0.736
1597.000 0.735
1598.000 0.733
1599.000 0.730
1600.000 0.729
1601.000 0.731
1602.000 0.730
1603.000 0.732
1604.000 0.732
1605.000 0.729
1606.000 0.729
1607.000 0.733
1608.000 0.734
1609.000 0.738
1610.000 0.740
1611.000 0.739
1612.000 0.739
1613.000 0.740
1614.000 0.740
1615.000 0.741
1616.000 0.741
1617.000 0.742
1618.000 0.741
1619.000 0.740
1620.000 0.738
1621.000 0.738
1622.000 0.736
1623.000 0.731
1624.000 0.730
1625.000 0.731
1626.000 0.731
1627.000 0.737
1628.000 0.739
1629.000 0.737
1630.000 0.737
1631.000 0.733
1632.000 0.733
1633.000 0.737
1634.000 0.738
1635.000 0.740
1636.000 0.739
1637.000 0.732
1638.000 0.729
1639.000 0.724
1640.000 0.723
1641.000 0.729
1642.000 0.731
1643.000 0.733
1644.000 0.735
1645.000 0.732
1646.000 0.731
1647.000 0.734
1648.000 0.733
1649.000 0.730
1650.000 0.729
1651.000 0.727
1652.000 0.725
1653.000 0.724
1654.000 0.723
1655.000 0.721
1656.000 0.720
1657.000 0.720
1658.000 0.720
1659.000 0.718
1660.000 0.717
1661.000 0.718
1662.000 0.718
1663.000 0.715
1664.000 0.714
1665.000 0.713
1666.000 0.713
1667.000 0.719
1668.000 0.720
1669.000 0.716
1670.000 0.715
1671.000 0.712
1672.000 0.711
1673.000 0.717
1674.000 0.718
1675.000 0.717
1676.000 0.716
1677.000 0.712
1678.000 0.712
1679.000 0.713
1680.000 0.714
1681.000 0.713
1682.000 0.714
1683.000 0.716
1684.000 0.716
1685.000 0.717
1686.000 0.716
1687.000 0.711
1688.000 0.710
1689.000 0.710
1690.000 0.711
1691.000 0.713
1692.000 0.714
1693.000 0.715
1694.000 0.715
1695.000 0.715
1696.000 0.716
1697.000 0.720
1698.000 0.718
1699.000 0.714
1700.000 0.712
1701.000 0.704
1702.000 0.704
1703.000 0.710
1704.000 0.715
1705.000 0.724
1706.000 0.727
1707.000 0.727
1708.000 0.728
1709.000 0.721
1710.000 0.719
1711.000 0.720
1712.000 0.716
1713.000 0.714
1714.000 0.717
1715.000 0.715
1716.000 0.716
1717.000 0.723
1718.000 0.721
1719.000 0.719
1720.000 0.720
1721.000 0.715
1722.000 0.714
1723.000 0.720
1724.000 0.725
1725.000 0.725
1726.000 0.727
1727.000 0.728
1728.000 0.727
1729.000 0.731
1730.000 0.734
1731.000 0.737
1732.000 0.734
1733.000 0.729
1734.000 0.732
1735.000 0.730
1736.000 0.743
1737.000 0.748
1738.000 0.749
1739.000 0.747
1740.000 0.736
1741.000 0.735
1742.000 0.736
1743.000 0.736
1744.000 0.743
1745.000 0.746
1746.000 0.744
1747.000 0.745
1748.000 0.751
1749.000 0.749
1750.000 0.743
1751.000 0.743
1752.000 0.738
1753.000 0.745
1754.000 0.770
1755.000 0.774
1756.000 0.777
1757.000 0.776
1758.000 0.757
1759.000 0.756
1760.000 0.757
1761.000 0.761
1762.000 0.768
1763.000 0.763
1764.000 0.768
1765.000 0.775
1766.000 0.770
1767.000 0.765
1768.000 0.756
1769.000 0.736
1770.000 0.727
1771.000 0.738
1772.000 0.750
1773.000 0.760
1774.000 0.764
1775.000 0.750
1776.000 0.733
1777.000 0.724
1778.000 0.723
1779.000 0.738
1780.000 0.755
1781.000 0.768
1782.000 0.770
1783.000 0.750
1784.000 0.733
1785.000 0.717
1786.000 0.719
1787.000 0.741
1788.000 0.754
1789.000 0.777
1790.000 0.795
1791.000 0.816
1792.000 0.836
1793.000 0.815
1794.000 0.833
1795.000 0.787
1796.000 0.763
1797.000 0.737
1798.000 0.758
1799.000 0.810
1800.000 0.835
1801.000 0.820
1802.000 0.807
1803.000 0.849
1804.000 0.784
1805.000 0.793
1806.000 0.876
1807.000 0.902
1808.000 0.763
1809.000 0.870
1810.000 0.858
1811.000 0.808
1812.000 0.752
1813.000 0.769
1814.000 0.933
1815.000 0.885
1816.000 0.835
1817.000 0.785
1818.000 0.735
1819.000 0.685
1820.000 0.493
1821.000 0.448
1822.000 0.308
1823.000 0.258
1824.000 0.275
1825.000 0.257
1826.000 0.386
1827.000 0.457
1828.000 0.320
1829.000 0.425
1830.000 0.520
1831.000 0.528
1832.000 0.557
1833.000 0.586
1834.000 0.614
1835.000 0.643
1836.000 0.672
1837.000 0.701
1838.000 0.729
1839.000 0.758
1840.000 0.787
1841.000 0.816
1842.000 0.433
1843.000 0.543
1844.000 0.545
1845.000 0.472
1846.000 0.505
1847.000 0.537
1848.000 0.570
1849.000 0.543
1850.000 0.441
1851.000 0.490
1852.000 0.410
1853.000 0.429
1854.000 0.362
1855.000 0.454
1856.000 0.391
1857.000 0.365
1858.000 0.521
1859.000 0.582
1860.000 0.637
1861.000 0.644
1862.000 0.659
1863.000 0.577
1864.000 0.555
1865.000 0.367
1866.000 0.301
1867.000 0.239
1868.000 0.254
1869.000 0.268
1870.000 0.229
1871.000 0.264
1872.000 0.371
1873.000 0.420
1874.000 0.420
1875.000 0.490
1876.000 0.903
1877.000 0.862
1878.000 0.822
1879.000 0.781
1880.000 0.740
1881.000 0.699
1882.000 0.658
1883.000 0.554
1884.000 0.529
1885.000 0.860
1886.000 0.728
1887.000 0.596
1888.000 0.464
1889.000 0.332
1890.000 0.200
1891.000 0.068
1892.000 0.175
1893.000 0.397
1894.000 0.618
1895.000 0.402
1896.000 0.229
1897.000 0.240
1898.000 0.034
1899.000 0.583
1900.000 0.410
1901.000 0.366
1902.000 0.322
1903.000 0.279
1904.000 0.235
1905.000 0.191
1906.000 0.380
1907.000 0.569
1908.000 0.758
1909.000 0.300
1910.000 0.350
1911.000 0.255
1912.000 0.383
1913.000 0.397
1914.000 0.539
1915.000 0.524
1916.000 0.456
1917.000 0.861
1918.000 0.839
1919.000 0.817
1920.000 0.796
1921.000 0.774
1922.000 0.752
1923.000 0.730
1924.000 0.709
1925.000 0.957
1926.000 0.933
1927.000 0.909
1928.000 0.885
1929.000 0.861
1930.000 0.837
1931.000 0.814
1932.000 0.372
1933.000 0.456
1934.000 0.444
1935.000 0.578
1936.000 0.472
1937.000 0.645
1938.000 0.678
1939.000 0.691
1940.000 0.596
1941.000 0.615
1942.000 0.571
1943.000 0.465
1944.000 0.513
1945.000 0.560
1946.000 0.701
1947.000 0.842
1948.000 0.366
1949.000 0.333
1950.000 0.620
1951.000 0.708
1952.000 0.614
1953.000 0.734
1954.000 0.854
1955.000 0.827
1956.000 0.653
1957.000 0.549
1958.000 0.572
1959.000 0.619
1960.000 0.745
1961.000 0.705
1962.000 0.694
1963.000 0.644
1964.000 0.669
1965.000 0.709
1966.000 0.694
1967.000 0.693
1968.000 0.540
1969.000 0.643
1970.000 0.680
1971.000 0.660
1972.000 0.761
1973.000 0.859
1974.000 0.817
1975.000 0.762
1976.000 0.628
1977.000 0.803
1978.000 0.767
1979.000 0.738
1980.000 0.781
1981.000 0.766
1982.000 0.780
1983.000 0.762
1984.000 0.677
1985.000 0.781
1986.000 0.726
1987.000 0.684
1988.000 0.664
1989.000 0.652
1990.000 0.642
1991.000 0.662
1992.000 0.651
1993.000 0.605
1994.000 0.592
1995.000 0.584
1996.000 0.600
1997.000 0.765
1998.000 0.672
1999.000 0.709
2000.000 0.652
2001.000 0.636
2002.000 0.686
2003.000 0.742
2004.000 0.765
2005.000 0.677
2006.000 0.940
2007.000 0.910
2008.000 0.879
2009.000 0.849
2010.000 0.639
2011.000 0.452
2012.000 0.535
2013.000 0.727
2014.000 0.751
2015.000 0.832
2016.000 0.778
2017.000 0.736
2018.000 0.690
2019.000 0.674
2020.000 0.696
2021.000 0.437
2022.000 0.488
2023.000 0.491
2024.000 0.493
2025.000 0.541
2026.000 0.578
2027.000 0.642
2028.000 0.819
2029.000 0.841
2030.000 0.792
2031.000 0.762
2032.000 0.652
2033.000 0.620
2034.000 0.622
2035.000 0.615
2036.000 0.793
2037.000 0.780
2038.000 0.773
2039.000 0.751
2040.000 0.534
2041.000 0.540
2042.000 0.528
2043.000 0.727
2044.000 0.724
2045.000 0.726
2046.000 0.722
2047.000 0.745
2048.000 0.753
2049.000 0.770
2050.000 0.696
2051.000 0.671
2052.000 0.636
2053.000 0.761
2054.000 0.744
2055.000 0.690
2056.000 0.577
2057.000 0.613
2058.000 0.729
2059.000 0.744
2060.000 0.702
2061.000 0.688
2062.000 0.733
2063.000 0.724
2064.000 0.628
2065.000 0.639
2066.000 0.657
2067.000 0.684
2068.000 0.642
2069.000 0.796
2070.000 0.628
2071.000 0.798
2072.000 0.668
2073.000 0.650
2074.000 0.684
2075.000 0.699
2076.000 0.681
2077.000 0.775
2078.000 0.726
2079.000 0.691
2080.000 0.678
2081.000 0.785
2082.000 0.701
2083.000 0.745
2084.000 0.744
2085.000 0.727
2086.000 0.707
2087.000 0.688
2088.000 0.634
2089.000 0.631
2090.000 0.670
2091.000 0.677
2092.000 0.682
2093.000 0.685
2094.000 0.777
2095.000 0.763
2096.000 0.810
2097.000 0.649
2098.000 0.676
2099.000 0.714
2100.000 0.784
2101.000 0.783
2102.000 0.732
2103.000 0.707
2104.000 0.684
2105.000 0.662
2106.000 0.642
2107.000 0.737
2108.000 0.722
2109.000 0.769
2110.000 0.770
2111.000 0.789
2112.000 0.810
2113.000 0.685
2114.000 0.704
2115.000 0.726
2116.000 0.735
2117.000 0.715
2118.000 0.720
2119.000 0.843
2120.000 0.802
2121.000 0.781
2122.000 0.750
2123.000 0.759
2124.000 0.756
2125.000 0.657
2126.000 0.688
2127.000 0.676
2128.000 0.613
2129.000 0.793
2130.000 0.743
2131.000 0.732
2132.000 0.764
2133.000 0.770
2134.000 0.783
2135.000 0.794
2136.000 0.783
2137.000 0.806
2138.000 0.745
2139.000 0.802
2140.000 0.810
2141.000 0.812
2142.000 0.771
2143.000 0.724
2144.000 0.748
2145.000 0.758
2146.000 0.770
2147.000 0.771
2148.000 0.769
2149.000 0.770
2150.000 0.749
2151.000 0.708
2152.000 0.675
2153.000 0.627
2154.000 0.597
2155.000 0.780
2156.000 0.793
2157.000 0.793
2158.000 0.769
2159.000 0.761
2160.000 0.761
2161.000 0.781
2162.000 0.744
2163.000 0.801
2164.000 0.772
2165.000 0.757
2166.000 0.765
2167.000 0.757
2168.000 0.758
2169.000 0.774
2170.000 0.823
2171.000 0.802
2172.000 0.841
2173.000 0.789
2174.000 0.792
2175.000 0.777
2176.000 0.752
2177.000 0.767
2178.000 0.781
2179.000 0.808
2180.000 0.788
2181.000 0.779
2182.000 0.780
2183.000 0.769
2184.000 0.739
2185.000 0.747
2186.000 0.711
2187.000 0.718
2188.000 0.715
2189.000 0.744
2190.000 0.757
2191.000 0.749
2192.000 0.766
2193.000 0.794
2194.000 0.791
2195.000 0.784
2196.000 0.783
2197.000 0.776
2198.000 0.786
2199.000 0.809
2200.000 0.779
2201.000 0.817
2202.000 0.678
2203.000 0.751
2204.000 0.761
2205.000 0.666
2206.000 0.852
2207.000 0.787
2208.000 0.783
2209.000 0.777
2210.000 0.850
2211.000 0.824
2212.000 0.697
2213.000 0.708
2214.000 0.748
2215.000 0.752
2216.000 0.720
2217.000 0.705
2218.000 0.790
2219.000 0.825
2220.000 0.783
2221.000 0.817
2222.000 0.781
2223.000 0.787
2224.000 0.828
2225.000 0.832
2226.000 0.804
2227.000 0.795
2228.000 0.787
2229.000 0.811
2230.000 0.806
2231.000 0.774
2232.000 0.724
2233.000 0.716
2234.000 0.717
2235.000 0.735
2236.000 0.766
2237.000 0.748
2238.000 0.736
2239.000 0.692
2240.000 0.699
2241.000 0.724
2242.000 0.748
2243.000 0.774
2244.000 0.790
2245.000 0.755
2246.000 0.749
2247.000 0.717
2248.000 0.729
2249.000 0.751
2250.000 0.764
2251.000 0.818
2252.000 0.806
2253.000 0.779
2254.000 0.747
2255.000 0.737
2256.000 0.731
2257.000 0.733
2258.000 0.719
2259.000 0.730
2260.000 0.757
2261.000 0.765
2262.000 0.773
2263.000 0.780
2264.000 0.829
2265.000 0.794
2266.000 0.749
2267.000 0.720
2268.000 0.670
2269.000 0.670
2270.000 0.692
2271.000 0.728
2272.000 0.752
2273.000 0.759
2274.000 0.713
2275.000 0.733
2276.000 0.790
2277.000 0.708
2278.000 0.675
2279.000 0.706
2280.000 0.688
2281.000 0.776
2282.000 0.821
2283.000 0.761
2284.000 0.669
2285.000 0.653
2286.000 0.709
2287.000 0.711
2288.000 0.784
2289.000 0.751
2290.000 0.717
2291.000 0.693
2292.000 0.696
2293.000 0.687
2294.000 0.670
2295.000 0.677
2296.000 0.694
2297.000 0.735
2298.000 0.761
2299.000 0.800
2300.000 0.781
2301.000 0.726
2302.000 0.678
2303.000 0.635
2304.000 0.653
2305.000 0.673
2306.000 0.693
2307.000 0.723
2308.000 0.673
2309.000 0.728
2310.000 0.685
2311.000 0.621
2312.000 0.668
2313.000 0.571
2314.000 0.624
2315.000 0.705
2316.000 0.774
2317.000 0.778
2318.000 0.804
2319.000 0.806
2320.000 0.870
2321.000 0.931
2322.000 0.867
2323.000 0.769
2324.000 0.802
2325.000 0.745
2326.000 0.693
2327.000 0.659
2328.000 0.617
2329.000 0.590
2330.000 0.578
2331.000 0.546
2332.000 0.581
2333.000 0.695
2334.000 0.730
2335.000 0.731
2336.000 0.657
2337.000 0.638
2338.000 0.616
2339.000 0.529
2340.000 0.551
2341.000 0.550
2342.000 0.541
2343.000 0.605
2344.000 0.620
2345.000 0.503
2346.000 0.473
2347.000 0.548
2348.000 0.603
2349.000 0.607
2350.000 0.659
2351.000 0.694
2352.000 0.776
2353.000 0.780
2354.000 0.771
2355.000 0.708
2356.000 0.692
2357.000 0.646
2358.000 0.658
2359.000 0.668
2360.000 0.682
2361.000 0.678
2362.000 0.675
2363.000 0.734
2364.000 0.696
2365.000 0.544
2366.000 0.547
2367.000 0.513
2368.000 0.452
2369.000 0.455
2370.000 0.523
2371.000 0.497
2372.000 0.515
2373.000 0.443
2374.000 0.506
2375.000 0.660
2376.000 0.858
2377.000 0.933
2378.000 0.818
2379.000 0.776
2380.000 0.739
2381.000 0.755
2382.000 0.772
2383.000 0.788
2384.000 0.804
2385.000 0.821
2386.000 0.837
2387.000 0.853
2388.000 0.459
2389.000 0.064
2390.000 0.220
2391.000 0.376
2392.000 0.532
2393.000 0.688
2394.000 0.570
2395.000 0.527
2396.000 0.485
2397.000 0.498
2398.000 0.557
2399.000 0.941
2400.000 0.855
2401.000 0.769
2402.000 0.683
2403.000 0.597
2404.000 0.511
2405.000 0.341
2406.000 0.286
2407.000 0.483
2408.000 0.680
2409.000 0.463
2410.000 0.463
2411.000 0.463
2412.000 0.463
2413.000 0.462
2414.000 0.462
2415.000 0.462
2416.000 0.462
2417.000 0.462
2418.000 0.462
2419.000 0.470
2420.000 0.610
2421.000 0.252
2422.000 0.320
2423.000 0.374
2424.000 0.428
2425.000 0.482
2426.000 0.537
2427.000 0.591
2428.000 0.645
2429.000 0.716
2430.000 0.731
2431.000 0.418
2432.000 0.550
2433.000 0.557
2434.000 0.516
2435.000 0.602
2436.000 0.425
2437.000 0.105
2438.000 0.121
2439.000 0.334
2440.000 0.415
2441.000 0.496
2442.000 0.307
2443.000 0.269
2444.000 0.404
2445.000 0.547
2446.000 0.480
2447.000 0.546
2448.000 0.666
2449.000 0.786
2450.000 0.473
2451.000 0.515
2452.000 0.557
2453.000 0.051
2454.000 0.504
2455.000 0.738
2456.000 0.973
2457.000 0.374
2458.000 0.377
2459.000 0.381
2460.000 0.405
2461.000 0.178
2462.000 0.330
2463.000 0.229
2464.000 0.256
2465.000 0.223
2466.000 0.190
2467.000 0.157
2468.000 0.348
2469.000 0.536
2470.000 0.531
2471.000 0.662
2472.000 0.551
2473.000 0.685
2474.000 0.178
2475.000 0.220
2476.000 0.372
2477.000 0.576
2478.000 0.730
2479.000 0.480
2480.000 0.230
2481.000 0.253
2482.000 0.419
2483.000 0.313
2484.000 0.411
2485.000 0.508
2486.000 0.606
2487.000 0.404
2488.000 0.496
2489.000 0.550
2490.000 0.603
2491.000 0.136
2492.000 0.126
2493.000 0.128
2494.000 0.659
2495.000 0.576
2496.000 0.493
2497.000 0.410
2498.000 0.327
2499.000 0.244
2500.000 0.499
