391.000 0.084
392.000 0.079
393.000 0.083
394.000 0.106
395.000 0.092
396.000 0.087
397.000 0.098
398.000 0.087
399.000 0.093
400.000 0.095
401.000 0.083
402.000 0.081
403.000 0.078
404.000 0.075
405.000 0.075
406.000 0.084
407.000 0.088
408.000 0.084
409.000 0.088
410.000 0.080
411.000 0.072
412.000 0.071
413.000 0.079
414.000 0.083
415.000 0.081
416.000 0.075
417.000 0.067
418.000 0.071
419.000 0.082
420.000 0.083
421.000 0.078
422.000 0.078
423.000 0.086
424.000 0.080
425.000 0.081
426.000 0.085
427.000 0.082
428.000 0.074
429.000 0.074
430.000 0.080
431.000 0.083
432.000 0.082
433.000 0.080
434.000 0.079
435.000 0.083
436.000 0.082
437.000 0.077
438.000 0.075
439.000 0.074
440.000 0.076
441.000 0.078
442.000 0.076
443.000 0.077
444.000 0.075
445.000 0.070
446.000 0.075
447.000 0.075
448.000 0.074
449.000 0.077
450.000 0.079
451.000 0.078
452.000 0.075
453.000 0.074
454.000 0.076
455.000 0.079
456.000 0.079
457.000 0.078
458.000 0.077
459.000 0.077
460.000 0.077
461.000 0.078
462.000 0.080
463.000 0.080
464.000 0.078
465.000 0.079
466.000 0.078
467.000 0.077
468.000 0.077
469.000 0.077
470.000 0.078
471.000 0.080
472.000 0.076
473.000 0.075
474.000 0.076
475.000 0.076
476.000 0.077
477.000 0.077
478.000 0.078
479.000 0.074
480.000 0.073
481.000 0.075
482.000 0.076
483.000 0.078
484.000 0.079
485.000 0.080
486.000 0.079
487.000 0.073
488.000 0.069
489.000 0.072
490.000 0.075
491.000 0.077
492.000 0.078
493.000 0.079
494.000 0.078
495.000 0.079
496.000 0.080
497.000 0.077
498.000 0.073
499.000 0.073
500.000 0.077
501.000 0.075
502.000 0.074
503.000 0.076
504.000 0.080
505.000 0.078
506.000 0.076
507.000 0.078
508.000 0.078
509.000 0.079
510.000 0.080
511.000 0.076
512.000 0.080
513.000 0.083
514.000 0.085
515.000 0.089
516.000 0.089
517.000 0.089
518.000 0.092
519.000 0.092
520.000 0.094
521.000 0.099
522.000 0.104
523.000 0.105
524.000 0.107
525.000 0.107
526.000 0.111
527.000 0.114
528.000 0.117
529.000 0.120
530.000 0.123
531.000 0.124
532.000 0.126
533.000 0.128
534.000 0.130
535.000 0.132
536.000 0.132
537.000 0.133
538.000 0.133
539.000 0.134
540.000 0.136
541.000 0.137
542.000 0.137
543.000 0.136
544.000 0.137
545.000 0.137
546.000 0.137
547.000 0.138
548.000 0.137
549.000 0.137
550.000 0.138
551.000 0.138
552.000 0.138
553.000 0.138
554.000 0.138
555.000 0.138
556.000 0.137
557.000 0.135
558.000 0.134
559.000 0.133
560.000 0.131
561.000 0.129
562.000 0.129
563.000 0.128
564.000 0.126
565.000 0.126
566.000 0.123
567.000 0.120
568.000 0.119
569.000 0.116
570.000 0.115
571.000 0.113
572.000 0.109
573.000 0.108
574.000 0.106
575.000 0.105
576.000 0.104
577.000 0.104
578.000 0.103
579.000 0.102
580.000 0.101
581.000 0.098
582.000 0.095
583.000 0.093
584.000 0.093
585.000 0.093
586.000 0.094
587.000 0.094
588.000 0.094
589.000 0.092
590.000 0.090
591.000 0.091
592.000 0.092
593.000 0.091
594.000 0.091
595.000 0.091
596.000 0.089
597.000 0.088
598.000 0.087
599.000 0.086
600.000 0.086
601.000 0.087
602.000 0.086
603.000 0.085
604.000 0.085
605.000 0.086
606.000 0.087
607.000 0.085
608.000 0.082
609.000 0.083
610.000 0.084
611.000 0.085
612.000 0.083
613.000 0.084
614.000 0.081
615.000 0.077
616.000 0.080
617.000 0.082
618.000 0.081
619.000 0.078
620.000 0.077
621.000 0.078
622.000 0.079
623.000 0.078
624.000 0.080
625.000 0.080
626.000 0.077
627.000 0.081
628.000 0.082
629.000 0.081
630.000 0.080
631.000 0.079
632.000 0.078
633.000 0.079
634.000 0.078
635.000 0.078
636.000 0.079
637.000 0.080
638.000 0.082
639.000 0.081
640.000 0.078
641.000 0.077
642.000 0.076
643.000 0.076
644.000 0.076
645.000 0.073
646.000 0.072
647.000 0.073
648.000 0.075
649.000 0.076
650.000 0.076
651.000 0.075
652.000 0.077
653.000 0.075
654.000 0.074
655.000 0.076
656.000 0.076
657.000 0.075
658.000 0.075
659.000 0.078
660.000 0.081
661.000 0.080
662.000 0.078
663.000 0.080
664.000 0.085
665.000 0.085
666.000 0.081
667.000 0.083
668.000 0.081
669.000 0.080
670.000 0.087
671.000 0.085
672.000 0.084
673.000 0.086
674.000 0.089
675.000 0.090
676.000 0.090
677.000 0.093
678.000 0.094
679.000 0.093
680.000 0.091
681.000 0.092
682.000 0.096
683.000 0.099
684.000 0.098
685.000 0.100
686.000 0.102
687.000 0.104
688.000 0.107
689.000 0.104
690.000 0.104
691.000 0.105
692.000 0.106
693.000 0.110
694.000 0.116
695.000 0.122
696.000 0.125
697.000 0.130
698.000 0.137
699.000 0.144
700.000 0.153
701.000 0.164
702.000 0.176
703.000 0.184
704.000 0.195
705.000 0.206
706.000 0.216
707.000 0.228
708.000 0.240
709.000 0.251
710.000 0.263
711.000 0.274
712.000 0.285
713.000 0.296
714.000 0.308
715.000 0.321
716.000 0.333
717.000 0.344
718.000 0.357
719.000 0.371
720.000 0.385
721.000 0.396
722.000 0.406
723.000 0.416
724.000 0.428
725.000 0.439
726.000 0.450
727.000 0.460
728.000 0.469
729.000 0.479
730.000 0.488
731.000 0.497
732.000 0.504
733.000 0.511
734.000 0.518
735.000 0.524
736.000 0.531
737.000 0.536
738.000 0.541
739.000 0.546
740.000 0.551
741.000 0.555
742.000 0.559
743.000 0.562
744.000 0.565
745.000 0.569
746.000 0.572
747.000 0.574
748.000 0.576
749.000 0.579
750.000 0.581
751.000 0.583
752.000 0.584
753.000 0.586
754.000 0.587
755.000 0.589
756.000 0.589
757.000 0.591
758.000 0.591
759.000 0.592
760.000 0.594
761.000 0.596
762.000 0.596
763.000 0.597
764.000 0.597
765.000 0.598
766.000 0.598
767.000 0.599
768.000 0.599
769.000 0.599
770.000 0.600
771.000 0.601
772.000 0.601
773.000 0.602
774.000 0.602
775.000 0.602
776.000 0.602
777.000 0.603
778.000 0.603
779.000 0.604
780.000 0.604
781.000 0.605
782.000 0.605
783.000 0.605
784.000 0.605
785.000 0.606
786.000 0.606
787.000 0.607
788.000 0.607
789.000 0.607
790.000 0.608
791.000 0.608
792.000 0.609
793.000 0.609
794.000 0.609
795.000 0.609
796.000 0.610
797.000 0.610
798.000 0.610
799.000 0.611
800.000 0.611
801.000 0.612
802.000 0.612
803.000 0.612
804.000 0.612
805.000 0.612
806.000 0.613
807.000 0.613
808.000 0.614
809.000 0.614
810.000 0.614
811.000 0.614
812.000 0.615
813.000 0.616
814.000 0.616
815.000 0.616
816.000 0.617
817.000 0.617
818.000 0.617
819.000 0.617
820.000 0.618
821.000 0.618
822.000 0.618
823.000 0.619
824.000 0.620
825.000 0.620
826.000 0.620
827.000 0.620
828.000 0.620
829.000 0.621
830.000 0.621
831.000 0.621
832.000 0.622
833.000 0.622
834.000 0.623
835.000 0.622
836.000 0.623
837.000 0.624
838.000 0.624
839.000 0.624
840.000 0.624
841.000 0.625
842.000 0.625
843.000 0.625
844.000 0.625
845.000 0.625
846.000 0.626
847.000 0.626
848.000 0.627
849.000 0.627
850.000 0.627
851.000 0.627
852.000 0.628
853.000 0.628
854.000 0.628
855.000 0.629
856.000 0.629
857.000 0.629
858.000 0.629
859.000 0.630
860.000 0.630
861.000 0.630
862.000 0.630
863.000 0.630
864.000 0.631
865.000 0.631
866.000 0.631
867.000 0.631
868.000 0.632
869.000 0.632
870.000 0.632
871.000 0.633
872.000 0.633
873.000 0.633
874.000 0.633
875.000 0.634
876.000 0.634
877.000 0.634
878.000 0.635
879.000 0.635
880.000 0.635
881.000 0.635
882.000 0.636
883.000 0.637
884.000 0.637
885.000 0.637
886.000 0.637
887.000 0.637
888.000 0.638
889.000 0.638
890.000 0.638
891.000 0.638
892.000 0.639
893.000 0.639
894.000 0.639
895.000 0.640
896.000 0.640
897.000 0.640
898.000 0.640
899.000 0.641
900.000 0.641
901.000 0.641
902.000 0.642
903.000 0.642
904.000 0.641
905.000 0.642
906.000 0.643
907.000 0.643
908.000 0.643
909.000 0.643
910.000 0.643
911.000 0.643
912.000 0.644
913.000 0.645
914.000 0.645
915.000 0.646
916.000 0.645
917.000 0.644
918.000 0.644
919.000 0.645
920.000 0.645
921.000 0.646
922.000 0.647
923.000 0.648
924.000 0.647
925.000 0.647
926.000 0.647
927.000 0.647
928.000 0.646
929.000 0.646
930.000 0.646
931.000 0.647
932.000 0.647
933.000 0.646
934.000 0.645
935.000 0.644
936.000 0.644
937.000 0.645
938.000 0.645
939.000 0.643
940.000 0.644
941.000 0.644
942.000 0.643
943.000 0.643
944.000 0.648
945.000 0.647
946.000 0.644
947.000 0.644
948.000 0.647
949.000 0.646
950.000 0.647
951.000 0.650
952.000 0.645
953.000 0.643
954.000 0.646
955.000 0.649
956.000 0.646
957.000 0.645
958.000 0.646
959.000 0.646
960.000 0.645
961.000 0.647
962.000 0.648
963.000 0.648
964.000 0.648
965.000 0.649
966.000 0.649
967.000 0.649
968.000 0.648
969.000 0.648
970.000 0.648
971.000 0.649
972.000 0.649
973.000 0.650
974.000 0.651
975.000 0.651
976.000 0.650
977.000 0.650
978.000 0.651
979.000 0.651
980.000 0.650
981.000 0.651
982.000 0.652
983.000 0.652
984.000 0.652
985.000 0.652
986.000 0.652
987.000 0.652
988.000 0.654
989.000 0.653
990.000 0.653
991.000 0.654
992.000 0.655
993.000 0.655
994.000 0.656
995.000 0.657
996.000 0.656
997.000 0.655
998.000 0.655
999.000 0.656
1000.000 0.658
1001.000 0.657
1002.000 0.657
1003.000 0.656
1004.000 0.657
1005.000 0.658
1006.000 0.660
1007.000 0.661
1008.000 0.661
1009.000 0.661
1010.000 0.661
1011.000 0.661
1012.000 0.662
1013.000 0.662
1014.000 0.661
1015.000 0.661
1016.000 0.664
1017.000 0.664
1018.000 0.664
1019.000 0.664
1020.000 0.664
1021.000 0.663
1022.000 0.663
1023.000 0.662
1024.000 0.662
1025.000 0.664
1026.000 0.666
1027.000 0.667
1028.000 0.668
1029.000 0.668
1030.000 0.668
1031.000 0.668
1032.000 0.668
1033.000 0.668
1034.000 0.669
1035.000 0.669
1036.000 0.669
1037.000 0.669
1038.000 0.669
1039.000 0.669
1040.000 0.670
1041.000 0.671
1042.000 0.672
1043.000 0.672
1044.000 0.671
1045.000 0.670
1046.000 0.671
1047.000 0.670
1048.000 0.670
1049.000 0.670
1050.000 0.669
1051.000 0.670
1052.000 0.671
1053.000 0.672
1054.000 0.672
1055.000 0.673
1056.000 0.673
1057.000 0.674
1058.000 0.674
1059.000 0.674
1060.000 0.674
1061.000 0.674
1062.000 0.674
1063.000 0.674
1064.000 0.675
1065.000 0.675
1066.000 0.675
1067.000 0.676
1068.000 0.676
1069.000 0.676
1070.000 0.677
1071.000 0.677
1072.000 0.677
1073.000 0.677
1074.000 0.678
1075.000 0.678
1076.000 0.678
1077.000 0.678
1078.000 0.679
1079.000 0.679
1080.000 0.680
1081.000 0.681
1082.000 0.681
1083.000 0.681
1084.000 0.681
1085.000 0.680
1086.000 0.680
1087.000 0.680
1088.000 0.680
1089.000 0.681
1090.000 0.682
1091.000 0.682
1092.000 0.682
1093.000 0.683
1094.000 0.683
1095.000 0.683
1096.000 0.683
1097.000 0.684
1098.000 0.684
1099.000 0.684
1100.000 0.684
1101.000 0.684
1102.000 0.683
1103.000 0.684
1104.000 0.685
1105.000 0.685
1106.000 0.685
1107.000 0.685
1108.000 0.685
1109.000 0.685
1110.000 0.685
1111.000 0.685
1112.000 0.685
1113.000 0.684
1114.000 0.683
1115.000 0.685
1116.000 0.688
1117.000 0.691
1118.000 0.692
1119.000 0.687
1120.000 0.680
1121.000 0.677
1122.000 0.673
1123.000 0.671
1124.000 0.676
1125.000 0.675
1126.000 0.672
1127.000 0.673
1128.000 0.675
1129.000 0.674
1130.000 0.680
1131.000 0.686
1132.000 0.685
1133.000 0.685
1134.000 0.683
1135.000 0.680
1136.000 0.677
1137.000 0.672
1138.000 0.673
1139.000 0.673
1140.000 0.673
1141.000 0.677
1142.000 0.678
1143.000 0.675
1144.000 0.674
1145.000 0.673
1146.000 0.673
1147.000 0.673
1148.000 0.674
1149.000 0.670
1150.000 0.668
1151.000 0.668
1152.000 0.664
1153.000 0.664
1154.000 0.665
1155.000 0.665
1156.000 0.665
1157.000 0.666
1158.000 0.665
1159.000 0.666
1160.000 0.666
1161.000 0.667
1162.000 0.667
1163.000 0.667
1164.000 0.668
1165.000 0.668
1166.000 0.667
1167.000 0.666
1168.000 0.665
1169.000 0.664
1170.000 0.664
1171.000 0.664
1172.000 0.665
1173.000 0.666
1174.000 0.667
1175.000 0.667
1176.000 0.667
1177.000 0.667
1178.000 0.667
1179.000 0.667
1180.000 0.666
1181.000 0.667
1182.000 0.666
1183.000 0.666
1184.000 0.666
1185.000 0.666
1186.000 0.667
1187.000 0.667
1188.000 0.667
1189.000 0.667
1190.000 0.668
1191.000 0.668
1192.000 0.668
1193.000 0.668
1194.000 0.667
1195.000 0.667
1196.000 0.666
1197.000 0.667
1198.000 0.667
1199.000 0.667
1200.000 0.668
1201.000 0.668
1202.000 0.668
1203.000 0.669
1204.000 0.669
1205.000 0.670
1206.000 0.669
1207.000 0.670
1208.000 0.671
1209.000 0.670
1210.000 0.671
1211.000 0.670
1212.000 0.671
1213.000 0.671
1214.000 0.672
1215.000 0.673
1216.000 0.673
1217.000 0.673
1218.000 0.673
1219.000 0.673
1220.000 0.673
1221.000 0.674
1222.000 0.675
1223.000 0.675
1224.000 0.675
1225.000 0.675
1226.000 0.676
1227.000 0.676
1228.000 0.677
1229.000 0.677
1230.000 0.676
1231.000 0.676
1232.000 0.676
1233.000 0.676
1234.000 0.677
1235.000 0.677
1236.000 0.679
1237.000 0.680
1238.000 0.680
1239.000 0.681
1240.000 0.681
1241.000 0.682
1242.000 0.682
1243.000 0.682
1244.000 0.681
1245.000 0.681
1246.000 0.682
1247.000 0.682
1248.000 0.684
1249.000 0.685
1250.000 0.686
1251.000 0.687
1252.000 0.687
1253.000 0.687
1254.000 0.687
1255.000 0.686
1256.000 0.687
1257.000 0.687
1258.000 0.687
1259.000 0.687
1260.000 0.688
1261.000 0.688
1262.000 0.688
1263.000 0.689
1264.000 0.689
1265.000 0.688
1266.000 0.689
1267.000 0.690
1268.000 0.691
1269.000 0.692
1270.000 0.692
1271.000 0.692
1272.000 0.692
1273.000 0.692
1274.000 0.693
1275.000 0.693
1276.000 0.693
1277.000 0.692
1278.000 0.692
1279.000 0.692
1280.000 0.691
1281.000 0.691
1282.000 0.691
1283.000 0.692
1284.000 0.692
1285.000 0.692
1286.000 0.692
1287.000 0.692
1288.000 0.691
1289.000 0.691
1290.000 0.691
1291.000 0.691
1292.000 0.691
1293.000 0.692
1294.000 0.690
1295.000 0.689
1296.000 0.689
1297.000 0.689
1298.000 0.688
1299.000 0.689
1300.000 0.689
1301.000 0.689
1302.000 0.688
1303.000 0.688
1304.000 0.687
1305.000 0.685
1306.000 0.684
1307.000 0.684
1308.000 0.683
1309.000 0.683
1310.000 0.682
1311.000 0.682
1312.000 0.682
1313.000 0.681
1314.000 0.681
1315.000 0.681
1316.000 0.681
1317.000 0.681
1318.000 0.680
1319.000 0.679
1320.000 0.676
1321.000 0.674
1322.000 0.672
1323.000 0.671
1324.000 0.669
1325.000 0.667
1326.000 0.666
1327.000 0.665
1328.000 0.662
1329.000 0.661
1330.000 0.661
1331.000 0.659
1332.000 0.656
1333.000 0.653
1334.000 0.647
1335.000 0.645
1336.000 0.644
1337.000 0.643
1338.000 0.644
1339.000 0.644
1340.000 0.645
1341.000 0.647
1342.000 0.650
1343.000 0.650
1344.000 0.648
1345.000 0.645
1346.000 0.639
1347.000 0.632
1348.000 0.625
1349.000 0.619
1350.000 0.610
1351.000 0.599
1352.000 0.587
1353.000 0.581
1354.000 0.570
1355.000 0.559
1356.000 0.555
1357.000 0.491
1358.000 0.504
1359.000 0.506
1360.000 0.364
1361.000 0.383
1362.000 0.352
1363.000 0.281
1364.000 0.225
1365.000 0.293
1366.000 0.345
1367.000 0.317
1368.000 0.290
1369.000 0.303
1370.000 0.513
1371.000 0.349
1372.000 0.326
1373.000 0.342
1374.000 0.416
1375.000 0.310
1376.000 0.327
1377.000 0.447
1378.000 0.229
1379.000 0.270
1380.000 0.415
1381.000 0.347
1382.000 0.309
1383.000 0.296
1384.000 0.607
1385.000 0.697
1386.000 0.652
1387.000 0.608
1388.000 0.551
1389.000 0.537
1390.000 0.538
1391.000 0.619
1392.000 0.388
1393.000 0.675
1394.000 0.571
1395.000 0.551
1396.000 0.573
1397.000 0.452
1398.000 0.499
1399.000 0.507
1400.000 0.659
1401.000 0.673
1402.000 0.597
1403.000 0.648
1404.000 0.699
1405.000 0.819
1406.000 0.362
1407.000 0.392
1408.000 0.430
1409.000 0.486
1410.000 0.615
1411.000 0.497
1412.000 0.375
1413.000 0.480
1414.000 0.518
1415.000 0.559
1416.000 0.611
1417.000 0.406
1418.000 0.410
1419.000 0.357
1420.000 0.365
1421.000 0.377
1422.000 0.377
1423.000 0.342
1424.000 0.366
1425.000 0.422
1426.000 0.419
1427.000 0.368
1428.000 0.359
1429.000 0.476
1430.000 0.480
1431.000 0.476
1432.000 0.382
1433.000 0.359
1434.000 0.353
1435.000 0.417
1436.000 0.453
1437.000 0.374
1438.000 0.314
1439.000 0.288
1440.000 0.276
1441.000 0.314
1442.000 0.307
1443.000 0.237
1444.000 0.238
1445.000 0.254
1446.000 0.258
1447.000 0.298
1448.000 0.306
1449.000 0.284
1450.000 0.257
1451.000 0.243
1452.000 0.224
1453.000 0.218
1454.000 0.217
1455.000 0.221
1456.000 0.229
1457.000 0.236
1458.000 0.253
1459.000 0.252
1460.000 0.242
1461.000 0.237
1462.000 0.221
1463.000 0.219
1464.000 0.224
1465.000 0.224
1466.000 0.232
1467.000 0.229
1468.000 0.217
1469.000 0.218
1470.000 0.221
1471.000 0.226
1472.000 0.243
1473.000 0.246
1474.000 0.242
1475.000 0.241
1476.000 0.234
1477.000 0.236
1478.000 0.241
1479.000 0.249
1480.000 0.267
1481.000 0.277
1482.000 0.288
1483.000 0.290
1484.000 0.280
1485.000 0.280
1486.000 0.277
1487.000 0.280
1488.000 0.290
1489.000 0.294
1490.000 0.296
1491.000 0.296
1492.000 0.289
1493.000 0.288
1494.000 0.289
1495.000 0.293
1496.000 0.302
1497.000 0.307
1498.000 0.312
1499.000 0.314
1500.000 0.318
1501.000 0.320
1502.000 0.324
1503.000 0.328
1504.000 0.330
1505.000 0.328
1506.000 0.330
1507.000 0.330
1508.000 0.331
1509.000 0.334
1510.000 0.336
1511.000 0.338
1512.000 0.340
1513.000 0.343
1514.000 0.346
1515.000 0.351
1516.000 0.353
1517.000 0.354
1518.000 0.355
1519.000 0.354
1520.000 0.358
1521.000 0.366
1522.000 0.370
1523.000 0.375
1524.000 0.376
1525.000 0.372
1526.000 0.372
1527.000 0.370
1528.000 0.372
1529.000 0.376
1530.000 0.378
1531.000 0.382
1532.000 0.384
1533.000 0.385
1534.000 0.386
1535.000 0.388
1536.000 0.388
1537.000 0.387
1538.000 0.387
1539.000 0.388
1540.000 0.390
1541.000 0.395
1542.000 0.397
1543.000 0.400
1544.000 0.401
1545.000 0.401
1546.000 0.403
1547.000 0.405
1548.000 0.406
1549.000 0.408
1550.000 0.411
1551.000 0.413
1552.000 0.416
1553.000 0.419
1554.000 0.422
1555.000 0.424
1556.000 0.427
1557.000 0.430
1558.000 0.433
1559.000 0.435
1560.000 0.437
1561.000 0.439
1562.000 0.440
1563.000 0.438
1564.000 0.438
1565.000 0.439
1566.000 0.440
1567.000 0.443
1568.000 0.446
1569.000 0.449
1570.000 0.451
1571.000 0.451
1572.000 0.453
1573.000 0.456
1574.000 0.457
1575.000 0.460
1576.000 0.461
1577.000 0.460
1578.000 0.460
1579.000 0.460
1580.000 0.461
1581.000 0.463
1582.000 0.465
1583.000 0.467
1584.000 0.469
1585.000 0.472
1586.000 0.475
1587.000 0.477
1588.000 0.478
1589.000 0.476
1590.000 0.476
1591.000 0.476
1592.000 0.476
1593.000 0.477
1594.000 0.477
1595.000 0.476
1596.000 0.476
1597.000 0.480
1598.000 0.482
1599.000 0.486
1600.000 0.488
1601.000 0.488
1602.000 0.489
1603.000 0.489
1604.000 0.490
1605.000 0.494
1606.000 0.496
1607.000 0.496
1608.000 0.497
1609.000 0.498
1610.000 0.498
1611.000 0.501
1612.000 0.502
1613.000 0.500
1614.000 0.501
1615.000 0.501
1616.000 0.502
1617.000 0.503
1618.000 0.503
1619.000 0.504
1620.000 0.505
1621.000 0.505
1622.000 0.506
1623.000 0.507
1624.000 0.508
1625.000 0.512
1626.000 0.514
1627.000 0.516
1628.000 0.517
1629.000 0.517
1630.000 0.518
1631.000 0.517
1632.000 0.517
1633.000 0.520
1634.000 0.520
1635.000 0.519
1636.000 0.519
1637.000 0.518
1638.000 0.519
1639.000 0.524
1640.000 0.525
1641.000 0.526
1642.000 0.526
1643.000 0.522
1644.000 0.521
1645.000 0.520
1646.000 0.519
1647.000 0.523
1648.000 0.524
1649.000 0.523
1650.000 0.523
1651.000 0.522
1652.000 0.520
1653.000 0.520
1654.000 0.520
1655.000 0.518
1656.000 0.518
1657.000 0.520
1658.000 0.521
1659.000 0.525
1660.000 0.528
1661.000 0.530
1662.000 0.531
1663.000 0.530
1664.000 0.529
1665.000 0.525
1666.000 0.525
1667.000 0.526
1668.000 0.526
1669.000 0.528
1670.000 0.529
1671.000 0.529
1672.000 0.529
1673.000 0.530
1674.000 0.530
1675.000 0.529
1676.000 0.528
1677.000 0.527
1678.000 0.527
1679.000 0.526
1680.000 0.525
1681.000 0.526
1682.000 0.526
1683.000 0.527
1684.000 0.527
1685.000 0.525
1686.000 0.526
1687.000 0.531
1688.000 0.532
1689.000 0.533
1690.000 0.533
1691.000 0.529
1692.000 0.526
1693.000 0.522
1694.000 0.521
1695.000 0.521
1696.000 0.522
1697.000 0.528
1698.000 0.529
1699.000 0.527
1700.000 0.525
1701.000 0.520
1702.000 0.519
1703.000 0.519
1704.000 0.520
1705.000 0.522
1706.000 0.522
1707.000 0.521
1708.000 0.520
1709.000 0.518
1710.000 0.517
1711.000 0.516
1712.000 0.517
1713.000 0.517
1714.000 0.517
1715.000 0.517
1716.000 0.517
1717.000 0.519
1718.000 0.522
1719.000 0.521
1720.000 0.519
1721.000 0.515
1722.000 0.509
1723.000 0.507
1724.000 0.508
1725.000 0.508
1726.000 0.508
1727.000 0.506
1728.000 0.505
1729.000 0.505
1730.000 0.503
1731.000 0.503
1732.000 0.503
1733.000 0.500
1734.000 0.501
1735.000 0.503
1736.000 0.503
1737.000 0.504
1738.000 0.505
1739.000 0.505
1740.000 0.506
1741.000 0.506
1742.000 0.506
1743.000 0.506
1744.000 0.506
1745.000 0.506
1746.000 0.507
1747.000 0.506
1748.000 0.505
1749.000 0.504
1750.000 0.503
1751.000 0.500
1752.000 0.493
1753.000 0.491
1754.000 0.490
1755.000 0.489
1756.000 0.490
1757.000 0.488
1758.000 0.481
1759.000 0.479
1760.000 0.486
1761.000 0.488
1762.000 0.488
1763.000 0.490
1764.000 0.487
1765.000 0.490
1766.000 0.495
1767.000 0.496
1768.000 0.498
1769.000 0.498
1770.000 0.495
1771.000 0.489
1772.000 0.481
1773.000 0.477
1774.000 0.471
1775.000 0.470
1776.000 0.478
1777.000 0.479
1778.000 0.478
1779.000 0.479
1780.000 0.472
1781.000 0.473
1782.000 0.480
1783.000 0.496
1784.000 0.522
1785.000 0.522
1786.000 0.520
1787.000 0.485
1788.000 0.473
1789.000 0.478
1790.000 0.482
1791.000 0.494
1792.000 0.498
1793.000 0.492
1794.000 0.466
1795.000 0.486
1796.000 0.489
1797.000 0.492
1798.000 0.529
1799.000 0.508
1800.000 0.506
1801.000 0.536
1802.000 0.551
1803.000 0.592
1804.000 0.558
1805.000 0.538
1806.000 0.519
1807.000 0.530
1808.000 0.468
1809.000 0.493
1810.000 0.511
1811.000 0.543
1812.000 0.553
1813.000 0.522
1814.000 0.647
1815.000 0.683
1816.000 0.737
1817.000 0.349
1818.000 0.331
1819.000 0.400
1820.000 0.350
1821.000 0.510
1822.000 0.638
1823.000 0.468
1824.000 0.563
1825.000 0.552
1826.000 0.536
1827.000 0.518
1828.000 0.550
1829.000 0.548
1830.000 0.519
1831.000 0.527
1832.000 0.540
1833.000 0.569
1834.000 0.579
1835.000 0.462
1836.000 0.550
1837.000 0.441
1838.000 0.398
1839.000 0.424
1840.000 0.444
1841.000 0.495
1842.000 0.486
1843.000 0.382
1844.000 0.359
1845.000 0.403
1846.000 0.513
1847.000 0.433
1848.000 0.458
1849.000 0.524
1850.000 0.673
1851.000 0.629
1852.000 0.617
1853.000 0.612
1854.000 0.510
1855.000 0.495
1856.000 0.481
1857.000 0.453
1858.000 0.480
1859.000 0.535
1860.000 0.525
1861.000 0.360
1862.000 0.490
1863.000 0.492
1864.000 0.664
1865.000 0.515
1866.000 0.417
1867.000 0.454
1868.000 0.631
1869.000 0.756
1870.000 0.673
1871.000 0.601
1872.000 0.588
1873.000 0.588
1874.000 0.588
1875.000 0.495
1876.000 0.505
1877.000 0.444
1878.000 0.387
1879.000 0.423
1880.000 0.490
1881.000 0.478
1882.000 0.455
1883.000 0.569
1884.000 0.505
1885.000 0.533
1886.000 0.412
1887.000 0.440
1888.000 0.476
1889.000 0.618
1890.000 0.577
1891.000 0.310
1892.000 0.333
1893.000 0.507
1894.000 0.521
1895.000 0.484
1896.000 0.565
1897.000 0.295
1898.000 0.314
1899.000 0.407
1900.000 0.480
1901.000 0.584
1902.000 0.328
1903.000 0.356
1904.000 0.314
1905.000 0.351
1906.000 0.383
1907.000 0.370
1908.000 0.384
1909.000 0.371
1910.000 0.420
1911.000 0.490
1912.000 0.530
1913.000 0.582
1914.000 0.687
1915.000 0.614
1916.000 0.582
1917.000 0.414
1918.000 0.535
1919.000 0.580
1920.000 0.653
1921.000 0.481
1922.000 0.570
1923.000 0.590
1924.000 0.594
1925.000 0.439
1926.000 0.638
1927.000 0.600
1928.000 0.638
1929.000 0.514
1930.000 0.641
1931.000 0.560
1932.000 0.624
1933.000 0.677
1934.000 0.674
1935.000 0.568
1936.000 0.523
1937.000 0.539
1938.000 0.507
1939.000 0.422
1940.000 0.433
1941.000 0.402
1942.000 0.430
1943.000 0.441
1944.000 0.533
1945.000 0.469
1946.000 0.523
1947.000 0.503
1948.000 0.464
1949.000 0.452
1950.000 0.418
1951.000 0.456
1952.000 0.443
1953.000 0.427
1954.000 0.551
1955.000 0.609
1956.000 0.229
1957.000 0.384
1958.000 0.546
1959.000 0.696
1960.000 0.421
1961.000 0.456
1962.000 0.511
1963.000 0.463
1964.000 0.536
1965.000 0.599
1966.000 0.455
1967.000 0.474
1968.000 0.433
1969.000 0.376
1970.000 0.374
1971.000 0.254
1972.000 0.253
1973.000 0.250
1974.000 0.268
1975.000 0.279
1976.000 0.316
1977.000 0.285
1978.000 0.246
1979.000 0.212
1980.000 0.187
1981.000 0.183
1982.000 0.181
1983.000 0.228
1984.000 0.349
1985.000 0.400
1986.000 0.346
1987.000 0.249
1988.000 0.220
1989.000 0.189
1990.000 0.184
1991.000 0.198
1992.000 0.229
1993.000 0.244
1994.000 0.223
1995.000 0.221
1996.000 0.230
1997.000 0.256
1998.000 0.282
1999.000 0.298
2000.000 0.337
2001.000 0.348
2002.000 0.322
2003.000 0.309
2004.000 0.269
2005.000 0.253
2006.000 0.291
2007.000 0.361
2008.000 0.408
2009.000 0.514
2010.000 0.440
2011.000 0.333
2012.000 0.276
2013.000 0.232
2014.000 0.216
2015.000 0.189
2016.000 0.183
2017.000 0.219
2018.000 0.228
2019.000 0.241
2020.000 0.249
2021.000 0.246
2022.000 0.224
2023.000 0.217
2024.000 0.241
2025.000 0.230
2026.000 0.256
2027.000 0.256
2028.000 0.233
2029.000 0.232
2030.000 0.236
2031.000 0.232
2032.000 0.239
2033.000 0.239
2034.000 0.222
2035.000 0.222
2036.000 0.241
2037.000 0.231
2038.000 0.240
2039.000 0.246
2040.000 0.235
2041.000 0.237
2042.000 0.238
2043.000 0.236
2044.000 0.234
2045.000 0.240
2046.000 0.234
2047.000 0.209
2048.000 0.204
2049.000 0.203
2050.000 0.210
2051.000 0.228
2052.000 0.246
2053.000 0.249
2054.000 0.259
2055.000 0.247
2056.000 0.219
2057.000 0.218
2058.000 0.224
2059.000 0.221
2060.000 0.219
2061.000 0.216
2062.000 0.197
2063.000 0.193
2064.000 0.201
2065.000 0.205
2066.000 0.206
2067.000 0.219
2068.000 0.231
2069.000 0.222
2070.000 0.231
2071.000 0.237
2072.000 0.243
2073.000 0.249
2074.000 0.261
2075.000 0.272
2076.000 0.285
2077.000 0.318
2078.000 0.324
2079.000 0.308
2080.000 0.299
2081.000 0.274
2082.000 0.264
2083.000 0.270
2084.000 0.273
2085.000 0.274
2086.000 0.271
2087.000 0.267
2088.000 0.254
2089.000 0.251
2090.000 0.256
2091.000 0.256
2092.000 0.259
2093.000 0.260
2094.000 0.255
2095.000 0.257
2096.000 0.262
2097.000 0.268
2098.000 0.278
2099.000 0.302
2100.000 0.309
2101.000 0.303
2102.000 0.294
2103.000 0.282
2104.000 0.281
2105.000 0.291
2106.000 0.294
2107.000 0.297
2108.000 0.299
2109.000 0.300
2110.000 0.297
2111.000 0.295
2112.000 0.291
2113.000 0.277
2114.000 0.273
2115.000 0.269
2116.000 0.273
2117.000 0.289
2118.000 0.308
2119.000 0.317
2120.000 0.327
2121.000 0.328
2122.000 0.320
2123.000 0.318
2124.000 0.323
2125.000 0.320
2126.000 0.311
2127.000 0.309
2128.000 0.307
2129.000 0.309
2130.000 0.318
2131.000 0.321
2132.000 0.330
2133.000 0.331
2134.000 0.326
2135.000 0.320
2136.000 0.308
2137.000 0.291
2138.000 0.291
2139.000 0.289
2140.000 0.292
2141.000 0.311
2142.000 0.314
2143.000 0.311
2144.000 0.312
2145.000 0.306
2146.000 0.305
2147.000 0.309
2148.000 0.311
2149.000 0.314
2150.000 0.314
2151.000 0.309
2152.000 0.309
2153.000 0.311
2154.000 0.308
2155.000 0.303
2156.000 0.302
2157.000 0.296
2158.000 0.287
2159.000 0.287
2160.000 0.290
2161.000 0.292
2162.000 0.298
2163.000 0.301
2164.000 0.303
2165.000 0.307
2166.000 0.311
2167.000 0.313
2168.000 0.317
2169.000 0.315
2170.000 0.308
2171.000 0.304
2172.000 0.297
2173.000 0.292
2174.000 0.280
2175.000 0.279
2176.000 0.280
2177.000 0.288
2178.000 0.306
2179.000 0.328
2180.000 0.346
2181.000 0.348
2182.000 0.333
2183.000 0.321
2184.000 0.310
2185.000 0.291
2186.000 0.285
2187.000 0.283
2188.000 0.282
2189.000 0.287
2190.000 0.292
2191.000 0.300
2192.000 0.304
2193.000 0.308
2194.000 0.310
2195.000 0.312
2196.000 0.313
2197.000 0.313
2198.000 0.316
2199.000 0.318
2200.000 0.323
2201.000 0.336
2202.000 0.346
2203.000 0.340
2204.000 0.347
2205.000 0.356
2206.000 0.350
2207.000 0.367
2208.000 0.352
2209.000 0.339
2210.000 0.315
2211.000 0.305
2212.000 0.292
2213.000 0.295
2214.000 0.310
2215.000 0.318
2216.000 0.343
2217.000 0.344
2218.000 0.328
2219.000 0.317
2220.000 0.295
2221.000 0.286
2222.000 0.281
2223.000 0.281
2224.000 0.282
2225.000 0.292
2226.000 0.317
2227.000 0.335
2228.000 0.366
2229.000 0.402
2230.000 0.395
2231.000 0.380
2232.000 0.363
2233.000 0.342
2234.000 0.331
2235.000 0.334
2236.000 0.326
2237.000 0.312
2238.000 0.302
2239.000 0.285
2240.000 0.280
2241.000 0.281
2242.000 0.281
2243.000 0.293
2244.000 0.289
2245.000 0.273
2246.000 0.272
2247.000 0.266
2248.000 0.265
2249.000 0.277
2250.000 0.279
2251.000 0.274
2252.000 0.279
2253.000 0.289
2254.000 0.299
2255.000 0.314
2256.000 0.321
2257.000 0.324
2258.000 0.318
2259.000 0.332
2260.000 0.339
2261.000 0.326
2262.000 0.319
2263.000 0.293
2264.000 0.265
2265.000 0.277
2266.000 0.294
2267.000 0.312
2268.000 0.321
2269.000 0.309
2270.000 0.299
2271.000 0.296
2272.000 0.321
2273.000 0.331
2274.000 0.347
2275.000 0.345
2276.000 0.348
2277.000 0.335
2278.000 0.292
2279.000 0.282
2280.000 0.281
2281.000 0.264
2282.000 0.235
2283.000 0.221
2284.000 0.198
2285.000 0.198
2286.000 0.225
2287.000 0.238
2288.000 0.257
2289.000 0.278
2290.000 0.291
2291.000 0.303
2292.000 0.342
2293.000 0.353
2294.000 0.319
2295.000 0.305
2296.000 0.296
2297.000 0.273
2298.000 0.250
2299.000 0.244
2300.000 0.212
2301.000 0.207
2302.000 0.206
2303.000 0.193
2304.000 0.198
2305.000 0.191
2306.000 0.191
2307.000 0.185
2308.000 0.190
2309.000 0.198
2310.000 0.226
2311.000 0.253
2312.000 0.304
2313.000 0.306
2314.000 0.263
2315.000 0.241
2316.000 0.223
2317.000 0.205
2318.000 0.188
2319.000 0.165
2320.000 0.202
2321.000 0.170
2322.000 0.168
2323.000 0.177
2324.000 0.182
2325.000 0.183
2326.000 0.182
2327.000 0.180
2328.000 0.191
2329.000 0.204
2330.000 0.197
2331.000 0.188
2332.000 0.168
2333.000 0.129
2334.000 0.131
2335.000 0.170
2336.000 0.196
2337.000 0.365
2338.000 0.388
2339.000 0.427
2340.000 0.380
2341.000 0.305
2342.000 0.331
2343.000 0.244
2344.000 0.246
2345.000 0.296
2346.000 0.307
2347.000 0.303
2348.000 0.278
2349.000 0.260
2350.000 0.224
2351.000 0.228
2352.000 0.205
2353.000 0.165
2354.000 0.156
2355.000 0.131
2356.000 0.124
2357.000 0.148
2358.000 0.146
2359.000 0.137
2360.000 0.155
2361.000 0.209
2362.000 0.370
2363.000 0.210
2364.000 0.235
2365.000 0.339
2366.000 0.246
2367.000 0.192
2368.000 0.230
2369.000 0.175
2370.000 0.233
2371.000 0.326
2372.000 0.517
2373.000 0.479
2374.000 0.406
2375.000 0.322
2376.000 0.388
2377.000 0.469
2378.000 0.562
2379.000 0.568
2380.000 0.202
2381.000 0.302
2382.000 0.289
2383.000 0.248
2384.000 0.188
2385.000 0.161
2386.000 0.283
2387.000 0.273
2388.000 0.195
2389.000 0.206
2390.000 0.306
2391.000 0.451
2392.000 0.222
2393.000 0.244
2394.000 0.467
2395.000 0.256
2396.000 0.169
2397.000 0.273
2398.000 0.265
2399.000 0.298
2400.000 0.215
2401.000 0.120
2402.000 0.103
2403.000 0.157
2404.000 0.300
2405.000 0.235
2406.000 0.323
2407.000 0.241
2408.000 0.359
2409.000 0.340
2410.000 0.289
2411.000 0.360
2412.000 0.280
2413.000 0.310
2414.000 0.286
2415.000 0.292
2416.000 0.297
2417.000 0.081
2418.000 0.170
2419.000 0.395
2420.000 0.599
2421.000 0.601
2422.000 0.776
2423.000 0.693
2424.000 0.538
2425.000 0.458
2426.000 0.335
2427.000 0.434
2428.000 0.430
2429.000 0.503
2430.000 0.469
2431.000 0.283
2432.000 0.103
2433.000 0.112
2434.000 0.149
2435.000 0.188
2436.000 0.222
2437.000 0.255
2438.000 0.107
2439.000 0.094
2440.000 0.126
2441.000 0.096
2442.000 0.262
2443.000 0.212
2444.000 0.230
2445.000 0.252
2446.000 0.318
2447.000 0.273
2448.000 0.330
2449.000 0.348
2450.000 0.478
2451.000 0.388
2452.000 0.347
2453.000 0.379
2454.000 0.368
2455.000 0.344
2456.000 0.230
2457.000 0.508
2458.000 0.338
2459.000 0.268
2460.000 0.200
2461.000 0.200
2462.000 0.224
2463.000 0.400
2464.000 0.569
2465.000 0.522
2466.000 0.488
2467.000 0.531
2468.000 0.584
2469.000 0.435
2470.000 0.298
2471.000 0.284
2472.000 0.233
2473.000 0.261
2474.000 0.228
2475.000 0.318
2476.000 0.364
2477.000 0.370
2478.000 0.617
2479.000 0.694
2480.000 0.539
2481.000 0.411
2482.000 0.648
2483.000 0.584
2484.000 0.417
2485.000 0.520
2486.000 0.396
2487.000 0.375
2488.000 0.380
2489.000 0.337
2490.000 0.318
2491.000 0.249
2492.000 0.309
2493.000 0.500
2494.000 0.398
2495.000 0.378
2496.000 0.362
2497.000 0.554
2498.000 0.592
2499.000 0.470
2500.000 0.378
