391.000 0.046
392.000 0.043
393.000 0.045
394.000 0.052
395.000 0.051
396.000 0.049
397.000 0.048
398.000 0.050
399.000 0.051
400.000 0.052
401.000 0.052
402.000 0.047
403.000 0.046
404.000 0.049
405.000 0.051
406.000 0.050
407.000 0.049
408.000 0.050
409.000 0.049
410.000 0.049
411.000 0.051
412.000 0.054
413.000 0.052
414.000 0.051
415.000 0.051
416.000 0.052
417.000 0.052
418.000 0.052
419.000 0.052
420.000 0.051
421.000 0.054
422.000 0.055
423.000 0.054
424.000 0.054
425.000 0.054
426.000 0.054
427.000 0.054
428.000 0.053
429.000 0.053
430.000 0.054
431.000 0.052
432.000 0.054
433.000 0.055
434.000 0.054
435.000 0.054
436.000 0.055
437.000 0.056
438.000 0.055
439.000 0.055
440.000 0.055
441.000 0.055
442.000 0.056
443.000 0.057
444.000 0.056
445.000 0.056
446.000 0.056
447.000 0.056
448.000 0.056
449.000 0.057
450.000 0.056
451.000 0.056
452.000 0.056
453.000 0.058
454.000 0.057
455.000 0.057
456.000 0.057
457.000 0.058
458.000 0.058
459.000 0.058
460.000 0.058
461.000 0.059
462.000 0.058
463.000 0.057
464.000 0.058
465.000 0.060
466.000 0.060
467.000 0.059
468.000 0.060
469.000 0.060
470.000 0.059
471.000 0.059
472.000 0.060
473.000 0.059
474.000 0.059
475.000 0.061
476.000 0.060
477.000 0.060
478.000 0.061
479.000 0.061
480.000 0.061
481.000 0.061
482.000 0.062
483.000 0.062
484.000 0.063
485.000 0.063
486.000 0.062
487.000 0.063
488.000 0.063
489.000 0.062
490.000 0.064
491.000 0.064
492.000 0.064
493.000 0.064
494.000 0.065
495.000 0.066
496.000 0.066
497.000 0.067
498.000 0.067
499.000 0.067
500.000 0.068
501.000 0.069
502.000 0.070
503.000 0.070
504.000 0.071
505.000 0.072
506.000 0.072
507.000 0.073
508.000 0.073
509.000 0.075
510.000 0.076
511.000 0.077
512.000 0.079
513.000 0.080
514.000 0.080
515.000 0.082
516.000 0.085
517.000 0.087
518.000 0.089
519.000 0.092
520.000 0.093
521.000 0.094
522.000 0.095
523.000 0.098
524.000 0.101
525.000 0.104
526.000 0.105
527.000 0.107
528.000 0.109
529.000 0.110
530.000 0.112
531.000 0.113
532.000 0.115
533.000 0.116
534.000 0.118
535.000 0.119
536.000 0.120
537.000 0.120
538.000 0.121
539.000 0.122
540.000 0.123
541.000 0.124
542.000 0.124
543.000 0.124
544.000 0.124
545.000 0.125
546.000 0.126
547.000 0.127
548.000 0.126
549.000 0.127
550.000 0.127
551.000 0.128
552.000 0.127
553.000 0.127
554.000 0.128
555.000 0.128
556.000 0.128
557.000 0.127
558.000 0.127
559.000 0.127
560.000 0.126
561.000 0.125
562.000 0.125
563.000 0.125
564.000 0.123
565.000 0.122
566.000 0.121
567.000 0.120
568.000 0.120
569.000 0.119
570.000 0.118
571.000 0.117
572.000 0.116
573.000 0.114
574.000 0.113
575.000 0.112
576.000 0.112
577.000 0.111
578.000 0.111
579.000 0.111
580.000 0.110
581.000 0.109
582.000 0.108
583.000 0.108
584.000 0.108
585.000 0.108
586.000 0.107
587.000 0.107
588.000 0.107
589.000 0.107
590.000 0.106
591.000 0.106
592.000 0.106
593.000 0.106
594.000 0.106
595.000 0.106
596.000 0.105
597.000 0.104
598.000 0.104
599.000 0.105
600.000 0.105
601.000 0.104
602.000 0.104
603.000 0.103
604.000 0.103
605.000 0.103
606.000 0.104
607.000 0.104
608.000 0.104
609.000 0.104
610.000 0.104
611.000 0.103
612.000 0.103
613.000 0.103
614.000 0.102
615.000 0.102
616.000 0.102
617.000 0.102
618.000 0.102
619.000 0.102
620.000 0.102
621.000 0.102
622.000 0.102
623.000 0.103
624.000 0.102
625.000 0.102
626.000 0.102
627.000 0.103
628.000 0.104
629.000 0.103
630.000 0.103
631.000 0.104
632.000 0.104
633.000 0.103
634.000 0.104
635.000 0.105
636.000 0.104
637.000 0.104
638.000 0.104
639.000 0.104
640.000 0.103
641.000 0.103
642.000 0.103
643.000 0.102
644.000 0.102
645.000 0.103
646.000 0.102
647.000 0.102
648.000 0.103
649.000 0.101
650.000 0.101
651.000 0.102
652.000 0.103
653.000 0.102
654.000 0.102
655.000 0.104
656.000 0.105
657.000 0.105
658.000 0.104
659.000 0.104
660.000 0.103
661.000 0.102
662.000 0.103
663.000 0.104
664.000 0.105
665.000 0.105
666.000 0.106
667.000 0.106
668.000 0.106
669.000 0.106
670.000 0.104
671.000 0.106
672.000 0.108
673.000 0.109
674.000 0.108
675.000 0.109
676.000 0.109
677.000 0.107
678.000 0.109
679.000 0.112
680.000 0.113
681.000 0.111
682.000 0.113
683.000 0.115
684.000 0.116
685.000 0.116
686.000 0.117
687.000 0.118
688.000 0.121
689.000 0.122
690.000 0.123
691.000 0.125
692.000 0.128
693.000 0.130
694.000 0.133
695.000 0.137
696.000 0.141
697.000 0.146
698.000 0.152
699.000 0.157
700.000 0.162
701.000 0.169
702.000 0.176
703.000 0.182
704.000 0.188
705.000 0.194
706.000 0.201
707.000 0.207
708.000 0.214
709.000 0.221
710.000 0.228
711.000 0.235
712.000 0.242
713.000 0.249
714.000 0.256
715.000 0.263
716.000 0.270
717.000 0.277
718.000 0.286
719.000 0.294
720.000 0.302
721.000 0.310
722.000 0.317
723.000 0.324
724.000 0.331
725.000 0.339
726.000 0.347
727.000 0.354
728.000 0.361
729.000 0.368
730.000 0.375
731.000 0.381
732.000 0.387
733.000 0.394
734.000 0.399
735.000 0.405
736.000 0.410
737.000 0.416
738.000 0.421
739.000 0.425
740.000 0.430
741.000 0.435
742.000 0.440
743.000 0.444
744.000 0.447
745.000 0.450
746.000 0.428
747.000 0.433
748.000 0.436
749.000 0.438
750.000 0.440
751.000 0.442
752.000 0.444
753.000 0.446
754.000 0.447
755.000 0.449
756.000 0.450
757.000 0.451
758.000 0.452
759.000 0.452
760.000 0.451
761.000 0.451
762.000 0.451
763.000 0.451
764.000 0.452
765.000 0.454
766.000 0.456
767.000 0.458
768.000 0.460
769.000 0.461
770.000 0.461
771.000 0.463
772.000 0.463
773.000 0.464
774.000 0.464
775.000 0.465
776.000 0.465
777.000 0.466
778.000 0.467
779.000 0.468
780.000 0.468
781.000 0.468
782.000 0.469
783.000 0.469
784.000 0.470
785.000 0.471
786.000 0.471
787.000 0.471
788.000 0.472
789.000 0.472
790.000 0.473
791.000 0.473
792.000 0.474
793.000 0.475
794.000 0.475
795.000 0.475
796.000 0.476
797.000 0.477
798.000 0.477
799.000 0.477
800.000 0.478
801.000 0.479
802.000 0.479
803.000 0.480
804.000 0.481
805.000 0.481
806.000 0.482
807.000 0.483
808.000 0.483
809.000 0.484
810.000 0.484
811.000 0.484
812.000 0.484
813.000 0.484
814.000 0.484
815.000 0.484
816.000 0.484
817.000 0.485
818.000 0.486
819.000 0.487
820.000 0.487
821.000 0.488
822.000 0.489
823.000 0.490
824.000 0.490
825.000 0.490
826.000 0.491
827.000 0.492
828.000 0.492
829.000 0.493
830.000 0.493
831.000 0.494
832.000 0.495
833.000 0.495
834.000 0.496
835.000 0.496
836.000 0.497
837.000 0.498
838.000 0.499
839.000 0.499
840.000 0.499
841.000 0.500
842.000 0.501
843.000 0.501
844.000 0.502
845.000 0.502
846.000 0.503
847.000 0.504
848.000 0.504
849.000 0.505
850.000 0.505
851.000 0.505
852.000 0.506
853.000 0.506
854.000 0.507
855.000 0.507
856.000 0.507
857.000 0.508
858.000 0.508
859.000 0.509
860.000 0.509
861.000 0.510
862.000 0.510
863.000 0.510
864.000 0.511
865.000 0.512
866.000 0.512
867.000 0.512
868.000 0.513
869.000 0.513
870.000 0.513
871.000 0.514
872.000 0.514
873.000 0.515
874.000 0.515
875.000 0.516
876.000 0.516
877.000 0.517
878.000 0.516
879.000 0.517
880.000 0.518
881.000 0.518
882.000 0.519
883.000 0.519
884.000 0.520
885.000 0.521
886.000 0.521
887.000 0.521
888.000 0.521
889.000 0.522
890.000 0.523
891.000 0.523
892.000 0.523
893.000 0.523
894.000 0.523
895.000 0.523
896.000 0.523
897.000 0.523
898.000 0.523
899.000 0.524
900.000 0.524
901.000 0.524
902.000 0.525
903.000 0.526
904.000 0.526
905.000 0.526
906.000 0.527
907.000 0.528
908.000 0.528
909.000 0.528
910.000 0.528
911.000 0.528
912.000 0.528
913.000 0.528
914.000 0.529
915.000 0.530
916.000 0.530
917.000 0.531
918.000 0.532
919.000 0.532
920.000 0.533
921.000 0.533
922.000 0.533
923.000 0.533
924.000 0.534
925.000 0.534
926.000 0.533
927.000 0.533
928.000 0.531
929.000 0.530
930.000 0.529
931.000 0.529
932.000 0.529
933.000 0.528
934.000 0.527
935.000 0.525
936.000 0.521
937.000 0.521
938.000 0.523
939.000 0.524
940.000 0.523
941.000 0.525
942.000 0.526
943.000 0.526
944.000 0.526
945.000 0.525
946.000 0.523
947.000 0.523
948.000 0.525
949.000 0.524
950.000 0.522
951.000 0.524
952.000 0.525
953.000 0.525
954.000 0.526
955.000 0.526
956.000 0.524
957.000 0.526
958.000 0.527
959.000 0.525
960.000 0.526
961.000 0.526
962.000 0.527
963.000 0.528
964.000 0.527
965.000 0.529
966.000 0.529
967.000 0.530
968.000 0.531
969.000 0.532
970.000 0.533
971.000 0.534
972.000 0.533
973.000 0.532
974.000 0.532
975.000 0.536
976.000 0.536
977.000 0.535
978.000 0.533
979.000 0.533
980.000 0.534
981.000 0.536
982.000 0.537
983.000 0.537
984.000 0.538
985.000 0.540
986.000 0.541
987.000 0.540
988.000 0.539
989.000 0.539
990.000 0.541
991.000 0.543
992.000 0.543
993.000 0.544
994.000 0.544
995.000 0.545
996.000 0.546
997.000 0.546
998.000 0.546
999.000 0.546
1000.000 0.546
1001.000 0.559
1002.000 0.560
1003.000 0.560
1004.000 0.560
1005.000 0.561
1006.000 0.561
1007.000 0.562
1008.000 0.564
1009.000 0.566
1010.000 0.567
1011.000 0.567
1012.000 0.567
1013.000 0.566
1014.000 0.566
1015.000 0.566
1016.000 0.567
1017.000 0.568
1018.000 0.568
1019.000 0.568
1020.000 0.570
1021.000 0.570
1022.000 0.570
1023.000 0.571
1024.000 0.571
1025.000 0.571
1026.000 0.572
1027.000 0.573
1028.000 0.573
1029.000 0.574
1030.000 0.574
1031.000 0.574
1032.000 0.575
1033.000 0.576
1034.000 0.577
1035.000 0.577
1036.000 0.578
1037.000 0.578
1038.000 0.577
1039.000 0.578
1040.000 0.579
1041.000 0.579
1042.000 0.578
1043.000 0.579
1044.000 0.579
1045.000 0.579
1046.000 0.580
1047.000 0.581
1048.000 0.580
1049.000 0.580
1050.000 0.580
1051.000 0.581
1052.000 0.583
1053.000 0.584
1054.000 0.584
1055.000 0.584
1056.000 0.584
1057.000 0.584
1058.000 0.584
1059.000 0.584
1060.000 0.585
1061.000 0.585
1062.000 0.586
1063.000 0.587
1064.000 0.586
1065.000 0.586
1066.000 0.586
1067.000 0.586
1068.000 0.586
1069.000 0.587
1070.000 0.588
1071.000 0.588
1072.000 0.588
1073.000 0.588
1074.000 0.588
1075.000 0.588
1076.000 0.588
1077.000 0.589
1078.000 0.588
1079.000 0.588
1080.000 0.587
1081.000 0.587
1082.000 0.588
1083.000 0.588
1084.000 0.589
1085.000 0.589
1086.000 0.589
1087.000 0.590
1088.000 0.590
1089.000 0.591
1090.000 0.590
1091.000 0.590
1092.000 0.590
1093.000 0.590
1094.000 0.590
1095.000 0.590
1096.000 0.589
1097.000 0.589
1098.000 0.589
1099.000 0.588
1100.000 0.587
1101.000 0.586
1102.000 0.586
1103.000 0.587
1104.000 0.587
1105.000 0.587
1106.000 0.587
1107.000 0.587
1108.000 0.587
1109.000 0.586
1110.000 0.585
1111.000 0.586
1112.000 0.586
1113.000 0.585
1114.000 0.584
1115.000 0.584
1116.000 0.583
1117.000 0.582
1118.000 0.582
1119.000 0.581
1120.000 0.582
1121.000 0.582
1122.000 0.583
1123.000 0.582
1124.000 0.578
1125.000 0.577
1126.000 0.576
1127.000 0.580
1128.000 0.580
1129.000 0.580
1130.000 0.581
1131.000 0.580
1132.000 0.581
1133.000 0.580
1134.000 0.579
1135.000 0.579
1136.000 0.577
1137.000 0.576
1138.000 0.575
1139.000 0.574
1140.000 0.572
1141.000 0.570
1142.000 0.569
1143.000 0.569
1144.000 0.569
1145.000 0.569
1146.000 0.568
1147.000 0.568
1148.000 0.566
1149.000 0.565
1150.000 0.566
1151.000 0.565
1152.000 0.565
1153.000 0.563
1154.000 0.562
1155.000 0.562
1156.000 0.562
1157.000 0.562
1158.000 0.563
1159.000 0.563
1160.000 0.563
1161.000 0.564
1162.000 0.564
1163.000 0.564
1164.000 0.564
1165.000 0.564
1166.000 0.564
1167.000 0.564
1168.000 0.564
1169.000 0.564
1170.000 0.564
1171.000 0.565
1172.000 0.565
1173.000 0.565
1174.000 0.565
1175.000 0.566
1176.000 0.566
1177.000 0.566
1178.000 0.566
1179.000 0.567
1180.000 0.567
1181.000 0.567
1182.000 0.567
1183.000 0.568
1184.000 0.568
1185.000 0.568
1186.000 0.568
1187.000 0.569
1188.000 0.569
1189.000 0.570
1190.000 0.570
1191.000 0.570
1192.000 0.570
1193.000 0.570
1194.000 0.571
1195.000 0.572
1196.000 0.573
1197.000 0.573
1198.000 0.573
1199.000 0.574
1200.000 0.573
1201.000 0.574
1202.000 0.573
1203.000 0.573
1204.000 0.574
1205.000 0.574
1206.000 0.575
1207.000 0.575
1208.000 0.575
1209.000 0.576
1210.000 0.576
1211.000 0.577
1212.000 0.577
1213.000 0.578
1214.000 0.578
1215.000 0.578
1216.000 0.579
1217.000 0.579
1218.000 0.579
1219.000 0.579
1220.000 0.580
1221.000 0.580
1222.000 0.581
1223.000 0.580
1224.000 0.580
1225.000 0.579
1226.000 0.579
1227.000 0.580
1228.000 0.581
1229.000 0.582
1230.000 0.582
1231.000 0.583
1232.000 0.583
1233.000 0.584
1234.000 0.584
1235.000 0.585
1236.000 0.585
1237.000 0.585
1238.000 0.586
1239.000 0.586
1240.000 0.586
1241.000 0.586
1242.000 0.586
1243.000 0.586
1244.000 0.586
1245.000 0.586
1246.000 0.586
1247.000 0.586
1248.000 0.587
1249.000 0.587
1250.000 0.588
1251.000 0.588
1252.000 0.589
1253.000 0.589
1254.000 0.589
1255.000 0.589
1256.000 0.589
1257.000 0.589
1258.000 0.589
1259.000 0.590
1260.000 0.590
1261.000 0.590
1262.000 0.590
1263.000 0.589
1264.000 0.589
1265.000 0.589
1266.000 0.589
1267.000 0.590
1268.000 0.590
1269.000 0.590
1270.000 0.591
1271.000 0.592
1272.000 0.592
1273.000 0.593
1274.000 0.594
1275.000 0.594
1276.000 0.594
1277.000 0.594
1278.000 0.594
1279.000 0.594
1280.000 0.595
1281.000 0.595
1282.000 0.595
1283.000 0.596
1284.000 0.595
1285.000 0.595
1286.000 0.595
1287.000 0.596
1288.000 0.596
1289.000 0.596
1290.000 0.596
1291.000 0.596
1292.000 0.595
1293.000 0.595
1294.000 0.594
1295.000 0.594
1296.000 0.593
1297.000 0.594
1298.000 0.594
1299.000 0.593
1300.000 0.592
1301.000 0.592
1302.000 0.591
1303.000 0.591
1304.000 0.591
1305.000 0.590
1306.000 0.589
1307.000 0.588
1308.000 0.587
1309.000 0.587
1310.000 0.586
1311.000 0.584
1312.000 0.583
1313.000 0.582
1314.000 0.581
1315.000 0.580
1316.000 0.604
1317.000 0.603
1318.000 0.602
1319.000 0.601
1320.000 0.600
1321.000 0.599
1322.000 0.597
1323.000 0.596
1324.000 0.594
1325.000 0.593
1326.000 0.593
1327.000 0.591
1328.000 0.590
1329.000 0.588
1330.000 0.585
1331.000 0.583
1332.000 0.580
1333.000 0.578
1334.000 0.572
1335.000 0.571
1336.000 0.571
1337.000 0.571
1338.000 0.570
1339.000 0.569
1340.000 0.567
1341.000 0.564
1342.000 0.560
1343.000 0.558
1344.000 0.553
1345.000 0.551
1346.000 0.551
1347.000 0.549
1348.000 0.548
1349.000 0.549
1350.000 0.547
1351.000 0.541
1352.000 0.543
1353.000 0.552
1354.000 0.573
1355.000 0.608
1356.000 0.699
1357.000 0.742
1358.000 0.738
1359.000 0.641
1360.000 0.617
1361.000 0.603
1362.000 0.515
1363.000 0.479
1364.000 0.458
1365.000 0.559
1366.000 0.666
1367.000 0.731
1368.000 0.557
1369.000 0.388
1370.000 0.327
1371.000 0.397
1372.000 0.630
1373.000 0.568
1374.000 0.436
1375.000 0.351
1376.000 0.390
1377.000 0.373
1378.000 0.316
1379.000 0.265
1380.000 0.326
1381.000 0.445
1382.000 0.432
1383.000 0.365
1384.000 0.482
1385.000 0.437
1386.000 0.488
1387.000 0.553
1388.000 0.222
1389.000 0.291
1390.000 0.496
1391.000 0.440
1392.000 0.319
1393.000 0.226
1394.000 0.439
1395.000 0.595
1396.000 0.587
1397.000 0.540
1398.000 0.564
1399.000 0.521
1400.000 0.508
1401.000 0.471
1402.000 0.477
1403.000 0.429
1404.000 0.437
1405.000 0.411
1406.000 0.358
1407.000 0.336
1408.000 0.471
1409.000 0.492
1410.000 0.532
1411.000 0.416
1412.000 0.403
1413.000 0.402
1414.000 0.407
1415.000 0.454
1416.000 0.443
1417.000 0.452
1418.000 0.424
1419.000 0.409
1420.000 0.387
1421.000 0.349
1422.000 0.345
1423.000 0.328
1424.000 0.320
1425.000 0.314
1426.000 0.311
1427.000 0.314
1428.000 0.315
1429.000 0.317
1430.000 0.320
1431.000 0.323
1432.000 0.326
1433.000 0.330
1434.000 0.335
1435.000 0.341
1436.000 0.349
1437.000 0.359
1438.000 0.369
1439.000 0.374
1440.000 0.375
1441.000 0.379
1442.000 0.366
1443.000 0.349
1444.000 0.341
1445.000 0.333
1446.000 0.326
1447.000 0.327
1448.000 0.324
1449.000 0.319
1450.000 0.312
1451.000 0.306
1452.000 0.307
1453.000 0.304
1454.000 0.300
1455.000 0.300
1456.000 0.303
1457.000 0.303
1458.000 0.305
1459.000 0.304
1460.000 0.299
1461.000 0.296
1462.000 0.296
1463.000 0.294
1464.000 0.290
1465.000 0.290
1466.000 0.297
1467.000 0.296
1468.000 0.294
1469.000 0.296
1470.000 0.295
1471.000 0.297
1472.000 0.307
1473.000 0.311
1474.000 0.311
1475.000 0.313
1476.000 0.319
1477.000 0.320
1478.000 0.321
1479.000 0.319
1480.000 0.313
1481.000 0.309
1482.000 0.301
1483.000 0.300
1484.000 0.300
1485.000 0.302
1486.000 0.309
1487.000 0.313
1488.000 0.313
1489.000 0.315
1490.000 0.316
1491.000 0.317
1492.000 0.318
1493.000 0.318
1494.000 0.317
1495.000 0.318
1496.000 0.320
1497.000 0.322
1498.000 0.326
1499.000 0.327
1500.000 0.325
1501.000 0.324
1502.000 0.325
1503.000 0.326
1504.000 0.332
1505.000 0.337
1506.000 0.339
1507.000 0.339
1508.000 0.340
1509.000 0.338
1510.000 0.339
1511.000 0.342
1512.000 0.344
1513.000 0.345
1514.000 0.347
1515.000 0.347
1516.000 0.348
1517.000 0.349
1518.000 0.350
1519.000 0.352
1520.000 0.353
1521.000 0.354
1522.000 0.356
1523.000 0.358
1524.000 0.359
1525.000 0.358
1526.000 0.360
1527.000 0.361
1528.000 0.363
1529.000 0.366
1530.000 0.368
1531.000 0.369
1532.000 0.370
1533.000 0.371
1534.000 0.372
1535.000 0.374
1536.000 0.375
1537.000 0.376
1538.000 0.378
1539.000 0.380
1540.000 0.381
1541.000 0.383
1542.000 0.385
1543.000 0.387
1544.000 0.387
1545.000 0.388
1546.000 0.388
1547.000 0.388
1548.000 0.389
1549.000 0.390
1550.000 0.390
1551.000 0.390
1552.000 0.392
1553.000 0.394
1554.000 0.396
1555.000 0.399
1556.000 0.401
1557.000 0.402
1558.000 0.404
1559.000 0.405
1560.000 0.406
1561.000 0.409
1562.000 0.410
1563.000 0.410
1564.000 0.411
1565.000 0.411
1566.000 0.412
1567.000 0.414
1568.000 0.416
1569.000 0.417
1570.000 0.418
1571.000 0.419
1572.000 0.420
1573.000 0.421
1574.000 0.421
1575.000 0.421
1576.000 0.421
1577.000 0.421
1578.000 0.421
1579.000 0.422
1580.000 0.423
1581.000 0.425
1582.000 0.427
1583.000 0.429
1584.000 0.431
1585.000 0.433
1586.000 0.435
1587.000 0.435
1588.000 0.435
1589.000 0.434
1590.000 0.435
1591.000 0.435
1592.000 0.436
1593.000 0.435
1594.000 0.436
1595.000 0.437
1596.000 0.438
1597.000 0.439
1598.000 0.441
1599.000 0.443
1600.000 0.445
1601.000 0.445
1602.000 0.446
1603.000 0.448
1604.000 0.449
1605.000 0.451
1606.000 0.451
1607.000 0.450
1608.000 0.450
1609.000 0.451
1610.000 0.452
1611.000 0.455
1612.000 0.456
1613.000 0.456
1614.000 0.456
1615.000 0.456
1616.000 0.456
1617.000 0.456
1618.000 0.457
1619.000 0.458
1620.000 0.459
1621.000 0.461
1622.000 0.461
1623.000 0.460
1624.000 0.459
1625.000 0.459
1626.000 0.459
1627.000 0.461
1628.000 0.461
1629.000 0.462
1630.000 0.464
1631.000 0.465
1632.000 0.466
1633.000 0.466
1634.000 0.467
1635.000 0.468
1636.000 0.468
1637.000 0.467
1638.000 0.467
1639.000 0.466
1640.000 0.467
1641.000 0.470
1642.000 0.472
1643.000 0.474
1644.000 0.475
1645.000 0.474
1646.000 0.473
1647.000 0.474
1648.000 0.473
1649.000 0.474
1650.000 0.475
1651.000 0.475
1652.000 0.476
1653.000 0.476
1654.000 0.476
1655.000 0.477
1656.000 0.477
1657.000 0.476
1658.000 0.476
1659.000 0.477
1660.000 0.477
1661.000 0.479
1662.000 0.480
1663.000 0.479
1664.000 0.479
1665.000 0.480
1666.000 0.480
1667.000 0.480
1668.000 0.480
1669.000 0.481
1670.000 0.481
1671.000 0.482
1672.000 0.483
1673.000 0.481
1674.000 0.480
1675.000 0.482
1676.000 0.482
1677.000 0.484
1678.000 0.485
1679.000 0.485
1680.000 0.486
1681.000 0.486
1682.000 0.486
1683.000 0.484
1684.000 0.484
1685.000 0.484
1686.000 0.484
1687.000 0.484
1688.000 0.484
1689.000 0.482
1690.000 0.482
1691.000 0.483
1692.000 0.484
1693.000 0.487
1694.000 0.488
1695.000 0.488
1696.000 0.488
1697.000 0.488
1698.000 0.487
1699.000 0.487
1700.000 0.487
1701.000 0.485
1702.000 0.485
1703.000 0.486
1704.000 0.486
1705.000 0.485
1706.000 0.486
1707.000 0.487
1708.000 0.487
1709.000 0.487
1710.000 0.487
1711.000 0.482
1712.000 0.483
1713.000 0.483
1714.000 0.483
1715.000 0.484
1716.000 0.481
1717.000 0.480
1718.000 0.477
1719.000 0.477
1720.000 0.481
1721.000 0.481
1722.000 0.482
1723.000 0.480
1724.000 0.475
1725.000 0.474
1726.000 0.475
1727.000 0.477
1728.000 0.480
1729.000 0.481
1730.000 0.479
1731.000 0.477
1732.000 0.477
1733.000 0.476
1734.000 0.478
1735.000 0.479
1736.000 0.475
1737.000 0.474
1738.000 0.474
1739.000 0.473
1740.000 0.473
1741.000 0.473
1742.000 0.471
1743.000 0.469
1744.000 0.470
1745.000 0.469
1746.000 0.467
1747.000 0.466
1748.000 0.467
1749.000 0.466
1750.000 0.465
1751.000 0.464
1752.000 0.462
1753.000 0.462
1754.000 0.461
1755.000 0.461
1756.000 0.460
1757.000 0.457
1758.000 0.454
1759.000 0.454
1760.000 0.453
1761.000 0.451
1762.000 0.452
1763.000 0.451
1764.000 0.451
1765.000 0.451
1766.000 0.449
1767.000 0.449
1768.000 0.446
1769.000 0.444
1770.000 0.446
1771.000 0.442
1772.000 0.440
1773.000 0.439
1774.000 0.435
1775.000 0.441
1776.000 0.449
1777.000 0.450
1778.000 0.454
1779.000 0.452
1780.000 0.447
1781.000 0.450
1782.000 0.455
1783.000 0.453
1784.000 0.447
1785.000 0.439
1786.000 0.435
1787.000 0.431
1788.000 0.429
1789.000 0.431
1790.000 0.432
1791.000 0.433
1792.000 0.441
1793.000 0.442
1794.000 0.447
1795.000 0.453
1796.000 0.456
1797.000 0.457
1798.000 0.463
1799.000 0.466
1800.000 0.458
1801.000 0.439
1802.000 0.437
1803.000 0.464
1804.000 0.503
1805.000 0.517
1806.000 0.491
1807.000 0.485
1808.000 0.466
1809.000 0.458
1810.000 0.494
1811.000 0.486
1812.000 0.462
1813.000 0.497
1814.000 0.477
1815.000 0.458
1816.000 0.487
1817.000 0.509
1818.000 0.514
1819.000 0.810
1820.000 0.886
1821.000 0.874
1822.000 0.762
1823.000 0.760
1824.000 0.717
1825.000 0.692
1826.000 0.606
1827.000 0.548
1828.000 0.508
1829.000 0.512
1830.000 0.557
1831.000 0.597
1832.000 0.490
1833.000 0.495
1834.000 0.642
1835.000 0.567
1836.000 0.564
1837.000 0.634
1838.000 0.668
1839.000 0.594
1840.000 0.554
1841.000 0.466
1842.000 0.470
1843.000 0.515
1844.000 0.587
1845.000 0.618
1846.000 0.628
1847.000 0.659
1848.000 0.676
1849.000 0.689
1850.000 0.578
1851.000 0.478
1852.000 0.522
1853.000 0.602
1854.000 0.716
1855.000 0.599
1856.000 0.560
1857.000 0.504
1858.000 0.457
1859.000 0.419
1860.000 0.454
1861.000 0.508
1862.000 0.511
1863.000 0.429
1864.000 0.391
1865.000 0.421
1866.000 0.455
1867.000 0.541
1868.000 0.623
1869.000 0.623
1870.000 0.426
1871.000 0.421
1872.000 0.415
1873.000 0.500
1874.000 0.429
1875.000 0.508
1876.000 0.342
1877.000 0.322
1878.000 0.502
1879.000 0.505
1880.000 0.665
1881.000 0.695
1882.000 0.661
1883.000 0.453
1884.000 0.473
1885.000 0.488
1886.000 0.490
1887.000 0.484
1888.000 0.592
1889.000 0.547
1890.000 0.545
1891.000 0.375
1892.000 0.478
1893.000 0.626
1894.000 0.598
1895.000 0.616
1896.000 0.527
1897.000 0.542
1898.000 0.454
1899.000 0.517
1900.000 0.433
1901.000 0.324
1902.000 0.296
1903.000 0.475
1904.000 0.389
1905.000 0.483
1906.000 0.594
1907.000 0.525
1908.000 0.445
1909.000 0.506
1910.000 0.571
1911.000 0.645
1912.000 0.532
1913.000 0.464
1914.000 0.445
1915.000 0.414
1916.000 0.614
1917.000 0.486
1918.000 0.478
1919.000 0.268
1920.000 0.323
1921.000 0.331
1922.000 0.390
1923.000 0.502
1924.000 0.398
1925.000 0.438
1926.000 0.335
1927.000 0.226
1928.000 0.186
1929.000 0.484
1930.000 0.415
1931.000 0.283
1932.000 0.467
1933.000 0.504
1934.000 0.353
1935.000 0.384
1936.000 0.371
1937.000 0.289
1938.000 0.308
1939.000 0.414
1940.000 0.578
1941.000 0.764
1942.000 0.536
1943.000 0.492
1944.000 0.577
1945.000 0.429
1946.000 0.328
1947.000 0.284
1948.000 0.350
1949.000 0.338
1950.000 0.407
1951.000 0.444
1952.000 0.467
1953.000 0.515
1954.000 0.547
1955.000 0.603
1956.000 0.756
1957.000 0.636
1958.000 0.683
1959.000 0.576
1960.000 0.503
1961.000 0.458
1962.000 0.401
1963.000 0.300
1964.000 0.282
1965.000 0.288
1966.000 0.265
1967.000 0.291
1968.000 0.318
1969.000 0.307
1970.000 0.329
1971.000 0.338
1972.000 0.342
1973.000 0.334
1974.000 0.309
1975.000 0.280
1976.000 0.244
1977.000 0.227
1978.000 0.218
1979.000 0.199
1980.000 0.195
1981.000 0.197
1982.000 0.207
1983.000 0.225
1984.000 0.235
1985.000 0.249
1986.000 0.249
1987.000 0.231
1988.000 0.225
1989.000 0.215
1990.000 0.214
1991.000 0.221
1992.000 0.222
1993.000 0.235
1994.000 0.240
1995.000 0.248
1996.000 0.263
1997.000 0.259
1998.000 0.248
1999.000 0.251
2000.000 0.224
2001.000 0.229
2002.000 0.276
2003.000 0.288
2004.000 0.296
2005.000 0.301
2006.000 0.275
2007.000 0.308
2008.000 0.340
2009.000 0.350
2010.000 0.377
2011.000 0.393
2012.000 0.337
2013.000 0.323
2014.000 0.316
2015.000 0.293
2016.000 0.273
2017.000 0.252
2018.000 0.249
2019.000 0.260
2020.000 0.255
2021.000 0.243
2022.000 0.250
2023.000 0.251
2024.000 0.252
2025.000 0.269
2026.000 0.279
2027.000 0.287
2028.000 0.290
2029.000 0.290
2030.000 0.287
2031.000 0.290
2032.000 0.290
2033.000 0.289
2034.000 0.290
2035.000 0.295
2036.000 0.282
2037.000 0.270
2038.000 0.266
2039.000 0.257
2040.000 0.258
2041.000 0.269
2042.000 0.273
2043.000 0.279
2044.000 0.281
2045.000 0.278
2046.000 0.278
2047.000 0.276
2048.000 0.277
2049.000 0.287
2050.000 0.284
2051.000 0.285
2052.000 0.278
2053.000 0.281
2054.000 0.297
2055.000 0.306
2056.000 0.307
2057.000 0.307
2058.000 0.287
2059.000 0.287
2060.000 0.302
2061.000 0.304
2062.000 0.307
2063.000 0.306
2064.000 0.284
2065.000 0.280
2066.000 0.285
2067.000 0.293
2068.000 0.294
2069.000 0.299
2070.000 0.304
2071.000 0.302
2072.000 0.300
2073.000 0.300
2074.000 0.299
2075.000 0.292
2076.000 0.291
2077.000 0.299
2078.000 0.299
2079.000 0.289
2080.000 0.289
2081.000 0.292
2082.000 0.296
2083.000 0.297
2084.000 0.306
2085.000 0.306
2086.000 0.297
2087.000 0.298
2088.000 0.307
2089.000 0.308
2090.000 0.309
2091.000 0.310
2092.000 0.307
2093.000 0.303
2094.000 0.297
2095.000 0.298
2096.000 0.297
2097.000 0.299
2098.000 0.308
2099.000 0.319
2100.000 0.319
2101.000 0.327
2102.000 0.323
2103.000 0.311
2104.000 0.304
2105.000 0.292
2106.000 0.292
2107.000 0.302
2108.000 0.306
2109.000 0.320
2110.000 0.321
2111.000 0.313
2112.000 0.308
2113.000 0.296
2114.000 0.292
2115.000 0.294
2116.000 0.295
2117.000 0.298
2118.000 0.300
2119.000 0.303
2120.000 0.304
2121.000 0.304
2122.000 0.305
2123.000 0.309
2124.000 0.314
2125.000 0.318
2126.000 0.329
2127.000 0.332
2128.000 0.325
2129.000 0.323
2130.000 0.318
2131.000 0.316
2132.000 0.312
2133.000 0.314
2134.000 0.321
2135.000 0.325
2136.000 0.333
2137.000 0.338
2138.000 0.342
2139.000 0.332
2140.000 0.324
2141.000 0.319
2142.000 0.315
2143.000 0.313
2144.000 0.312
2145.000 0.315
2146.000 0.319
2147.000 0.328
2148.000 0.333
2149.000 0.342
2150.000 0.346
2151.000 0.349
2152.000 0.346
2153.000 0.336
2154.000 0.334
2155.000 0.333
2156.000 0.330
2157.000 0.331
2158.000 0.338
2159.000 0.336
2160.000 0.332
2161.000 0.333
2162.000 0.335
2163.000 0.334
2164.000 0.334
2165.000 0.336
2166.000 0.339
2167.000 0.340
2168.000 0.339
2169.000 0.338
2170.000 0.327
2171.000 0.323
2172.000 0.322
2173.000 0.324
2174.000 0.331
2175.000 0.337
2176.000 0.348
2177.000 0.356
2178.000 0.357
2179.000 0.358
2180.000 0.348
2181.000 0.342
2182.000 0.341
2183.000 0.334
2184.000 0.330
2185.000 0.328
2186.000 0.327
2187.000 0.325
2188.000 0.331
2189.000 0.344
2190.000 0.349
2191.000 0.357
2192.000 0.360
2193.000 0.354
2194.000 0.352
2195.000 0.349
2196.000 0.347
2197.000 0.346
2198.000 0.348
2199.000 0.354
2200.000 0.360
2201.000 0.371
2202.000 0.372
2203.000 0.371
2204.000 0.371
2205.000 0.365
2206.000 0.362
2207.000 0.357
2208.000 0.354
2209.000 0.350
2210.000 0.342
2211.000 0.348
2212.000 0.366
2213.000 0.367
2214.000 0.371
2215.000 0.369
2216.000 0.347
2217.000 0.344
2218.000 0.356
2219.000 0.358
2220.000 0.360
2221.000 0.360
2222.000 0.352
2223.000 0.347
2224.000 0.341
2225.000 0.340
2226.000 0.343
2227.000 0.350
2228.000 0.348
2229.000 0.356
2230.000 0.359
2231.000 0.351
2232.000 0.362
2233.000 0.367
2234.000 0.366
2235.000 0.369
2236.000 0.368
2237.000 0.367
2238.000 0.362
2239.000 0.354
2240.000 0.349
2241.000 0.340
2242.000 0.334
2243.000 0.329
2244.000 0.329
2245.000 0.329
2246.000 0.329
2247.000 0.335
2248.000 0.336
2249.000 0.332
2250.000 0.332
2251.000 0.334
2252.000 0.329
2253.000 0.317
2254.000 0.310
2255.000 0.300
2256.000 0.297
2257.000 0.298
2258.000 0.298
2259.000 0.306
2260.000 0.311
2261.000 0.311
2262.000 0.318
2263.000 0.326
2264.000 0.332
2265.000 0.331
2266.000 0.331
2267.000 0.322
2268.000 0.311
2269.000 0.308
2270.000 0.308
2271.000 0.323
2272.000 0.334
2273.000 0.341
2274.000 0.358
2275.000 0.360
2276.000 0.340
2277.000 0.335
2278.000 0.329
2279.000 0.320
2280.000 0.311
2281.000 0.303
2282.000 0.284
2283.000 0.284
2284.000 0.299
2285.000 0.306
2286.000 0.323
2287.000 0.329
2288.000 0.323
2289.000 0.317
2290.000 0.305
2291.000 0.293
2292.000 0.286
2293.000 0.277
2294.000 0.270
2295.000 0.272
2296.000 0.286
2297.000 0.292
2298.000 0.305
2299.000 0.313
2300.000 0.303
2301.000 0.298
2302.000 0.292
2303.000 0.279
2304.000 0.283
2305.000 0.306
2306.000 0.307
2307.000 0.333
2308.000 0.356
2309.000 0.352
2310.000 0.395
2311.000 0.394
2312.000 0.394
2313.000 0.373
2314.000 0.333
2315.000 0.318
2316.000 0.309
2317.000 0.294
2318.000 0.309
2319.000 0.332
2320.000 0.326
2321.000 0.323
2322.000 0.320
2323.000 0.296
2324.000 0.301
2325.000 0.324
2326.000 0.326
2327.000 0.298
2328.000 0.307
2329.000 0.323
2330.000 0.334
2331.000 0.375
2332.000 0.382
2333.000 0.342
2334.000 0.335
2335.000 0.340
2336.000 0.342
2337.000 0.373
2338.000 0.381
2339.000 0.347
2340.000 0.330
2341.000 0.317
2342.000 0.302
2343.000 0.320
2344.000 0.326
2345.000 0.351
2346.000 0.337
2347.000 0.306
2348.000 0.293
2349.000 0.254
2350.000 0.243
2351.000 0.257
2352.000 0.279
2353.000 0.309
2354.000 0.333
2355.000 0.380
2356.000 0.403
2357.000 0.422
2358.000 0.392
2359.000 0.379
2360.000 0.360
2361.000 0.373
2362.000 0.314
2363.000 0.282
2364.000 0.261
2365.000 0.220
2366.000 0.224
2367.000 0.191
2368.000 0.195
2369.000 0.222
2370.000 0.224
2371.000 0.219
2372.000 0.228
2373.000 0.239
2374.000 0.232
2375.000 0.241
2376.000 0.272
2377.000 0.232
2378.000 0.207
2379.000 0.227
2380.000 0.218
2381.000 0.305
2382.000 0.349
2383.000 0.357
2384.000 0.304
2385.000 0.214
2386.000 0.208
2387.000 0.212
2388.000 0.218
2389.000 0.214
2390.000 0.217
2391.000 0.216
2392.000 0.209
2393.000 0.210
2394.000 0.179
2395.000 0.174
2396.000 0.281
2397.000 0.392
2398.000 0.561
2399.000 0.527
2400.000 0.494
2401.000 0.513
2402.000 0.378
2403.000 0.346
2404.000 0.342
2405.000 0.285
2406.000 0.231
2407.000 0.225
2408.000 0.232
2409.000 0.191
2410.000 0.248
2411.000 0.274
2412.000 0.242
2413.000 0.191
2414.000 0.250
2415.000 0.282
2416.000 0.262
2417.000 0.432
2418.000 0.352
2419.000 0.335
2420.000 0.300
2421.000 0.443
2422.000 0.397
2423.000 0.450
2424.000 0.484
2425.000 0.357
2426.000 0.277
2427.000 0.409
2428.000 0.407
2429.000 0.299
2430.000 0.464
2431.000 0.620
2432.000 0.342
2433.000 0.133
2434.000 0.206
2435.000 0.276
2436.000 0.242
2437.000 0.332
2438.000 0.347
2439.000 0.301
2440.000 0.191
2441.000 0.150
2442.000 0.173
2443.000 0.148
2444.000 0.160
2445.000 0.269
2446.000 0.237
2447.000 0.373
2448.000 0.491
2449.000 0.436
2450.000 0.561
2451.000 0.602
2452.000 0.439
2453.000 0.239
2454.000 0.210
2455.000 0.284
2456.000 0.415
2457.000 0.538
2458.000 0.529
2459.000 0.454
2460.000 0.647
2461.000 0.681
2462.000 0.680
2463.000 0.658
2464.000 0.567
2465.000 0.500
2466.000 0.528
2467.000 0.552
2468.000 0.509
2469.000 0.387
2470.000 0.333
2471.000 0.371
2472.000 0.433
2473.000 0.377
2474.000 0.436
2475.000 0.692
2476.000 0.638
2477.000 0.402
2478.000 0.499
2479.000 0.580
2480.000 0.637
2481.000 0.450
2482.000 0.317
2483.000 0.367
2484.000 0.425
2485.000 0.412
2486.000 0.383
2487.000 0.370
2488.000 0.389
2489.000 0.389
2490.000 0.465
2491.000 0.459
2492.000 0.480
2493.000 0.330
2494.000 0.402
2495.000 0.667
2496.000 0.673
2497.000 0.344
2498.000 0.448
2499.000 0.327
2500.000 0.321
