391.000 0.077
392.000 0.074
393.000 0.075
394.000 0.085
395.000 0.082
396.000 0.079
397.000 0.080
398.000 0.084
399.000 0.083
400.000 0.083
401.000 0.085
402.000 0.079
403.000 0.078
404.000 0.081
405.000 0.083
406.000 0.083
407.000 0.083
408.000 0.084
409.000 0.081
410.000 0.081
411.000 0.084
412.000 0.089
413.000 0.085
414.000 0.084
415.000 0.086
416.000 0.085
417.000 0.085
418.000 0.086
419.000 0.087
420.000 0.087
421.000 0.089
422.000 0.090
423.000 0.090
424.000 0.090
425.000 0.090
426.000 0.089
427.000 0.090
428.000 0.090
429.000 0.090
430.000 0.091
431.000 0.089
432.000 0.091
433.000 0.092
434.000 0.091
435.000 0.093
436.000 0.093
437.000 0.093
438.000 0.094
439.000 0.094
440.000 0.095
441.000 0.096
442.000 0.094
443.000 0.095
444.000 0.096
445.000 0.096
446.000 0.096
447.000 0.095
448.000 0.095
449.000 0.097
450.000 0.096
451.000 0.095
452.000 0.096
453.000 0.098
454.000 0.098
455.000 0.098
456.000 0.098
457.000 0.097
458.000 0.097
459.000 0.099
460.000 0.099
461.000 0.100
462.000 0.099
463.000 0.099
464.000 0.100
465.000 0.103
466.000 0.103
467.000 0.102
468.000 0.104
469.000 0.103
470.000 0.102
471.000 0.102
472.000 0.103
473.000 0.103
474.000 0.103
475.000 0.106
476.000 0.106
477.000 0.106
478.000 0.106
479.000 0.107
480.000 0.107
481.000 0.108
482.000 0.109
483.000 0.109
484.000 0.110
485.000 0.111
486.000 0.110
487.000 0.111
488.000 0.112
489.000 0.112
490.000 0.113
491.000 0.113
492.000 0.113
493.000 0.115
494.000 0.114
495.000 0.115
496.000 0.116
497.000 0.118
498.000 0.117
499.000 0.116
500.000 0.119
501.000 0.120
502.000 0.121
503.000 0.121
504.000 0.122
505.000 0.123
506.000 0.123
507.000 0.124
508.000 0.124
509.000 0.126
510.000 0.127
511.000 0.128
512.000 0.130
513.000 0.131
514.000 0.130
515.000 0.132
516.000 0.134
517.000 0.136
518.000 0.137
519.000 0.139
520.000 0.139
521.000 0.139
522.000 0.140
523.000 0.141
524.000 0.144
525.000 0.146
526.000 0.146
527.000 0.147
528.000 0.149
529.000 0.150
530.000 0.150
531.000 0.151
532.000 0.153
533.000 0.153
534.000 0.154
535.000 0.155
536.000 0.157
537.000 0.157
538.000 0.157
539.000 0.158
540.000 0.160
541.000 0.160
542.000 0.160
543.000 0.161
544.000 0.160
545.000 0.161
546.000 0.163
547.000 0.163
548.000 0.163
549.000 0.164
550.000 0.165
551.000 0.165
552.000 0.165
553.000 0.166
554.000 0.166
555.000 0.167
556.000 0.167
557.000 0.168
558.000 0.167
559.000 0.169
560.000 0.168
561.000 0.168
562.000 0.169
563.000 0.170
564.000 0.170
565.000 0.170
566.000 0.169
567.000 0.170
568.000 0.171
569.000 0.170
570.000 0.170
571.000 0.171
572.000 0.171
573.000 0.170
574.000 0.170
575.000 0.171
576.000 0.171
577.000 0.171
578.000 0.172
579.000 0.173
580.000 0.172
581.000 0.171
582.000 0.172
583.000 0.172
584.000 0.173
585.000 0.174
586.000 0.174
587.000 0.174
588.000 0.174
589.000 0.176
590.000 0.176
591.000 0.176
592.000 0.177
593.000 0.176
594.000 0.177
595.000 0.177
596.000 0.177
597.000 0.176
598.000 0.177
599.000 0.178
600.000 0.178
601.000 0.178
602.000 0.177
603.000 0.176
604.000 0.178
605.000 0.178
606.000 0.179
607.000 0.181
608.000 0.181
609.000 0.181
610.000 0.182
611.000 0.182
612.000 0.182
613.000 0.182
614.000 0.183
615.000 0.184
616.000 0.185
617.000 0.185
618.000 0.185
619.000 0.185
620.000 0.187
621.000 0.187
622.000 0.188
623.000 0.190
624.000 0.190
625.000 0.190
626.000 0.192
627.000 0.194
628.000 0.194
629.000 0.193
630.000 0.192
631.000 0.195
632.000 0.195
633.000 0.195
634.000 0.196
635.000 0.198
636.000 0.197
637.000 0.198
638.000 0.200
639.000 0.200
640.000 0.200
641.000 0.201
642.000 0.202
643.000 0.201
644.000 0.202
645.000 0.204
646.000 0.205
647.000 0.206
648.000 0.207
649.000 0.205
650.000 0.205
651.000 0.208
652.000 0.211
653.000 0.209
654.000 0.209
655.000 0.212
656.000 0.214
657.000 0.215
658.000 0.214
659.000 0.215
660.000 0.215
661.000 0.215
662.000 0.216
663.000 0.218
664.000 0.219
665.000 0.220
666.000 0.221
667.000 0.221
668.000 0.222
669.000 0.223
670.000 0.223
671.000 0.225
672.000 0.227
673.000 0.228
674.000 0.229
675.000 0.229
676.000 0.228
677.000 0.227
678.000 0.230
679.000 0.234
680.000 0.235
681.000 0.232
682.000 0.234
683.000 0.237
684.000 0.237
685.000 0.237
686.000 0.237
687.000 0.238
688.000 0.241
689.000 0.239
690.000 0.238
691.000 0.239
692.000 0.239
693.000 0.238
694.000 0.239
695.000 0.240
696.000 0.241
697.000 0.242
698.000 0.243
699.000 0.243
700.000 0.244
701.000 0.245
702.000 0.249
703.000 0.249
704.000 0.251
705.000 0.253
706.000 0.255
707.000 0.256
708.000 0.258
709.000 0.260
710.000 0.264
711.000 0.266
712.000 0.268
713.000 0.270
714.000 0.273
715.000 0.275
716.000 0.277
717.000 0.279
718.000 0.283
719.000 0.285
720.000 0.288
721.000 0.291
722.000 0.294
723.000 0.297
724.000 0.299
725.000 0.302
726.000 0.306
727.000 0.309
728.000 0.312
729.000 0.315
730.000 0.318
731.000 0.321
732.000 0.324
733.000 0.327
734.000 0.330
735.000 0.333
736.000 0.335
737.000 0.338
738.000 0.341
739.000 0.343
740.000 0.346
741.000 0.349
742.000 0.352
743.000 0.355
744.000 0.356
745.000 0.358
746.000 0.337
747.000 0.342
748.000 0.344
749.000 0.344
750.000 0.346
751.000 0.347
752.000 0.348
753.000 0.350
754.000 0.351
755.000 0.352
756.000 0.353
757.000 0.354
758.000 0.355
759.000 0.355
760.000 0.353
761.000 0.352
762.000 0.352
763.000 0.352
764.000 0.354
765.000 0.356
766.000 0.358
767.000 0.361
768.000 0.362
769.000 0.364
770.000 0.365
771.000 0.366
772.000 0.366
773.000 0.367
774.000 0.368
775.000 0.369
776.000 0.370
777.000 0.370
778.000 0.372
779.000 0.372
780.000 0.373
781.000 0.374
782.000 0.375
783.000 0.375
784.000 0.375
785.000 0.376
786.000 0.377
787.000 0.377
788.000 0.378
789.000 0.379
790.000 0.380
791.000 0.380
792.000 0.381
793.000 0.382
794.000 0.383
795.000 0.383
796.000 0.384
797.000 0.384
798.000 0.385
799.000 0.386
800.000 0.387
801.000 0.387
802.000 0.388
803.000 0.390
804.000 0.390
805.000 0.391
806.000 0.391
807.000 0.393
808.000 0.394
809.000 0.394
810.000 0.394
811.000 0.394
812.000 0.394
813.000 0.394
814.000 0.395
815.000 0.395
816.000 0.395
817.000 0.396
818.000 0.397
819.000 0.399
820.000 0.399
821.000 0.400
822.000 0.401
823.000 0.402
824.000 0.403
825.000 0.403
826.000 0.404
827.000 0.405
828.000 0.405
829.000 0.407
830.000 0.407
831.000 0.408
832.000 0.409
833.000 0.410
834.000 0.411
835.000 0.412
836.000 0.413
837.000 0.414
838.000 0.415
839.000 0.416
840.000 0.416
841.000 0.417
842.000 0.418
843.000 0.418
844.000 0.419
845.000 0.420
846.000 0.421
847.000 0.422
848.000 0.422
849.000 0.423
850.000 0.424
851.000 0.424
852.000 0.425
853.000 0.425
854.000 0.426
855.000 0.427
856.000 0.428
857.000 0.429
858.000 0.428
859.000 0.429
860.000 0.430
861.000 0.431
862.000 0.431
863.000 0.431
864.000 0.432
865.000 0.433
866.000 0.433
867.000 0.434
868.000 0.435
869.000 0.435
870.000 0.435
871.000 0.436
872.000 0.437
873.000 0.437
874.000 0.438
875.000 0.439
876.000 0.440
877.000 0.440
878.000 0.440
879.000 0.441
880.000 0.441
881.000 0.442
882.000 0.443
883.000 0.444
884.000 0.445
885.000 0.445
886.000 0.446
887.000 0.446
888.000 0.446
889.000 0.447
890.000 0.447
891.000 0.448
892.000 0.448
893.000 0.448
894.000 0.448
895.000 0.448
896.000 0.448
897.000 0.448
898.000 0.448
899.000 0.448
900.000 0.449
901.000 0.450
902.000 0.451
903.000 0.451
904.000 0.451
905.000 0.452
906.000 0.453
907.000 0.453
908.000 0.454
909.000 0.453
910.000 0.453
911.000 0.454
912.000 0.454
913.000 0.454
914.000 0.455
915.000 0.456
916.000 0.457
917.000 0.457
918.000 0.459
919.000 0.459
920.000 0.460
921.000 0.461
922.000 0.461
923.000 0.461
924.000 0.462
925.000 0.461
926.000 0.461
927.000 0.460
928.000 0.459
929.000 0.457
930.000 0.456
931.000 0.457
932.000 0.457
933.000 0.456
934.000 0.454
935.000 0.451
936.000 0.448
937.000 0.449
938.000 0.450
939.000 0.450
940.000 0.452
941.000 0.455
942.000 0.455
943.000 0.454
944.000 0.458
945.000 0.456
946.000 0.452
947.000 0.454
948.000 0.458
949.000 0.456
950.000 0.456
951.000 0.459
952.000 0.459
953.000 0.460
954.000 0.461
955.000 0.462
956.000 0.459
957.000 0.462
958.000 0.465
959.000 0.463
960.000 0.463
961.000 0.465
962.000 0.467
963.000 0.467
964.000 0.467
965.000 0.469
966.000 0.470
967.000 0.471
968.000 0.474
969.000 0.474
970.000 0.475
971.000 0.476
972.000 0.476
973.000 0.474
974.000 0.475
975.000 0.480
976.000 0.481
977.000 0.479
978.000 0.477
979.000 0.477
980.000 0.478
981.000 0.480
982.000 0.481
983.000 0.481
984.000 0.483
985.000 0.485
986.000 0.486
987.000 0.485
988.000 0.485
989.000 0.485
990.000 0.487
991.000 0.489
992.000 0.488
993.000 0.489
994.000 0.489
995.000 0.489
996.000 0.491
997.000 0.491
998.000 0.489
999.000 0.490
1000.000 0.492
1001.000 0.502
1002.000 0.502
1003.000 0.503
1004.000 0.503
1005.000 0.503
1006.000 0.504
1007.000 0.505
1008.000 0.507
1009.000 0.508
1010.000 0.509
1011.000 0.510
1012.000 0.508
1013.000 0.507
1014.000 0.506
1015.000 0.506
1016.000 0.507
1017.000 0.508
1018.000 0.508
1019.000 0.509
1020.000 0.510
1021.000 0.510
1022.000 0.511
1023.000 0.511
1024.000 0.511
1025.000 0.511
1026.000 0.512
1027.000 0.513
1028.000 0.514
1029.000 0.515
1030.000 0.515
1031.000 0.514
1032.000 0.515
1033.000 0.515
1034.000 0.516
1035.000 0.516
1036.000 0.517
1037.000 0.517
1038.000 0.516
1039.000 0.517
1040.000 0.517
1041.000 0.517
1042.000 0.517
1043.000 0.517
1044.000 0.517
1045.000 0.517
1046.000 0.517
1047.000 0.518
1048.000 0.516
1049.000 0.516
1050.000 0.516
1051.000 0.517
1052.000 0.519
1053.000 0.520
1054.000 0.521
1055.000 0.521
1056.000 0.521
1057.000 0.521
1058.000 0.520
1059.000 0.520
1060.000 0.521
1061.000 0.521
1062.000 0.521
1063.000 0.522
1064.000 0.522
1065.000 0.522
1066.000 0.521
1067.000 0.522
1068.000 0.523
1069.000 0.523
1070.000 0.523
1071.000 0.524
1072.000 0.523
1073.000 0.524
1074.000 0.524
1075.000 0.525
1076.000 0.525
1077.000 0.525
1078.000 0.524
1079.000 0.524
1080.000 0.525
1081.000 0.525
1082.000 0.526
1083.000 0.526
1084.000 0.527
1085.000 0.527
1086.000 0.527
1087.000 0.527
1088.000 0.527
1089.000 0.528
1090.000 0.527
1091.000 0.527
1092.000 0.528
1093.000 0.528
1094.000 0.527
1095.000 0.528
1096.000 0.528
1097.000 0.529
1098.000 0.528
1099.000 0.528
1100.000 0.526
1101.000 0.525
1102.000 0.524
1103.000 0.525
1104.000 0.525
1105.000 0.525
1106.000 0.525
1107.000 0.525
1108.000 0.525
1109.000 0.523
1110.000 0.522
1111.000 0.523
1112.000 0.523
1113.000 0.523
1114.000 0.523
1115.000 0.523
1116.000 0.522
1117.000 0.522
1118.000 0.522
1119.000 0.522
1120.000 0.521
1121.000 0.521
1122.000 0.520
1123.000 0.519
1124.000 0.516
1125.000 0.516
1126.000 0.515
1127.000 0.518
1128.000 0.519
1129.000 0.519
1130.000 0.521
1131.000 0.521
1132.000 0.525
1133.000 0.525
1134.000 0.524
1135.000 0.524
1136.000 0.523
1137.000 0.522
1138.000 0.521
1139.000 0.521
1140.000 0.521
1141.000 0.520
1142.000 0.521
1143.000 0.523
1144.000 0.524
1145.000 0.524
1146.000 0.525
1147.000 0.527
1148.000 0.527
1149.000 0.528
1150.000 0.529
1151.000 0.530
1152.000 0.530
1153.000 0.529
1154.000 0.530
1155.000 0.531
1156.000 0.531
1157.000 0.532
1158.000 0.532
1159.000 0.533
1160.000 0.534
1161.000 0.534
1162.000 0.535
1163.000 0.535
1164.000 0.536
1165.000 0.536
1166.000 0.536
1167.000 0.536
1168.000 0.537
1169.000 0.538
1170.000 0.539
1171.000 0.540
1172.000 0.539
1173.000 0.540
1174.000 0.540
1175.000 0.540
1176.000 0.541
1177.000 0.543
1178.000 0.543
1179.000 0.544
1180.000 0.544
1181.000 0.544
1182.000 0.544
1183.000 0.545
1184.000 0.545
1185.000 0.545
1186.000 0.545
1187.000 0.546
1188.000 0.548
1189.000 0.549
1190.000 0.549
1191.000 0.550
1192.000 0.549
1193.000 0.550
1194.000 0.550
1195.000 0.551
1196.000 0.552
1197.000 0.553
1198.000 0.553
1199.000 0.554
1200.000 0.553
1201.000 0.554
1202.000 0.555
1203.000 0.555
1204.000 0.555
1205.000 0.555
1206.000 0.555
1207.000 0.555
1208.000 0.555
1209.000 0.555
1210.000 0.555
1211.000 0.556
1212.000 0.557
1213.000 0.557
1214.000 0.557
1215.000 0.558
1216.000 0.558
1217.000 0.557
1218.000 0.557
1219.000 0.558
1220.000 0.558
1221.000 0.559
1222.000 0.560
1223.000 0.560
1224.000 0.560
1225.000 0.559
1226.000 0.559
1227.000 0.560
1228.000 0.560
1229.000 0.561
1230.000 0.561
1231.000 0.562
1232.000 0.562
1233.000 0.562
1234.000 0.563
1235.000 0.563
1236.000 0.564
1237.000 0.563
1238.000 0.563
1239.000 0.563
1240.000 0.563
1241.000 0.563
1242.000 0.563
1243.000 0.563
1244.000 0.562
1245.000 0.562
1246.000 0.562
1247.000 0.562
1248.000 0.562
1249.000 0.563
1250.000 0.563
1251.000 0.564
1252.000 0.565
1253.000 0.565
1254.000 0.565
1255.000 0.564
1256.000 0.564
1257.000 0.564
1258.000 0.564
1259.000 0.565
1260.000 0.565
1261.000 0.564
1262.000 0.563
1263.000 0.562
1264.000 0.562
1265.000 0.562
1266.000 0.562
1267.000 0.563
1268.000 0.563
1269.000 0.563
1270.000 0.564
1271.000 0.566
1272.000 0.566
1273.000 0.568
1274.000 0.569
1275.000 0.569
1276.000 0.569
1277.000 0.569
1278.000 0.568
1279.000 0.569
1280.000 0.570
1281.000 0.571
1282.000 0.572
1283.000 0.572
1284.000 0.571
1285.000 0.571
1286.000 0.571
1287.000 0.572
1288.000 0.573
1289.000 0.574
1290.000 0.574
1291.000 0.574
1292.000 0.573
1293.000 0.573
1294.000 0.573
1295.000 0.574
1296.000 0.574
1297.000 0.575
1298.000 0.575
1299.000 0.576
1300.000 0.575
1301.000 0.575
1302.000 0.575
1303.000 0.575
1304.000 0.574
1305.000 0.575
1306.000 0.574
1307.000 0.574
1308.000 0.573
1309.000 0.573
1310.000 0.573
1311.000 0.572
1312.000 0.571
1313.000 0.571
1314.000 0.571
1315.000 0.570
1316.000 0.592
1317.000 0.592
1318.000 0.592
1319.000 0.591
1320.000 0.591
1321.000 0.591
1322.000 0.590
1323.000 0.590
1324.000 0.589
1325.000 0.589
1326.000 0.589
1327.000 0.589
1328.000 0.590
1329.000 0.588
1330.000 0.586
1331.000 0.585
1332.000 0.584
1333.000 0.583
1334.000 0.581
1335.000 0.581
1336.000 0.580
1337.000 0.580
1338.000 0.580
1339.000 0.580
1340.000 0.579
1341.000 0.577
1342.000 0.573
1343.000 0.570
1344.000 0.566
1345.000 0.563
1346.000 0.563
1347.000 0.560
1348.000 0.557
1349.000 0.554
1350.000 0.549
1351.000 0.534
1352.000 0.530
1353.000 0.537
1354.000 0.551
1355.000 0.593
1356.000 0.671
1357.000 0.652
1358.000 0.731
1359.000 0.642
1360.000 0.648
1361.000 0.670
1362.000 0.626
1363.000 0.560
1364.000 0.484
1365.000 0.523
1366.000 0.565
1367.000 0.595
1368.000 0.365
1369.000 0.349
1370.000 0.253
1371.000 0.396
1372.000 0.520
1373.000 0.508
1374.000 0.500
1375.000 0.265
1376.000 0.424
1377.000 0.492
1378.000 0.484
1379.000 0.302
1380.000 0.474
1381.000 0.575
1382.000 0.553
1383.000 0.507
1384.000 0.518
1385.000 0.392
1386.000 0.367
1387.000 0.353
1388.000 0.247
1389.000 0.260
1390.000 0.263
1391.000 0.201
1392.000 0.121
1393.000 0.066
1394.000 0.469
1395.000 0.551
1396.000 0.545
1397.000 0.531
1398.000 0.521
1399.000 0.504
1400.000 0.487
1401.000 0.388
1402.000 0.535
1403.000 0.409
1404.000 0.423
1405.000 0.410
1406.000 0.393
1407.000 0.424
1408.000 0.555
1409.000 0.611
1410.000 0.575
1411.000 0.568
1412.000 0.532
1413.000 0.515
1414.000 0.553
1415.000 0.647
1416.000 0.630
1417.000 0.647
1418.000 0.621
1419.000 0.604
1420.000 0.601
1421.000 0.541
1422.000 0.550
1423.000 0.487
1424.000 0.479
1425.000 0.481
1426.000 0.486
1427.000 0.523
1428.000 0.531
1429.000 0.522
1430.000 0.524
1431.000 0.523
1432.000 0.522
1433.000 0.518
1434.000 0.528
1435.000 0.534
1436.000 0.558
1437.000 0.592
1438.000 0.626
1439.000 0.653
1440.000 0.658
1441.000 0.661
1442.000 0.628
1443.000 0.569
1444.000 0.547
1445.000 0.532
1446.000 0.521
1447.000 0.532
1448.000 0.532
1449.000 0.528
1450.000 0.517
1451.000 0.508
1452.000 0.509
1453.000 0.502
1454.000 0.491
1455.000 0.492
1456.000 0.497
1457.000 0.498
1458.000 0.508
1459.000 0.507
1460.000 0.496
1461.000 0.490
1462.000 0.485
1463.000 0.481
1464.000 0.478
1465.000 0.479
1466.000 0.490
1467.000 0.489
1468.000 0.480
1469.000 0.482
1470.000 0.479
1471.000 0.483
1472.000 0.504
1473.000 0.510
1474.000 0.505
1475.000 0.511
1476.000 0.523
1477.000 0.523
1478.000 0.522
1479.000 0.516
1480.000 0.497
1481.000 0.486
1482.000 0.473
1483.000 0.470
1484.000 0.471
1485.000 0.475
1486.000 0.491
1487.000 0.495
1488.000 0.492
1489.000 0.494
1490.000 0.495
1491.000 0.494
1492.000 0.494
1493.000 0.493
1494.000 0.486
1495.000 0.485
1496.000 0.488
1497.000 0.490
1498.000 0.495
1499.000 0.496
1500.000 0.491
1501.000 0.488
1502.000 0.486
1503.000 0.487
1504.000 0.496
1505.000 0.503
1506.000 0.504
1507.000 0.503
1508.000 0.502
1509.000 0.495
1510.000 0.495
1511.000 0.499
1512.000 0.499
1513.000 0.502
1514.000 0.502
1515.000 0.499
1516.000 0.499
1517.000 0.499
1518.000 0.500
1519.000 0.503
1520.000 0.505
1521.000 0.506
1522.000 0.506
1523.000 0.506
1524.000 0.506
1525.000 0.504
1526.000 0.504
1527.000 0.507
1528.000 0.508
1529.000 0.510
1530.000 0.511
1531.000 0.511
1532.000 0.512
1533.000 0.511
1534.000 0.510
1535.000 0.509
1536.000 0.510
1537.000 0.513
1538.000 0.515
1539.000 0.519
1540.000 0.521
1541.000 0.522
1542.000 0.523
1543.000 0.523
1544.000 0.522
1545.000 0.521
1546.000 0.520
1547.000 0.519
1548.000 0.518
1549.000 0.516
1550.000 0.516
1551.000 0.516
1552.000 0.517
1553.000 0.520
1554.000 0.522
1555.000 0.523
1556.000 0.524
1557.000 0.525
1558.000 0.526
1559.000 0.526
1560.000 0.528
1561.000 0.530
1562.000 0.530
1563.000 0.529
1564.000 0.529
1565.000 0.528
1566.000 0.529
1567.000 0.533
1568.000 0.535
1569.000 0.537
1570.000 0.537
1571.000 0.535
1572.000 0.534
1573.000 0.534
1574.000 0.533
1575.000 0.532
1576.000 0.532
1577.000 0.530
1578.000 0.528
1579.000 0.528
1580.000 0.529
1581.000 0.532
1582.000 0.534
1583.000 0.539
1584.000 0.541
1585.000 0.542
1586.000 0.543
1587.000 0.543
1588.000 0.542
1589.000 0.539
1590.000 0.537
1591.000 0.535
1592.000 0.534
1593.000 0.534
1594.000 0.535
1595.000 0.536
1596.000 0.537
1597.000 0.538
1598.000 0.540
1599.000 0.540
1600.000 0.541
1601.000 0.542
1602.000 0.543
1603.000 0.546
1604.000 0.547
1605.000 0.546
1606.000 0.545
1607.000 0.542
1608.000 0.540
1609.000 0.542
1610.000 0.543
1611.000 0.547
1612.000 0.549
1613.000 0.548
1614.000 0.548
1615.000 0.548
1616.000 0.548
1617.000 0.546
1618.000 0.547
1619.000 0.547
1620.000 0.548
1621.000 0.549
1622.000 0.549
1623.000 0.546
1624.000 0.545
1625.000 0.543
1626.000 0.543
1627.000 0.545
1628.000 0.547
1629.000 0.549
1630.000 0.551
1631.000 0.552
1632.000 0.552
1633.000 0.552
1634.000 0.552
1635.000 0.553
1636.000 0.553
1637.000 0.552
1638.000 0.551
1639.000 0.550
1640.000 0.549
1641.000 0.552
1642.000 0.553
1643.000 0.554
1644.000 0.554
1645.000 0.553
1646.000 0.552
1647.000 0.553
1648.000 0.553
1649.000 0.555
1650.000 0.556
1651.000 0.555
1652.000 0.555
1653.000 0.554
1654.000 0.555
1655.000 0.558
1656.000 0.558
1657.000 0.557
1658.000 0.556
1659.000 0.557
1660.000 0.557
1661.000 0.560
1662.000 0.560
1663.000 0.557
1664.000 0.556
1665.000 0.557
1666.000 0.557
1667.000 0.559
1668.000 0.559
1669.000 0.560
1670.000 0.560
1671.000 0.562
1672.000 0.563
1673.000 0.560
1674.000 0.560
1675.000 0.561
1676.000 0.561
1677.000 0.565
1678.000 0.567
1679.000 0.567
1680.000 0.568
1681.000 0.568
1682.000 0.567
1683.000 0.566
1684.000 0.565
1685.000 0.564
1686.000 0.563
1687.000 0.564
1688.000 0.563
1689.000 0.561
1690.000 0.561
1691.000 0.561
1692.000 0.562
1693.000 0.566
1694.000 0.568
1695.000 0.570
1696.000 0.570
1697.000 0.568
1698.000 0.568
1699.000 0.566
1700.000 0.566
1701.000 0.566
1702.000 0.567
1703.000 0.567
1704.000 0.568
1705.000 0.566
1706.000 0.568
1707.000 0.572
1708.000 0.573
1709.000 0.573
1710.000 0.574
1711.000 0.568
1712.000 0.570
1713.000 0.572
1714.000 0.571
1715.000 0.571
1716.000 0.567
1717.000 0.566
1718.000 0.565
1719.000 0.565
1720.000 0.569
1721.000 0.568
1722.000 0.569
1723.000 0.566
1724.000 0.560
1725.000 0.558
1726.000 0.559
1727.000 0.565
1728.000 0.569
1729.000 0.573
1730.000 0.571
1731.000 0.568
1732.000 0.568
1733.000 0.567
1734.000 0.571
1735.000 0.574
1736.000 0.571
1737.000 0.571
1738.000 0.573
1739.000 0.572
1740.000 0.572
1741.000 0.573
1742.000 0.571
1743.000 0.570
1744.000 0.569
1745.000 0.569
1746.000 0.565
1747.000 0.564
1748.000 0.567
1749.000 0.566
1750.000 0.564
1751.000 0.563
1752.000 0.562
1753.000 0.561
1754.000 0.561
1755.000 0.561
1756.000 0.561
1757.000 0.558
1758.000 0.552
1759.000 0.551
1760.000 0.549
1761.000 0.547
1762.000 0.552
1763.000 0.549
1764.000 0.548
1765.000 0.553
1766.000 0.551
1767.000 0.552
1768.000 0.549
1769.000 0.544
1770.000 0.545
1771.000 0.543
1772.000 0.542
1773.000 0.539
1774.000 0.535
1775.000 0.540
1776.000 0.549
1777.000 0.555
1778.000 0.563
1779.000 0.565
1780.000 0.565
1781.000 0.571
1782.000 0.584
1783.000 0.578
1784.000 0.563
1785.000 0.549
1786.000 0.540
1787.000 0.537
1788.000 0.535
1789.000 0.540
1790.000 0.540
1791.000 0.537
1792.000 0.548
1793.000 0.541
1794.000 0.543
1795.000 0.553
1796.000 0.563
1797.000 0.577
1798.000 0.596
1799.000 0.603
1800.000 0.594
1801.000 0.531
1802.000 0.532
1803.000 0.567
1804.000 0.612
1805.000 0.622
1806.000 0.552
1807.000 0.534
1808.000 0.530
1809.000 0.518
1810.000 0.587
1811.000 0.594
1812.000 0.546
1813.000 0.631
1814.000 0.638
1815.000 0.594
1816.000 0.621
1817.000 0.657
1818.000 0.613
1819.000 0.772
1820.000 0.775
1821.000 0.713
1822.000 0.722
1823.000 0.739
1824.000 0.688
1825.000 0.692
1826.000 0.581
1827.000 0.489
1828.000 0.390
1829.000 0.584
1830.000 0.601
1831.000 0.632
1832.000 0.570
1833.000 0.741
1834.000 0.855
1835.000 0.663
1836.000 0.650
1837.000 0.691
1838.000 0.689
1839.000 0.666
1840.000 0.651
1841.000 0.629
1842.000 0.630
1843.000 0.642
1844.000 0.655
1845.000 0.658
1846.000 0.660
1847.000 0.671
1848.000 0.660
1849.000 0.664
1850.000 0.463
1851.000 0.400
1852.000 0.452
1853.000 0.549
1854.000 0.569
1855.000 0.383
1856.000 0.425
1857.000 0.458
1858.000 0.491
1859.000 0.530
1860.000 0.674
1861.000 0.644
1862.000 0.627
1863.000 0.593
1864.000 0.551
1865.000 0.534
1866.000 0.595
1867.000 0.600
1868.000 0.620
1869.000 0.515
1870.000 0.350
1871.000 0.336
1872.000 0.381
1873.000 0.412
1874.000 0.417
1875.000 0.556
1876.000 0.442
1877.000 0.345
1878.000 0.454
1879.000 0.542
1880.000 0.599
1881.000 0.716
1882.000 0.708
1883.000 0.546
1884.000 0.570
1885.000 0.587
1886.000 0.627
1887.000 0.648
1888.000 0.695
1889.000 0.647
1890.000 0.564
1891.000 0.523
1892.000 0.553
1893.000 0.555
1894.000 0.608
1895.000 0.607
1896.000 0.552
1897.000 0.629
1898.000 0.574
1899.000 0.484
1900.000 0.378
1901.000 0.262
1902.000 0.168
1903.000 0.194
1904.000 0.310
1905.000 0.490
1906.000 0.566
1907.000 0.509
1908.000 0.154
1909.000 0.244
1910.000 0.334
1911.000 0.426
1912.000 0.359
1913.000 0.492
1914.000 0.516
1915.000 0.531
1916.000 0.577
1917.000 0.380
1918.000 0.424
1919.000 0.288
1920.000 0.341
1921.000 0.406
1922.000 0.346
1923.000 0.393
1924.000 0.436
1925.000 0.534
1926.000 0.339
1927.000 0.145
1928.000 0.158
1929.000 0.532
1930.000 0.616
1931.000 0.383
1932.000 0.363
1933.000 0.536
1934.000 0.389
1935.000 0.387
1936.000 0.374
1937.000 0.289
1938.000 0.309
1939.000 0.399
1940.000 0.612
1941.000 0.594
1942.000 0.506
1943.000 0.497
1944.000 0.508
1945.000 0.452
1946.000 0.236
1947.000 0.332
1948.000 0.463
1949.000 0.464
1950.000 0.636
1951.000 0.657
1952.000 0.677
1953.000 0.724
1954.000 0.759
1955.000 0.771
1956.000 0.901
1957.000 0.719
1958.000 0.660
1959.000 0.602
1960.000 0.622
1961.000 0.622
1962.000 0.542
1963.000 0.407
1964.000 0.386
1965.000 0.419
1966.000 0.405
1967.000 0.449
1968.000 0.508
1969.000 0.503
1970.000 0.561
1971.000 0.568
1972.000 0.564
1973.000 0.563
1974.000 0.517
1975.000 0.460
1976.000 0.368
1977.000 0.347
1978.000 0.348
1979.000 0.331
1980.000 0.346
1981.000 0.359
1982.000 0.389
1983.000 0.429
1984.000 0.436
1985.000 0.464
1986.000 0.464
1987.000 0.426
1988.000 0.416
1989.000 0.405
1990.000 0.404
1991.000 0.414
1992.000 0.406
1993.000 0.420
1994.000 0.420
1995.000 0.430
1996.000 0.474
1997.000 0.486
1998.000 0.474
1999.000 0.492
2000.000 0.457
2001.000 0.464
2002.000 0.517
2003.000 0.512
2004.000 0.504
2005.000 0.496
2006.000 0.446
2007.000 0.523
2008.000 0.601
2009.000 0.624
2010.000 0.644
2011.000 0.698
2012.000 0.595
2013.000 0.555
2014.000 0.550
2015.000 0.497
2016.000 0.455
2017.000 0.417
2018.000 0.406
2019.000 0.424
2020.000 0.429
2021.000 0.397
2022.000 0.411
2023.000 0.437
2024.000 0.444
2025.000 0.480
2026.000 0.500
2027.000 0.511
2028.000 0.500
2029.000 0.498
2030.000 0.494
2031.000 0.502
2032.000 0.516
2033.000 0.517
2034.000 0.516
2035.000 0.530
2036.000 0.505
2037.000 0.473
2038.000 0.462
2039.000 0.435
2040.000 0.431
2041.000 0.452
2042.000 0.456
2043.000 0.464
2044.000 0.469
2045.000 0.462
2046.000 0.458
2047.000 0.459
2048.000 0.458
2049.000 0.453
2050.000 0.449
2051.000 0.459
2052.000 0.449
2053.000 0.454
2054.000 0.500
2055.000 0.527
2056.000 0.531
2057.000 0.525
2058.000 0.476
2059.000 0.466
2060.000 0.473
2061.000 0.472
2062.000 0.488
2063.000 0.489
2064.000 0.454
2065.000 0.449
2066.000 0.456
2067.000 0.474
2068.000 0.469
2069.000 0.484
2070.000 0.501
2071.000 0.496
2072.000 0.494
2073.000 0.503
2074.000 0.503
2075.000 0.488
2076.000 0.484
2077.000 0.493
2078.000 0.492
2079.000 0.473
2080.000 0.469
2081.000 0.471
2082.000 0.478
2083.000 0.480
2084.000 0.503
2085.000 0.512
2086.000 0.499
2087.000 0.500
2088.000 0.507
2089.000 0.506
2090.000 0.507
2091.000 0.504
2092.000 0.490
2093.000 0.484
2094.000 0.474
2095.000 0.476
2096.000 0.491
2097.000 0.498
2098.000 0.508
2099.000 0.523
2100.000 0.514
2101.000 0.520
2102.000 0.516
2103.000 0.494
2104.000 0.481
2105.000 0.458
2106.000 0.457
2107.000 0.469
2108.000 0.476
2109.000 0.505
2110.000 0.509
2111.000 0.498
2112.000 0.488
2113.000 0.458
2114.000 0.449
2115.000 0.454
2116.000 0.452
2117.000 0.458
2118.000 0.458
2119.000 0.455
2120.000 0.453
2121.000 0.450
2122.000 0.449
2123.000 0.454
2124.000 0.463
2125.000 0.467
2126.000 0.483
2127.000 0.489
2128.000 0.480
2129.000 0.477
2130.000 0.476
2131.000 0.474
2132.000 0.465
2133.000 0.464
2134.000 0.465
2135.000 0.468
2136.000 0.479
2137.000 0.488
2138.000 0.502
2139.000 0.502
2140.000 0.488
2141.000 0.478
2142.000 0.471
2143.000 0.455
2144.000 0.455
2145.000 0.465
2146.000 0.479
2147.000 0.516
2148.000 0.532
2149.000 0.552
2150.000 0.556
2151.000 0.541
2152.000 0.524
2153.000 0.493
2154.000 0.480
2155.000 0.472
2156.000 0.467
2157.000 0.472
2158.000 0.487
2159.000 0.491
2160.000 0.486
2161.000 0.490
2162.000 0.497
2163.000 0.500
2164.000 0.508
2165.000 0.515
2166.000 0.523
2167.000 0.521
2168.000 0.515
2169.000 0.510
2170.000 0.490
2171.000 0.483
2172.000 0.483
2173.000 0.484
2174.000 0.494
2175.000 0.501
2176.000 0.511
2177.000 0.515
2178.000 0.520
2179.000 0.520
2180.000 0.505
2181.000 0.502
2182.000 0.502
2183.000 0.486
2184.000 0.483
2185.000 0.486
2186.000 0.487
2187.000 0.485
2188.000 0.492
2189.000 0.509
2190.000 0.510
2191.000 0.507
2192.000 0.508
2193.000 0.499
2194.000 0.497
2195.000 0.500
2196.000 0.501
2197.000 0.494
2198.000 0.499
2199.000 0.510
2200.000 0.523
2201.000 0.553
2202.000 0.560
2203.000 0.557
2204.000 0.560
2205.000 0.541
2206.000 0.523
2207.000 0.515
2208.000 0.502
2209.000 0.494
2210.000 0.486
2211.000 0.493
2212.000 0.515
2213.000 0.518
2214.000 0.527
2215.000 0.526
2216.000 0.500
2217.000 0.502
2218.000 0.532
2219.000 0.536
2220.000 0.533
2221.000 0.533
2222.000 0.518
2223.000 0.510
2224.000 0.503
2225.000 0.504
2226.000 0.507
2227.000 0.518
2228.000 0.514
2229.000 0.534
2230.000 0.546
2231.000 0.532
2232.000 0.554
2233.000 0.572
2234.000 0.565
2235.000 0.565
2236.000 0.558
2237.000 0.552
2238.000 0.542
2239.000 0.531
2240.000 0.520
2241.000 0.500
2242.000 0.488
2243.000 0.480
2244.000 0.479
2245.000 0.486
2246.000 0.485
2247.000 0.483
2248.000 0.485
2249.000 0.481
2250.000 0.479
2251.000 0.488
2252.000 0.484
2253.000 0.464
2254.000 0.452
2255.000 0.438
2256.000 0.432
2257.000 0.435
2258.000 0.425
2259.000 0.436
2260.000 0.439
2261.000 0.438
2262.000 0.461
2263.000 0.490
2264.000 0.514
2265.000 0.518
2266.000 0.525
2267.000 0.504
2268.000 0.479
2269.000 0.470
2270.000 0.457
2271.000 0.486
2272.000 0.504
2273.000 0.517
2274.000 0.562
2275.000 0.566
2276.000 0.522
2277.000 0.508
2278.000 0.488
2279.000 0.472
2280.000 0.463
2281.000 0.457
2282.000 0.445
2283.000 0.450
2284.000 0.474
2285.000 0.483
2286.000 0.505
2287.000 0.504
2288.000 0.479
2289.000 0.458
2290.000 0.419
2291.000 0.402
2292.000 0.392
2293.000 0.384
2294.000 0.388
2295.000 0.397
2296.000 0.416
2297.000 0.424
2298.000 0.447
2299.000 0.465
2300.000 0.451
2301.000 0.441
2302.000 0.441
2303.000 0.426
2304.000 0.452
2305.000 0.515
2306.000 0.515
2307.000 0.559
2308.000 0.595
2309.000 0.543
2310.000 0.626
2311.000 0.621
2312.000 0.611
2313.000 0.554
2314.000 0.474
2315.000 0.472
2316.000 0.475
2317.000 0.469
2318.000 0.492
2319.000 0.479
2320.000 0.448
2321.000 0.439
2322.000 0.450
2323.000 0.446
2324.000 0.458
2325.000 0.497
2326.000 0.494
2327.000 0.440
2328.000 0.461
2329.000 0.506
2330.000 0.523
2331.000 0.599
2332.000 0.612
2333.000 0.529
2334.000 0.509
2335.000 0.504
2336.000 0.506
2337.000 0.553
2338.000 0.578
2339.000 0.532
2340.000 0.509
2341.000 0.477
2342.000 0.444
2343.000 0.468
2344.000 0.452
2345.000 0.455
2346.000 0.430
2347.000 0.411
2348.000 0.414
2349.000 0.402
2350.000 0.402
2351.000 0.429
2352.000 0.448
2353.000 0.454
2354.000 0.482
2355.000 0.536
2356.000 0.585
2357.000 0.667
2358.000 0.661
2359.000 0.610
2360.000 0.551
2361.000 0.519
2362.000 0.470
2363.000 0.413
2364.000 0.380
2365.000 0.320
2366.000 0.314
2367.000 0.308
2368.000 0.318
2369.000 0.369
2370.000 0.359
2371.000 0.349
2372.000 0.386
2373.000 0.402
2374.000 0.376
2375.000 0.372
2376.000 0.449
2377.000 0.382
2378.000 0.323
2379.000 0.354
2380.000 0.359
2381.000 0.482
2382.000 0.617
2383.000 0.655
2384.000 0.581
2385.000 0.495
2386.000 0.417
2387.000 0.356
2388.000 0.323
2389.000 0.301
2390.000 0.300
2391.000 0.286
2392.000 0.289
2393.000 0.228
2394.000 0.245
2395.000 0.252
2396.000 0.342
2397.000 0.541
2398.000 0.618
2399.000 0.695
2400.000 0.686
2401.000 0.682
2402.000 0.637
2403.000 0.617
2404.000 0.612
2405.000 0.547
2406.000 0.418
2407.000 0.379
2408.000 0.348
2409.000 0.263
2410.000 0.234
2411.000 0.276
2412.000 0.192
2413.000 0.149
2414.000 0.143
2415.000 0.196
2416.000 0.244
2417.000 0.393
2418.000 0.441
2419.000 0.466
2420.000 0.336
2421.000 0.452
2422.000 0.489
2423.000 0.547
2424.000 0.596
2425.000 0.367
2426.000 0.308
2427.000 0.405
2428.000 0.519
2429.000 0.417
2430.000 0.336
2431.000 0.575
2432.000 0.429
2433.000 0.114
2434.000 0.210
2435.000 0.365
2436.000 0.347
2437.000 0.441
2438.000 0.362
2439.000 0.303
2440.000 0.246
2441.000 0.284
2442.000 0.232
2443.000 0.091
2444.000 0.261
2445.000 0.441
2446.000 0.420
2447.000 0.502
2448.000 0.450
2449.000 0.425
2450.000 0.839
2451.000 0.706
2452.000 0.431
2453.000 0.219
2454.000 0.253
2455.000 0.285
2456.000 0.326
2457.000 0.400
2458.000 0.456
2459.000 0.317
2460.000 0.613
2461.000 0.726
2462.000 0.701
2463.000 0.666
2464.000 0.477
2465.000 0.263
2466.000 0.436
2467.000 0.623
2468.000 0.512
2469.000 0.303
2470.000 0.314
2471.000 0.323
2472.000 0.367
2473.000 0.408
2474.000 0.749
2475.000 0.818
2476.000 0.840
2477.000 0.710
2478.000 0.714
2479.000 0.722
2480.000 0.386
2481.000 0.238
2482.000 0.141
2483.000 0.228
2484.000 0.309
2485.000 0.270
2486.000 0.254
2487.000 0.284
2488.000 0.337
2489.000 0.335
2490.000 0.687
2491.000 0.463
2492.000 0.371
2493.000 0.263
2494.000 0.279
2495.000 0.347
2496.000 0.373
2497.000 0.118
2498.000 0.341
2499.000 0.388
2500.000 0.250
