391.000 0.027
392.000 0.030
393.000 0.034
394.000 0.044
395.000 0.036
396.000 0.030
397.000 0.032
398.000 0.031
399.000 0.034
400.000 0.040
401.000 0.045
402.000 0.042
403.000 0.042
404.000 0.043
405.000 0.038
406.000 0.040
407.000 0.041
408.000 0.038
409.000 0.042
410.000 0.044
411.000 0.046
412.000 0.046
413.000 0.043
414.000 0.042
415.000 0.043
416.000 0.045
417.000 0.046
418.000 0.045
419.000 0.042
420.000 0.041
421.000 0.045
422.000 0.046
423.000 0.043
424.000 0.044
425.000 0.046
426.000 0.048
427.000 0.049
428.000 0.046
429.000 0.045
430.000 0.045
431.000 0.045
432.000 0.045
433.000 0.043
434.000 0.043
435.000 0.048
436.000 0.047
437.000 0.045
438.000 0.047
439.000 0.046
440.000 0.044
441.000 0.044
442.000 0.045
443.000 0.046
444.000 0.047
445.000 0.047
446.000 0.048
447.000 0.047
448.000 0.046
449.000 0.046
450.000 0.045
451.000 0.046
452.000 0.049
453.000 0.049
454.000 0.047
455.000 0.048
456.000 0.051
457.000 0.047
458.000 0.048
459.000 0.050
460.000 0.047
461.000 0.049
462.000 0.048
463.000 0.046
464.000 0.048
465.000 0.049
466.000 0.049
467.000 0.049
468.000 0.048
469.000 0.048
470.000 0.050
471.000 0.050
472.000 0.049
473.000 0.047
474.000 0.046
475.000 0.046
476.000 0.049
477.000 0.050
478.000 0.047
479.000 0.047
480.000 0.048
481.000 0.048
482.000 0.046
483.000 0.047
484.000 0.047
485.000 0.048
486.000 0.050
487.000 0.052
488.000 0.053
489.000 0.053
490.000 0.051
491.000 0.050
492.000 0.049
493.000 0.049
494.000 0.049
495.000 0.049
496.000 0.048
497.000 0.048
498.000 0.049
499.000 0.052
500.000 0.054
501.000 0.053
502.000 0.052
503.000 0.052
504.000 0.053
505.000 0.055
506.000 0.057
507.000 0.058
508.000 0.058
509.000 0.057
510.000 0.059
511.000 0.061
512.000 0.062
513.000 0.063
514.000 0.064
515.000 0.064
516.000 0.067
517.000 0.069
518.000 0.070
519.000 0.072
520.000 0.075
521.000 0.078
522.000 0.080
523.000 0.083
524.000 0.085
525.000 0.087
526.000 0.089
527.000 0.092
528.000 0.095
529.000 0.098
530.000 0.099
531.000 0.101
532.000 0.103
533.000 0.105
534.000 0.106
535.000 0.107
536.000 0.108
537.000 0.110
538.000 0.110
539.000 0.110
540.000 0.110
541.000 0.112
542.000 0.112
543.000 0.112
544.000 0.113
545.000 0.114
546.000 0.113
547.000 0.113
548.000 0.113
549.000 0.114
550.000 0.114
551.000 0.113
552.000 0.113
553.000 0.113
554.000 0.113
555.000 0.113
556.000 0.114
557.000 0.113
558.000 0.113
559.000 0.112
560.000 0.111
561.000 0.109
562.000 0.108
563.000 0.107
564.000 0.106
565.000 0.103
566.000 0.101
567.000 0.099
568.000 0.098
569.000 0.096
570.000 0.095
571.000 0.094
572.000 0.091
573.000 0.089
574.000 0.089
575.000 0.088
576.000 0.085
577.000 0.086
578.000 0.084
579.000 0.082
580.000 0.081
581.000 0.082
582.000 0.082
583.000 0.081
584.000 0.079
585.000 0.079
586.000 0.079
587.000 0.077
588.000 0.075
589.000 0.076
590.000 0.075
591.000 0.074
592.000 0.074
593.000 0.075
594.000 0.075
595.000 0.074
596.000 0.073
597.000 0.072
598.000 0.074
599.000 0.073
600.000 0.073
601.000 0.074
602.000 0.072
603.000 0.072
604.000 0.072
605.000 0.071
606.000 0.072
607.000 0.071
608.000 0.070
609.000 0.069
610.000 0.069
611.000 0.069
612.000 0.069
613.000 0.069
614.000 0.068
615.000 0.066
616.000 0.065
617.000 0.067
618.000 0.068
619.000 0.069
620.000 0.068
621.000 0.067
622.000 0.067
623.000 0.066
624.000 0.065
625.000 0.066
626.000 0.067
627.000 0.066
628.000 0.066
629.000 0.066
630.000 0.065
631.000 0.066
632.000 0.066
633.000 0.066
634.000 0.068
635.000 0.067
636.000 0.065
637.000 0.061
638.000 0.062
639.000 0.064
640.000 0.065
641.000 0.063
642.000 0.061
643.000 0.060
644.000 0.058
645.000 0.061
646.000 0.062
647.000 0.061
648.000 0.060
649.000 0.061
650.000 0.061
651.000 0.060
652.000 0.059
653.000 0.060
654.000 0.061
655.000 0.062
656.000 0.063
657.000 0.061
658.000 0.060
659.000 0.060
660.000 0.058
661.000 0.058
662.000 0.061
663.000 0.060
664.000 0.062
665.000 0.062
666.000 0.059
667.000 0.063
668.000 0.064
669.000 0.064
670.000 0.064
671.000 0.061
672.000 0.061
673.000 0.064
674.000 0.067
675.000 0.069
676.000 0.069
677.000 0.067
678.000 0.069
679.000 0.071
680.000 0.073
681.000 0.074
682.000 0.072
683.000 0.071
684.000 0.075
685.000 0.077
686.000 0.078
687.000 0.080
688.000 0.084
689.000 0.084
690.000 0.086
691.000 0.088
692.000 0.088
693.000 0.090
694.000 0.095
695.000 0.101
696.000 0.106
697.000 0.112
698.000 0.121
699.000 0.130
700.000 0.137
701.000 0.146
702.000 0.155
703.000 0.164
704.000 0.174
705.000 0.183
706.000 0.192
707.000 0.202
708.000 0.213
709.000 0.223
710.000 0.234
711.000 0.245
712.000 0.256
713.000 0.266
714.000 0.277
715.000 0.288
716.000 0.299
717.000 0.311
718.000 0.324
719.000 0.337
720.000 0.350
721.000 0.361
722.000 0.372
723.000 0.383
724.000 0.396
725.000 0.408
726.000 0.420
727.000 0.431
728.000 0.442
729.000 0.453
730.000 0.464
731.000 0.474
732.000 0.485
733.000 0.494
734.000 0.503
735.000 0.512
736.000 0.520
737.000 0.528
738.000 0.536
739.000 0.543
740.000 0.550
741.000 0.557
742.000 0.563
743.000 0.569
744.000 0.575
745.000 0.580
746.000 0.584
747.000 0.589
748.000 0.593
749.000 0.596
750.000 0.600
751.000 0.603
752.000 0.606
753.000 0.609
754.000 0.611
755.000 0.615
756.000 0.616
757.000 0.618
758.000 0.620
759.000 0.621
760.000 0.623
761.000 0.626
762.000 0.627
763.000 0.628
764.000 0.629
765.000 0.630
766.000 0.630
767.000 0.631
768.000 0.631
769.000 0.632
770.000 0.633
771.000 0.633
772.000 0.634
773.000 0.635
774.000 0.635
775.000 0.636
776.000 0.636
777.000 0.637
778.000 0.637
779.000 0.638
780.000 0.638
781.000 0.639
782.000 0.640
783.000 0.640
784.000 0.641
785.000 0.641
786.000 0.641
787.000 0.642
788.000 0.642
789.000 0.643
790.000 0.644
791.000 0.645
792.000 0.645
793.000 0.645
794.000 0.645
795.000 0.646
796.000 0.647
797.000 0.647
798.000 0.648
799.000 0.648
800.000 0.649
801.000 0.649
802.000 0.650
803.000 0.650
804.000 0.651
805.000 0.651
806.000 0.652
807.000 0.652
808.000 0.653
809.000 0.654
810.000 0.654
811.000 0.654
812.000 0.655
813.000 0.655
814.000 0.656
815.000 0.656
816.000 0.657
817.000 0.657
818.000 0.659
819.000 0.659
820.000 0.659
821.000 0.659
822.000 0.660
823.000 0.661
824.000 0.660
825.000 0.661
826.000 0.661
827.000 0.661
828.000 0.662
829.000 0.663
830.000 0.663
831.000 0.663
832.000 0.664
833.000 0.664
834.000 0.664
835.000 0.665
836.000 0.665
837.000 0.666
838.000 0.666
839.000 0.666
840.000 0.667
841.000 0.667
842.000 0.668
843.000 0.668
844.000 0.668
845.000 0.669
846.000 0.669
847.000 0.669
848.000 0.670
849.000 0.670
850.000 0.670
851.000 0.671
852.000 0.671
853.000 0.671
854.000 0.672
855.000 0.672
856.000 0.672
857.000 0.672
858.000 0.673
859.000 0.673
860.000 0.674
861.000 0.674
862.000 0.674
863.000 0.675
864.000 0.675
865.000 0.675
866.000 0.675
867.000 0.676
868.000 0.676
869.000 0.676
870.000 0.677
871.000 0.677
872.000 0.677
873.000 0.678
874.000 0.678
875.000 0.679
876.000 0.679
877.000 0.679
878.000 0.679
879.000 0.679
880.000 0.680
881.000 0.680
882.000 0.681
883.000 0.681
884.000 0.681
885.000 0.682
886.000 0.682
887.000 0.683
888.000 0.684
889.000 0.684
890.000 0.684
891.000 0.685
892.000 0.686
893.000 0.686
894.000 0.686
895.000 0.686
896.000 0.687
897.000 0.687
898.000 0.688
899.000 0.689
900.000 0.689
901.000 0.690
902.000 0.690
903.000 0.690
904.000 0.690
905.000 0.691
906.000 0.691
907.000 0.691
908.000 0.692
909.000 0.692
910.000 0.692
911.000 0.693
912.000 0.692
913.000 0.693
914.000 0.693
915.000 0.694
916.000 0.696
917.000 0.696
918.000 0.695
919.000 0.695
920.000 0.695
921.000 0.696
922.000 0.696
923.000 0.696
924.000 0.696
925.000 0.696
926.000 0.695
927.000 0.695
928.000 0.695
929.000 0.696
930.000 0.697
931.000 0.696
932.000 0.695
933.000 0.696
934.000 0.695
935.000 0.693
936.000 0.695
937.000 0.695
938.000 0.692
939.000 0.690
940.000 0.690
941.000 0.691
942.000 0.693
943.000 0.694
944.000 0.695
945.000 0.694
946.000 0.692
947.000 0.692
948.000 0.691
949.000 0.690
950.000 0.689
951.000 0.689
952.000 0.689
953.000 0.685
954.000 0.684
955.000 0.686
956.000 0.686
957.000 0.684
958.000 0.683
959.000 0.684
960.000 0.681
961.000 0.680
962.000 0.679
963.000 0.678
964.000 0.679
965.000 0.680
966.000 0.681
967.000 0.680
968.000 0.680
969.000 0.680
970.000 0.679
971.000 0.679
972.000 0.678
973.000 0.678
974.000 0.680
975.000 0.682
976.000 0.679
977.000 0.679
978.000 0.679
979.000 0.679
980.000 0.679
981.000 0.680
982.000 0.682
983.000 0.683
984.000 0.682
985.000 0.682
986.000 0.681
987.000 0.680
988.000 0.680
989.000 0.682
990.000 0.685
991.000 0.685
992.000 0.683
993.000 0.683
994.000 0.684
995.000 0.684
996.000 0.686
997.000 0.686
998.000 0.684
999.000 0.685
1000.000 0.688
1001.000 0.696
1002.000 0.696
1003.000 0.698
1004.000 0.698
1005.000 0.697
1006.000 0.698
1007.000 0.699
1008.000 0.698
1009.000 0.699
1010.000 0.700
1011.000 0.700
1012.000 0.700
1013.000 0.701
1014.000 0.702
1015.000 0.703
1016.000 0.704
1017.000 0.705
1018.000 0.705
1019.000 0.705
1020.000 0.706
1021.000 0.708
1022.000 0.709
1023.000 0.709
1024.000 0.711
1025.000 0.710
1026.000 0.711
1027.000 0.712
1028.000 0.713
1029.000 0.712
1030.000 0.712
1031.000 0.711
1032.000 0.711
1033.000 0.711
1034.000 0.712
1035.000 0.713
1036.000 0.714
1037.000 0.716
1038.000 0.717
1039.000 0.719
1040.000 0.719
1041.000 0.719
1042.000 0.718
1043.000 0.718
1044.000 0.718
1045.000 0.718
1046.000 0.719
1047.000 0.720
1048.000 0.720
1049.000 0.719
1050.000 0.719
1051.000 0.719
1052.000 0.720
1053.000 0.721
1054.000 0.723
1055.000 0.723
1056.000 0.723
1057.000 0.723
1058.000 0.722
1059.000 0.723
1060.000 0.723
1061.000 0.724
1062.000 0.725
1063.000 0.725
1064.000 0.723
1065.000 0.724
1066.000 0.725
1067.000 0.725
1068.000 0.726
1069.000 0.726
1070.000 0.724
1071.000 0.724
1072.000 0.725
1073.000 0.723
1074.000 0.724
1075.000 0.724
1076.000 0.726
1077.000 0.726
1078.000 0.726
1079.000 0.726
1080.000 0.725
1081.000 0.725
1082.000 0.725
1083.000 0.724
1084.000 0.725
1085.000 0.724
1086.000 0.724
1087.000 0.726
1088.000 0.726
1089.000 0.726
1090.000 0.727
1091.000 0.727
1092.000 0.726
1093.000 0.727
1094.000 0.727
1095.000 0.727
1096.000 0.727
1097.000 0.726
1098.000 0.726
1099.000 0.725
1100.000 0.725
1101.000 0.726
1102.000 0.726
1103.000 0.726
1104.000 0.726
1105.000 0.726
1106.000 0.727
1107.000 0.726
1108.000 0.726
1109.000 0.727
1110.000 0.726
1111.000 0.725
1112.000 0.724
1113.000 0.723
1114.000 0.722
1115.000 0.722
1116.000 0.723
1117.000 0.725
1118.000 0.726
1119.000 0.727
1120.000 0.726
1121.000 0.727
1122.000 0.726
1123.000 0.726
1124.000 0.727
1125.000 0.726
1126.000 0.723
1127.000 0.720
1128.000 0.715
1129.000 0.712
1130.000 0.710
1131.000 0.708
1132.000 0.709
1133.000 0.709
1134.000 0.709
1135.000 0.710
1136.000 0.710
1137.000 0.709
1138.000 0.708
1139.000 0.706
1140.000 0.704
1141.000 0.700
1142.000 0.698
1143.000 0.696
1144.000 0.694
1145.000 0.694
1146.000 0.692
1147.000 0.689
1148.000 0.687
1149.000 0.686
1150.000 0.682
1151.000 0.680
1152.000 0.679
1153.000 0.676
1154.000 0.674
1155.000 0.672
1156.000 0.671
1157.000 0.670
1158.000 0.669
1159.000 0.669
1160.000 0.667
1161.000 0.667
1162.000 0.668
1163.000 0.668
1164.000 0.669
1165.000 0.670
1166.000 0.671
1167.000 0.670
1168.000 0.671
1169.000 0.671
1170.000 0.670
1171.000 0.669
1172.000 0.670
1173.000 0.669
1174.000 0.669
1175.000 0.670
1176.000 0.670
1177.000 0.668
1178.000 0.667
1179.000 0.667
1180.000 0.666
1181.000 0.667
1182.000 0.667
1183.000 0.668
1184.000 0.669
1185.000 0.670
1186.000 0.670
1187.000 0.670
1188.000 0.669
1189.000 0.669
1190.000 0.669
1191.000 0.669
1192.000 0.670
1193.000 0.670
1194.000 0.670
1195.000 0.670
1196.000 0.669
1197.000 0.668
1198.000 0.668
1199.000 0.668
1200.000 0.668
1201.000 0.669
1202.000 0.670
1203.000 0.670
1204.000 0.669
1205.000 0.670
1206.000 0.671
1207.000 0.671
1208.000 0.672
1209.000 0.673
1210.000 0.672
1211.000 0.672
1212.000 0.672
1213.000 0.673
1214.000 0.673
1215.000 0.673
1216.000 0.672
1217.000 0.672
1218.000 0.672
1219.000 0.673
1220.000 0.673
1221.000 0.674
1222.000 0.674
1223.000 0.674
1224.000 0.674
1225.000 0.674
1226.000 0.674
1227.000 0.676
1228.000 0.676
1229.000 0.676
1230.000 0.676
1231.000 0.675
1232.000 0.675
1233.000 0.675
1234.000 0.675
1235.000 0.676
1236.000 0.677
1237.000 0.678
1238.000 0.678
1239.000 0.678
1240.000 0.679
1241.000 0.679
1242.000 0.680
1243.000 0.681
1244.000 0.682
1245.000 0.682
1246.000 0.684
1247.000 0.684
1248.000 0.683
1249.000 0.682
1250.000 0.681
1251.000 0.681
1252.000 0.681
1253.000 0.683
1254.000 0.683
1255.000 0.684
1256.000 0.684
1257.000 0.686
1258.000 0.686
1259.000 0.685
1260.000 0.685
1261.000 0.685
1262.000 0.686
1263.000 0.687
1264.000 0.687
1265.000 0.688
1266.000 0.688
1267.000 0.687
1268.000 0.687
1269.000 0.686
1270.000 0.686
1271.000 0.686
1272.000 0.686
1273.000 0.687
1274.000 0.687
1275.000 0.687
1276.000 0.688
1277.000 0.689
1278.000 0.690
1279.000 0.690
1280.000 0.690
1281.000 0.690
1282.000 0.690
1283.000 0.690
1284.000 0.691
1285.000 0.691
1286.000 0.690
1287.000 0.690
1288.000 0.689
1289.000 0.688
1290.000 0.687
1291.000 0.687
1292.000 0.686
1293.000 0.686
1294.000 0.686
1295.000 0.685
1296.000 0.685
1297.000 0.685
1298.000 0.685
1299.000 0.684
1300.000 0.684
1301.000 0.684
1302.000 0.683
1303.000 0.683
1304.000 0.682
1305.000 0.679
1306.000 0.677
1307.000 0.675
1308.000 0.673
1309.000 0.673
1310.000 0.672
1311.000 0.672
1312.000 0.671
1313.000 0.671
1314.000 0.669
1315.000 0.666
1316.000 0.664
1317.000 0.662
1318.000 0.660
1319.000 0.658
1320.000 0.657
1321.000 0.656
1322.000 0.654
1323.000 0.653
1324.000 0.652
1325.000 0.651
1326.000 0.648
1327.000 0.646
1328.000 0.645
1329.000 0.643
1330.000 0.642
1331.000 0.641
1332.000 0.639
1333.000 0.637
1334.000 0.633
1335.000 0.630
1336.000 0.626
1337.000 0.624
1338.000 0.624
1339.000 0.623
1340.000 0.621
1341.000 0.619
1342.000 0.615
1343.000 0.613
1344.000 0.615
1345.000 0.614
1346.000 0.615
1347.000 0.615
1348.000 0.613
1349.000 0.607
1350.000 0.603
1351.000 0.597
1352.000 0.595
1353.000 0.602
1354.000 0.610
1355.000 0.643
1356.000 0.671
1357.000 0.640
1358.000 0.647
1359.000 0.571
1360.000 0.505
1361.000 0.450
1362.000 0.472
1363.000 0.366
1364.000 0.389
1365.000 0.413
1366.000 0.453
1367.000 0.493
1368.000 0.545
1369.000 0.605
1370.000 0.649
1371.000 0.409
1372.000 0.275
1373.000 0.308
1374.000 0.296
1375.000 0.466
1376.000 0.594
1377.000 0.452
1378.000 0.367
1379.000 0.566
1380.000 0.579
1381.000 0.566
1382.000 0.315
1383.000 0.533
1384.000 0.409
1385.000 0.389
1386.000 0.317
1387.000 0.521
1388.000 0.307
1389.000 0.167
1390.000 0.379
1391.000 0.506
1392.000 0.626
1393.000 0.383
1394.000 0.344
1395.000 0.420
1396.000 0.424
1397.000 0.467
1398.000 0.466
1399.000 0.440
1400.000 0.437
1401.000 0.428
1402.000 0.392
1403.000 0.361
1404.000 0.352
1405.000 0.408
1406.000 0.555
1407.000 0.507
1408.000 0.441
1409.000 0.487
1410.000 0.490
1411.000 0.561
1412.000 0.521
1413.000 0.474
1414.000 0.443
1415.000 0.317
1416.000 0.487
1417.000 0.391
1418.000 0.338
1419.000 0.300
1420.000 0.258
1421.000 0.296
1422.000 0.295
1423.000 0.317
1424.000 0.322
1425.000 0.314
1426.000 0.314
1427.000 0.317
1428.000 0.310
1429.000 0.284
1430.000 0.283
1431.000 0.296
1432.000 0.298
1433.000 0.313
1434.000 0.319
1435.000 0.301
1436.000 0.290
1437.000 0.295
1438.000 0.282
1439.000 0.251
1440.000 0.242
1441.000 0.238
1442.000 0.233
1443.000 0.231
1444.000 0.234
1445.000 0.242
1446.000 0.243
1447.000 0.250
1448.000 0.250
1449.000 0.243
1450.000 0.233
1451.000 0.224
1452.000 0.222
1453.000 0.223
1454.000 0.224
1455.000 0.227
1456.000 0.237
1457.000 0.242
1458.000 0.246
1459.000 0.249
1460.000 0.251
1461.000 0.253
1462.000 0.253
1463.000 0.252
1464.000 0.251
1465.000 0.251
1466.000 0.247
1467.000 0.247
1468.000 0.251
1469.000 0.253
1470.000 0.255
1471.000 0.257
1472.000 0.258
1473.000 0.256
1474.000 0.251
1475.000 0.250
1476.000 0.246
1477.000 0.246
1478.000 0.253
1479.000 0.256
1480.000 0.257
1481.000 0.258
1482.000 0.256
1483.000 0.256
1484.000 0.261
1485.000 0.262
1486.000 0.261
1487.000 0.261
1488.000 0.259
1489.000 0.260
1490.000 0.262
1491.000 0.263
1492.000 0.267
1493.000 0.267
1494.000 0.266
1495.000 0.267
1496.000 0.267
1497.000 0.267
1498.000 0.268
1499.000 0.271
1500.000 0.271
1501.000 0.272
1502.000 0.275
1503.000 0.279
1504.000 0.280
1505.000 0.283
1506.000 0.286
1507.000 0.290
1508.000 0.293
1509.000 0.299
1510.000 0.300
1511.000 0.299
1512.000 0.299
1513.000 0.299
1514.000 0.300
1515.000 0.300
1516.000 0.302
1517.000 0.303
1518.000 0.306
1519.000 0.311
1520.000 0.314
1521.000 0.316
1522.000 0.319
1523.000 0.318
1524.000 0.320
1525.000 0.323
1526.000 0.325
1527.000 0.325
1528.000 0.327
1529.000 0.330
1530.000 0.333
1531.000 0.337
1532.000 0.341
1533.000 0.343
1534.000 0.345
1535.000 0.346
1536.000 0.346
1537.000 0.345
1538.000 0.345
1539.000 0.346
1540.000 0.347
1541.000 0.349
1542.000 0.352
1543.000 0.356
1544.000 0.359
1545.000 0.362
1546.000 0.364
1547.000 0.365
1548.000 0.367
1549.000 0.370
1550.000 0.372
1551.000 0.373
1552.000 0.374
1553.000 0.375
1554.000 0.376
1555.000 0.379
1556.000 0.380
1557.000 0.382
1558.000 0.383
1559.000 0.383
1560.000 0.383
1561.000 0.384
1562.000 0.384
1563.000 0.384
1564.000 0.386
1565.000 0.388
1566.000 0.389
1567.000 0.392
1568.000 0.395
1569.000 0.396
1570.000 0.399
1571.000 0.401
1572.000 0.402
1573.000 0.403
1574.000 0.405
1575.000 0.407
1576.000 0.408
1577.000 0.408
1578.000 0.410
1579.000 0.411
1580.000 0.413
1581.000 0.415
1582.000 0.417
1583.000 0.418
1584.000 0.419
1585.000 0.420
1586.000 0.422
1587.000 0.425
1588.000 0.427
1589.000 0.425
1590.000 0.427
1591.000 0.428
1592.000 0.429
1593.000 0.431
1594.000 0.433
1595.000 0.433
1596.000 0.434
1597.000 0.434
1598.000 0.436
1599.000 0.440
1600.000 0.442
1601.000 0.446
1602.000 0.448
1603.000 0.446
1604.000 0.445
1605.000 0.446
1606.000 0.445
1607.000 0.446
1608.000 0.447
1609.000 0.446
1610.000 0.447
1611.000 0.449
1612.000 0.451
1613.000 0.453
1614.000 0.456
1615.000 0.459
1616.000 0.460
1617.000 0.459
1618.000 0.459
1619.000 0.457
1620.000 0.457
1621.000 0.457
1622.000 0.458
1623.000 0.458
1624.000 0.459
1625.000 0.461
1626.000 0.463
1627.000 0.465
1628.000 0.467
1629.000 0.466
1630.000 0.467
1631.000 0.468
1632.000 0.469
1633.000 0.471
1634.000 0.471
1635.000 0.472
1636.000 0.473
1637.000 0.470
1638.000 0.470
1639.000 0.470
1640.000 0.471
1641.000 0.473
1642.000 0.474
1643.000 0.475
1644.000 0.476
1645.000 0.476
1646.000 0.476
1647.000 0.476
1648.000 0.476
1649.000 0.481
1650.000 0.482
1651.000 0.482
1652.000 0.483
1653.000 0.481
1654.000 0.480
1655.000 0.480
1656.000 0.480
1657.000 0.479
1658.000 0.480
1659.000 0.480
1660.000 0.481
1661.000 0.484
1662.000 0.485
1663.000 0.486
1664.000 0.485
1665.000 0.481
1666.000 0.480
1667.000 0.479
1668.000 0.479
1669.000 0.484
1670.000 0.486
1671.000 0.488
1672.000 0.488
1673.000 0.487
1674.000 0.486
1675.000 0.485
1676.000 0.484
1677.000 0.482
1678.000 0.483
1679.000 0.486
1680.000 0.487
1681.000 0.490
1682.000 0.491
1683.000 0.489
1684.000 0.488
1685.000 0.487
1686.000 0.486
1687.000 0.484
1688.000 0.483
1689.000 0.484
1690.000 0.486
1691.000 0.490
1692.000 0.490
1693.000 0.489
1694.000 0.486
1695.000 0.481
1696.000 0.480
1697.000 0.484
1698.000 0.484
1699.000 0.486
1700.000 0.485
1701.000 0.482
1702.000 0.480
1703.000 0.479
1704.000 0.478
1705.000 0.476
1706.000 0.476
1707.000 0.478
1708.000 0.478
1709.000 0.476
1710.000 0.476
1711.000 0.475
1712.000 0.476
1713.000 0.477
1714.000 0.479
1715.000 0.479
1716.000 0.478
1717.000 0.477
1718.000 0.474
1719.000 0.472
1720.000 0.471
1721.000 0.471
1722.000 0.473
1723.000 0.474
1724.000 0.471
1725.000 0.469
1726.000 0.464
1727.000 0.461
1728.000 0.461
1729.000 0.460
1730.000 0.459
1731.000 0.459
1732.000 0.459
1733.000 0.459
1734.000 0.463
1735.000 0.466
1736.000 0.466
1737.000 0.464
1738.000 0.457
1739.000 0.454
1740.000 0.449
1741.000 0.447
1742.000 0.445
1743.000 0.445
1744.000 0.448
1745.000 0.449
1746.000 0.451
1747.000 0.451
1748.000 0.448
1749.000 0.446
1750.000 0.446
1751.000 0.446
1752.000 0.450
1753.000 0.449
1754.000 0.447
1755.000 0.446
1756.000 0.439
1757.000 0.437
1758.000 0.439
1759.000 0.440
1760.000 0.441
1761.000 0.440
1762.000 0.432
1763.000 0.425
1764.000 0.422
1765.000 0.423
1766.000 0.424
1767.000 0.426
1768.000 0.426
1769.000 0.425
1770.000 0.425
1771.000 0.428
1772.000 0.430
1773.000 0.428
1774.000 0.428
1775.000 0.431
1776.000 0.430
1777.000 0.431
1778.000 0.434
1779.000 0.431
1780.000 0.433
1781.000 0.430
1782.000 0.425
1783.000 0.424
1784.000 0.419
1785.000 0.429
1786.000 0.432
1787.000 0.429
1788.000 0.431
1789.000 0.432
1790.000 0.433
1791.000 0.439
1792.000 0.435
1793.000 0.436
1794.000 0.427
1795.000 0.417
1796.000 0.417
1797.000 0.410
1798.000 0.395
1799.000 0.395
1800.000 0.391
1801.000 0.560
1802.000 0.589
1803.000 0.551
1804.000 0.523
1805.000 0.527
1806.000 0.519
1807.000 0.503
1808.000 0.549
1809.000 0.553
1810.000 0.555
1811.000 0.516
1812.000 0.460
1813.000 0.402
1814.000 0.398
1815.000 0.429
1816.000 0.438
1817.000 0.532
1818.000 0.533
1819.000 0.445
1820.000 0.412
1821.000 0.356
1822.000 0.355
1823.000 0.357
1824.000 0.353
1825.000 0.375
1826.000 0.475
1827.000 0.563
1828.000 0.512
1829.000 0.502
1830.000 0.385
1831.000 0.490
1832.000 0.561
1833.000 0.719
1834.000 0.647
1835.000 0.601
1836.000 0.558
1837.000 0.659
1838.000 0.610
1839.000 0.599
1840.000 0.480
1841.000 0.477
1842.000 0.464
1843.000 0.544
1844.000 0.539
1845.000 0.526
1846.000 0.196
1847.000 0.332
1848.000 0.424
1849.000 0.616
1850.000 0.700
1851.000 0.478
1852.000 0.755
1853.000 0.623
1854.000 0.568
1855.000 0.501
1856.000 0.521
1857.000 0.875
1858.000 0.569
1859.000 0.488
1860.000 0.376
1861.000 0.260
1862.000 0.199
1863.000 0.548
1864.000 0.607
1865.000 0.623
1866.000 0.490
1867.000 0.411
1868.000 0.451
1869.000 0.474
1870.000 0.632
1871.000 0.616
1872.000 0.604
1873.000 0.345
1874.000 0.403
1875.000 0.553
1876.000 0.680
1877.000 0.551
1878.000 0.578
1879.000 0.589
1880.000 0.596
1881.000 0.539
1882.000 0.468
1883.000 0.498
1884.000 0.411
1885.000 0.327
1886.000 0.317
1887.000 0.370
1888.000 0.436
1889.000 0.475
1890.000 0.471
1891.000 0.538
1892.000 0.567
1893.000 0.597
1894.000 0.505
1895.000 0.525
1896.000 0.463
1897.000 0.402
1898.000 0.483
1899.000 0.378
1900.000 0.395
1901.000 0.365
1902.000 0.258
1903.000 0.221
1904.000 0.172
1905.000 0.154
1906.000 0.146
1907.000 0.389
1908.000 0.616
1909.000 0.274
1910.000 0.174
1911.000 0.465
1912.000 0.572
1913.000 0.489
1914.000 0.545
1915.000 0.408
1916.000 0.404
1917.000 0.443
1918.000 0.476
1919.000 0.258
1920.000 0.494
1921.000 0.511
1922.000 0.378
1923.000 0.356
1924.000 0.286
1925.000 0.411
1926.000 0.407
1927.000 0.391
1928.000 0.402
1929.000 0.374
1930.000 0.390
1931.000 0.409
1932.000 0.585
1933.000 0.422
1934.000 0.387
1935.000 0.628
1936.000 0.536
1937.000 0.483
1938.000 0.550
1939.000 0.555
1940.000 0.422
1941.000 0.493
1942.000 0.566
1943.000 0.459
1944.000 0.311
1945.000 0.544
1946.000 0.483
1947.000 0.655
1948.000 0.589
1949.000 0.454
1950.000 0.334
1951.000 0.294
1952.000 0.280
1953.000 0.360
1954.000 0.273
1955.000 0.438
1956.000 0.378
1957.000 0.468
1958.000 0.400
1959.000 0.412
1960.000 0.376
1961.000 0.273
1962.000 0.238
1963.000 0.246
1964.000 0.260
1965.000 0.256
1966.000 0.264
1967.000 0.276
1968.000 0.323
1969.000 0.309
1970.000 0.257
1971.000 0.230
1972.000 0.203
1973.000 0.202
1974.000 0.179
1975.000 0.173
1976.000 0.195
1977.000 0.201
1978.000 0.236
1979.000 0.246
1980.000 0.257
1981.000 0.232
1982.000 0.178
1983.000 0.155
1984.000 0.145
1985.000 0.144
1986.000 0.146
1987.000 0.179
1988.000 0.177
1989.000 0.166
1990.000 0.168
1991.000 0.174
1992.000 0.173
1993.000 0.181
1994.000 0.188
1995.000 0.186
1996.000 0.191
1997.000 0.213
1998.000 0.238
1999.000 0.266
2000.000 0.309
2001.000 0.321
2002.000 0.332
2003.000 0.317
2004.000 0.261
2005.000 0.233
2006.000 0.207
2007.000 0.205
2008.000 0.221
2009.000 0.206
2010.000 0.203
2011.000 0.204
2012.000 0.168
2013.000 0.168
2014.000 0.170
2015.000 0.187
2016.000 0.181
2017.000 0.152
2018.000 0.155
2019.000 0.174
2020.000 0.189
2021.000 0.218
2022.000 0.225
2023.000 0.228
2024.000 0.232
2025.000 0.218
2026.000 0.235
2027.000 0.238
2028.000 0.228
2029.000 0.225
2030.000 0.228
2031.000 0.223
2032.000 0.216
2033.000 0.216
2034.000 0.220
2035.000 0.218
2036.000 0.223
2037.000 0.221
2038.000 0.214
2039.000 0.208
2040.000 0.198
2041.000 0.185
2042.000 0.177
2043.000 0.165
2044.000 0.167
2045.000 0.185
2046.000 0.195
2047.000 0.214
2048.000 0.225
2049.000 0.229
2050.000 0.226
2051.000 0.241
2052.000 0.255
2053.000 0.263
2054.000 0.260
2055.000 0.235
2056.000 0.218
2057.000 0.213
2058.000 0.214
2059.000 0.212
2060.000 0.221
2061.000 0.226
2062.000 0.224
2063.000 0.228
2064.000 0.237
2065.000 0.244
2066.000 0.259
2067.000 0.254
2068.000 0.266
2069.000 0.274
2070.000 0.258
2071.000 0.251
2072.000 0.246
2073.000 0.233
2074.000 0.221
2075.000 0.206
2076.000 0.205
2077.000 0.202
2078.000 0.203
2079.000 0.220
2080.000 0.226
2081.000 0.228
2082.000 0.228
2083.000 0.222
2084.000 0.218
2085.000 0.219
2086.000 0.225
2087.000 0.234
2088.000 0.255
2089.000 0.262
2090.000 0.266
2091.000 0.263
2092.000 0.246
2093.000 0.245
2094.000 0.254
2095.000 0.254
2096.000 0.260
2097.000 0.261
2098.000 0.253
2099.000 0.240
2100.000 0.239
2101.000 0.240
2102.000 0.243
2103.000 0.252
2104.000 0.246
2105.000 0.228
2106.000 0.229
2107.000 0.225
2108.000 0.234
2109.000 0.275
2110.000 0.292
2111.000 0.306
2112.000 0.310
2113.000 0.306
2114.000 0.294
2115.000 0.262
2116.000 0.254
2117.000 0.252
2118.000 0.242
2119.000 0.250
2120.000 0.265
2121.000 0.262
2122.000 0.255
2123.000 0.248
2124.000 0.234
2125.000 0.228
2126.000 0.222
2127.000 0.222
2128.000 0.227
2129.000 0.230
2130.000 0.236
2131.000 0.242
2132.000 0.252
2133.000 0.256
2134.000 0.252
2135.000 0.256
2136.000 0.262
2137.000 0.265
2138.000 0.278
2139.000 0.302
2140.000 0.320
2141.000 0.321
2142.000 0.319
2143.000 0.310
2144.000 0.300
2145.000 0.280
2146.000 0.268
2147.000 0.253
2148.000 0.251
2149.000 0.258
2150.000 0.264
2151.000 0.283
2152.000 0.292
2153.000 0.294
2154.000 0.297
2155.000 0.298
2156.000 0.292
2157.000 0.299
2158.000 0.309
2159.000 0.299
2160.000 0.297
2161.000 0.295
2162.000 0.284
2163.000 0.282
2164.000 0.292
2165.000 0.294
2166.000 0.300
2167.000 0.298
2168.000 0.288
2169.000 0.287
2170.000 0.288
2171.000 0.285
2172.000 0.285
2173.000 0.288
2174.000 0.284
2175.000 0.284
2176.000 0.294
2177.000 0.299
2178.000 0.297
2179.000 0.299
2180.000 0.290
2181.000 0.288
2182.000 0.283
2183.000 0.276
2184.000 0.274
2185.000 0.276
2186.000 0.274
2187.000 0.277
2188.000 0.281
2189.000 0.284
2190.000 0.288
2191.000 0.297
2192.000 0.304
2193.000 0.313
2194.000 0.313
2195.000 0.307
2196.000 0.305
2197.000 0.287
2198.000 0.286
2199.000 0.311
2200.000 0.314
2201.000 0.309
2202.000 0.309
2203.000 0.294
2204.000 0.277
2205.000 0.280
2206.000 0.284
2207.000 0.290
2208.000 0.312
2209.000 0.312
2210.000 0.300
2211.000 0.299
2212.000 0.288
2213.000 0.287
2214.000 0.299
2215.000 0.304
2216.000 0.304
2217.000 0.310
2218.000 0.318
2219.000 0.324
2220.000 0.334
2221.000 0.337
2222.000 0.330
2223.000 0.326
2224.000 0.321
2225.000 0.312
2226.000 0.307
2227.000 0.291
2228.000 0.274
2229.000 0.275
2230.000 0.276
2231.000 0.288
2232.000 0.302
2233.000 0.303
2234.000 0.309
2235.000 0.313
2236.000 0.319
2237.000 0.324
2238.000 0.325
2239.000 0.326
2240.000 0.321
2241.000 0.311
2242.000 0.300
2243.000 0.280
2244.000 0.275
2245.000 0.280
2246.000 0.279
2247.000 0.288
2248.000 0.289
2249.000 0.275
2250.000 0.274
2251.000 0.290
2252.000 0.289
2253.000 0.281
2254.000 0.277
2255.000 0.257
2256.000 0.251
2257.000 0.255
2258.000 0.261
2259.000 0.265
2260.000 0.272
2261.000 0.272
2262.000 0.268
2263.000 0.265
2264.000 0.260
2265.000 0.261
2266.000 0.267
2267.000 0.262
2268.000 0.240
2269.000 0.223
2270.000 0.208
2271.000 0.206
2272.000 0.228
2273.000 0.237
2274.000 0.250
2275.000 0.257
2276.000 0.256
2277.000 0.262
2278.000 0.271
2279.000 0.267
2280.000 0.255
2281.000 0.249
2282.000 0.229
2283.000 0.233
2284.000 0.269
2285.000 0.280
2286.000 0.285
2287.000 0.285
2288.000 0.256
2289.000 0.253
2290.000 0.275
2291.000 0.284
2292.000 0.301
2293.000 0.294
2294.000 0.263
2295.000 0.256
2296.000 0.247
2297.000 0.247
2298.000 0.287
2299.000 0.281
2300.000 0.269
2301.000 0.269
2302.000 0.224
2303.000 0.225
2304.000 0.222
2305.000 0.214
2306.000 0.228
2307.000 0.219
2308.000 0.197
2309.000 0.180
2310.000 0.173
2311.000 0.185
2312.000 0.211
2313.000 0.247
2314.000 0.273
2315.000 0.261
2316.000 0.232
2317.000 0.218
2318.000 0.217
2319.000 0.205
2320.000 0.211
2321.000 0.240
2322.000 0.243
2323.000 0.243
2324.000 0.273
2325.000 0.253
2326.000 0.254
2327.000 0.256
2328.000 0.260
2329.000 0.250
2330.000 0.252
2331.000 0.259
2332.000 0.277
2333.000 0.324
2334.000 0.309
2335.000 0.291
2336.000 0.300
2337.000 0.272
2338.000 0.241
2339.000 0.270
2340.000 0.245
2341.000 0.199
2342.000 0.193
2343.000 0.186
2344.000 0.195
2345.000 0.209
2346.000 0.184
2347.000 0.181
2348.000 0.168
2349.000 0.153
2350.000 0.172
2351.000 0.178
2352.000 0.186
2353.000 0.267
2354.000 0.270
2355.000 0.201
2356.000 0.200
2357.000 0.190
2358.000 0.152
2359.000 0.169
2360.000 0.213
2361.000 0.176
2362.000 0.151
2363.000 0.133
2364.000 0.100
2365.000 0.083
2366.000 0.093
2367.000 0.126
2368.000 0.269
2369.000 0.516
2370.000 0.391
2371.000 0.404
2372.000 0.277
2373.000 0.341
2374.000 0.357
2375.000 0.240
2376.000 0.283
2377.000 0.261
2378.000 0.192
2379.000 0.159
2380.000 0.188
2381.000 0.284
2382.000 0.322
2383.000 0.241
2384.000 0.366
2385.000 0.633
2386.000 0.240
2387.000 0.311
2388.000 0.418
2389.000 0.400
2390.000 0.562
2391.000 0.437
2392.000 0.205
2393.000 0.191
2394.000 0.166
2395.000 0.162
2396.000 0.230
2397.000 0.237
2398.000 0.257
2399.000 0.268
2400.000 0.293
2401.000 0.328
2402.000 0.208
2403.000 0.200
2404.000 0.193
2405.000 0.186
2406.000 0.206
2407.000 0.318
2408.000 0.260
2409.000 0.407
2410.000 0.360
2411.000 0.225
2412.000 0.380
2413.000 0.377
2414.000 0.258
2415.000 0.257
2416.000 0.251
2417.000 0.363
2418.000 0.252
2419.000 0.406
2420.000 0.217
2421.000 0.122
2422.000 0.176
2423.000 0.236
2424.000 0.285
2425.000 0.299
2426.000 0.295
2427.000 0.253
2428.000 0.224
2429.000 0.295
2430.000 0.364
2431.000 0.273
2432.000 0.206
2433.000 0.263
2434.000 0.287
2435.000 0.513
2436.000 0.674
2437.000 0.432
2438.000 0.443
2439.000 0.345
2440.000 0.329
2441.000 0.334
2442.000 0.291
2443.000 0.181
2444.000 0.202
2445.000 0.173
2446.000 0.378
2447.000 0.363
2448.000 0.351
2449.000 0.521
2450.000 0.675
2451.000 0.652
2452.000 0.570
2453.000 0.471
2454.000 0.391
2455.000 0.183
2456.000 0.146
2457.000 0.186
2458.000 0.442
2459.000 0.446
2460.000 0.468
2461.000 0.323
2462.000 0.224
2463.000 0.600
2464.000 0.593
2465.000 0.455
2466.000 0.333
2467.000 0.134
2468.000 0.168
2469.000 0.296
2470.000 0.408
2471.000 0.477
2472.000 0.386
2473.000 0.422
2474.000 0.418
2475.000 0.434
2476.000 0.272
2477.000 0.245
2478.000 0.184
2479.000 0.174
2480.000 0.318
2481.000 0.383
2482.000 0.370
2483.000 0.486
2484.000 0.585
2485.000 0.636
2486.000 0.563
2487.000 0.571
2488.000 0.607
2489.000 0.276
2490.000 0.185
2491.000 0.589
2492.000 0.332
2493.000 0.446
2494.000 0.453
2495.000 0.458
2496.000 0.530
2497.000 0.639
2498.000 0.340
2499.000 0.441
2500.000 0.402
