391.000 0.014
392.000 0.015
393.000 0.015
394.000 0.017
395.000 0.016
396.000 0.015
397.000 0.014
398.000 0.014
399.000 0.015
400.000 0.016
401.000 0.017
402.000 0.017
403.000 0.017
404.000 0.017
405.000 0.016
406.000 0.017
407.000 0.017
408.000 0.016
409.000 0.017
410.000 0.017
411.000 0.018
412.000 0.018
413.000 0.017
414.000 0.017
415.000 0.017
416.000 0.018
417.000 0.018
418.000 0.017
419.000 0.017
420.000 0.017
421.000 0.017
422.000 0.018
423.000 0.017
424.000 0.017
425.000 0.017
426.000 0.018
427.000 0.018
428.000 0.018
429.000 0.017
430.000 0.018
431.000 0.017
432.000 0.017
433.000 0.017
434.000 0.017
435.000 0.018
436.000 0.018
437.000 0.017
438.000 0.018
439.000 0.018
440.000 0.017
441.000 0.017
442.000 0.017
443.000 0.018
444.000 0.018
445.000 0.018
446.000 0.018
447.000 0.018
448.000 0.018
449.000 0.018
450.000 0.017
451.000 0.018
452.000 0.018
453.000 0.018
454.000 0.018
455.000 0.018
456.000 0.019
457.000 0.018
458.000 0.018
459.000 0.018
460.000 0.018
461.000 0.018
462.000 0.018
463.000 0.018
464.000 0.018
465.000 0.018
466.000 0.018
467.000 0.018
468.000 0.018
469.000 0.018
470.000 0.018
471.000 0.018
472.000 0.018
473.000 0.018
474.000 0.018
475.000 0.018
476.000 0.018
477.000 0.018
478.000 0.018
479.000 0.018
480.000 0.018
481.000 0.018
482.000 0.019
483.000 0.019
484.000 0.019
485.000 0.019
486.000 0.018
487.000 0.020
488.000 0.020
489.000 0.020
490.000 0.019
491.000 0.019
492.000 0.019
493.000 0.019
494.000 0.019
495.000 0.019
496.000 0.019
497.000 0.019
498.000 0.019
499.000 0.020
500.000 0.021
501.000 0.021
502.000 0.020
503.000 0.020
504.000 0.021
505.000 0.022
506.000 0.022
507.000 0.023
508.000 0.023
509.000 0.024
510.000 0.024
511.000 0.025
512.000 0.025
513.000 0.026
514.000 0.027
515.000 0.027
516.000 0.028
517.000 0.030
518.000 0.031
519.000 0.032
520.000 0.033
521.000 0.035
522.000 0.036
523.000 0.038
524.000 0.039
525.000 0.040
526.000 0.041
527.000 0.043
528.000 0.044
529.000 0.045
530.000 0.046
531.000 0.047
532.000 0.049
533.000 0.049
534.000 0.050
535.000 0.051
536.000 0.051
537.000 0.052
538.000 0.052
539.000 0.052
540.000 0.053
541.000 0.053
542.000 0.054
543.000 0.053
544.000 0.054
545.000 0.055
546.000 0.054
547.000 0.054
548.000 0.055
549.000 0.055
550.000 0.054
551.000 0.054
552.000 0.054
553.000 0.054
554.000 0.054
555.000 0.054
556.000 0.055
557.000 0.055
558.000 0.054
559.000 0.053
560.000 0.052
561.000 0.052
562.000 0.051
563.000 0.051
564.000 0.050
565.000 0.048
566.000 0.048
567.000 0.047
568.000 0.046
569.000 0.045
570.000 0.045
571.000 0.044
572.000 0.043
573.000 0.041
574.000 0.041
575.000 0.040
576.000 0.040
577.000 0.039
578.000 0.039
579.000 0.038
580.000 0.038
581.000 0.037
582.000 0.037
583.000 0.036
584.000 0.036
585.000 0.036
586.000 0.035
587.000 0.035
588.000 0.034
589.000 0.034
590.000 0.033
591.000 0.033
592.000 0.033
593.000 0.033
594.000 0.033
595.000 0.032
596.000 0.032
597.000 0.032
598.000 0.032
599.000 0.032
600.000 0.032
601.000 0.032
602.000 0.032
603.000 0.031
604.000 0.031
605.000 0.031
606.000 0.031
607.000 0.031
608.000 0.031
609.000 0.030
610.000 0.030
611.000 0.030
612.000 0.030
613.000 0.029
614.000 0.029
615.000 0.028
616.000 0.028
617.000 0.028
618.000 0.028
619.000 0.028
620.000 0.028
621.000 0.028
622.000 0.028
623.000 0.028
624.000 0.028
625.000 0.028
626.000 0.027
627.000 0.027
628.000 0.027
629.000 0.027
630.000 0.027
631.000 0.027
632.000 0.027
633.000 0.027
634.000 0.027
635.000 0.027
636.000 0.027
637.000 0.025
638.000 0.026
639.000 0.026
640.000 0.026
641.000 0.025
642.000 0.025
643.000 0.024
644.000 0.023
645.000 0.024
646.000 0.024
647.000 0.024
648.000 0.023
649.000 0.023
650.000 0.023
651.000 0.023
652.000 0.023
653.000 0.023
654.000 0.023
655.000 0.023
656.000 0.024
657.000 0.023
658.000 0.023
659.000 0.023
660.000 0.022
661.000 0.022
662.000 0.022
663.000 0.022
664.000 0.022
665.000 0.022
666.000 0.022
667.000 0.022
668.000 0.023
669.000 0.023
670.000 0.023
671.000 0.022
672.000 0.022
673.000 0.024
674.000 0.024
675.000 0.024
676.000 0.024
677.000 0.024
678.000 0.025
679.000 0.025
680.000 0.026
681.000 0.027
682.000 0.026
683.000 0.026
684.000 0.028
685.000 0.028
686.000 0.029
687.000 0.030
688.000 0.032
689.000 0.033
690.000 0.034
691.000 0.035
692.000 0.036
693.000 0.038
694.000 0.040
695.000 0.044
696.000 0.047
697.000 0.051
698.000 0.055
699.000 0.060
700.000 0.065
701.000 0.070
702.000 0.076
703.000 0.082
704.000 0.087
705.000 0.093
706.000 0.099
707.000 0.105
708.000 0.111
709.000 0.118
710.000 0.125
711.000 0.132
712.000 0.138
713.000 0.145
714.000 0.153
715.000 0.160
716.000 0.167
717.000 0.176
718.000 0.185
719.000 0.194
720.000 0.203
721.000 0.211
722.000 0.219
723.000 0.227
724.000 0.236
725.000 0.245
726.000 0.255
727.000 0.263
728.000 0.272
729.000 0.280
730.000 0.289
731.000 0.296
732.000 0.305
733.000 0.312
734.000 0.320
735.000 0.327
736.000 0.334
737.000 0.341
738.000 0.348
739.000 0.354
740.000 0.360
741.000 0.366
742.000 0.372
743.000 0.376
744.000 0.381
745.000 0.386
746.000 0.390
747.000 0.394
748.000 0.397
749.000 0.400
750.000 0.403
751.000 0.406
752.000 0.409
753.000 0.411
754.000 0.414
755.000 0.416
756.000 0.418
757.000 0.419
758.000 0.421
759.000 0.423
760.000 0.426
761.000 0.429
762.000 0.429
763.000 0.429
764.000 0.429
765.000 0.429
766.000 0.430
767.000 0.430
768.000 0.431
769.000 0.432
770.000 0.432
771.000 0.433
772.000 0.433
773.000 0.434
774.000 0.434
775.000 0.435
776.000 0.435
777.000 0.436
778.000 0.436
779.000 0.436
780.000 0.437
781.000 0.437
782.000 0.438
783.000 0.438
784.000 0.439
785.000 0.439
786.000 0.439
787.000 0.440
788.000 0.440
789.000 0.440
790.000 0.440
791.000 0.441
792.000 0.441
793.000 0.442
794.000 0.442
795.000 0.443
796.000 0.443
797.000 0.444
798.000 0.444
799.000 0.445
800.000 0.445
801.000 0.446
802.000 0.446
803.000 0.447
804.000 0.447
805.000 0.448
806.000 0.448
807.000 0.448
808.000 0.449
809.000 0.449
810.000 0.449
811.000 0.449
812.000 0.449
813.000 0.449
814.000 0.449
815.000 0.450
816.000 0.450
817.000 0.451
818.000 0.452
819.000 0.452
820.000 0.452
821.000 0.453
822.000 0.454
823.000 0.454
824.000 0.454
825.000 0.454
826.000 0.454
827.000 0.455
828.000 0.456
829.000 0.456
830.000 0.456
831.000 0.457
832.000 0.457
833.000 0.458
834.000 0.458
835.000 0.458
836.000 0.459
837.000 0.459
838.000 0.459
839.000 0.460
840.000 0.460
841.000 0.461
842.000 0.461
843.000 0.461
844.000 0.462
845.000 0.462
846.000 0.462
847.000 0.463
848.000 0.463
849.000 0.464
850.000 0.464
851.000 0.464
852.000 0.465
853.000 0.465
854.000 0.466
855.000 0.466
856.000 0.466
857.000 0.467
858.000 0.467
859.000 0.467
860.000 0.468
861.000 0.468
862.000 0.468
863.000 0.469
864.000 0.469
865.000 0.469
866.000 0.470
867.000 0.470
868.000 0.470
869.000 0.470
870.000 0.471
871.000 0.471
872.000 0.472
873.000 0.472
874.000 0.472
875.000 0.473
876.000 0.473
877.000 0.473
878.000 0.473
879.000 0.473
880.000 0.474
881.000 0.474
882.000 0.475
883.000 0.475
884.000 0.475
885.000 0.475
886.000 0.475
887.000 0.476
888.000 0.476
889.000 0.476
890.000 0.476
891.000 0.476
892.000 0.476
893.000 0.476
894.000 0.476
895.000 0.477
896.000 0.477
897.000 0.476
898.000 0.476
899.000 0.477
900.000 0.477
901.000 0.478
902.000 0.478
903.000 0.478
904.000 0.478
905.000 0.478
906.000 0.479
907.000 0.479
908.000 0.479
909.000 0.478
910.000 0.479
911.000 0.479
912.000 0.479
913.000 0.479
914.000 0.480
915.000 0.480
916.000 0.480
917.000 0.480
918.000 0.481
919.000 0.481
920.000 0.481
921.000 0.482
922.000 0.482
923.000 0.482
924.000 0.482
925.000 0.482
926.000 0.481
927.000 0.480
928.000 0.479
929.000 0.479
930.000 0.478
931.000 0.477
932.000 0.475
933.000 0.474
934.000 0.472
935.000 0.471
936.000 0.470
937.000 0.470
938.000 0.470
939.000 0.468
940.000 0.468
941.000 0.469
942.000 0.469
943.000 0.469
944.000 0.469
945.000 0.467
946.000 0.466
947.000 0.466
948.000 0.464
949.000 0.463
950.000 0.463
951.000 0.463
952.000 0.461
953.000 0.459
954.000 0.459
955.000 0.459
956.000 0.458
957.000 0.457
958.000 0.456
959.000 0.457
960.000 0.455
961.000 0.455
962.000 0.455
963.000 0.455
964.000 0.455
965.000 0.455
966.000 0.455
967.000 0.455
968.000 0.455
969.000 0.455
970.000 0.455
971.000 0.454
972.000 0.455
973.000 0.455
974.000 0.456
975.000 0.456
976.000 0.456
977.000 0.456
978.000 0.456
979.000 0.456
980.000 0.456
981.000 0.457
982.000 0.458
983.000 0.459
984.000 0.458
985.000 0.459
986.000 0.459
987.000 0.459
988.000 0.460
989.000 0.460
990.000 0.461
991.000 0.462
992.000 0.462
993.000 0.462
994.000 0.463
995.000 0.463
996.000 0.464
997.000 0.465
998.000 0.465
999.000 0.465
1000.000 0.467
1001.000 0.471
1002.000 0.472
1003.000 0.473
1004.000 0.473
1005.000 0.474
1006.000 0.475
1007.000 0.476
1008.000 0.477
1009.000 0.478
1010.000 0.478
1011.000 0.479
1012.000 0.480
1013.000 0.480
1014.000 0.482
1015.000 0.482
1016.000 0.483
1017.000 0.483
1018.000 0.484
1019.000 0.484
1020.000 0.486
1021.000 0.487
1022.000 0.488
1023.000 0.488
1024.000 0.489
1025.000 0.489
1026.000 0.490
1027.000 0.491
1028.000 0.491
1029.000 0.492
1030.000 0.492
1031.000 0.492
1032.000 0.493
1033.000 0.494
1034.000 0.495
1035.000 0.496
1036.000 0.497
1037.000 0.498
1038.000 0.499
1039.000 0.499
1040.000 0.499
1041.000 0.500
1042.000 0.501
1043.000 0.501
1044.000 0.502
1045.000 0.503
1046.000 0.504
1047.000 0.505
1048.000 0.505
1049.000 0.505
1050.000 0.505
1051.000 0.505
1052.000 0.506
1053.000 0.506
1054.000 0.508
1055.000 0.508
1056.000 0.508
1057.000 0.508
1058.000 0.508
1059.000 0.509
1060.000 0.509
1061.000 0.510
1062.000 0.510
1063.000 0.511
1064.000 0.511
1065.000 0.511
1066.000 0.511
1067.000 0.512
1068.000 0.512
1069.000 0.512
1070.000 0.513
1071.000 0.513
1072.000 0.513
1073.000 0.513
1074.000 0.513
1075.000 0.513
1076.000 0.514
1077.000 0.514
1078.000 0.514
1079.000 0.514
1080.000 0.514
1081.000 0.514
1082.000 0.514
1083.000 0.514
1084.000 0.514
1085.000 0.514
1086.000 0.514
1087.000 0.514
1088.000 0.514
1089.000 0.514
1090.000 0.513
1091.000 0.513
1092.000 0.513
1093.000 0.513
1094.000 0.513
1095.000 0.513
1096.000 0.513
1097.000 0.512
1098.000 0.512
1099.000 0.512
1100.000 0.511
1101.000 0.512
1102.000 0.511
1103.000 0.511
1104.000 0.511
1105.000 0.510
1106.000 0.510
1107.000 0.509
1108.000 0.508
1109.000 0.509
1110.000 0.508
1111.000 0.507
1112.000 0.507
1113.000 0.506
1114.000 0.506
1115.000 0.505
1116.000 0.505
1117.000 0.505
1118.000 0.504
1119.000 0.504
1120.000 0.502
1121.000 0.500
1122.000 0.499
1123.000 0.497
1124.000 0.497
1125.000 0.495
1126.000 0.494
1127.000 0.492
1128.000 0.490
1129.000 0.488
1130.000 0.486
1131.000 0.484
1132.000 0.483
1133.000 0.482
1134.000 0.480
1135.000 0.479
1136.000 0.477
1137.000 0.475
1138.000 0.474
1139.000 0.472
1140.000 0.470
1141.000 0.467
1142.000 0.465
1143.000 0.462
1144.000 0.460
1145.000 0.457
1146.000 0.455
1147.000 0.452
1148.000 0.449
1149.000 0.446
1150.000 0.443
1151.000 0.441
1152.000 0.440
1153.000 0.437
1154.000 0.437
1155.000 0.436
1156.000 0.435
1157.000 0.434
1158.000 0.433
1159.000 0.433
1160.000 0.432
1161.000 0.431
1162.000 0.432
1163.000 0.432
1164.000 0.431
1165.000 0.431
1166.000 0.431
1167.000 0.431
1168.000 0.431
1169.000 0.431
1170.000 0.431
1171.000 0.430
1172.000 0.430
1173.000 0.430
1174.000 0.430
1175.000 0.430
1176.000 0.430
1177.000 0.428
1178.000 0.428
1179.000 0.428
1180.000 0.428
1181.000 0.428
1182.000 0.428
1183.000 0.428
1184.000 0.428
1185.000 0.428
1186.000 0.427
1187.000 0.427
1188.000 0.427
1189.000 0.427
1190.000 0.427
1191.000 0.427
1192.000 0.427
1193.000 0.427
1194.000 0.427
1195.000 0.427
1196.000 0.427
1197.000 0.427
1198.000 0.427
1199.000 0.427
1200.000 0.427
1201.000 0.427
1202.000 0.427
1203.000 0.428
1204.000 0.428
1205.000 0.428
1206.000 0.429
1207.000 0.429
1208.000 0.429
1209.000 0.430
1210.000 0.430
1211.000 0.431
1212.000 0.431
1213.000 0.431
1214.000 0.432
1215.000 0.433
1216.000 0.432
1217.000 0.432
1218.000 0.433
1219.000 0.433
1220.000 0.434
1221.000 0.434
1222.000 0.435
1223.000 0.435
1224.000 0.436
1225.000 0.436
1226.000 0.437
1227.000 0.437
1228.000 0.438
1229.000 0.438
1230.000 0.439
1231.000 0.439
1232.000 0.440
1233.000 0.440
1234.000 0.440
1235.000 0.441
1236.000 0.442
1237.000 0.443
1238.000 0.443
1239.000 0.443
1240.000 0.444
1241.000 0.444
1242.000 0.445
1243.000 0.445
1244.000 0.446
1245.000 0.446
1246.000 0.446
1247.000 0.447
1248.000 0.447
1249.000 0.447
1250.000 0.447
1251.000 0.447
1252.000 0.448
1253.000 0.449
1254.000 0.449
1255.000 0.450
1256.000 0.450
1257.000 0.450
1258.000 0.451
1259.000 0.451
1260.000 0.451
1261.000 0.451
1262.000 0.451
1263.000 0.451
1264.000 0.451
1265.000 0.452
1266.000 0.452
1267.000 0.452
1268.000 0.452
1269.000 0.452
1270.000 0.452
1271.000 0.452
1272.000 0.452
1273.000 0.452
1274.000 0.452
1275.000 0.453
1276.000 0.453
1277.000 0.453
1278.000 0.453
1279.000 0.453
1280.000 0.453
1281.000 0.453
1282.000 0.453
1283.000 0.453
1284.000 0.453
1285.000 0.453
1286.000 0.452
1287.000 0.452
1288.000 0.451
1289.000 0.451
1290.000 0.450
1291.000 0.449
1292.000 0.448
1293.000 0.447
1294.000 0.447
1295.000 0.447
1296.000 0.446
1297.000 0.445
1298.000 0.444
1299.000 0.443
1300.000 0.442
1301.000 0.442
1302.000 0.441
1303.000 0.440
1304.000 0.439
1305.000 0.437
1306.000 0.435
1307.000 0.434
1308.000 0.432
1309.000 0.431
1310.000 0.429
1311.000 0.429
1312.000 0.427
1313.000 0.425
1314.000 0.423
1315.000 0.422
1316.000 0.420
1317.000 0.418
1318.000 0.416
1319.000 0.414
1320.000 0.412
1321.000 0.411
1322.000 0.409
1323.000 0.407
1324.000 0.406
1325.000 0.404
1326.000 0.401
1327.000 0.399
1328.000 0.396
1329.000 0.394
1330.000 0.391
1331.000 0.389
1332.000 0.388
1333.000 0.386
1334.000 0.383
1335.000 0.380
1336.000 0.378
1337.000 0.377
1338.000 0.375
1339.000 0.373
1340.000 0.372
1341.000 0.371
1342.000 0.368
1343.000 0.367
1344.000 0.366
1345.000 0.364
1346.000 0.364
1347.000 0.363
1348.000 0.362
1349.000 0.360
1350.000 0.358
1351.000 0.357
1352.000 0.356
1353.000 0.355
1354.000 0.354
1355.000 0.358
1356.000 0.354
1357.000 0.334
1358.000 0.318
1359.000 0.284
1360.000 0.243
1361.000 0.240
1362.000 0.230
1363.000 0.276
1364.000 0.291
1365.000 0.276
1366.000 0.287
1367.000 0.344
1368.000 0.360
1369.000 0.434
1370.000 0.427
1371.000 0.266
1372.000 0.193
1373.000 0.146
1374.000 0.190
1375.000 0.238
1376.000 0.269
1377.000 0.185
1378.000 0.164
1379.000 0.224
1380.000 0.250
1381.000 0.306
1382.000 0.247
1383.000 0.299
1384.000 0.275
1385.000 0.256
1386.000 0.162
1387.000 0.222
1388.000 0.172
1389.000 0.149
1390.000 0.314
1391.000 0.277
1392.000 0.306
1393.000 0.247
1394.000 0.200
1395.000 0.183
1396.000 0.173
1397.000 0.170
1398.000 0.168
1399.000 0.168
1400.000 0.189
1401.000 0.190
1402.000 0.185
1403.000 0.177
1404.000 0.166
1405.000 0.166
1406.000 0.182
1407.000 0.173
1408.000 0.175
1409.000 0.177
1410.000 0.168
1411.000 0.183
1412.000 0.174
1413.000 0.175
1414.000 0.166
1415.000 0.127
1416.000 0.172
1417.000 0.144
1418.000 0.134
1419.000 0.127
1420.000 0.117
1421.000 0.126
1422.000 0.129
1423.000 0.135
1424.000 0.135
1425.000 0.132
1426.000 0.131
1427.000 0.129
1428.000 0.127
1429.000 0.123
1430.000 0.123
1431.000 0.126
1432.000 0.126
1433.000 0.129
1434.000 0.129
1435.000 0.125
1436.000 0.121
1437.000 0.122
1438.000 0.119
1439.000 0.110
1440.000 0.107
1441.000 0.107
1442.000 0.106
1443.000 0.106
1444.000 0.107
1445.000 0.107
1446.000 0.107
1447.000 0.108
1448.000 0.108
1449.000 0.107
1450.000 0.105
1451.000 0.104
1452.000 0.104
1453.000 0.104
1454.000 0.105
1455.000 0.106
1456.000 0.109
1457.000 0.110
1458.000 0.110
1459.000 0.111
1460.000 0.111
1461.000 0.111
1462.000 0.111
1463.000 0.111
1464.000 0.112
1465.000 0.113
1466.000 0.114
1467.000 0.114
1468.000 0.114
1469.000 0.115
1470.000 0.115
1471.000 0.115
1472.000 0.116
1473.000 0.116
1474.000 0.116
1475.000 0.115
1476.000 0.114
1477.000 0.115
1478.000 0.117
1479.000 0.118
1480.000 0.119
1481.000 0.120
1482.000 0.120
1483.000 0.121
1484.000 0.122
1485.000 0.123
1486.000 0.124
1487.000 0.125
1488.000 0.124
1489.000 0.126
1490.000 0.127
1491.000 0.128
1492.000 0.129
1493.000 0.130
1494.000 0.131
1495.000 0.131
1496.000 0.132
1497.000 0.132
1498.000 0.133
1499.000 0.133
1500.000 0.134
1501.000 0.135
1502.000 0.136
1503.000 0.138
1504.000 0.139
1505.000 0.140
1506.000 0.142
1507.000 0.143
1508.000 0.145
1509.000 0.146
1510.000 0.147
1511.000 0.147
1512.000 0.148
1513.000 0.149
1514.000 0.150
1515.000 0.151
1516.000 0.152
1517.000 0.153
1518.000 0.154
1519.000 0.156
1520.000 0.158
1521.000 0.159
1522.000 0.160
1523.000 0.161
1524.000 0.162
1525.000 0.163
1526.000 0.164
1527.000 0.165
1528.000 0.165
1529.000 0.167
1530.000 0.168
1531.000 0.170
1532.000 0.171
1533.000 0.173
1534.000 0.174
1535.000 0.175
1536.000 0.176
1537.000 0.176
1538.000 0.177
1539.000 0.178
1540.000 0.179
1541.000 0.180
1542.000 0.180
1543.000 0.182
1544.000 0.184
1545.000 0.186
1546.000 0.186
1547.000 0.187
1548.000 0.188
1549.000 0.190
1550.000 0.191
1551.000 0.191
1552.000 0.192
1553.000 0.193
1554.000 0.194
1555.000 0.195
1556.000 0.196
1557.000 0.197
1558.000 0.198
1559.000 0.200
1560.000 0.201
1561.000 0.201
1562.000 0.202
1563.000 0.203
1564.000 0.204
1565.000 0.204
1566.000 0.205
1567.000 0.207
1568.000 0.208
1569.000 0.209
1570.000 0.210
1571.000 0.211
1572.000 0.212
1573.000 0.213
1574.000 0.214
1575.000 0.215
1576.000 0.216
1577.000 0.216
1578.000 0.217
1579.000 0.218
1580.000 0.219
1581.000 0.221
1582.000 0.221
1583.000 0.222
1584.000 0.223
1585.000 0.224
1586.000 0.224
1587.000 0.226
1588.000 0.227
1589.000 0.226
1590.000 0.227
1591.000 0.228
1592.000 0.229
1593.000 0.230
1594.000 0.231
1595.000 0.232
1596.000 0.233
1597.000 0.233
1598.000 0.234
1599.000 0.235
1600.000 0.236
1601.000 0.237
1602.000 0.239
1603.000 0.238
1604.000 0.239
1605.000 0.240
1606.000 0.240
1607.000 0.241
1608.000 0.241
1609.000 0.241
1610.000 0.242
1611.000 0.243
1612.000 0.244
1613.000 0.244
1614.000 0.246
1615.000 0.246
1616.000 0.247
1617.000 0.247
1618.000 0.248
1619.000 0.248
1620.000 0.248
1621.000 0.249
1622.000 0.249
1623.000 0.249
1624.000 0.250
1625.000 0.251
1626.000 0.252
1627.000 0.252
1628.000 0.254
1629.000 0.253
1630.000 0.254
1631.000 0.254
1632.000 0.255
1633.000 0.256
1634.000 0.256
1635.000 0.257
1636.000 0.257
1637.000 0.257
1638.000 0.257
1639.000 0.257
1640.000 0.258
1641.000 0.258
1642.000 0.259
1643.000 0.260
1644.000 0.260
1645.000 0.261
1646.000 0.261
1647.000 0.261
1648.000 0.261
1649.000 0.262
1650.000 0.263
1651.000 0.263
1652.000 0.263
1653.000 0.262
1654.000 0.262
1655.000 0.263
1656.000 0.263
1657.000 0.263
1658.000 0.264
1659.000 0.264
1660.000 0.264
1661.000 0.265
1662.000 0.265
1663.000 0.265
1664.000 0.265
1665.000 0.264
1666.000 0.264
1667.000 0.264
1668.000 0.265
1669.000 0.266
1670.000 0.266
1671.000 0.266
1672.000 0.267
1673.000 0.266
1674.000 0.266
1675.000 0.267
1676.000 0.266
1677.000 0.266
1678.000 0.266
1679.000 0.267
1680.000 0.267
1681.000 0.268
1682.000 0.267
1683.000 0.267
1684.000 0.266
1685.000 0.266
1686.000 0.266
1687.000 0.264
1688.000 0.264
1689.000 0.265
1690.000 0.266
1691.000 0.266
1692.000 0.267
1693.000 0.265
1694.000 0.265
1695.000 0.264
1696.000 0.264
1697.000 0.265
1698.000 0.265
1699.000 0.265
1700.000 0.264
1701.000 0.263
1702.000 0.262
1703.000 0.262
1704.000 0.262
1705.000 0.261
1706.000 0.261
1707.000 0.261
1708.000 0.261
1709.000 0.260
1710.000 0.260
1711.000 0.260
1712.000 0.259
1713.000 0.259
1714.000 0.259
1715.000 0.259
1716.000 0.259
1717.000 0.258
1718.000 0.257
1719.000 0.256
1720.000 0.256
1721.000 0.256
1722.000 0.255
1723.000 0.255
1724.000 0.254
1725.000 0.253
1726.000 0.253
1727.000 0.251
1728.000 0.251
1729.000 0.251
1730.000 0.251
1731.000 0.251
1732.000 0.251
1733.000 0.250
1734.000 0.250
1735.000 0.251
1736.000 0.250
1737.000 0.249
1738.000 0.248
1739.000 0.247
1740.000 0.246
1741.000 0.245
1742.000 0.244
1743.000 0.243
1744.000 0.243
1745.000 0.242
1746.000 0.243
1747.000 0.243
1748.000 0.242
1749.000 0.241
1750.000 0.240
1751.000 0.240
1752.000 0.240
1753.000 0.240
1754.000 0.238
1755.000 0.238
1756.000 0.235
1757.000 0.234
1758.000 0.235
1759.000 0.234
1760.000 0.234
1761.000 0.233
1762.000 0.231
1763.000 0.228
1764.000 0.228
1765.000 0.227
1766.000 0.228
1767.000 0.228
1768.000 0.227
1769.000 0.227
1770.000 0.226
1771.000 0.227
1772.000 0.227
1773.000 0.226
1774.000 0.226
1775.000 0.227
1776.000 0.226
1777.000 0.226
1778.000 0.227
1779.000 0.226
1780.000 0.226
1781.000 0.225
1782.000 0.224
1783.000 0.223
1784.000 0.222
1785.000 0.224
1786.000 0.223
1787.000 0.222
1788.000 0.223
1789.000 0.223
1790.000 0.223
1791.000 0.225
1792.000 0.225
1793.000 0.225
1794.000 0.223
1795.000 0.221
1796.000 0.220
1797.000 0.217
1798.000 0.214
1799.000 0.212
1800.000 0.213
1801.000 0.254
1802.000 0.260
1803.000 0.252
1804.000 0.249
1805.000 0.250
1806.000 0.252
1807.000 0.249
1808.000 0.255
1809.000 0.258
1810.000 0.257
1811.000 0.247
1812.000 0.241
1813.000 0.234
1814.000 0.234
1815.000 0.242
1816.000 0.245
1817.000 0.253
1818.000 0.263
1819.000 0.278
1820.000 0.282
1821.000 0.273
1822.000 0.272
1823.000 0.256
1824.000 0.216
1825.000 0.212
1826.000 0.278
1827.000 0.302
1828.000 0.282
1829.000 0.325
1830.000 0.376
1831.000 0.489
1832.000 0.690
1833.000 0.591
1834.000 0.450
1835.000 0.310
1836.000 0.169
1837.000 0.835
1838.000 0.876
1839.000 0.896
1840.000 0.811
1841.000 0.748
1842.000 0.686
1843.000 0.642
1844.000 0.595
1845.000 0.283
1846.000 0.269
1847.000 0.373
1848.000 0.474
1849.000 0.582
1850.000 0.685
1851.000 0.458
1852.000 0.767
1853.000 0.410
1854.000 0.331
1855.000 0.271
1856.000 0.485
1857.000 0.760
1858.000 0.901
1859.000 0.773
1860.000 0.640
1861.000 0.506
1862.000 0.330
1863.000 0.669
1864.000 0.655
1865.000 0.657
1866.000 0.619
1867.000 0.597
1868.000 0.601
1869.000 0.599
1870.000 0.626
1871.000 0.614
1872.000 0.604
1873.000 0.545
1874.000 0.535
1875.000 0.428
1876.000 0.392
1877.000 0.427
1878.000 0.458
1879.000 0.602
1880.000 0.613
1881.000 0.599
1882.000 0.396
1883.000 0.362
1884.000 0.270
1885.000 0.207
1886.000 0.248
1887.000 0.361
1888.000 0.406
1889.000 0.415
1890.000 0.496
1891.000 0.521
1892.000 0.574
1893.000 0.527
1894.000 0.529
1895.000 0.418
1896.000 0.291
1897.000 0.164
1898.000 0.270
1899.000 0.339
1900.000 0.423
1901.000 0.506
1902.000 0.324
1903.000 0.150
1904.000 0.090
1905.000 0.133
1906.000 0.123
1907.000 0.183
1908.000 0.224
1909.000 0.203
1910.000 0.237
1911.000 0.368
1912.000 0.594
1913.000 0.520
1914.000 0.490
1915.000 0.170
1916.000 0.448
1917.000 0.734
1918.000 0.440
1919.000 0.173
1920.000 0.217
1921.000 0.205
1922.000 0.130
1923.000 0.139
1924.000 0.126
1925.000 0.143
1926.000 0.139
1927.000 0.139
1928.000 0.141
1929.000 0.144
1930.000 0.146
1931.000 0.143
1932.000 0.177
1933.000 0.145
1934.000 0.125
1935.000 0.162
1936.000 0.150
1937.000 0.129
1938.000 0.144
1939.000 0.147
1940.000 0.127
1941.000 0.145
1942.000 0.153
1943.000 0.124
1944.000 0.092
1945.000 0.135
1946.000 0.136
1947.000 0.160
1948.000 0.148
1949.000 0.123
1950.000 0.076
1951.000 0.071
1952.000 0.070
1953.000 0.090
1954.000 0.079
1955.000 0.126
1956.000 0.106
1957.000 0.120
1958.000 0.113
1959.000 0.110
1960.000 0.105
1961.000 0.082
1962.000 0.073
1963.000 0.069
1964.000 0.070
1965.000 0.065
1966.000 0.072
1967.000 0.073
1968.000 0.081
1969.000 0.084
1970.000 0.076
1971.000 0.068
1972.000 0.062
1973.000 0.060
1974.000 0.053
1975.000 0.053
1976.000 0.059
1977.000 0.061
1978.000 0.070
1979.000 0.075
1980.000 0.080
1981.000 0.074
1982.000 0.063
1983.000 0.058
1984.000 0.056
1985.000 0.055
1986.000 0.055
1987.000 0.062
1988.000 0.062
1989.000 0.060
1990.000 0.060
1991.000 0.061
1992.000 0.060
1993.000 0.061
1994.000 0.061
1995.000 0.060
1996.000 0.062
1997.000 0.065
1998.000 0.074
1999.000 0.081
2000.000 0.090
2001.000 0.093
2002.000 0.094
2003.000 0.094
2004.000 0.083
2005.000 0.079
2006.000 0.079
2007.000 0.083
2008.000 0.087
2009.000 0.086
2010.000 0.084
2011.000 0.079
2012.000 0.071
2013.000 0.071
2014.000 0.072
2015.000 0.077
2016.000 0.076
2017.000 0.067
2018.000 0.067
2019.000 0.069
2020.000 0.071
2021.000 0.078
2022.000 0.081
2023.000 0.082
2024.000 0.083
2025.000 0.080
2026.000 0.083
2027.000 0.084
2028.000 0.082
2029.000 0.082
2030.000 0.082
2031.000 0.081
2032.000 0.080
2033.000 0.081
2034.000 0.085
2035.000 0.085
2036.000 0.088
2037.000 0.088
2038.000 0.086
2039.000 0.084
2040.000 0.081
2041.000 0.078
2042.000 0.076
2043.000 0.075
2044.000 0.077
2045.000 0.081
2046.000 0.085
2047.000 0.089
2048.000 0.092
2049.000 0.092
2050.000 0.092
2051.000 0.095
2052.000 0.097
2053.000 0.099
2054.000 0.099
2055.000 0.094
2056.000 0.091
2057.000 0.091
2058.000 0.091
2059.000 0.091
2060.000 0.094
2061.000 0.095
2062.000 0.095
2063.000 0.096
2064.000 0.097
2065.000 0.099
2066.000 0.102
2067.000 0.101
2068.000 0.105
2069.000 0.107
2070.000 0.105
2071.000 0.105
2072.000 0.104
2073.000 0.102
2074.000 0.099
2075.000 0.095
2076.000 0.094
2077.000 0.094
2078.000 0.095
2079.000 0.098
2080.000 0.099
2081.000 0.100
2082.000 0.100
2083.000 0.099
2084.000 0.099
2085.000 0.099
2086.000 0.100
2087.000 0.103
2088.000 0.107
2089.000 0.110
2090.000 0.111
2091.000 0.111
2092.000 0.108
2093.000 0.108
2094.000 0.110
2095.000 0.110
2096.000 0.112
2097.000 0.113
2098.000 0.111
2099.000 0.109
2100.000 0.109
2101.000 0.110
2102.000 0.111
2103.000 0.114
2104.000 0.113
2105.000 0.109
2106.000 0.110
2107.000 0.110
2108.000 0.112
2109.000 0.121
2110.000 0.125
2111.000 0.129
2112.000 0.130
2113.000 0.131
2114.000 0.128
2115.000 0.122
2116.000 0.120
2117.000 0.120
2118.000 0.118
2119.000 0.119
2120.000 0.122
2121.000 0.121
2122.000 0.119
2123.000 0.118
2124.000 0.115
2125.000 0.114
2126.000 0.114
2127.000 0.114
2128.000 0.116
2129.000 0.118
2130.000 0.119
2131.000 0.121
2132.000 0.123
2133.000 0.124
2134.000 0.125
2135.000 0.127
2136.000 0.128
2137.000 0.129
2138.000 0.132
2139.000 0.137
2140.000 0.141
2141.000 0.140
2142.000 0.139
2143.000 0.137
2144.000 0.135
2145.000 0.131
2146.000 0.129
2147.000 0.126
2148.000 0.126
2149.000 0.127
2150.000 0.128
2151.000 0.131
2152.000 0.133
2153.000 0.133
2154.000 0.135
2155.000 0.137
2156.000 0.137
2157.000 0.139
2158.000 0.141
2159.000 0.138
2160.000 0.138
2161.000 0.139
2162.000 0.136
2163.000 0.136
2164.000 0.139
2165.000 0.141
2166.000 0.142
2167.000 0.142
2168.000 0.138
2169.000 0.137
2170.000 0.137
2171.000 0.137
2172.000 0.136
2173.000 0.137
2174.000 0.136
2175.000 0.136
2176.000 0.138
2177.000 0.140
2178.000 0.140
2179.000 0.140
2180.000 0.138
2181.000 0.139
2182.000 0.137
2183.000 0.137
2184.000 0.136
2185.000 0.138
2186.000 0.138
2187.000 0.139
2188.000 0.140
2189.000 0.141
2190.000 0.142
2191.000 0.144
2192.000 0.145
2193.000 0.146
2194.000 0.146
2195.000 0.145
2196.000 0.144
2197.000 0.141
2198.000 0.141
2199.000 0.146
2200.000 0.147
2201.000 0.147
2202.000 0.147
2203.000 0.145
2204.000 0.142
2205.000 0.142
2206.000 0.143
2207.000 0.144
2208.000 0.147
2209.000 0.148
2210.000 0.146
2211.000 0.147
2212.000 0.145
2213.000 0.145
2214.000 0.149
2215.000 0.149
2216.000 0.147
2217.000 0.147
2218.000 0.148
2219.000 0.149
2220.000 0.152
2221.000 0.152
2222.000 0.151
2223.000 0.149
2224.000 0.148
2225.000 0.146
2226.000 0.146
2227.000 0.143
2228.000 0.139
2229.000 0.140
2230.000 0.140
2231.000 0.142
2232.000 0.145
2233.000 0.144
2234.000 0.146
2235.000 0.146
2236.000 0.147
2237.000 0.148
2238.000 0.148
2239.000 0.146
2240.000 0.145
2241.000 0.143
2242.000 0.140
2243.000 0.137
2244.000 0.136
2245.000 0.137
2246.000 0.137
2247.000 0.138
2248.000 0.138
2249.000 0.134
2250.000 0.134
2251.000 0.137
2252.000 0.136
2253.000 0.135
2254.000 0.134
2255.000 0.129
2256.000 0.128
2257.000 0.129
2258.000 0.130
2259.000 0.131
2260.000 0.133
2261.000 0.133
2262.000 0.133
2263.000 0.131
2264.000 0.129
2265.000 0.128
2266.000 0.128
2267.000 0.125
2268.000 0.121
2269.000 0.116
2270.000 0.113
2271.000 0.115
2272.000 0.118
2273.000 0.120
2274.000 0.123
2275.000 0.125
2276.000 0.125
2277.000 0.126
2278.000 0.129
2279.000 0.128
2280.000 0.124
2281.000 0.122
2282.000 0.117
2283.000 0.116
2284.000 0.122
2285.000 0.122
2286.000 0.123
2287.000 0.122
2288.000 0.118
2289.000 0.117
2290.000 0.122
2291.000 0.124
2292.000 0.128
2293.000 0.128
2294.000 0.123
2295.000 0.122
2296.000 0.121
2297.000 0.120
2298.000 0.129
2299.000 0.127
2300.000 0.123
2301.000 0.123
2302.000 0.112
2303.000 0.110
2304.000 0.108
2305.000 0.105
2306.000 0.106
2307.000 0.103
2308.000 0.101
2309.000 0.100
2310.000 0.098
2311.000 0.101
2312.000 0.106
2313.000 0.111
2314.000 0.116
2315.000 0.110
2316.000 0.103
2317.000 0.099
2318.000 0.101
2319.000 0.100
2320.000 0.102
2321.000 0.109
2322.000 0.108
2323.000 0.106
2324.000 0.113
2325.000 0.110
2326.000 0.110
2327.000 0.112
2328.000 0.113
2329.000 0.110
2330.000 0.109
2331.000 0.108
2332.000 0.111
2333.000 0.120
2334.000 0.118
2335.000 0.113
2336.000 0.114
2337.000 0.105
2338.000 0.099
2339.000 0.106
2340.000 0.102
2341.000 0.093
2342.000 0.093
2343.000 0.092
2344.000 0.091
2345.000 0.093
2346.000 0.087
2347.000 0.085
2348.000 0.081
2349.000 0.074
2350.000 0.078
2351.000 0.080
2352.000 0.080
2353.000 0.096
2354.000 0.097
2355.000 0.085
2356.000 0.082
2357.000 0.079
2358.000 0.078
2359.000 0.083
2360.000 0.092
2361.000 0.087
2362.000 0.086
2363.000 0.082
2364.000 0.073
2365.000 0.068
2366.000 0.067
2367.000 0.073
2368.000 0.104
2369.000 0.162
2370.000 0.128
2371.000 0.128
2372.000 0.112
2373.000 0.116
2374.000 0.110
2375.000 0.093
2376.000 0.101
2377.000 0.098
2378.000 0.080
2379.000 0.076
2380.000 0.079
2381.000 0.098
2382.000 0.103
2383.000 0.087
2384.000 0.109
2385.000 0.167
2386.000 0.073
2387.000 0.086
2388.000 0.109
2389.000 0.121
2390.000 0.168
2391.000 0.137
2392.000 0.082
2393.000 0.077
2394.000 0.071
2395.000 0.070
2396.000 0.084
2397.000 0.089
2398.000 0.092
2399.000 0.089
2400.000 0.088
2401.000 0.094
2402.000 0.080
2403.000 0.084
2404.000 0.078
2405.000 0.073
2406.000 0.078
2407.000 0.105
2408.000 0.086
2409.000 0.114
2410.000 0.101
2411.000 0.077
2412.000 0.115
2413.000 0.110
2414.000 0.100
2415.000 0.095
2416.000 0.098
2417.000 0.099
2418.000 0.087
2419.000 0.114
2420.000 0.068
2421.000 0.047
2422.000 0.063
2423.000 0.077
2424.000 0.097
2425.000 0.097
2426.000 0.097
2427.000 0.095
2428.000 0.083
2429.000 0.097
2430.000 0.110
2431.000 0.088
2432.000 0.071
2433.000 0.082
2434.000 0.085
2435.000 0.135
2436.000 0.177
2437.000 0.111
2438.000 0.101
2439.000 0.074
2440.000 0.077
2441.000 0.084
2442.000 0.070
2443.000 0.048
2444.000 0.071
2445.000 0.083
2446.000 0.125
2447.000 0.133
2448.000 0.124
2449.000 0.141
2450.000 0.188
2451.000 0.170
2452.000 0.168
2453.000 0.148
2454.000 0.123
2455.000 0.056
2456.000 0.045
2457.000 0.059
2458.000 0.113
2459.000 0.106
2460.000 0.112
2461.000 0.094
2462.000 0.093
2463.000 0.173
2464.000 0.151
2465.000 0.125
2466.000 0.104
2467.000 0.054
2468.000 0.062
2469.000 0.073
2470.000 0.100
2471.000 0.131
2472.000 0.111
2473.000 0.127
2474.000 0.139
2475.000 0.147
2476.000 0.094
2477.000 0.077
2478.000 0.084
2479.000 0.073
2480.000 0.086
2481.000 0.086
2482.000 0.051
2483.000 0.104
2484.000 0.111
2485.000 0.144
2486.000 0.225
2487.000 0.282
2488.000 0.327
2489.000 0.343
2490.000 0.292
2491.000 0.743
2492.000 0.632
2493.000 0.435
2494.000 0.488
2495.000 0.368
2496.000 0.401
2497.000 0.700
2498.000 0.551
2499.000 0.490
2500.000 0.422
