391.000 0.046
392.000 0.040
393.000 0.037
394.000 0.043
395.000 0.046
396.000 0.045
397.000 0.043
398.000 0.044
399.000 0.046
400.000 0.047
401.000 0.048
402.000 0.047
403.000 0.043
404.000 0.040
405.000 0.045
406.000 0.046
407.000 0.044
408.000 0.042
409.000 0.041
410.000 0.040
411.000 0.042
412.000 0.045
413.000 0.042
414.000 0.040
415.000 0.041
416.000 0.046
417.000 0.046
418.000 0.044
419.000 0.042
420.000 0.043
421.000 0.045
422.000 0.044
423.000 0.040
424.000 0.043
425.000 0.044
426.000 0.044
427.000 0.044
428.000 0.045
429.000 0.047
430.000 0.048
431.000 0.043
432.000 0.043
433.000 0.044
434.000 0.043
435.000 0.044
436.000 0.043
437.000 0.043
438.000 0.044
439.000 0.044
440.000 0.044
441.000 0.045
442.000 0.043
443.000 0.042
444.000 0.042
445.000 0.043
446.000 0.044
447.000 0.044
448.000 0.045
449.000 0.045
450.000 0.045
451.000 0.044
452.000 0.044
453.000 0.043
454.000 0.042
455.000 0.043
456.000 0.044
457.000 0.044
458.000 0.043
459.000 0.042
460.000 0.044
461.000 0.044
462.000 0.044
463.000 0.045
464.000 0.044
465.000 0.044
466.000 0.045
467.000 0.045
468.000 0.045
469.000 0.044
470.000 0.044
471.000 0.044
472.000 0.045
473.000 0.045
474.000 0.044
475.000 0.044
476.000 0.045
477.000 0.046
478.000 0.045
479.000 0.045
480.000 0.044
481.000 0.043
482.000 0.045
483.000 0.045
484.000 0.045
485.000 0.044
486.000 0.045
487.000 0.045
488.000 0.044
489.000 0.044
490.000 0.046
491.000 0.048
492.000 0.046
493.000 0.046
494.000 0.045
495.000 0.046
496.000 0.046
497.000 0.046
498.000 0.047
499.000 0.048
500.000 0.047
501.000 0.047
502.000 0.048
503.000 0.048
504.000 0.049
505.000 0.051
506.000 0.051
507.000 0.052
508.000 0.053
509.000 0.053
510.000 0.055
511.000 0.056
512.000 0.056
513.000 0.057
514.000 0.059
515.000 0.061
516.000 0.064
517.000 0.066
518.000 0.068
519.000 0.070
520.000 0.072
521.000 0.075
522.000 0.077
523.000 0.080
524.000 0.082
525.000 0.085
526.000 0.088
527.000 0.090
528.000 0.092
529.000 0.095
530.000 0.097
531.000 0.098
532.000 0.100
533.000 0.102
534.000 0.103
535.000 0.105
536.000 0.106
537.000 0.107
538.000 0.108
539.000 0.109
540.000 0.109
541.000 0.110
542.000 0.111
543.000 0.111
544.000 0.111
545.000 0.112
546.000 0.113
547.000 0.112
548.000 0.113
549.000 0.113
550.000 0.113
551.000 0.113
552.000 0.114
553.000 0.113
554.000 0.113
555.000 0.113
556.000 0.113
557.000 0.113
558.000 0.111
559.000 0.110
560.000 0.109
561.000 0.109
562.000 0.107
563.000 0.105
564.000 0.104
565.000 0.102
566.000 0.101
567.000 0.100
568.000 0.097
569.000 0.096
570.000 0.094
571.000 0.092
572.000 0.090
573.000 0.089
574.000 0.088
575.000 0.086
576.000 0.085
577.000 0.084
578.000 0.082
579.000 0.080
580.000 0.080
581.000 0.080
582.000 0.079
583.000 0.077
584.000 0.077
585.000 0.077
586.000 0.076
587.000 0.076
588.000 0.075
589.000 0.074
590.000 0.073
591.000 0.073
592.000 0.073
593.000 0.072
594.000 0.070
595.000 0.071
596.000 0.071
597.000 0.071
598.000 0.070
599.000 0.071
600.000 0.070
601.000 0.068
602.000 0.069
603.000 0.069
604.000 0.069
605.000 0.068
606.000 0.068
607.000 0.067
608.000 0.066
609.000 0.066
610.000 0.066
611.000 0.066
612.000 0.066
613.000 0.066
614.000 0.065
615.000 0.064
616.000 0.065
617.000 0.064
618.000 0.063
619.000 0.062
620.000 0.062
621.000 0.063
622.000 0.063
623.000 0.063
624.000 0.062
625.000 0.062
626.000 0.063
627.000 0.063
628.000 0.063
629.000 0.063
630.000 0.063
631.000 0.062
632.000 0.061
633.000 0.062
634.000 0.061
635.000 0.062
636.000 0.062
637.000 0.060
638.000 0.059
639.000 0.059
640.000 0.059
641.000 0.060
642.000 0.059
643.000 0.058
644.000 0.057
645.000 0.057
646.000 0.057
647.000 0.058
648.000 0.057
649.000 0.057
650.000 0.056
651.000 0.055
652.000 0.055
653.000 0.056
654.000 0.056
655.000 0.056
656.000 0.056
657.000 0.057
658.000 0.057
659.000 0.056
660.000 0.056
661.000 0.056
662.000 0.056
663.000 0.055
664.000 0.055
665.000 0.055
666.000 0.056
667.000 0.059
668.000 0.060
669.000 0.059
670.000 0.059
671.000 0.060
672.000 0.060
673.000 0.059
674.000 0.060
675.000 0.061
676.000 0.061
677.000 0.061
678.000 0.062
679.000 0.063
680.000 0.064
681.000 0.065
682.000 0.066
683.000 0.066
684.000 0.067
685.000 0.069
686.000 0.071
687.000 0.073
688.000 0.075
689.000 0.075
690.000 0.076
691.000 0.079
692.000 0.080
693.000 0.084
694.000 0.089
695.000 0.095
696.000 0.101
697.000 0.107
698.000 0.114
699.000 0.123
700.000 0.132
701.000 0.142
702.000 0.151
703.000 0.162
704.000 0.172
705.000 0.182
706.000 0.192
707.000 0.203
708.000 0.215
709.000 0.226
710.000 0.237
711.000 0.249
712.000 0.260
713.000 0.272
714.000 0.284
715.000 0.296
716.000 0.308
717.000 0.320
718.000 0.333
719.000 0.347
720.000 0.360
721.000 0.373
722.000 0.385
723.000 0.396
724.000 0.409
725.000 0.421
726.000 0.433
727.000 0.445
728.000 0.456
729.000 0.467
730.000 0.477
731.000 0.487
732.000 0.497
733.000 0.506
734.000 0.515
735.000 0.523
736.000 0.531
737.000 0.537
738.000 0.544
739.000 0.551
740.000 0.557
741.000 0.561
742.000 0.564
743.000 0.569
744.000 0.574
745.000 0.578
746.000 0.582
747.000 0.578
748.000 0.582
749.000 0.584
750.000 0.588
751.000 0.590
752.000 0.592
753.000 0.594
754.000 0.596
755.000 0.598
756.000 0.600
757.000 0.601
758.000 0.603
759.000 0.604
760.000 0.605
761.000 0.609
762.000 0.609
763.000 0.609
764.000 0.610
765.000 0.611
766.000 0.611
767.000 0.612
768.000 0.613
769.000 0.613
770.000 0.614
771.000 0.615
772.000 0.615
773.000 0.616
774.000 0.616
775.000 0.617
776.000 0.617
777.000 0.618
778.000 0.618
779.000 0.619
780.000 0.619
781.000 0.620
782.000 0.621
783.000 0.621
784.000 0.622
785.000 0.622
786.000 0.623
787.000 0.623
788.000 0.623
789.000 0.624
790.000 0.625
791.000 0.625
792.000 0.626
793.000 0.626
794.000 0.627
795.000 0.627
796.000 0.628
797.000 0.628
798.000 0.629
799.000 0.629
800.000 0.630
801.000 0.630
802.000 0.631
803.000 0.632
804.000 0.632
805.000 0.633
806.000 0.633
807.000 0.634
808.000 0.635
809.000 0.635
810.000 0.636
811.000 0.636
812.000 0.636
813.000 0.636
814.000 0.637
815.000 0.637
816.000 0.637
817.000 0.638
818.000 0.639
819.000 0.639
820.000 0.640
821.000 0.640
822.000 0.641
823.000 0.642
824.000 0.643
825.000 0.642
826.000 0.643
827.000 0.644
828.000 0.644
829.000 0.645
830.000 0.645
831.000 0.646
832.000 0.646
833.000 0.647
834.000 0.647
835.000 0.648
836.000 0.648
837.000 0.649
838.000 0.650
839.000 0.650
840.000 0.650
841.000 0.651
842.000 0.651
843.000 0.652
844.000 0.653
845.000 0.653
846.000 0.653
847.000 0.653
848.000 0.654
849.000 0.655
850.000 0.655
851.000 0.655
852.000 0.656
853.000 0.656
854.000 0.657
855.000 0.657
856.000 0.657
857.000 0.658
858.000 0.659
859.000 0.659
860.000 0.659
861.000 0.660
862.000 0.660
863.000 0.660
864.000 0.661
865.000 0.661
866.000 0.662
867.000 0.663
868.000 0.663
869.000 0.663
870.000 0.663
871.000 0.664
872.000 0.664
873.000 0.665
874.000 0.665
875.000 0.665
876.000 0.666
877.000 0.667
878.000 0.667
879.000 0.667
880.000 0.668
881.000 0.668
882.000 0.669
883.000 0.669
884.000 0.670
885.000 0.670
886.000 0.671
887.000 0.671
888.000 0.672
889.000 0.672
890.000 0.673
891.000 0.673
892.000 0.673
893.000 0.674
894.000 0.674
895.000 0.674
896.000 0.674
897.000 0.675
898.000 0.676
899.000 0.676
900.000 0.677
901.000 0.678
902.000 0.678
903.000 0.678
904.000 0.678
905.000 0.678
906.000 0.679
907.000 0.680
908.000 0.681
909.000 0.681
910.000 0.681
911.000 0.681
912.000 0.682
913.000 0.682
914.000 0.683
915.000 0.683
916.000 0.684
917.000 0.684
918.000 0.684
919.000 0.684
920.000 0.685
921.000 0.685
922.000 0.685
923.000 0.686
924.000 0.686
925.000 0.685
926.000 0.685
927.000 0.685
928.000 0.685
929.000 0.685
930.000 0.684
931.000 0.684
932.000 0.683
933.000 0.684
934.000 0.686
935.000 0.685
936.000 0.684
937.000 0.683
938.000 0.682
939.000 0.683
940.000 0.682
941.000 0.682
942.000 0.682
943.000 0.681
944.000 0.681
945.000 0.681
946.000 0.682
947.000 0.681
948.000 0.680
949.000 0.680
950.000 0.679
951.000 0.677
952.000 0.677
953.000 0.677
954.000 0.677
955.000 0.677
956.000 0.677
957.000 0.677
958.000 0.677
959.000 0.676
960.000 0.676
961.000 0.676
962.000 0.676
963.000 0.677
964.000 0.678
965.000 0.678
966.000 0.678
967.000 0.677
968.000 0.676
969.000 0.676
970.000 0.677
971.000 0.678
972.000 0.678
973.000 0.679
974.000 0.680
975.000 0.679
976.000 0.678
977.000 0.679
978.000 0.679
979.000 0.679
980.000 0.679
981.000 0.681
982.000 0.681
983.000 0.681
984.000 0.682
985.000 0.683
986.000 0.683
987.000 0.683
988.000 0.684
989.000 0.685
990.000 0.685
991.000 0.685
992.000 0.686
993.000 0.687
994.000 0.687
995.000 0.688
996.000 0.689
997.000 0.689
998.000 0.689
999.000 0.689
1000.000 0.690
1001.000 0.688
1002.000 0.689
1003.000 0.689
1004.000 0.690
1005.000 0.691
1006.000 0.691
1007.000 0.693
1008.000 0.694
1009.000 0.694
1010.000 0.695
1011.000 0.696
1012.000 0.696
1013.000 0.696
1014.000 0.698
1015.000 0.698
1016.000 0.697
1017.000 0.697
1018.000 0.698
1019.000 0.699
1020.000 0.699
1021.000 0.701
1022.000 0.701
1023.000 0.701
1024.000 0.702
1025.000 0.702
1026.000 0.703
1027.000 0.703
1028.000 0.704
1029.000 0.704
1030.000 0.704
1031.000 0.706
1032.000 0.707
1033.000 0.708
1034.000 0.708
1035.000 0.708
1036.000 0.708
1037.000 0.709
1038.000 0.710
1039.000 0.710
1040.000 0.710
1041.000 0.710
1042.000 0.710
1043.000 0.711
1044.000 0.712
1045.000 0.712
1046.000 0.712
1047.000 0.713
1048.000 0.713
1049.000 0.714
1050.000 0.714
1051.000 0.714
1052.000 0.715
1053.000 0.715
1054.000 0.715
1055.000 0.716
1056.000 0.716
1057.000 0.717
1058.000 0.717
1059.000 0.718
1060.000 0.718
1061.000 0.718
1062.000 0.718
1063.000 0.718
1064.000 0.718
1065.000 0.719
1066.000 0.719
1067.000 0.719
1068.000 0.720
1069.000 0.720
1070.000 0.721
1071.000 0.721
1072.000 0.721
1073.000 0.720
1074.000 0.720
1075.000 0.720
1076.000 0.720
1077.000 0.720
1078.000 0.720
1079.000 0.720
1080.000 0.720
1081.000 0.720
1082.000 0.721
1083.000 0.721
1084.000 0.722
1085.000 0.722
1086.000 0.723
1087.000 0.723
1088.000 0.722
1089.000 0.722
1090.000 0.722
1091.000 0.722
1092.000 0.723
1093.000 0.723
1094.000 0.723
1095.000 0.723
1096.000 0.722
1097.000 0.722
1098.000 0.723
1099.000 0.723
1100.000 0.723
1101.000 0.724
1102.000 0.725
1103.000 0.725
1104.000 0.724
1105.000 0.724
1106.000 0.724
1107.000 0.723
1108.000 0.722
1109.000 0.722
1110.000 0.721
1111.000 0.722
1112.000 0.722
1113.000 0.723
1114.000 0.722
1115.000 0.724
1116.000 0.724
1117.000 0.722
1118.000 0.721
1119.000 0.721
1120.000 0.719
1121.000 0.719
1122.000 0.720
1123.000 0.721
1124.000 0.731
1125.000 0.731
1126.000 0.730
1127.000 0.720
1128.000 0.719
1129.000 0.717
1130.000 0.716
1131.000 0.715
1132.000 0.713
1133.000 0.710
1134.000 0.709
1135.000 0.709
1136.000 0.709
1137.000 0.710
1138.000 0.709
1139.000 0.708
1140.000 0.707
1141.000 0.705
1142.000 0.704
1143.000 0.703
1144.000 0.701
1145.000 0.699
1146.000 0.697
1147.000 0.695
1148.000 0.693
1149.000 0.692
1150.000 0.692
1151.000 0.691
1152.000 0.689
1153.000 0.689
1154.000 0.688
1155.000 0.687
1156.000 0.687
1157.000 0.687
1158.000 0.687
1159.000 0.687
1160.000 0.687
1161.000 0.687
1162.000 0.687
1163.000 0.687
1164.000 0.687
1165.000 0.687
1166.000 0.686
1167.000 0.687
1168.000 0.687
1169.000 0.687
1170.000 0.687
1171.000 0.687
1172.000 0.687
1173.000 0.686
1174.000 0.687
1175.000 0.688
1176.000 0.688
1177.000 0.687
1178.000 0.688
1179.000 0.688
1180.000 0.688
1181.000 0.688
1182.000 0.688
1183.000 0.688
1184.000 0.688
1185.000 0.688
1186.000 0.689
1187.000 0.689
1188.000 0.689
1189.000 0.689
1190.000 0.688
1191.000 0.688
1192.000 0.688
1193.000 0.689
1194.000 0.689
1195.000 0.689
1196.000 0.690
1197.000 0.690
1198.000 0.690
1199.000 0.691
1200.000 0.691
1201.000 0.691
1202.000 0.691
1203.000 0.692
1204.000 0.693
1205.000 0.693
1206.000 0.693
1207.000 0.694
1208.000 0.695
1209.000 0.695
1210.000 0.695
1211.000 0.696
1212.000 0.696
1213.000 0.696
1214.000 0.696
1215.000 0.697
1216.000 0.697
1217.000 0.697
1218.000 0.698
1219.000 0.698
1220.000 0.698
1221.000 0.699
1222.000 0.699
1223.000 0.699
1224.000 0.700
1225.000 0.700
1226.000 0.700
1227.000 0.700
1228.000 0.700
1229.000 0.701
1230.000 0.701
1231.000 0.701
1232.000 0.701
1233.000 0.701
1234.000 0.702
1235.000 0.702
1236.000 0.703
1237.000 0.704
1238.000 0.704
1239.000 0.704
1240.000 0.704
1241.000 0.705
1242.000 0.705
1243.000 0.705
1244.000 0.706
1245.000 0.706
1246.000 0.706
1247.000 0.706
1248.000 0.706
1249.000 0.707
1250.000 0.708
1251.000 0.708
1252.000 0.708
1253.000 0.708
1254.000 0.709
1255.000 0.709
1256.000 0.709
1257.000 0.710
1258.000 0.710
1259.000 0.710
1260.000 0.710
1261.000 0.711
1262.000 0.711
1263.000 0.710
1264.000 0.711
1265.000 0.711
1266.000 0.712
1267.000 0.712
1268.000 0.713
1269.000 0.714
1270.000 0.714
1271.000 0.714
1272.000 0.715
1273.000 0.715
1274.000 0.716
1275.000 0.715
1276.000 0.715
1277.000 0.715
1278.000 0.715
1279.000 0.715
1280.000 0.716
1281.000 0.716
1282.000 0.716
1283.000 0.716
1284.000 0.717
1285.000 0.717
1286.000 0.717
1287.000 0.717
1288.000 0.716
1289.000 0.715
1290.000 0.714
1291.000 0.714
1292.000 0.714
1293.000 0.713
1294.000 0.713
1295.000 0.713
1296.000 0.712
1297.000 0.712
1298.000 0.711
1299.000 0.711
1300.000 0.710
1301.000 0.708
1302.000 0.707
1303.000 0.706
1304.000 0.705
1305.000 0.705
1306.000 0.704
1307.000 0.703
1308.000 0.702
1309.000 0.700
1310.000 0.699
1311.000 0.699
1312.000 0.698
1313.000 0.696
1314.000 0.695
1315.000 0.693
1316.000 0.690
1317.000 0.689
1318.000 0.687
1319.000 0.686
1320.000 0.685
1321.000 0.683
1322.000 0.682
1323.000 0.680
1324.000 0.679
1325.000 0.676
1326.000 0.674
1327.000 0.672
1328.000 0.670
1329.000 0.667
1330.000 0.664
1331.000 0.662
1332.000 0.660
1333.000 0.658
1334.000 0.664
1335.000 0.662
1336.000 0.659
1337.000 0.656
1338.000 0.655
1339.000 0.653
1340.000 0.652
1341.000 0.653
1342.000 0.650
1343.000 0.648
1344.000 0.649
1345.000 0.648
1346.000 0.652
1347.000 0.656
1348.000 0.657
1349.000 0.653
1350.000 0.655
1351.000 0.656
1352.000 0.661
1353.000 0.680
1354.000 0.694
1355.000 0.706
1356.000 0.736
1357.000 0.741
1358.000 0.719
1359.000 0.712
1360.000 0.610
1361.000 0.539
1362.000 0.427
1363.000 0.353
1364.000 0.334
1365.000 0.292
1366.000 0.468
1367.000 0.478
1368.000 0.526
1369.000 0.559
1370.000 0.673
1371.000 0.723
1372.000 0.937
1373.000 0.795
1374.000 0.630
1375.000 0.582
1376.000 0.402
1377.000 0.400
1378.000 0.524
1379.000 0.471
1380.000 0.469
1381.000 0.627
1382.000 0.547
1383.000 0.604
1384.000 0.540
1385.000 0.448
1386.000 0.312
1387.000 0.383
1388.000 0.193
1389.000 0.182
1390.000 0.447
1391.000 0.329
1392.000 0.436
1393.000 0.446
1394.000 0.437
1395.000 0.391
1396.000 0.350
1397.000 0.483
1398.000 0.429
1399.000 0.406
1400.000 0.362
1401.000 0.408
1402.000 0.415
1403.000 0.530
1404.000 0.528
1405.000 0.475
1406.000 0.478
1407.000 0.513
1408.000 0.538
1409.000 0.518
1410.000 0.503
1411.000 0.371
1412.000 0.327
1413.000 0.320
1414.000 0.324
1415.000 0.375
1416.000 0.339
1417.000 0.270
1418.000 0.268
1419.000 0.254
1420.000 0.251
1421.000 0.262
1422.000 0.259
1423.000 0.248
1424.000 0.241
1425.000 0.238
1426.000 0.240
1427.000 0.250
1428.000 0.248
1429.000 0.241
1430.000 0.241
1431.000 0.239
1432.000 0.238
1433.000 0.247
1434.000 0.247
1435.000 0.246
1436.000 0.241
1437.000 0.233
1438.000 0.229
1439.000 0.228
1440.000 0.225
1441.000 0.224
1442.000 0.221
1443.000 0.215
1444.000 0.213
1445.000 0.212
1446.000 0.211
1447.000 0.209
1448.000 0.210
1449.000 0.214
1450.000 0.215
1451.000 0.216
1452.000 0.219
1453.000 0.218
1454.000 0.215
1455.000 0.214
1456.000 0.214
1457.000 0.213
1458.000 0.213
1459.000 0.214
1460.000 0.215
1461.000 0.216
1462.000 0.219
1463.000 0.218
1464.000 0.215
1465.000 0.215
1466.000 0.215
1467.000 0.216
1468.000 0.221
1469.000 0.223
1470.000 0.223
1471.000 0.225
1472.000 0.229
1473.000 0.233
1474.000 0.239
1475.000 0.241
1476.000 0.241
1477.000 0.241
1478.000 0.241
1479.000 0.242
1480.000 0.242
1481.000 0.244
1482.000 0.249
1483.000 0.250
1484.000 0.254
1485.000 0.255
1486.000 0.253
1487.000 0.255
1488.000 0.256
1489.000 0.258
1490.000 0.261
1491.000 0.264
1492.000 0.267
1493.000 0.270
1494.000 0.272
1495.000 0.274
1496.000 0.275
1497.000 0.277
1498.000 0.279
1499.000 0.281
1500.000 0.284
1501.000 0.285
1502.000 0.287
1503.000 0.289
1504.000 0.289
1505.000 0.291
1506.000 0.293
1507.000 0.294
1508.000 0.296
1509.000 0.299
1510.000 0.301
1511.000 0.303
1512.000 0.305
1513.000 0.306
1514.000 0.308
1515.000 0.309
1516.000 0.312
1517.000 0.315
1518.000 0.317
1519.000 0.320
1520.000 0.322
1521.000 0.324
1522.000 0.326
1523.000 0.329
1524.000 0.331
1525.000 0.332
1526.000 0.334
1527.000 0.337
1528.000 0.339
1529.000 0.341
1530.000 0.344
1531.000 0.347
1532.000 0.349
1533.000 0.351
1534.000 0.353
1535.000 0.354
1536.000 0.357
1537.000 0.360
1538.000 0.363
1539.000 0.366
1540.000 0.368
1541.000 0.371
1542.000 0.372
1543.000 0.373
1544.000 0.375
1545.000 0.376
1546.000 0.378
1547.000 0.381
1548.000 0.383
1549.000 0.385
1550.000 0.387
1551.000 0.388
1552.000 0.389
1553.000 0.392
1554.000 0.393
1555.000 0.395
1556.000 0.396
1557.000 0.397
1558.000 0.399
1559.000 0.401
1560.000 0.403
1561.000 0.406
1562.000 0.409
1563.000 0.411
1564.000 0.413
1565.000 0.414
1566.000 0.416
1567.000 0.417
1568.000 0.418
1569.000 0.421
1570.000 0.423
1571.000 0.425
1572.000 0.426
1573.000 0.427
1574.000 0.429
1575.000 0.430
1576.000 0.431
1577.000 0.433
1578.000 0.435
1579.000 0.437
1580.000 0.439
1581.000 0.441
1582.000 0.443
1583.000 0.445
1584.000 0.446
1585.000 0.446
1586.000 0.448
1587.000 0.449
1588.000 0.451
1589.000 0.453
1590.000 0.455
1591.000 0.456
1592.000 0.458
1593.000 0.460
1594.000 0.460
1595.000 0.461
1596.000 0.462
1597.000 0.463
1598.000 0.464
1599.000 0.466
1600.000 0.468
1601.000 0.469
1602.000 0.471
1603.000 0.472
1604.000 0.473
1605.000 0.475
1606.000 0.476
1607.000 0.478
1608.000 0.479
1609.000 0.479
1610.000 0.480
1611.000 0.480
1612.000 0.481
1613.000 0.482
1614.000 0.483
1615.000 0.485
1616.000 0.487
1617.000 0.488
1618.000 0.489
1619.000 0.490
1620.000 0.491
1621.000 0.493
1622.000 0.494
1623.000 0.495
1624.000 0.496
1625.000 0.496
1626.000 0.497
1627.000 0.496
1628.000 0.497
1629.000 0.498
1630.000 0.498
1631.000 0.499
1632.000 0.500
1633.000 0.499
1634.000 0.500
1635.000 0.500
1636.000 0.501
1637.000 0.503
1638.000 0.504
1639.000 0.506
1640.000 0.507
1641.000 0.508
1642.000 0.509
1643.000 0.509
1644.000 0.509
1645.000 0.510
1646.000 0.510
1647.000 0.512
1648.000 0.512
1649.000 0.512
1650.000 0.513
1651.000 0.513
1652.000 0.514
1653.000 0.515
1654.000 0.515
1655.000 0.515
1656.000 0.515
1657.000 0.515
1658.000 0.515
1659.000 0.514
1660.000 0.515
1661.000 0.514
1662.000 0.514
1663.000 0.514
1664.000 0.515
1665.000 0.517
1666.000 0.519
1667.000 0.519
1668.000 0.520
1669.000 0.519
1670.000 0.519
1671.000 0.520
1672.000 0.520
1673.000 0.520
1674.000 0.520
1675.000 0.520
1676.000 0.520
1677.000 0.520
1678.000 0.520
1679.000 0.523
1680.000 0.523
1681.000 0.524
1682.000 0.524
1683.000 0.523
1684.000 0.522
1685.000 0.522
1686.000 0.522
1687.000 0.522
1688.000 0.522
1689.000 0.524
1690.000 0.524
1691.000 0.522
1692.000 0.521
1693.000 0.522
1694.000 0.522
1695.000 0.523
1696.000 0.524
1697.000 0.525
1698.000 0.525
1699.000 0.523
1700.000 0.523
1701.000 0.521
1702.000 0.521
1703.000 0.522
1704.000 0.522
1705.000 0.523
1706.000 0.522
1707.000 0.519
1708.000 0.518
1709.000 0.516
1710.000 0.516
1711.000 0.516
1712.000 0.516
1713.000 0.515
1714.000 0.514
1715.000 0.514
1716.000 0.512
1717.000 0.512
1718.000 0.509
1719.000 0.506
1720.000 0.505
1721.000 0.504
1722.000 0.503
1723.000 0.503
1724.000 0.503
1725.000 0.504
1726.000 0.505
1727.000 0.506
1728.000 0.505
1729.000 0.502
1730.000 0.500
1731.000 0.497
1732.000 0.495
1733.000 0.495
1734.000 0.495
1735.000 0.496
1736.000 0.497
1737.000 0.497
1738.000 0.498
1739.000 0.497
1740.000 0.496
1741.000 0.495
1742.000 0.490
1743.000 0.489
1744.000 0.488
1745.000 0.488
1746.000 0.489
1747.000 0.489
1748.000 0.487
1749.000 0.486
1750.000 0.484
1751.000 0.481
1752.000 0.479
1753.000 0.477
1754.000 0.473
1755.000 0.471
1756.000 0.470
1757.000 0.470
1758.000 0.471
1759.000 0.469
1760.000 0.466
1761.000 0.464
1762.000 0.463
1763.000 0.461
1764.000 0.460
1765.000 0.459
1766.000 0.456
1767.000 0.453
1768.000 0.455
1769.000 0.456
1770.000 0.455
1771.000 0.455
1772.000 0.453
1773.000 0.446
1774.000 0.443
1775.000 0.443
1776.000 0.442
1777.000 0.443
1778.000 0.445
1779.000 0.446
1780.000 0.446
1781.000 0.445
1782.000 0.444
1783.000 0.439
1784.000 0.438
1785.000 0.444
1786.000 0.445
1787.000 0.449
1788.000 0.450
1789.000 0.442
1790.000 0.441
1791.000 0.442
1792.000 0.441
1793.000 0.445
1794.000 0.443
1795.000 0.441
1796.000 0.434
1797.000 0.431
1798.000 0.428
1799.000 0.420
1800.000 0.416
1801.000 0.461
1802.000 0.463
1803.000 0.479
1804.000 0.477
1805.000 0.475
1806.000 0.467
1807.000 0.467
1808.000 0.469
1809.000 0.477
1810.000 0.506
1811.000 0.521
1812.000 0.547
1813.000 0.528
1814.000 0.547
1815.000 0.456
1816.000 0.445
1817.000 0.465
1818.000 0.477
1819.000 0.511
1820.000 0.524
1821.000 0.451
1822.000 0.499
1823.000 0.516
1824.000 0.555
1825.000 0.550
1826.000 0.559
1827.000 0.566
1828.000 0.645
1829.000 0.562
1830.000 0.489
1831.000 0.434
1832.000 0.399
1833.000 0.461
1834.000 0.414
1835.000 0.402
1836.000 0.261
1837.000 0.234
1838.000 0.469
1839.000 0.494
1840.000 0.472
1841.000 0.432
1842.000 0.512
1843.000 0.337
1844.000 0.385
1845.000 0.504
1846.000 0.483
1847.000 0.547
1848.000 0.531
1849.000 0.555
1850.000 0.427
1851.000 0.572
1852.000 0.546
1853.000 0.521
1854.000 0.454
1855.000 0.446
1856.000 0.526
1857.000 0.500
1858.000 0.551
1859.000 0.408
1860.000 0.498
1861.000 0.691
1862.000 0.568
1863.000 0.341
1864.000 0.404
1865.000 0.228
1866.000 0.252
1867.000 0.308
1868.000 0.316
1869.000 0.277
1870.000 0.290
1871.000 0.302
1872.000 0.431
1873.000 0.342
1874.000 0.492
1875.000 0.456
1876.000 0.487
1877.000 0.367
1878.000 0.297
1879.000 0.351
1880.000 0.606
1881.000 0.410
1882.000 0.263
1883.000 0.494
1884.000 0.625
1885.000 0.523
1886.000 0.400
1887.000 0.604
1888.000 0.515
1889.000 0.338
1890.000 0.346
1891.000 0.618
1892.000 0.439
1893.000 0.659
1894.000 0.631
1895.000 0.378
1896.000 0.397
1897.000 0.568
1898.000 0.453
1899.000 0.470
1900.000 0.342
1901.000 0.322
1902.000 0.429
1903.000 0.421
1904.000 0.328
1905.000 0.511
1906.000 0.723
1907.000 0.506
1908.000 0.496
1909.000 0.515
1910.000 0.376
1911.000 0.257
1912.000 0.261
1913.000 0.213
1914.000 0.185
1915.000 0.294
1916.000 0.477
1917.000 0.469
1918.000 0.448
1919.000 0.417
1920.000 0.319
1921.000 0.289
1922.000 0.380
1923.000 0.507
1924.000 0.434
1925.000 0.242
1926.000 0.392
1927.000 0.465
1928.000 0.424
1929.000 0.276
1930.000 0.214
1931.000 0.141
1932.000 0.356
1933.000 0.552
1934.000 0.456
1935.000 0.467
1936.000 0.484
1937.000 0.368
1938.000 0.400
1939.000 0.445
1940.000 0.413
1941.000 0.328
1942.000 0.441
1943.000 0.384
1944.000 0.278
1945.000 0.288
1946.000 0.242
1947.000 0.261
1948.000 0.349
1949.000 0.402
1950.000 0.357
1951.000 0.353
1952.000 0.393
1953.000 0.323
1954.000 0.256
1955.000 0.381
1956.000 0.265
1957.000 0.213
1958.000 0.228
1959.000 0.252
1960.000 0.291
1961.000 0.275
1962.000 0.278
1963.000 0.265
1964.000 0.255
1965.000 0.257
1966.000 0.237
1967.000 0.191
1968.000 0.184
1969.000 0.157
1970.000 0.133
1971.000 0.121
1972.000 0.108
1973.000 0.097
1974.000 0.092
1975.000 0.092
1976.000 0.097
1977.000 0.105
1978.000 0.113
1979.000 0.119
1980.000 0.120
1981.000 0.125
1982.000 0.123
1983.000 0.121
1984.000 0.131
1985.000 0.136
1986.000 0.138
1987.000 0.145
1988.000 0.138
1989.000 0.114
1990.000 0.106
1991.000 0.098
1992.000 0.095
1993.000 0.105
1994.000 0.123
1995.000 0.135
1996.000 0.150
1997.000 0.166
1998.000 0.170
1999.000 0.180
2000.000 0.191
2001.000 0.201
2002.000 0.203
2003.000 0.216
2004.000 0.240
2005.000 0.252
2006.000 0.265
2007.000 0.296
2008.000 0.294
2009.000 0.231
2010.000 0.208
2011.000 0.181
2012.000 0.157
2013.000 0.145
2014.000 0.144
2015.000 0.154
2016.000 0.151
2017.000 0.144
2018.000 0.142
2019.000 0.140
2020.000 0.140
2021.000 0.148
2022.000 0.152
2023.000 0.160
2024.000 0.160
2025.000 0.155
2026.000 0.159
2027.000 0.160
2028.000 0.160
2029.000 0.159
2030.000 0.155
2031.000 0.156
2032.000 0.161
2033.000 0.162
2034.000 0.165
2035.000 0.168
2036.000 0.167
2037.000 0.164
2038.000 0.162
2039.000 0.159
2040.000 0.153
2041.000 0.151
2042.000 0.152
2043.000 0.159
2044.000 0.164
2045.000 0.173
2046.000 0.178
2047.000 0.181
2048.000 0.183
2049.000 0.182
2050.000 0.185
2051.000 0.186
2052.000 0.192
2053.000 0.196
2054.000 0.202
2055.000 0.202
2056.000 0.202
2057.000 0.198
2058.000 0.181
2059.000 0.178
2060.000 0.175
2061.000 0.176
2062.000 0.183
2063.000 0.188
2064.000 0.195
2065.000 0.197
2066.000 0.195
2067.000 0.193
2068.000 0.194
2069.000 0.191
2070.000 0.188
2071.000 0.182
2072.000 0.178
2073.000 0.172
2074.000 0.176
2075.000 0.186
2076.000 0.193
2077.000 0.207
2078.000 0.212
2079.000 0.213
2080.000 0.214
2081.000 0.212
2082.000 0.209
2083.000 0.208
2084.000 0.207
2085.000 0.207
2086.000 0.212
2087.000 0.215
2088.000 0.222
2089.000 0.221
2090.000 0.215
2091.000 0.214
2092.000 0.211
2093.000 0.212
2094.000 0.217
2095.000 0.221
2096.000 0.227
2097.000 0.229
2098.000 0.230
2099.000 0.233
2100.000 0.231
2101.000 0.229
2102.000 0.229
2103.000 0.229
2104.000 0.231
2105.000 0.236
2106.000 0.237
2107.000 0.240
2108.000 0.239
2109.000 0.234
2110.000 0.233
2111.000 0.235
2112.000 0.236
2113.000 0.238
2114.000 0.240
2115.000 0.239
2116.000 0.239
2117.000 0.238
2118.000 0.239
2119.000 0.241
2120.000 0.249
2121.000 0.256
2122.000 0.259
2123.000 0.260
2124.000 0.255
2125.000 0.253
2126.000 0.251
2127.000 0.250
2128.000 0.250
2129.000 0.251
2130.000 0.254
2131.000 0.254
2132.000 0.254
2133.000 0.255
2134.000 0.252
2135.000 0.253
2136.000 0.257
2137.000 0.264
2138.000 0.263
2139.000 0.265
2140.000 0.263
2141.000 0.258
2142.000 0.259
2143.000 0.262
2144.000 0.266
2145.000 0.276
2146.000 0.280
2147.000 0.284
2148.000 0.283
2149.000 0.274
2150.000 0.271
2151.000 0.269
2152.000 0.268
2153.000 0.274
2154.000 0.277
2155.000 0.281
2156.000 0.285
2157.000 0.289
2158.000 0.288
2159.000 0.289
2160.000 0.286
2161.000 0.284
2162.000 0.281
2163.000 0.280
2164.000 0.281
2165.000 0.284
2166.000 0.290
2167.000 0.293
2168.000 0.296
2169.000 0.298
2170.000 0.299
2171.000 0.298
2172.000 0.295
2173.000 0.294
2174.000 0.292
2175.000 0.291
2176.000 0.293
2177.000 0.294
2178.000 0.295
2179.000 0.289
2180.000 0.282
2181.000 0.277
2182.000 0.273
2183.000 0.272
2184.000 0.272
2185.000 0.275
2186.000 0.278
2187.000 0.283
2188.000 0.286
2189.000 0.293
2190.000 0.294
2191.000 0.286
2192.000 0.285
2193.000 0.282
2194.000 0.283
2195.000 0.293
2196.000 0.296
2197.000 0.299
2198.000 0.299
2199.000 0.291
2200.000 0.288
2201.000 0.285
2202.000 0.281
2203.000 0.281
2204.000 0.284
2205.000 0.286
2206.000 0.290
2207.000 0.297
2208.000 0.299
2209.000 0.299
2210.000 0.296
2211.000 0.295
2212.000 0.289
2213.000 0.289
2214.000 0.294
2215.000 0.295
2216.000 0.297
2217.000 0.297
2218.000 0.294
2219.000 0.295
2220.000 0.300
2221.000 0.301
2222.000 0.302
2223.000 0.302
2224.000 0.300
2225.000 0.299
2226.000 0.296
2227.000 0.297
2228.000 0.296
2229.000 0.288
2230.000 0.285
2231.000 0.283
2232.000 0.278
2233.000 0.282
2234.000 0.283
2235.000 0.280
2236.000 0.283
2237.000 0.283
2238.000 0.283
2239.000 0.285
2240.000 0.285
2241.000 0.282
2242.000 0.282
2243.000 0.284
2244.000 0.287
2245.000 0.295
2246.000 0.295
2247.000 0.292
2248.000 0.289
2249.000 0.281
2250.000 0.278
2251.000 0.276
2252.000 0.276
2253.000 0.279
2254.000 0.277
2255.000 0.272
2256.000 0.270
2257.000 0.264
2258.000 0.266
2259.000 0.277
2260.000 0.282
2261.000 0.287
2262.000 0.283
2263.000 0.276
2264.000 0.272
2265.000 0.261
2266.000 0.253
2267.000 0.251
2268.000 0.242
2269.000 0.244
2270.000 0.250
2271.000 0.248
2272.000 0.249
2273.000 0.249
2274.000 0.248
2275.000 0.248
2276.000 0.253
2277.000 0.255
2278.000 0.255
2279.000 0.250
2280.000 0.244
2281.000 0.238
2282.000 0.226
2283.000 0.220
2284.000 0.216
2285.000 0.214
2286.000 0.220
2287.000 0.224
2288.000 0.229
2289.000 0.229
2290.000 0.222
2291.000 0.222
2292.000 0.222
2293.000 0.223
2294.000 0.229
2295.000 0.235
2296.000 0.242
2297.000 0.248
2298.000 0.249
2299.000 0.255
2300.000 0.246
2301.000 0.234
2302.000 0.235
2303.000 0.234
2304.000 0.235
2305.000 0.242
2306.000 0.240
2307.000 0.246
2308.000 0.249
2309.000 0.242
2310.000 0.247
2311.000 0.246
2312.000 0.242
2313.000 0.238
2314.000 0.221
2315.000 0.214
2316.000 0.213
2317.000 0.210
2318.000 0.214
2319.000 0.206
2320.000 0.207
2321.000 0.221
2322.000 0.234
2323.000 0.253
2324.000 0.247
2325.000 0.237
2326.000 0.240
2327.000 0.257
2328.000 0.257
2329.000 0.263
2330.000 0.256
2331.000 0.232
2332.000 0.221
2333.000 0.213
2334.000 0.204
2335.000 0.193
2336.000 0.184
2337.000 0.183
2338.000 0.180
2339.000 0.170
2340.000 0.171
2341.000 0.178
2342.000 0.181
2343.000 0.193
2344.000 0.198
2345.000 0.183
2346.000 0.185
2347.000 0.178
2348.000 0.162
2349.000 0.148
2350.000 0.142
2351.000 0.150
2352.000 0.144
2353.000 0.152
2354.000 0.154
2355.000 0.140
2356.000 0.140
2357.000 0.146
2358.000 0.154
2359.000 0.153
2360.000 0.162
2361.000 0.140
2362.000 0.116
2363.000 0.121
2364.000 0.132
2365.000 0.136
2366.000 0.152
2367.000 0.157
2368.000 0.148
2369.000 0.174
2370.000 0.189
2371.000 0.179
2372.000 0.178
2373.000 0.190
2374.000 0.173
2375.000 0.149
2376.000 0.187
2377.000 0.168
2378.000 0.155
2379.000 0.137
2380.000 0.140
2381.000 0.149
2382.000 0.132
2383.000 0.117
2384.000 0.131
2385.000 0.147
2386.000 0.169
2387.000 0.202
2388.000 0.184
2389.000 0.185
2390.000 0.184
2391.000 0.171
2392.000 0.162
2393.000 0.186
2394.000 0.242
2395.000 0.240
2396.000 0.240
2397.000 0.290
2398.000 0.349
2399.000 0.230
2400.000 0.247
2401.000 0.218
2402.000 0.171
2403.000 0.215
2404.000 0.181
2405.000 0.307
2406.000 0.251
2407.000 0.300
2408.000 0.282
2409.000 0.263
2410.000 0.273
2411.000 0.447
2412.000 0.375
2413.000 0.348
2414.000 0.364
2415.000 0.360
2416.000 0.382
2417.000 0.423
2418.000 0.331
2419.000 0.243
2420.000 0.198
2421.000 0.167
2422.000 0.158
2423.000 0.310
2424.000 0.256
2425.000 0.176
2426.000 0.153
2427.000 0.157
2428.000 0.151
2429.000 0.167
2430.000 0.198
2431.000 0.351
2432.000 0.280
2433.000 0.317
2434.000 0.202
2435.000 0.210
2436.000 0.421
2437.000 0.187
2438.000 0.182
2439.000 0.511
2440.000 0.337
2441.000 0.507
2442.000 0.404
2443.000 0.435
2444.000 0.451
2445.000 0.309
2446.000 0.493
2447.000 0.457
2448.000 0.466
2449.000 0.232
2450.000 0.223
2451.000 0.171
2452.000 0.209
2453.000 0.199
2454.000 0.161
2455.000 0.122
2456.000 0.332
2457.000 0.297
2458.000 0.258
2459.000 0.250
2460.000 0.229
2461.000 0.336
2462.000 0.228
2463.000 0.282
2464.000 0.264
2465.000 0.337
2466.000 0.449
2467.000 0.482
2468.000 0.175
2469.000 0.381
2470.000 0.503
2471.000 0.530
2472.000 0.376
2473.000 0.385
2474.000 0.406
2475.000 0.317
2476.000 0.369
2477.000 0.346
2478.000 0.323
2479.000 0.378
2480.000 0.453
2481.000 0.326
2482.000 0.289
2483.000 0.425
2484.000 0.415
2485.000 0.442
2486.000 0.594
2487.000 0.388
2488.000 0.370
2489.000 0.464
2490.000 0.310
2491.000 0.296
2492.000 0.407
2493.000 0.419
2494.000 0.328
2495.000 0.322
2496.000 0.455
2497.000 0.427
2498.000 0.418
2499.000 0.518
2500.000 0.495
