391.000 0.085
392.000 0.083
393.000 0.084
394.000 0.093
395.000 0.091
396.000 0.087
397.000 0.089
398.000 0.092
399.000 0.092
400.000 0.092
401.000 0.093
402.000 0.088
403.000 0.088
404.000 0.090
405.000 0.093
406.000 0.092
407.000 0.092
408.000 0.093
409.000 0.091
410.000 0.091
411.000 0.094
412.000 0.099
413.000 0.095
414.000 0.094
415.000 0.095
416.000 0.095
417.000 0.095
418.000 0.095
419.000 0.096
420.000 0.096
421.000 0.099
422.000 0.100
423.000 0.100
424.000 0.100
425.000 0.100
426.000 0.100
427.000 0.101
428.000 0.100
429.000 0.100
430.000 0.101
431.000 0.099
432.000 0.101
433.000 0.103
434.000 0.102
435.000 0.103
436.000 0.104
437.000 0.104
438.000 0.105
439.000 0.105
440.000 0.106
441.000 0.107
442.000 0.105
443.000 0.106
444.000 0.107
445.000 0.108
446.000 0.108
447.000 0.106
448.000 0.106
449.000 0.109
450.000 0.108
451.000 0.107
452.000 0.107
453.000 0.109
454.000 0.110
455.000 0.109
456.000 0.110
457.000 0.108
458.000 0.109
459.000 0.111
460.000 0.110
461.000 0.111
462.000 0.111
463.000 0.111
464.000 0.112
465.000 0.115
466.000 0.115
467.000 0.114
468.000 0.116
469.000 0.116
470.000 0.114
471.000 0.114
472.000 0.116
473.000 0.116
474.000 0.116
475.000 0.119
476.000 0.119
477.000 0.119
478.000 0.119
479.000 0.120
480.000 0.120
481.000 0.121
482.000 0.122
483.000 0.122
484.000 0.123
485.000 0.124
486.000 0.124
487.000 0.125
488.000 0.126
489.000 0.126
490.000 0.127
491.000 0.128
492.000 0.127
493.000 0.128
494.000 0.129
495.000 0.130
496.000 0.131
497.000 0.133
498.000 0.131
499.000 0.130
500.000 0.134
501.000 0.135
502.000 0.136
503.000 0.136
504.000 0.137
505.000 0.137
506.000 0.137
507.000 0.138
508.000 0.138
509.000 0.139
510.000 0.141
511.000 0.141
512.000 0.144
513.000 0.144
514.000 0.142
515.000 0.144
516.000 0.146
517.000 0.147
518.000 0.148
519.000 0.149
520.000 0.149
521.000 0.149
522.000 0.149
523.000 0.150
524.000 0.152
525.000 0.153
526.000 0.153
527.000 0.154
528.000 0.155
529.000 0.156
530.000 0.155
531.000 0.156
532.000 0.158
533.000 0.158
534.000 0.158
535.000 0.159
536.000 0.161
537.000 0.161
538.000 0.161
539.000 0.162
540.000 0.164
541.000 0.164
542.000 0.164
543.000 0.165
544.000 0.165
545.000 0.165
546.000 0.166
547.000 0.167
548.000 0.167
549.000 0.168
550.000 0.169
551.000 0.169
552.000 0.170
553.000 0.171
554.000 0.171
555.000 0.172
556.000 0.172
557.000 0.173
558.000 0.173
559.000 0.175
560.000 0.175
561.000 0.174
562.000 0.176
563.000 0.177
564.000 0.178
565.000 0.178
566.000 0.178
567.000 0.179
568.000 0.181
569.000 0.181
570.000 0.181
571.000 0.183
572.000 0.183
573.000 0.182
574.000 0.183
575.000 0.185
576.000 0.185
577.000 0.186
578.000 0.187
579.000 0.188
580.000 0.187
581.000 0.187
582.000 0.188
583.000 0.189
584.000 0.190
585.000 0.191
586.000 0.192
587.000 0.192
588.000 0.192
589.000 0.194
590.000 0.194
591.000 0.195
592.000 0.195
593.000 0.195
594.000 0.196
595.000 0.197
596.000 0.197
597.000 0.196
598.000 0.197
599.000 0.198
600.000 0.199
601.000 0.199
602.000 0.198
603.000 0.197
604.000 0.199
605.000 0.200
606.000 0.201
607.000 0.202
608.000 0.203
609.000 0.204
610.000 0.205
611.000 0.205
612.000 0.205
613.000 0.206
614.000 0.207
615.000 0.208
616.000 0.209
617.000 0.210
618.000 0.210
619.000 0.211
620.000 0.212
621.000 0.213
622.000 0.215
623.000 0.217
624.000 0.216
625.000 0.216
626.000 0.219
627.000 0.221
628.000 0.221
629.000 0.221
630.000 0.220
631.000 0.223
632.000 0.223
633.000 0.223
634.000 0.225
635.000 0.227
636.000 0.227
637.000 0.227
638.000 0.230
639.000 0.230
640.000 0.231
641.000 0.232
642.000 0.233
643.000 0.232
644.000 0.234
645.000 0.236
646.000 0.237
647.000 0.239
648.000 0.241
649.000 0.239
650.000 0.240
651.000 0.243
652.000 0.245
653.000 0.245
654.000 0.245
655.000 0.247
656.000 0.250
657.000 0.250
658.000 0.251
659.000 0.251
660.000 0.252
661.000 0.252
662.000 0.254
663.000 0.256
664.000 0.257
665.000 0.258
666.000 0.259
667.000 0.260
668.000 0.261
669.000 0.262
670.000 0.263
671.000 0.265
672.000 0.267
673.000 0.268
674.000 0.269
675.000 0.269
676.000 0.269
677.000 0.268
678.000 0.271
679.000 0.274
680.000 0.275
681.000 0.273
682.000 0.275
683.000 0.278
684.000 0.279
685.000 0.278
686.000 0.277
687.000 0.278
688.000 0.280
689.000 0.278
690.000 0.276
691.000 0.277
692.000 0.276
693.000 0.274
694.000 0.273
695.000 0.273
696.000 0.271
697.000 0.271
698.000 0.269
699.000 0.268
700.000 0.266
701.000 0.265
702.000 0.267
703.000 0.265
704.000 0.264
705.000 0.264
706.000 0.264
707.000 0.263
708.000 0.263
709.000 0.263
710.000 0.264
711.000 0.264
712.000 0.264
713.000 0.264
714.000 0.264
715.000 0.265
716.000 0.264
717.000 0.263
718.000 0.265
719.000 0.264
720.000 0.265
721.000 0.265
722.000 0.266
723.000 0.267
724.000 0.267
725.000 0.267
726.000 0.268
727.000 0.270
728.000 0.270
729.000 0.271
730.000 0.272
731.000 0.273
732.000 0.274
733.000 0.275
734.000 0.276
735.000 0.277
736.000 0.278
737.000 0.279
738.000 0.280
739.000 0.281
740.000 0.282
741.000 0.283
742.000 0.284
743.000 0.286
744.000 0.286
745.000 0.288
746.000 0.287
747.000 0.288
748.000 0.289
749.000 0.290
750.000 0.291
751.000 0.292
752.000 0.292
753.000 0.293
754.000 0.294
755.000 0.295
756.000 0.296
757.000 0.297
758.000 0.298
759.000 0.298
760.000 0.297
761.000 0.297
762.000 0.297
763.000 0.297
764.000 0.298
765.000 0.300
766.000 0.302
767.000 0.304
768.000 0.306
769.000 0.307
770.000 0.308
771.000 0.309
772.000 0.310
773.000 0.311
774.000 0.312
775.000 0.312
776.000 0.313
777.000 0.314
778.000 0.315
779.000 0.316
780.000 0.317
781.000 0.318
782.000 0.319
783.000 0.319
784.000 0.320
785.000 0.321
786.000 0.322
787.000 0.322
788.000 0.323
789.000 0.324
790.000 0.325
791.000 0.325
792.000 0.327
793.000 0.328
794.000 0.329
795.000 0.330
796.000 0.330
797.000 0.331
798.000 0.332
799.000 0.333
800.000 0.334
801.000 0.334
802.000 0.335
803.000 0.337
804.000 0.337
805.000 0.338
806.000 0.339
807.000 0.341
808.000 0.342
809.000 0.342
810.000 0.343
811.000 0.343
812.000 0.344
813.000 0.344
814.000 0.344
815.000 0.344
816.000 0.345
817.000 0.346
818.000 0.347
819.000 0.349
820.000 0.350
821.000 0.351
822.000 0.352
823.000 0.353
824.000 0.354
825.000 0.354
826.000 0.355
827.000 0.356
828.000 0.356
829.000 0.358
830.000 0.359
831.000 0.360
832.000 0.361
833.000 0.362
834.000 0.363
835.000 0.364
836.000 0.364
837.000 0.366
838.000 0.367
839.000 0.368
840.000 0.369
841.000 0.370
842.000 0.370
843.000 0.371
844.000 0.372
845.000 0.373
846.000 0.374
847.000 0.375
848.000 0.375
849.000 0.376
850.000 0.377
851.000 0.378
852.000 0.378
853.000 0.379
854.000 0.380
855.000 0.381
856.000 0.382
857.000 0.383
858.000 0.383
859.000 0.384
860.000 0.385
861.000 0.385
862.000 0.386
863.000 0.386
864.000 0.387
865.000 0.388
866.000 0.388
867.000 0.389
868.000 0.391
869.000 0.391
870.000 0.391
871.000 0.392
872.000 0.393
873.000 0.394
874.000 0.394
875.000 0.395
876.000 0.396
877.000 0.396
878.000 0.396
879.000 0.397
880.000 0.398
881.000 0.399
882.000 0.400
883.000 0.401
884.000 0.402
885.000 0.403
886.000 0.404
887.000 0.404
888.000 0.404
889.000 0.405
890.000 0.406
891.000 0.406
892.000 0.406
893.000 0.407
894.000 0.407
895.000 0.408
896.000 0.408
897.000 0.408
898.000 0.408
899.000 0.409
900.000 0.409
901.000 0.410
902.000 0.411
903.000 0.412
904.000 0.412
905.000 0.413
906.000 0.414
907.000 0.414
908.000 0.415
909.000 0.415
910.000 0.415
911.000 0.416
912.000 0.416
913.000 0.417
914.000 0.418
915.000 0.419
916.000 0.419
917.000 0.420
918.000 0.421
919.000 0.422
920.000 0.423
921.000 0.424
922.000 0.424
923.000 0.424
924.000 0.425
925.000 0.425
926.000 0.425
927.000 0.424
928.000 0.424
929.000 0.422
930.000 0.421
931.000 0.422
932.000 0.422
933.000 0.422
934.000 0.421
935.000 0.418
936.000 0.415
937.000 0.417
938.000 0.418
939.000 0.418
940.000 0.420
941.000 0.423
942.000 0.423
943.000 0.422
944.000 0.426
945.000 0.425
946.000 0.422
947.000 0.423
948.000 0.428
949.000 0.426
950.000 0.425
951.000 0.429
952.000 0.429
953.000 0.431
954.000 0.432
955.000 0.433
956.000 0.430
957.000 0.434
958.000 0.436
959.000 0.434
960.000 0.434
961.000 0.437
962.000 0.439
963.000 0.440
964.000 0.439
965.000 0.441
966.000 0.443
967.000 0.444
968.000 0.446
969.000 0.447
970.000 0.448
971.000 0.449
972.000 0.448
973.000 0.447
974.000 0.448
975.000 0.453
976.000 0.454
977.000 0.452
978.000 0.450
979.000 0.450
980.000 0.451
981.000 0.452
982.000 0.454
983.000 0.454
984.000 0.455
985.000 0.458
986.000 0.459
987.000 0.457
988.000 0.457
989.000 0.458
990.000 0.460
991.000 0.461
992.000 0.461
993.000 0.461
994.000 0.462
995.000 0.462
996.000 0.463
997.000 0.463
998.000 0.462
999.000 0.463
1000.000 0.465
1001.000 0.474
1002.000 0.474
1003.000 0.475
1004.000 0.475
1005.000 0.475
1006.000 0.476
1007.000 0.476
1008.000 0.478
1009.000 0.479
1010.000 0.481
1011.000 0.481
1012.000 0.480
1013.000 0.479
1014.000 0.478
1015.000 0.478
1016.000 0.479
1017.000 0.480
1018.000 0.480
1019.000 0.481
1020.000 0.482
1021.000 0.482
1022.000 0.482
1023.000 0.482
1024.000 0.482
1025.000 0.482
1026.000 0.483
1027.000 0.484
1028.000 0.485
1029.000 0.486
1030.000 0.486
1031.000 0.486
1032.000 0.486
1033.000 0.487
1034.000 0.488
1035.000 0.488
1036.000 0.489
1037.000 0.488
1038.000 0.488
1039.000 0.488
1040.000 0.489
1041.000 0.489
1042.000 0.489
1043.000 0.489
1044.000 0.488
1045.000 0.488
1046.000 0.488
1047.000 0.489
1048.000 0.488
1049.000 0.488
1050.000 0.488
1051.000 0.489
1052.000 0.490
1053.000 0.492
1054.000 0.493
1055.000 0.493
1056.000 0.493
1057.000 0.493
1058.000 0.492
1059.000 0.492
1060.000 0.493
1061.000 0.493
1062.000 0.493
1063.000 0.494
1064.000 0.494
1065.000 0.493
1066.000 0.494
1067.000 0.494
1068.000 0.495
1069.000 0.496
1070.000 0.496
1071.000 0.497
1072.000 0.496
1073.000 0.496
1074.000 0.497
1075.000 0.497
1076.000 0.498
1077.000 0.498
1078.000 0.498
1079.000 0.498
1080.000 0.498
1081.000 0.499
1082.000 0.500
1083.000 0.500
1084.000 0.501
1085.000 0.501
1086.000 0.501
1087.000 0.501
1088.000 0.501
1089.000 0.502
1090.000 0.501
1091.000 0.501
1092.000 0.502
1093.000 0.502
1094.000 0.502
1095.000 0.503
1096.000 0.504
1097.000 0.504
1098.000 0.504
1099.000 0.503
1100.000 0.502
1101.000 0.501
1102.000 0.501
1103.000 0.501
1104.000 0.502
1105.000 0.502
1106.000 0.502
1107.000 0.502
1108.000 0.502
1109.000 0.500
1110.000 0.500
1111.000 0.501
1112.000 0.501
1113.000 0.502
1114.000 0.502
1115.000 0.502
1116.000 0.501
1117.000 0.501
1118.000 0.502
1119.000 0.502
1120.000 0.501
1121.000 0.502
1122.000 0.502
1123.000 0.501
1124.000 0.501
1125.000 0.501
1126.000 0.500
1127.000 0.500
1128.000 0.501
1129.000 0.502
1130.000 0.504
1131.000 0.505
1132.000 0.509
1133.000 0.508
1134.000 0.508
1135.000 0.509
1136.000 0.508
1137.000 0.507
1138.000 0.507
1139.000 0.508
1140.000 0.508
1141.000 0.508
1142.000 0.509
1143.000 0.511
1144.000 0.513
1145.000 0.513
1146.000 0.515
1147.000 0.517
1148.000 0.518
1149.000 0.519
1150.000 0.521
1151.000 0.522
1152.000 0.522
1153.000 0.522
1154.000 0.523
1155.000 0.524
1156.000 0.525
1157.000 0.526
1158.000 0.526
1159.000 0.527
1160.000 0.528
1161.000 0.528
1162.000 0.529
1163.000 0.529
1164.000 0.529
1165.000 0.529
1166.000 0.529
1167.000 0.530
1168.000 0.531
1169.000 0.531
1170.000 0.532
1171.000 0.533
1172.000 0.533
1173.000 0.534
1174.000 0.534
1175.000 0.534
1176.000 0.535
1177.000 0.537
1178.000 0.537
1179.000 0.538
1180.000 0.538
1181.000 0.538
1182.000 0.538
1183.000 0.539
1184.000 0.540
1185.000 0.540
1186.000 0.540
1187.000 0.541
1188.000 0.543
1189.000 0.544
1190.000 0.544
1191.000 0.545
1192.000 0.545
1193.000 0.546
1194.000 0.546
1195.000 0.546
1196.000 0.547
1197.000 0.548
1198.000 0.548
1199.000 0.549
1200.000 0.549
1201.000 0.550
1202.000 0.551
1203.000 0.551
1204.000 0.551
1205.000 0.551
1206.000 0.551
1207.000 0.551
1208.000 0.551
1209.000 0.551
1210.000 0.551
1211.000 0.552
1212.000 0.553
1213.000 0.553
1214.000 0.553
1215.000 0.554
1216.000 0.554
1217.000 0.553
1218.000 0.553
1219.000 0.554
1220.000 0.554
1221.000 0.555
1222.000 0.556
1223.000 0.555
1224.000 0.556
1225.000 0.555
1226.000 0.555
1227.000 0.556
1228.000 0.556
1229.000 0.557
1230.000 0.557
1231.000 0.558
1232.000 0.558
1233.000 0.558
1234.000 0.559
1235.000 0.559
1236.000 0.559
1237.000 0.558
1238.000 0.558
1239.000 0.558
1240.000 0.558
1241.000 0.559
1242.000 0.559
1243.000 0.558
1244.000 0.558
1245.000 0.557
1246.000 0.557
1247.000 0.558
1248.000 0.558
1249.000 0.559
1250.000 0.559
1251.000 0.560
1252.000 0.561
1253.000 0.561
1254.000 0.561
1255.000 0.560
1256.000 0.560
1257.000 0.560
1258.000 0.560
1259.000 0.561
1260.000 0.561
1261.000 0.560
1262.000 0.560
1263.000 0.559
1264.000 0.558
1265.000 0.559
1266.000 0.559
1267.000 0.560
1268.000 0.560
1269.000 0.560
1270.000 0.561
1271.000 0.563
1272.000 0.563
1273.000 0.564
1274.000 0.566
1275.000 0.566
1276.000 0.566
1277.000 0.567
1278.000 0.566
1279.000 0.567
1280.000 0.567
1281.000 0.568
1282.000 0.569
1283.000 0.569
1284.000 0.568
1285.000 0.568
1286.000 0.569
1287.000 0.570
1288.000 0.571
1289.000 0.571
1290.000 0.572
1291.000 0.572
1292.000 0.571
1293.000 0.571
1294.000 0.572
1295.000 0.573
1296.000 0.573
1297.000 0.575
1298.000 0.575
1299.000 0.575
1300.000 0.575
1301.000 0.575
1302.000 0.575
1303.000 0.575
1304.000 0.575
1305.000 0.576
1306.000 0.576
1307.000 0.575
1308.000 0.575
1309.000 0.575
1310.000 0.575
1311.000 0.575
1312.000 0.575
1313.000 0.575
1314.000 0.574
1315.000 0.574
1316.000 0.576
1317.000 0.577
1318.000 0.577
1319.000 0.576
1320.000 0.576
1321.000 0.576
1322.000 0.576
1323.000 0.576
1324.000 0.576
1325.000 0.577
1326.000 0.577
1327.000 0.577
1328.000 0.578
1329.000 0.577
1330.000 0.575
1331.000 0.575
1332.000 0.574
1333.000 0.574
1334.000 0.575
1335.000 0.575
1336.000 0.575
1337.000 0.576
1338.000 0.576
1339.000 0.576
1340.000 0.576
1341.000 0.574
1342.000 0.570
1343.000 0.567
1344.000 0.564
1345.000 0.561
1346.000 0.561
1347.000 0.560
1348.000 0.557
1349.000 0.553
1350.000 0.549
1351.000 0.536
1352.000 0.533
1353.000 0.539
1354.000 0.553
1355.000 0.618
1356.000 0.696
1357.000 0.665
1358.000 0.745
1359.000 0.658
1360.000 0.630
1361.000 0.629
1362.000 0.632
1363.000 0.609
1364.000 0.585
1365.000 0.553
1366.000 0.531
1367.000 0.502
1368.000 0.306
1369.000 0.327
1370.000 0.240
1371.000 0.457
1372.000 0.484
1373.000 0.535
1374.000 0.527
1375.000 0.180
1376.000 0.323
1377.000 0.491
1378.000 0.612
1379.000 0.385
1380.000 0.606
1381.000 0.683
1382.000 0.596
1383.000 0.499
1384.000 0.444
1385.000 0.411
1386.000 0.389
1387.000 0.353
1388.000 0.257
1389.000 0.230
1390.000 0.218
1391.000 0.191
1392.000 0.142
1393.000 0.084
1394.000 0.547
1395.000 0.644
1396.000 0.610
1397.000 0.568
1398.000 0.537
1399.000 0.504
1400.000 0.474
1401.000 0.338
1402.000 0.557
1403.000 0.392
1404.000 0.450
1405.000 0.472
1406.000 0.503
1407.000 0.534
1408.000 0.598
1409.000 0.659
1410.000 0.600
1411.000 0.600
1412.000 0.556
1413.000 0.537
1414.000 0.583
1415.000 0.692
1416.000 0.674
1417.000 0.692
1418.000 0.660
1419.000 0.615
1420.000 0.627
1421.000 0.561
1422.000 0.586
1423.000 0.527
1424.000 0.521
1425.000 0.523
1426.000 0.529
1427.000 0.568
1428.000 0.580
1429.000 0.571
1430.000 0.576
1431.000 0.582
1432.000 0.583
1433.000 0.580
1434.000 0.590
1435.000 0.591
1436.000 0.614
1437.000 0.639
1438.000 0.675
1439.000 0.704
1440.000 0.714
1441.000 0.730
1442.000 0.697
1443.000 0.633
1444.000 0.610
1445.000 0.593
1446.000 0.580
1447.000 0.593
1448.000 0.595
1449.000 0.590
1450.000 0.576
1451.000 0.567
1452.000 0.568
1453.000 0.560
1454.000 0.549
1455.000 0.548
1456.000 0.552
1457.000 0.553
1458.000 0.565
1459.000 0.563
1460.000 0.551
1461.000 0.546
1462.000 0.541
1463.000 0.538
1464.000 0.536
1465.000 0.538
1466.000 0.550
1467.000 0.548
1468.000 0.538
1469.000 0.540
1470.000 0.536
1471.000 0.539
1472.000 0.562
1473.000 0.567
1474.000 0.560
1475.000 0.565
1476.000 0.576
1477.000 0.576
1478.000 0.576
1479.000 0.570
1480.000 0.550
1481.000 0.538
1482.000 0.523
1483.000 0.521
1484.000 0.522
1485.000 0.527
1486.000 0.544
1487.000 0.548
1488.000 0.544
1489.000 0.546
1490.000 0.547
1491.000 0.546
1492.000 0.546
1493.000 0.544
1494.000 0.536
1495.000 0.534
1496.000 0.537
1497.000 0.539
1498.000 0.546
1499.000 0.547
1500.000 0.541
1501.000 0.538
1502.000 0.536
1503.000 0.537
1504.000 0.545
1505.000 0.552
1506.000 0.553
1507.000 0.551
1508.000 0.549
1509.000 0.542
1510.000 0.542
1511.000 0.545
1512.000 0.545
1513.000 0.548
1514.000 0.548
1515.000 0.545
1516.000 0.545
1517.000 0.544
1518.000 0.545
1519.000 0.549
1520.000 0.550
1521.000 0.551
1522.000 0.551
1523.000 0.550
1524.000 0.549
1525.000 0.547
1526.000 0.547
1527.000 0.550
1528.000 0.551
1529.000 0.553
1530.000 0.554
1531.000 0.553
1532.000 0.554
1533.000 0.552
1534.000 0.552
1535.000 0.549
1536.000 0.551
1537.000 0.553
1538.000 0.555
1539.000 0.559
1540.000 0.562
1541.000 0.563
1542.000 0.563
1543.000 0.563
1544.000 0.563
1545.000 0.561
1546.000 0.560
1547.000 0.558
1548.000 0.557
1549.000 0.554
1550.000 0.554
1551.000 0.554
1552.000 0.556
1553.000 0.557
1554.000 0.559
1555.000 0.560
1556.000 0.561
1557.000 0.561
1558.000 0.562
1559.000 0.563
1560.000 0.564
1561.000 0.567
1562.000 0.567
1563.000 0.565
1564.000 0.565
1565.000 0.564
1566.000 0.564
1567.000 0.567
1568.000 0.569
1569.000 0.571
1570.000 0.571
1571.000 0.569
1572.000 0.568
1573.000 0.568
1574.000 0.566
1575.000 0.565
1576.000 0.565
1577.000 0.562
1578.000 0.561
1579.000 0.560
1580.000 0.561
1581.000 0.564
1582.000 0.567
1583.000 0.571
1584.000 0.574
1585.000 0.574
1586.000 0.574
1587.000 0.574
1588.000 0.573
1589.000 0.569
1590.000 0.567
1591.000 0.565
1592.000 0.563
1593.000 0.564
1594.000 0.564
1595.000 0.566
1596.000 0.567
1597.000 0.568
1598.000 0.570
1599.000 0.569
1600.000 0.570
1601.000 0.572
1602.000 0.573
1603.000 0.575
1604.000 0.576
1605.000 0.574
1606.000 0.573
1607.000 0.569
1608.000 0.568
1609.000 0.569
1610.000 0.570
1611.000 0.575
1612.000 0.576
1613.000 0.576
1614.000 0.576
1615.000 0.576
1616.000 0.575
1617.000 0.574
1618.000 0.574
1619.000 0.574
1620.000 0.575
1621.000 0.576
1622.000 0.576
1623.000 0.573
1624.000 0.571
1625.000 0.569
1626.000 0.569
1627.000 0.571
1628.000 0.573
1629.000 0.576
1630.000 0.578
1631.000 0.578
1632.000 0.578
1633.000 0.578
1634.000 0.577
1635.000 0.579
1636.000 0.578
1637.000 0.577
1638.000 0.577
1639.000 0.575
1640.000 0.574
1641.000 0.577
1642.000 0.578
1643.000 0.579
1644.000 0.579
1645.000 0.577
1646.000 0.576
1647.000 0.577
1648.000 0.577
1649.000 0.580
1650.000 0.580
1651.000 0.579
1652.000 0.579
1653.000 0.578
1654.000 0.578
1655.000 0.581
1656.000 0.582
1657.000 0.580
1658.000 0.579
1659.000 0.580
1660.000 0.580
1661.000 0.583
1662.000 0.584
1663.000 0.580
1664.000 0.579
1665.000 0.580
1666.000 0.580
1667.000 0.581
1668.000 0.582
1669.000 0.582
1670.000 0.582
1671.000 0.584
1672.000 0.585
1673.000 0.583
1674.000 0.583
1675.000 0.583
1676.000 0.583
1677.000 0.588
1678.000 0.589
1679.000 0.589
1680.000 0.590
1681.000 0.590
1682.000 0.589
1683.000 0.588
1684.000 0.587
1685.000 0.586
1686.000 0.585
1687.000 0.586
1688.000 0.585
1689.000 0.583
1690.000 0.583
1691.000 0.584
1692.000 0.585
1693.000 0.589
1694.000 0.591
1695.000 0.594
1696.000 0.593
1697.000 0.592
1698.000 0.591
1699.000 0.588
1700.000 0.588
1701.000 0.589
1702.000 0.589
1703.000 0.590
1704.000 0.591
1705.000 0.588
1706.000 0.590
1707.000 0.594
1708.000 0.595
1709.000 0.596
1710.000 0.597
1711.000 0.591
1712.000 0.594
1713.000 0.596
1714.000 0.594
1715.000 0.594
1716.000 0.590
1717.000 0.589
1718.000 0.587
1719.000 0.588
1720.000 0.592
1721.000 0.592
1722.000 0.593
1723.000 0.590
1724.000 0.583
1725.000 0.580
1726.000 0.581
1727.000 0.586
1728.000 0.592
1729.000 0.596
1730.000 0.595
1731.000 0.592
1732.000 0.592
1733.000 0.591
1734.000 0.596
1735.000 0.599
1736.000 0.597
1737.000 0.598
1738.000 0.598
1739.000 0.597
1740.000 0.596
1741.000 0.597
1742.000 0.596
1743.000 0.595
1744.000 0.595
1745.000 0.596
1746.000 0.593
1747.000 0.592
1748.000 0.595
1749.000 0.594
1750.000 0.591
1751.000 0.590
1752.000 0.588
1753.000 0.587
1754.000 0.588
1755.000 0.587
1756.000 0.587
1757.000 0.585
1758.000 0.578
1759.000 0.578
1760.000 0.577
1761.000 0.575
1762.000 0.580
1763.000 0.578
1764.000 0.577
1765.000 0.583
1766.000 0.582
1767.000 0.582
1768.000 0.579
1769.000 0.573
1770.000 0.574
1771.000 0.573
1772.000 0.571
1773.000 0.568
1774.000 0.563
1775.000 0.567
1776.000 0.576
1777.000 0.582
1778.000 0.590
1779.000 0.594
1780.000 0.595
1781.000 0.603
1782.000 0.617
1783.000 0.610
1784.000 0.594
1785.000 0.579
1786.000 0.570
1787.000 0.568
1788.000 0.567
1789.000 0.573
1790.000 0.573
1791.000 0.572
1792.000 0.583
1793.000 0.573
1794.000 0.572
1795.000 0.581
1796.000 0.592
1797.000 0.608
1798.000 0.630
1799.000 0.639
1800.000 0.633
1801.000 0.554
1802.000 0.553
1803.000 0.583
1804.000 0.608
1805.000 0.608
1806.000 0.527
1807.000 0.506
1808.000 0.523
1809.000 0.508
1810.000 0.579
1811.000 0.590
1812.000 0.540
1813.000 0.620
1814.000 0.625
1815.000 0.567
1816.000 0.587
1817.000 0.648
1818.000 0.633
1819.000 0.727
1820.000 0.735
1821.000 0.644
1822.000 0.677
1823.000 0.688
1824.000 0.648
1825.000 0.673
1826.000 0.550
1827.000 0.443
1828.000 0.343
1829.000 0.641
1830.000 0.619
1831.000 0.594
1832.000 0.545
1833.000 0.799
1834.000 0.873
1835.000 0.719
1836.000 0.673
1837.000 0.702
1838.000 0.709
1839.000 0.652
1840.000 0.632
1841.000 0.603
1842.000 0.602
1843.000 0.609
1844.000 0.614
1845.000 0.611
1846.000 0.600
1847.000 0.588
1848.000 0.592
1849.000 0.586
1850.000 0.406
1851.000 0.336
1852.000 0.417
1853.000 0.564
1854.000 0.451
1855.000 0.258
1856.000 0.349
1857.000 0.441
1858.000 0.539
1859.000 0.636
1860.000 0.810
1861.000 0.753
1862.000 0.716
1863.000 0.656
1864.000 0.583
1865.000 0.539
1866.000 0.582
1867.000 0.592
1868.000 0.645
1869.000 0.543
1870.000 0.357
1871.000 0.333
1872.000 0.402
1873.000 0.403
1874.000 0.415
1875.000 0.538
1876.000 0.420
1877.000 0.324
1878.000 0.429
1879.000 0.585
1880.000 0.599
1881.000 0.712
1882.000 0.707
1883.000 0.681
1884.000 0.659
1885.000 0.641
1886.000 0.654
1887.000 0.648
1888.000 0.664
1889.000 0.668
1890.000 0.603
1891.000 0.537
1892.000 0.576
1893.000 0.578
1894.000 0.661
1895.000 0.595
1896.000 0.542
1897.000 0.587
1898.000 0.532
1899.000 0.451
1900.000 0.359
1901.000 0.263
1902.000 0.181
1903.000 0.142
1904.000 0.323
1905.000 0.592
1906.000 0.603
1907.000 0.606
1908.000 0.106
1909.000 0.165
1910.000 0.221
1911.000 0.282
1912.000 0.331
1913.000 0.377
1914.000 0.468
1915.000 0.537
1916.000 0.601
1917.000 0.395
1918.000 0.479
1919.000 0.341
1920.000 0.398
1921.000 0.483
1922.000 0.395
1923.000 0.421
1924.000 0.466
1925.000 0.558
1926.000 0.359
1927.000 0.166
1928.000 0.228
1929.000 0.454
1930.000 0.610
1931.000 0.348
1932.000 0.290
1933.000 0.498
1934.000 0.395
1935.000 0.347
1936.000 0.356
1937.000 0.280
1938.000 0.294
1939.000 0.379
1940.000 0.568
1941.000 0.504
1942.000 0.416
1943.000 0.435
1944.000 0.448
1945.000 0.406
1946.000 0.168
1947.000 0.322
1948.000 0.478
1949.000 0.477
1950.000 0.653
1951.000 0.653
1952.000 0.674
1953.000 0.731
1954.000 0.769
1955.000 0.842
1956.000 0.918
1957.000 0.725
1958.000 0.660
1959.000 0.592
1960.000 0.650
1961.000 0.653
1962.000 0.576
1963.000 0.449
1964.000 0.424
1965.000 0.457
1966.000 0.444
1967.000 0.482
1968.000 0.543
1969.000 0.530
1970.000 0.590
1971.000 0.596
1972.000 0.597
1973.000 0.613
1974.000 0.569
1975.000 0.512
1976.000 0.410
1977.000 0.389
1978.000 0.395
1979.000 0.379
1980.000 0.398
1981.000 0.415
1982.000 0.448
1983.000 0.493
1984.000 0.496
1985.000 0.521
1986.000 0.520
1987.000 0.477
1988.000 0.467
1989.000 0.464
1990.000 0.464
1991.000 0.475
1992.000 0.467
1993.000 0.480
1994.000 0.472
1995.000 0.479
1996.000 0.530
1997.000 0.544
1998.000 0.534
1999.000 0.555
2000.000 0.524
2001.000 0.528
2002.000 0.566
2003.000 0.552
2004.000 0.541
2005.000 0.528
2006.000 0.478
2007.000 0.567
2008.000 0.638
2009.000 0.667
2010.000 0.674
2011.000 0.750
2012.000 0.659
2013.000 0.613
2014.000 0.616
2015.000 0.555
2016.000 0.507
2017.000 0.467
2018.000 0.455
2019.000 0.474
2020.000 0.487
2021.000 0.456
2022.000 0.466
2023.000 0.499
2024.000 0.506
2025.000 0.542
2026.000 0.567
2027.000 0.578
2028.000 0.558
2029.000 0.555
2030.000 0.550
2031.000 0.559
2032.000 0.580
2033.000 0.581
2034.000 0.580
2035.000 0.594
2036.000 0.565
2037.000 0.529
2038.000 0.519
2039.000 0.489
2040.000 0.487
2041.000 0.509
2042.000 0.513
2043.000 0.518
2044.000 0.522
2045.000 0.516
2046.000 0.512
2047.000 0.514
2048.000 0.512
2049.000 0.501
2050.000 0.493
2051.000 0.504
2052.000 0.494
2053.000 0.500
2054.000 0.549
2055.000 0.578
2056.000 0.586
2057.000 0.578
2058.000 0.522
2059.000 0.511
2060.000 0.515
2061.000 0.516
2062.000 0.542
2063.000 0.544
2064.000 0.508
2065.000 0.502
2066.000 0.502
2067.000 0.521
2068.000 0.515
2069.000 0.530
2070.000 0.553
2071.000 0.550
2072.000 0.549
2073.000 0.558
2074.000 0.557
2075.000 0.539
2076.000 0.534
2077.000 0.542
2078.000 0.542
2079.000 0.524
2080.000 0.522
2081.000 0.527
2082.000 0.534
2083.000 0.537
2084.000 0.563
2085.000 0.574
2086.000 0.560
2087.000 0.561
2088.000 0.566
2089.000 0.561
2090.000 0.557
2091.000 0.552
2092.000 0.533
2093.000 0.527
2094.000 0.520
2095.000 0.524
2096.000 0.544
2097.000 0.554
2098.000 0.562
2099.000 0.578
2100.000 0.569
2101.000 0.574
2102.000 0.568
2103.000 0.543
2104.000 0.528
2105.000 0.499
2106.000 0.496
2107.000 0.510
2108.000 0.517
2109.000 0.547
2110.000 0.552
2111.000 0.543
2112.000 0.532
2113.000 0.500
2114.000 0.489
2115.000 0.492
2116.000 0.489
2117.000 0.496
2118.000 0.494
2119.000 0.492
2120.000 0.490
2121.000 0.489
2122.000 0.490
2123.000 0.496
2124.000 0.506
2125.000 0.509
2126.000 0.522
2127.000 0.528
2128.000 0.521
2129.000 0.519
2130.000 0.519
2131.000 0.517
2132.000 0.508
2133.000 0.506
2134.000 0.508
2135.000 0.511
2136.000 0.524
2137.000 0.533
2138.000 0.548
2139.000 0.551
2140.000 0.536
2141.000 0.525
2142.000 0.516
2143.000 0.497
2144.000 0.497
2145.000 0.507
2146.000 0.522
2147.000 0.564
2148.000 0.582
2149.000 0.602
2150.000 0.606
2151.000 0.584
2152.000 0.565
2153.000 0.531
2154.000 0.518
2155.000 0.512
2156.000 0.506
2157.000 0.512
2158.000 0.528
2159.000 0.536
2160.000 0.532
2161.000 0.537
2162.000 0.543
2163.000 0.546
2164.000 0.556
2165.000 0.562
2166.000 0.571
2167.000 0.567
2168.000 0.560
2169.000 0.553
2170.000 0.530
2171.000 0.523
2172.000 0.525
2173.000 0.525
2174.000 0.538
2175.000 0.544
2176.000 0.552
2177.000 0.553
2178.000 0.556
2179.000 0.555
2180.000 0.541
2181.000 0.541
2182.000 0.542
2183.000 0.529
2184.000 0.526
2185.000 0.530
2186.000 0.531
2187.000 0.528
2188.000 0.534
2189.000 0.551
2190.000 0.552
2191.000 0.547
2192.000 0.547
2193.000 0.539
2194.000 0.536
2195.000 0.539
2196.000 0.540
2197.000 0.534
2198.000 0.538
2199.000 0.552
2200.000 0.566
2201.000 0.597
2202.000 0.603
2203.000 0.600
2204.000 0.605
2205.000 0.587
2206.000 0.568
2207.000 0.559
2208.000 0.547
2209.000 0.537
2210.000 0.526
2211.000 0.532
2212.000 0.552
2213.000 0.555
2214.000 0.566
2215.000 0.565
2216.000 0.538
2217.000 0.540
2218.000 0.572
2219.000 0.576
2220.000 0.571
2221.000 0.570
2222.000 0.554
2223.000 0.546
2224.000 0.542
2225.000 0.545
2226.000 0.547
2227.000 0.559
2228.000 0.552
2229.000 0.574
2230.000 0.589
2231.000 0.577
2232.000 0.602
2233.000 0.624
2234.000 0.616
2235.000 0.616
2236.000 0.607
2237.000 0.600
2238.000 0.588
2239.000 0.574
2240.000 0.562
2241.000 0.541
2242.000 0.529
2243.000 0.521
2244.000 0.520
2245.000 0.528
2246.000 0.526
2247.000 0.524
2248.000 0.525
2249.000 0.521
2250.000 0.517
2251.000 0.526
2252.000 0.521
2253.000 0.499
2254.000 0.488
2255.000 0.476
2256.000 0.471
2257.000 0.474
2258.000 0.467
2259.000 0.478
2260.000 0.480
2261.000 0.481
2262.000 0.504
2263.000 0.535
2264.000 0.562
2265.000 0.565
2266.000 0.573
2267.000 0.549
2268.000 0.517
2269.000 0.506
2270.000 0.491
2271.000 0.520
2272.000 0.539
2273.000 0.554
2274.000 0.603
2275.000 0.611
2276.000 0.574
2277.000 0.563
2278.000 0.546
2279.000 0.529
2280.000 0.513
2281.000 0.506
2282.000 0.496
2283.000 0.501
2284.000 0.528
2285.000 0.535
2286.000 0.551
2287.000 0.544
2288.000 0.514
2289.000 0.488
2290.000 0.442
2291.000 0.424
2292.000 0.412
2293.000 0.406
2294.000 0.416
2295.000 0.429
2296.000 0.451
2297.000 0.463
2298.000 0.484
2299.000 0.502
2300.000 0.486
2301.000 0.470
2302.000 0.469
2303.000 0.456
2304.000 0.484
2305.000 0.549
2306.000 0.554
2307.000 0.603
2308.000 0.640
2309.000 0.568
2310.000 0.643
2311.000 0.626
2312.000 0.617
2313.000 0.558
2314.000 0.484
2315.000 0.492
2316.000 0.504
2317.000 0.507
2318.000 0.530
2319.000 0.508
2320.000 0.475
2321.000 0.466
2322.000 0.485
2323.000 0.484
2324.000 0.494
2325.000 0.532
2326.000 0.524
2327.000 0.461
2328.000 0.481
2329.000 0.534
2330.000 0.555
2331.000 0.640
2332.000 0.657
2333.000 0.572
2334.000 0.553
2335.000 0.553
2336.000 0.558
2337.000 0.615
2338.000 0.641
2339.000 0.578
2340.000 0.545
2341.000 0.496
2342.000 0.451
2343.000 0.481
2344.000 0.460
2345.000 0.458
2346.000 0.438
2347.000 0.423
2348.000 0.430
2349.000 0.431
2350.000 0.440
2351.000 0.478
2352.000 0.493
2353.000 0.487
2354.000 0.513
2355.000 0.556
2356.000 0.603
2357.000 0.696
2358.000 0.699
2359.000 0.628
2360.000 0.557
2361.000 0.508
2362.000 0.480
2363.000 0.437
2364.000 0.406
2365.000 0.350
2366.000 0.350
2367.000 0.345
2368.000 0.357
2369.000 0.416
2370.000 0.407
2371.000 0.393
2372.000 0.422
2373.000 0.450
2374.000 0.411
2375.000 0.403
2376.000 0.492
2377.000 0.425
2378.000 0.366
2379.000 0.389
2380.000 0.400
2381.000 0.509
2382.000 0.666
2383.000 0.700
2384.000 0.610
2385.000 0.584
2386.000 0.465
2387.000 0.391
2388.000 0.343
2389.000 0.310
2390.000 0.322
2391.000 0.310
2392.000 0.289
2393.000 0.214
2394.000 0.269
2395.000 0.281
2396.000 0.385
2397.000 0.621
2398.000 0.665
2399.000 0.756
2400.000 0.708
2401.000 0.692
2402.000 0.696
2403.000 0.662
2404.000 0.658
2405.000 0.616
2406.000 0.444
2407.000 0.393
2408.000 0.363
2409.000 0.293
2410.000 0.254
2411.000 0.282
2412.000 0.179
2413.000 0.141
2414.000 0.106
2415.000 0.161
2416.000 0.217
2417.000 0.296
2418.000 0.456
2419.000 0.464
2420.000 0.270
2421.000 0.354
2422.000 0.420
2423.000 0.518
2424.000 0.612
2425.000 0.355
2426.000 0.369
2427.000 0.525
2428.000 0.622
2429.000 0.418
2430.000 0.310
2431.000 0.632
2432.000 0.490
2433.000 0.099
2434.000 0.116
2435.000 0.264
2436.000 0.307
2437.000 0.354
2438.000 0.301
2439.000 0.284
2440.000 0.262
2441.000 0.353
2442.000 0.280
2443.000 0.092
2444.000 0.299
2445.000 0.480
2446.000 0.482
2447.000 0.468
2448.000 0.342
2449.000 0.308
2450.000 0.786
2451.000 0.643
2452.000 0.396
2453.000 0.165
2454.000 0.293
2455.000 0.312
2456.000 0.348
2457.000 0.425
2458.000 0.445
2459.000 0.270
2460.000 0.573
2461.000 0.723
2462.000 0.675
2463.000 0.629
2464.000 0.413
2465.000 0.155
2466.000 0.404
2467.000 0.664
2468.000 0.556
2469.000 0.285
2470.000 0.296
2471.000 0.372
2472.000 0.410
2473.000 0.445
2474.000 0.860
2475.000 0.879
2476.000 0.875
2477.000 0.865
2478.000 0.866
2479.000 0.868
2480.000 0.305
2481.000 0.203
2482.000 0.168
2483.000 0.264
2484.000 0.335
2485.000 0.280
2486.000 0.273
2487.000 0.327
2488.000 0.374
2489.000 0.290
2490.000 0.739
2491.000 0.514
2492.000 0.448
2493.000 0.291
2494.000 0.171
2495.000 0.317
2496.000 0.350
2497.000 0.087
2498.000 0.282
2499.000 0.460
2500.000 0.275
