391.000 0.053
392.000 0.049
393.000 0.058
394.000 0.068
395.000 0.050
396.000 0.046
397.000 0.061
398.000 0.060
399.000 0.059
400.000 0.063
401.000 0.072
402.000 0.066
403.000 0.066
404.000 0.067
405.000 0.057
406.000 0.061
407.000 0.060
408.000 0.054
409.000 0.059
410.000 0.061
411.000 0.062
412.000 0.065
413.000 0.064
414.000 0.065
415.000 0.066
416.000 0.065
417.000 0.071
418.000 0.072
419.000 0.067
420.000 0.064
421.000 0.065
422.000 0.067
423.000 0.065
424.000 0.063
425.000 0.064
426.000 0.068
427.000 0.070
428.000 0.067
429.000 0.063
430.000 0.064
431.000 0.068
432.000 0.068
433.000 0.066
434.000 0.066
435.000 0.068
436.000 0.067
437.000 0.065
438.000 0.067
439.000 0.064
440.000 0.063
441.000 0.064
442.000 0.065
443.000 0.065
444.000 0.064
445.000 0.064
446.000 0.064
447.000 0.064
448.000 0.065
449.000 0.065
450.000 0.065
451.000 0.066
452.000 0.068
453.000 0.072
454.000 0.069
455.000 0.067
456.000 0.070
457.000 0.064
458.000 0.065
459.000 0.068
460.000 0.065
461.000 0.065
462.000 0.066
463.000 0.067
464.000 0.068
465.000 0.068
466.000 0.067
467.000 0.067
468.000 0.068
469.000 0.071
470.000 0.073
471.000 0.072
472.000 0.070
473.000 0.068
474.000 0.067
475.000 0.067
476.000 0.068
477.000 0.069
478.000 0.067
479.000 0.064
480.000 0.066
481.000 0.068
482.000 0.066
483.000 0.066
484.000 0.065
485.000 0.067
486.000 0.067
487.000 0.071
488.000 0.074
489.000 0.074
490.000 0.068
491.000 0.067
492.000 0.070
493.000 0.070
494.000 0.069
495.000 0.067
496.000 0.065
497.000 0.068
498.000 0.068
499.000 0.067
500.000 0.073
501.000 0.071
502.000 0.071
503.000 0.072
504.000 0.072
505.000 0.073
506.000 0.074
507.000 0.075
508.000 0.079
509.000 0.080
510.000 0.080
511.000 0.082
512.000 0.082
513.000 0.085
514.000 0.087
515.000 0.087
516.000 0.090
517.000 0.092
518.000 0.091
519.000 0.095
520.000 0.099
521.000 0.101
522.000 0.105
523.000 0.109
524.000 0.111
525.000 0.113
526.000 0.116
527.000 0.120
528.000 0.124
529.000 0.127
530.000 0.130
531.000 0.132
532.000 0.133
533.000 0.135
534.000 0.138
535.000 0.139
536.000 0.139
537.000 0.139
538.000 0.140
539.000 0.141
540.000 0.141
541.000 0.143
542.000 0.144
543.000 0.144
544.000 0.144
545.000 0.145
546.000 0.145
547.000 0.146
548.000 0.146
549.000 0.146
550.000 0.146
551.000 0.145
552.000 0.145
553.000 0.146
554.000 0.145
555.000 0.145
556.000 0.145
557.000 0.145
558.000 0.144
559.000 0.143
560.000 0.142
561.000 0.140
562.000 0.140
563.000 0.138
564.000 0.136
565.000 0.133
566.000 0.130
567.000 0.128
568.000 0.127
569.000 0.124
570.000 0.122
571.000 0.121
572.000 0.118
573.000 0.117
574.000 0.116
575.000 0.115
576.000 0.111
577.000 0.112
578.000 0.110
579.000 0.106
580.000 0.105
581.000 0.107
582.000 0.108
583.000 0.107
584.000 0.104
585.000 0.104
586.000 0.103
587.000 0.101
588.000 0.099
589.000 0.099
590.000 0.098
591.000 0.097
592.000 0.096
593.000 0.097
594.000 0.100
595.000 0.097
596.000 0.094
597.000 0.094
598.000 0.096
599.000 0.096
600.000 0.095
601.000 0.094
602.000 0.094
603.000 0.094
604.000 0.095
605.000 0.094
606.000 0.095
607.000 0.094
608.000 0.092
609.000 0.092
610.000 0.091
611.000 0.090
612.000 0.090
613.000 0.091
614.000 0.090
615.000 0.089
616.000 0.089
617.000 0.088
618.000 0.088
619.000 0.088
620.000 0.088
621.000 0.088
622.000 0.087
623.000 0.086
624.000 0.086
625.000 0.087
626.000 0.088
627.000 0.087
628.000 0.086
629.000 0.087
630.000 0.087
631.000 0.088
632.000 0.087
633.000 0.085
634.000 0.087
635.000 0.087
636.000 0.085
637.000 0.081
638.000 0.082
639.000 0.083
640.000 0.085
641.000 0.084
642.000 0.082
643.000 0.080
644.000 0.079
645.000 0.081
646.000 0.081
647.000 0.080
648.000 0.083
649.000 0.082
650.000 0.083
651.000 0.082
652.000 0.080
653.000 0.081
654.000 0.082
655.000 0.082
656.000 0.084
657.000 0.083
658.000 0.083
659.000 0.085
660.000 0.080
661.000 0.081
662.000 0.085
663.000 0.080
664.000 0.084
665.000 0.087
666.000 0.086
667.000 0.087
668.000 0.087
669.000 0.087
670.000 0.089
671.000 0.087
672.000 0.084
673.000 0.083
674.000 0.088
675.000 0.091
676.000 0.092
677.000 0.093
678.000 0.094
679.000 0.095
680.000 0.098
681.000 0.100
682.000 0.097
683.000 0.096
684.000 0.099
685.000 0.104
686.000 0.105
687.000 0.106
688.000 0.113
689.000 0.110
690.000 0.111
691.000 0.112
692.000 0.113
693.000 0.118
694.000 0.124
695.000 0.129
696.000 0.134
697.000 0.142
698.000 0.151
699.000 0.161
700.000 0.169
701.000 0.179
702.000 0.190
703.000 0.200
704.000 0.211
705.000 0.222
706.000 0.231
707.000 0.243
708.000 0.256
709.000 0.266
710.000 0.277
711.000 0.288
712.000 0.299
713.000 0.311
714.000 0.323
715.000 0.334
716.000 0.345
717.000 0.358
718.000 0.370
719.000 0.383
720.000 0.396
721.000 0.407
722.000 0.418
723.000 0.429
724.000 0.442
725.000 0.454
726.000 0.465
727.000 0.475
728.000 0.486
729.000 0.496
730.000 0.506
731.000 0.516
732.000 0.526
733.000 0.534
734.000 0.542
735.000 0.550
736.000 0.557
737.000 0.565
738.000 0.572
739.000 0.579
740.000 0.584
741.000 0.590
742.000 0.596
743.000 0.601
744.000 0.606
745.000 0.611
746.000 0.615
747.000 0.618
748.000 0.622
749.000 0.625
750.000 0.628
751.000 0.630
752.000 0.633
753.000 0.636
754.000 0.638
755.000 0.639
756.000 0.641
757.000 0.643
758.000 0.644
759.000 0.645
760.000 0.646
761.000 0.649
762.000 0.650
763.000 0.651
764.000 0.651
765.000 0.652
766.000 0.653
767.000 0.653
768.000 0.653
769.000 0.654
770.000 0.655
771.000 0.656
772.000 0.656
773.000 0.656
774.000 0.657
775.000 0.657
776.000 0.658
777.000 0.658
778.000 0.659
779.000 0.660
780.000 0.660
781.000 0.660
782.000 0.661
783.000 0.661
784.000 0.662
785.000 0.662
786.000 0.662
787.000 0.663
788.000 0.663
789.000 0.664
790.000 0.664
791.000 0.665
792.000 0.665
793.000 0.665
794.000 0.666
795.000 0.666
796.000 0.667
797.000 0.667
798.000 0.668
799.000 0.668
800.000 0.669
801.000 0.669
802.000 0.670
803.000 0.670
804.000 0.671
805.000 0.671
806.000 0.671
807.000 0.672
808.000 0.672
809.000 0.673
810.000 0.673
811.000 0.673
812.000 0.674
813.000 0.674
814.000 0.674
815.000 0.675
816.000 0.675
817.000 0.676
818.000 0.677
819.000 0.677
820.000 0.677
821.000 0.678
822.000 0.679
823.000 0.679
824.000 0.679
825.000 0.679
826.000 0.679
827.000 0.680
828.000 0.680
829.000 0.681
830.000 0.681
831.000 0.681
832.000 0.682
833.000 0.682
834.000 0.682
835.000 0.682
836.000 0.683
837.000 0.683
838.000 0.683
839.000 0.684
840.000 0.685
841.000 0.685
842.000 0.685
843.000 0.685
844.000 0.685
845.000 0.686
846.000 0.686
847.000 0.686
848.000 0.687
849.000 0.687
850.000 0.687
851.000 0.688
852.000 0.688
853.000 0.688
854.000 0.689
855.000 0.689
856.000 0.689
857.000 0.689
858.000 0.689
859.000 0.690
860.000 0.690
861.000 0.690
862.000 0.690
863.000 0.691
864.000 0.691
865.000 0.692
866.000 0.692
867.000 0.692
868.000 0.692
869.000 0.692
870.000 0.693
871.000 0.693
872.000 0.694
873.000 0.693
874.000 0.694
875.000 0.695
876.000 0.696
877.000 0.696
878.000 0.696
879.000 0.696
880.000 0.696
881.000 0.697
882.000 0.698
883.000 0.698
884.000 0.698
885.000 0.698
886.000 0.698
887.000 0.699
888.000 0.700
889.000 0.700
890.000 0.700
891.000 0.701
892.000 0.701
893.000 0.701
894.000 0.701
895.000 0.702
896.000 0.702
897.000 0.703
898.000 0.703
899.000 0.703
900.000 0.703
901.000 0.705
902.000 0.705
903.000 0.705
904.000 0.705
905.000 0.705
906.000 0.705
907.000 0.706
908.000 0.707
909.000 0.707
910.000 0.708
911.000 0.708
912.000 0.707
913.000 0.708
914.000 0.708
915.000 0.709
916.000 0.710
917.000 0.710
918.000 0.709
919.000 0.710
920.000 0.710
921.000 0.710
922.000 0.710
923.000 0.710
924.000 0.710
925.000 0.710
926.000 0.710
927.000 0.709
928.000 0.710
929.000 0.711
930.000 0.711
931.000 0.711
932.000 0.710
933.000 0.711
934.000 0.711
935.000 0.710
936.000 0.710
937.000 0.710
938.000 0.709
939.000 0.706
940.000 0.706
941.000 0.707
942.000 0.707
943.000 0.708
944.000 0.712
945.000 0.709
946.000 0.707
947.000 0.709
948.000 0.708
949.000 0.708
950.000 0.708
951.000 0.706
952.000 0.706
953.000 0.703
954.000 0.701
955.000 0.705
956.000 0.707
957.000 0.704
958.000 0.702
959.000 0.704
960.000 0.701
961.000 0.701
962.000 0.702
963.000 0.699
964.000 0.699
965.000 0.701
966.000 0.700
967.000 0.698
968.000 0.700
969.000 0.701
970.000 0.700
971.000 0.699
972.000 0.699
973.000 0.699
974.000 0.701
975.000 0.702
976.000 0.701
977.000 0.701
978.000 0.700
979.000 0.701
980.000 0.701
981.000 0.701
982.000 0.702
983.000 0.703
984.000 0.702
985.000 0.703
986.000 0.702
987.000 0.700
988.000 0.701
989.000 0.704
990.000 0.706
991.000 0.706
992.000 0.705
993.000 0.705
994.000 0.704
995.000 0.704
996.000 0.707
997.000 0.706
998.000 0.704
999.000 0.705
1000.000 0.708
1001.000 0.711
1002.000 0.711
1003.000 0.712
1004.000 0.713
1005.000 0.713
1006.000 0.714
1007.000 0.714
1008.000 0.713
1009.000 0.713
1010.000 0.714
1011.000 0.714
1012.000 0.715
1013.000 0.716
1014.000 0.717
1015.000 0.718
1016.000 0.719
1017.000 0.719
1018.000 0.720
1019.000 0.720
1020.000 0.721
1021.000 0.722
1022.000 0.722
1023.000 0.723
1024.000 0.723
1025.000 0.723
1026.000 0.722
1027.000 0.722
1028.000 0.722
1029.000 0.722
1030.000 0.722
1031.000 0.722
1032.000 0.722
1033.000 0.722
1034.000 0.722
1035.000 0.722
1036.000 0.723
1037.000 0.725
1038.000 0.726
1039.000 0.728
1040.000 0.728
1041.000 0.727
1042.000 0.727
1043.000 0.727
1044.000 0.728
1045.000 0.728
1046.000 0.728
1047.000 0.728
1048.000 0.728
1049.000 0.728
1050.000 0.728
1051.000 0.728
1052.000 0.728
1053.000 0.728
1054.000 0.730
1055.000 0.731
1056.000 0.731
1057.000 0.732
1058.000 0.732
1059.000 0.732
1060.000 0.732
1061.000 0.733
1062.000 0.734
1063.000 0.734
1064.000 0.733
1065.000 0.733
1066.000 0.734
1067.000 0.734
1068.000 0.734
1069.000 0.734
1070.000 0.733
1071.000 0.732
1072.000 0.733
1073.000 0.732
1074.000 0.733
1075.000 0.733
1076.000 0.734
1077.000 0.734
1078.000 0.734
1079.000 0.734
1080.000 0.733
1081.000 0.734
1082.000 0.734
1083.000 0.733
1084.000 0.734
1085.000 0.734
1086.000 0.734
1087.000 0.735
1088.000 0.735
1089.000 0.735
1090.000 0.736
1091.000 0.736
1092.000 0.736
1093.000 0.736
1094.000 0.736
1095.000 0.736
1096.000 0.737
1097.000 0.736
1098.000 0.736
1099.000 0.736
1100.000 0.736
1101.000 0.738
1102.000 0.738
1103.000 0.738
1104.000 0.737
1105.000 0.736
1106.000 0.736
1107.000 0.735
1108.000 0.735
1109.000 0.736
1110.000 0.735
1111.000 0.735
1112.000 0.734
1113.000 0.732
1114.000 0.731
1115.000 0.732
1116.000 0.733
1117.000 0.735
1118.000 0.736
1119.000 0.737
1120.000 0.736
1121.000 0.736
1122.000 0.732
1123.000 0.732
1124.000 0.733
1125.000 0.733
1126.000 0.734
1127.000 0.732
1128.000 0.729
1129.000 0.726
1130.000 0.723
1131.000 0.723
1132.000 0.724
1133.000 0.726
1134.000 0.728
1135.000 0.729
1136.000 0.729
1137.000 0.729
1138.000 0.729
1139.000 0.728
1140.000 0.726
1141.000 0.724
1142.000 0.722
1143.000 0.718
1144.000 0.716
1145.000 0.715
1146.000 0.714
1147.000 0.712
1148.000 0.711
1149.000 0.711
1150.000 0.708
1151.000 0.707
1152.000 0.706
1153.000 0.702
1154.000 0.701
1155.000 0.700
1156.000 0.699
1157.000 0.698
1158.000 0.698
1159.000 0.698
1160.000 0.696
1161.000 0.696
1162.000 0.697
1163.000 0.697
1164.000 0.699
1165.000 0.699
1166.000 0.700
1167.000 0.700
1168.000 0.700
1169.000 0.700
1170.000 0.700
1171.000 0.700
1172.000 0.700
1173.000 0.699
1174.000 0.699
1175.000 0.700
1176.000 0.700
1177.000 0.699
1178.000 0.698
1179.000 0.697
1180.000 0.697
1181.000 0.698
1182.000 0.698
1183.000 0.700
1184.000 0.701
1185.000 0.701
1186.000 0.701
1187.000 0.699
1188.000 0.699
1189.000 0.699
1190.000 0.699
1191.000 0.701
1192.000 0.702
1193.000 0.702
1194.000 0.701
1195.000 0.701
1196.000 0.700
1197.000 0.700
1198.000 0.699
1199.000 0.699
1200.000 0.699
1201.000 0.700
1202.000 0.701
1203.000 0.702
1204.000 0.701
1205.000 0.702
1206.000 0.703
1207.000 0.704
1208.000 0.705
1209.000 0.706
1210.000 0.705
1211.000 0.704
1212.000 0.704
1213.000 0.704
1214.000 0.704
1215.000 0.704
1216.000 0.704
1217.000 0.704
1218.000 0.704
1219.000 0.705
1220.000 0.706
1221.000 0.706
1222.000 0.707
1223.000 0.707
1224.000 0.706
1225.000 0.706
1226.000 0.706
1227.000 0.707
1228.000 0.706
1229.000 0.707
1230.000 0.708
1231.000 0.707
1232.000 0.706
1233.000 0.706
1234.000 0.705
1235.000 0.706
1236.000 0.706
1237.000 0.707
1238.000 0.707
1239.000 0.708
1240.000 0.710
1241.000 0.710
1242.000 0.710
1243.000 0.711
1244.000 0.710
1245.000 0.711
1246.000 0.712
1247.000 0.712
1248.000 0.712
1249.000 0.710
1250.000 0.710
1251.000 0.710
1252.000 0.711
1253.000 0.712
1254.000 0.712
1255.000 0.712
1256.000 0.713
1257.000 0.715
1258.000 0.715
1259.000 0.714
1260.000 0.715
1261.000 0.714
1262.000 0.715
1263.000 0.716
1264.000 0.717
1265.000 0.717
1266.000 0.717
1267.000 0.716
1268.000 0.716
1269.000 0.715
1270.000 0.715
1271.000 0.715
1272.000 0.716
1273.000 0.716
1274.000 0.717
1275.000 0.718
1276.000 0.718
1277.000 0.719
1278.000 0.720
1279.000 0.720
1280.000 0.719
1281.000 0.719
1282.000 0.719
1283.000 0.719
1284.000 0.720
1285.000 0.720
1286.000 0.720
1287.000 0.720
1288.000 0.720
1289.000 0.719
1290.000 0.718
1291.000 0.718
1292.000 0.718
1293.000 0.717
1294.000 0.717
1295.000 0.717
1296.000 0.717
1297.000 0.717
1298.000 0.716
1299.000 0.716
1300.000 0.716
1301.000 0.717
1302.000 0.716
1303.000 0.716
1304.000 0.715
1305.000 0.713
1306.000 0.712
1307.000 0.710
1308.000 0.708
1309.000 0.708
1310.000 0.707
1311.000 0.707
1312.000 0.707
1313.000 0.708
1314.000 0.706
1315.000 0.704
1316.000 0.702
1317.000 0.700
1318.000 0.698
1319.000 0.696
1320.000 0.695
1321.000 0.694
1322.000 0.692
1323.000 0.691
1324.000 0.691
1325.000 0.689
1326.000 0.686
1327.000 0.684
1328.000 0.683
1329.000 0.681
1330.000 0.681
1331.000 0.680
1332.000 0.678
1333.000 0.677
1334.000 0.674
1335.000 0.672
1336.000 0.668
1337.000 0.665
1338.000 0.664
1339.000 0.662
1340.000 0.660
1341.000 0.658
1342.000 0.656
1343.000 0.654
1344.000 0.654
1345.000 0.653
1346.000 0.651
1347.000 0.649
1348.000 0.647
1349.000 0.641
1350.000 0.642
1351.000 0.651
1352.000 0.658
1353.000 0.678
1354.000 0.705
1355.000 0.728
1356.000 0.775
1357.000 0.707
1358.000 0.745
1359.000 0.610
1360.000 0.497
1361.000 0.540
1362.000 0.579
1363.000 0.625
1364.000 0.657
1365.000 0.693
1366.000 0.637
1367.000 0.408
1368.000 0.429
1369.000 0.456
1370.000 0.481
1371.000 0.256
1372.000 0.176
1373.000 0.271
1374.000 0.345
1375.000 0.490
1376.000 0.525
1377.000 0.327
1378.000 0.259
1379.000 0.475
1380.000 0.592
1381.000 0.631
1382.000 0.403
1383.000 0.683
1384.000 0.657
1385.000 0.698
1386.000 0.646
1387.000 0.520
1388.000 0.306
1389.000 0.079
1390.000 0.344
1391.000 0.596
1392.000 0.549
1393.000 0.372
1394.000 0.367
1395.000 0.481
1396.000 0.363
1397.000 0.393
1398.000 0.351
1399.000 0.368
1400.000 0.438
1401.000 0.526
1402.000 0.504
1403.000 0.477
1404.000 0.453
1405.000 0.430
1406.000 0.527
1407.000 0.543
1408.000 0.557
1409.000 0.631
1410.000 0.519
1411.000 0.602
1412.000 0.534
1413.000 0.552
1414.000 0.524
1415.000 0.359
1416.000 0.574
1417.000 0.555
1418.000 0.495
1419.000 0.414
1420.000 0.346
1421.000 0.331
1422.000 0.332
1423.000 0.340
1424.000 0.355
1425.000 0.391
1426.000 0.411
1427.000 0.463
1428.000 0.470
1429.000 0.421
1430.000 0.410
1431.000 0.403
1432.000 0.391
1433.000 0.387
1434.000 0.385
1435.000 0.363
1436.000 0.358
1437.000 0.391
1438.000 0.391
1439.000 0.378
1440.000 0.374
1441.000 0.358
1442.000 0.338
1443.000 0.307
1444.000 0.304
1445.000 0.311
1446.000 0.311
1447.000 0.349
1448.000 0.353
1449.000 0.325
1450.000 0.303
1451.000 0.287
1452.000 0.279
1453.000 0.279
1454.000 0.287
1455.000 0.294
1456.000 0.307
1457.000 0.313
1458.000 0.320
1459.000 0.323
1460.000 0.322
1461.000 0.320
1462.000 0.319
1463.000 0.312
1464.000 0.300
1465.000 0.295
1466.000 0.286
1467.000 0.286
1468.000 0.295
1469.000 0.301
1470.000 0.309
1471.000 0.316
1472.000 0.321
1473.000 0.323
1474.000 0.326
1475.000 0.324
1476.000 0.314
1477.000 0.313
1478.000 0.314
1479.000 0.314
1480.000 0.316
1481.000 0.315
1482.000 0.310
1483.000 0.309
1484.000 0.312
1485.000 0.312
1486.000 0.311
1487.000 0.312
1488.000 0.313
1489.000 0.315
1490.000 0.320
1491.000 0.321
1492.000 0.320
1493.000 0.320
1494.000 0.319
1495.000 0.319
1496.000 0.318
1497.000 0.319
1498.000 0.322
1499.000 0.323
1500.000 0.328
1501.000 0.331
1502.000 0.334
1503.000 0.337
1504.000 0.335
1505.000 0.335
1506.000 0.337
1507.000 0.340
1508.000 0.342
1509.000 0.347
1510.000 0.348
1511.000 0.346
1512.000 0.347
1513.000 0.349
1514.000 0.352
1515.000 0.355
1516.000 0.357
1517.000 0.359
1518.000 0.362
1519.000 0.368
1520.000 0.371
1521.000 0.374
1522.000 0.376
1523.000 0.374
1524.000 0.376
1525.000 0.380
1526.000 0.382
1527.000 0.385
1528.000 0.388
1529.000 0.390
1530.000 0.394
1531.000 0.397
1532.000 0.399
1533.000 0.398
1534.000 0.400
1535.000 0.399
1536.000 0.400
1537.000 0.402
1538.000 0.403
1539.000 0.408
1540.000 0.410
1541.000 0.412
1542.000 0.414
1543.000 0.415
1544.000 0.418
1545.000 0.423
1546.000 0.426
1547.000 0.427
1548.000 0.430
1549.000 0.431
1550.000 0.433
1551.000 0.435
1552.000 0.436
1553.000 0.435
1554.000 0.436
1555.000 0.436
1556.000 0.437
1557.000 0.440
1558.000 0.442
1559.000 0.444
1560.000 0.444
1561.000 0.444
1562.000 0.445
1563.000 0.446
1564.000 0.447
1565.000 0.448
1566.000 0.450
1567.000 0.452
1568.000 0.454
1569.000 0.455
1570.000 0.457
1571.000 0.458
1572.000 0.459
1573.000 0.461
1574.000 0.462
1575.000 0.462
1576.000 0.464
1577.000 0.465
1578.000 0.468
1579.000 0.472
1580.000 0.474
1581.000 0.476
1582.000 0.478
1583.000 0.479
1584.000 0.481
1585.000 0.481
1586.000 0.482
1587.000 0.484
1588.000 0.486
1589.000 0.488
1590.000 0.490
1591.000 0.492
1592.000 0.493
1593.000 0.495
1594.000 0.496
1595.000 0.497
1596.000 0.497
1597.000 0.497
1598.000 0.499
1599.000 0.503
1600.000 0.505
1601.000 0.508
1602.000 0.510
1603.000 0.508
1604.000 0.508
1605.000 0.510
1606.000 0.510
1607.000 0.511
1608.000 0.511
1609.000 0.509
1610.000 0.509
1611.000 0.509
1612.000 0.511
1613.000 0.515
1614.000 0.518
1615.000 0.522
1616.000 0.525
1617.000 0.524
1618.000 0.523
1619.000 0.524
1620.000 0.523
1621.000 0.523
1622.000 0.523
1623.000 0.522
1624.000 0.522
1625.000 0.524
1626.000 0.526
1627.000 0.529
1628.000 0.531
1629.000 0.530
1630.000 0.531
1631.000 0.530
1632.000 0.530
1633.000 0.533
1634.000 0.534
1635.000 0.535
1636.000 0.536
1637.000 0.535
1638.000 0.536
1639.000 0.538
1640.000 0.540
1641.000 0.542
1642.000 0.543
1643.000 0.542
1644.000 0.542
1645.000 0.542
1646.000 0.542
1647.000 0.544
1648.000 0.545
1649.000 0.548
1650.000 0.549
1651.000 0.546
1652.000 0.546
1653.000 0.543
1654.000 0.542
1655.000 0.543
1656.000 0.544
1657.000 0.545
1658.000 0.546
1659.000 0.543
1660.000 0.543
1661.000 0.545
1662.000 0.546
1663.000 0.550
1664.000 0.550
1665.000 0.545
1666.000 0.544
1667.000 0.543
1668.000 0.544
1669.000 0.546
1670.000 0.548
1671.000 0.548
1672.000 0.548
1673.000 0.550
1674.000 0.550
1675.000 0.549
1676.000 0.546
1677.000 0.541
1678.000 0.540
1679.000 0.543
1680.000 0.544
1681.000 0.549
1682.000 0.551
1683.000 0.548
1684.000 0.548
1685.000 0.549
1686.000 0.548
1687.000 0.549
1688.000 0.549
1689.000 0.548
1690.000 0.549
1691.000 0.553
1692.000 0.554
1693.000 0.554
1694.000 0.552
1695.000 0.546
1696.000 0.544
1697.000 0.548
1698.000 0.547
1699.000 0.549
1700.000 0.549
1701.000 0.546
1702.000 0.543
1703.000 0.540
1704.000 0.537
1705.000 0.535
1706.000 0.535
1707.000 0.539
1708.000 0.539
1709.000 0.535
1710.000 0.536
1711.000 0.537
1712.000 0.541
1713.000 0.545
1714.000 0.547
1715.000 0.547
1716.000 0.545
1717.000 0.545
1718.000 0.546
1719.000 0.545
1720.000 0.542
1721.000 0.541
1722.000 0.539
1723.000 0.536
1724.000 0.535
1725.000 0.532
1726.000 0.529
1727.000 0.527
1728.000 0.528
1729.000 0.531
1730.000 0.532
1731.000 0.532
1732.000 0.533
1733.000 0.535
1734.000 0.538
1735.000 0.537
1736.000 0.537
1737.000 0.534
1738.000 0.525
1739.000 0.520
1740.000 0.516
1741.000 0.514
1742.000 0.515
1743.000 0.516
1744.000 0.518
1745.000 0.520
1746.000 0.522
1747.000 0.522
1748.000 0.521
1749.000 0.519
1750.000 0.513
1751.000 0.511
1752.000 0.510
1753.000 0.509
1754.000 0.513
1755.000 0.514
1756.000 0.512
1757.000 0.511
1758.000 0.510
1759.000 0.507
1760.000 0.508
1761.000 0.502
1762.000 0.495
1763.000 0.492
1764.000 0.487
1765.000 0.491
1766.000 0.492
1767.000 0.488
1768.000 0.490
1769.000 0.491
1770.000 0.489
1771.000 0.494
1772.000 0.502
1773.000 0.498
1774.000 0.500
1775.000 0.502
1776.000 0.495
1777.000 0.500
1778.000 0.504
1779.000 0.501
1780.000 0.502
1781.000 0.497
1782.000 0.493
1783.000 0.491
1784.000 0.489
1785.000 0.494
1786.000 0.497
1787.000 0.501
1788.000 0.503
1789.000 0.501
1790.000 0.498
1791.000 0.499
1792.000 0.498
1793.000 0.504
1794.000 0.505
1795.000 0.501
1796.000 0.504
1797.000 0.518
1798.000 0.538
1799.000 0.559
1800.000 0.543
1801.000 0.635
1802.000 0.680
1803.000 0.661
1804.000 0.667
1805.000 0.686
1806.000 0.623
1807.000 0.632
1808.000 0.672
1809.000 0.693
1810.000 0.711
1811.000 0.727
1812.000 0.573
1813.000 0.473
1814.000 0.473
1815.000 0.443
1816.000 0.458
1817.000 0.616
1818.000 0.512
1819.000 0.487
1820.000 0.462
1821.000 0.337
1822.000 0.404
1823.000 0.621
1824.000 0.648
1825.000 0.573
1826.000 0.576
1827.000 0.674
1828.000 0.546
1829.000 0.475
1830.000 0.645
1831.000 0.634
1832.000 0.540
1833.000 0.686
1834.000 0.577
1835.000 0.521
1836.000 0.461
1837.000 0.680
1838.000 0.670
1839.000 0.576
1840.000 0.456
1841.000 0.532
1842.000 0.512
1843.000 0.518
1844.000 0.560
1845.000 0.609
1846.000 0.221
1847.000 0.338
1848.000 0.413
1849.000 0.429
1850.000 0.761
1851.000 0.368
1852.000 0.670
1853.000 0.644
1854.000 0.669
1855.000 0.684
1856.000 0.659
1857.000 0.843
1858.000 0.527
1859.000 0.447
1860.000 0.378
1861.000 0.310
1862.000 0.243
1863.000 0.640
1864.000 0.671
1865.000 0.709
1866.000 0.537
1867.000 0.488
1868.000 0.482
1869.000 0.518
1870.000 0.755
1871.000 0.713
1872.000 0.761
1873.000 0.371
1874.000 0.329
1875.000 0.619
1876.000 0.670
1877.000 0.513
1878.000 0.651
1879.000 0.594
1880.000 0.715
1881.000 0.620
1882.000 0.564
1883.000 0.562
1884.000 0.530
1885.000 0.442
1886.000 0.335
1887.000 0.343
1888.000 0.332
1889.000 0.362
1890.000 0.477
1891.000 0.502
1892.000 0.606
1893.000 0.677
1894.000 0.691
1895.000 0.582
1896.000 0.444
1897.000 0.454
1898.000 0.542
1899.000 0.567
1900.000 0.568
1901.000 0.427
1902.000 0.263
1903.000 0.445
1904.000 0.435
1905.000 0.241
1906.000 0.083
1907.000 0.342
1908.000 0.612
1909.000 0.269
1910.000 0.157
1911.000 0.430
1912.000 0.543
1913.000 0.500
1914.000 0.628
1915.000 0.508
1916.000 0.371
1917.000 0.378
1918.000 0.474
1919.000 0.192
1920.000 0.472
1921.000 0.628
1922.000 0.499
1923.000 0.516
1924.000 0.410
1925.000 0.543
1926.000 0.548
1927.000 0.555
1928.000 0.555
1929.000 0.426
1930.000 0.569
1931.000 0.519
1932.000 0.846
1933.000 0.359
1934.000 0.344
1935.000 0.486
1936.000 0.446
1937.000 0.595
1938.000 0.626
1939.000 0.608
1940.000 0.598
1941.000 0.739
1942.000 0.729
1943.000 0.672
1944.000 0.519
1945.000 0.671
1946.000 0.684
1947.000 0.759
1948.000 0.724
1949.000 0.632
1950.000 0.424
1951.000 0.413
1952.000 0.402
1953.000 0.464
1954.000 0.323
1955.000 0.490
1956.000 0.409
1957.000 0.439
1958.000 0.439
1959.000 0.421
1960.000 0.402
1961.000 0.347
1962.000 0.339
1963.000 0.331
1964.000 0.347
1965.000 0.436
1966.000 0.425
1967.000 0.491
1968.000 0.586
1969.000 0.481
1970.000 0.353
1971.000 0.310
1972.000 0.214
1973.000 0.205
1974.000 0.197
1975.000 0.196
1976.000 0.236
1977.000 0.257
1978.000 0.297
1979.000 0.310
1980.000 0.328
1981.000 0.317
1982.000 0.286
1983.000 0.284
1984.000 0.261
1985.000 0.259
1986.000 0.258
1987.000 0.261
1988.000 0.248
1989.000 0.230
1990.000 0.218
1991.000 0.213
1992.000 0.210
1993.000 0.218
1994.000 0.232
1995.000 0.213
1996.000 0.233
1997.000 0.296
1998.000 0.312
1999.000 0.361
2000.000 0.480
2001.000 0.524
2002.000 0.507
2003.000 0.451
2004.000 0.443
2005.000 0.418
2006.000 0.338
2007.000 0.255
2008.000 0.273
2009.000 0.270
2010.000 0.259
2011.000 0.262
2012.000 0.245
2013.000 0.235
2014.000 0.243
2015.000 0.279
2016.000 0.283
2017.000 0.264
2018.000 0.268
2019.000 0.269
2020.000 0.276
2021.000 0.302
2022.000 0.312
2023.000 0.293
2024.000 0.284
2025.000 0.263
2026.000 0.247
2027.000 0.244
2028.000 0.250
2029.000 0.252
2030.000 0.263
2031.000 0.269
2032.000 0.275
2033.000 0.281
2034.000 0.287
2035.000 0.288
2036.000 0.286
2037.000 0.287
2038.000 0.276
2039.000 0.272
2040.000 0.267
2041.000 0.245
2042.000 0.228
2043.000 0.202
2044.000 0.197
2045.000 0.213
2046.000 0.220
2047.000 0.239
2048.000 0.244
2049.000 0.233
2050.000 0.221
2051.000 0.225
2052.000 0.237
2053.000 0.280
2054.000 0.304
2055.000 0.307
2056.000 0.306
2057.000 0.304
2058.000 0.285
2059.000 0.276
2060.000 0.271
2061.000 0.274
2062.000 0.278
2063.000 0.281
2064.000 0.293
2065.000 0.294
2066.000 0.287
2067.000 0.278
2068.000 0.290
2069.000 0.301
2070.000 0.295
2071.000 0.287
2072.000 0.283
2073.000 0.271
2074.000 0.266
2075.000 0.266
2076.000 0.269
2077.000 0.265
2078.000 0.267
2079.000 0.288
2080.000 0.296
2081.000 0.288
2082.000 0.311
2083.000 0.312
2084.000 0.294
2085.000 0.304
2086.000 0.299
2087.000 0.304
2088.000 0.325
2089.000 0.328
2090.000 0.326
2091.000 0.321
2092.000 0.299
2093.000 0.294
2094.000 0.295
2095.000 0.296
2096.000 0.313
2097.000 0.318
2098.000 0.318
2099.000 0.310
2100.000 0.307
2101.000 0.298
2102.000 0.305
2103.000 0.317
2104.000 0.310
2105.000 0.295
2106.000 0.295
2107.000 0.283
2108.000 0.289
2109.000 0.321
2110.000 0.336
2111.000 0.354
2112.000 0.362
2113.000 0.366
2114.000 0.359
2115.000 0.330
2116.000 0.321
2117.000 0.314
2118.000 0.306
2119.000 0.313
2120.000 0.323
2121.000 0.326
2122.000 0.327
2123.000 0.324
2124.000 0.319
2125.000 0.312
2126.000 0.292
2127.000 0.290
2128.000 0.291
2129.000 0.296
2130.000 0.321
2131.000 0.330
2132.000 0.342
2133.000 0.336
2134.000 0.302
2135.000 0.295
2136.000 0.288
2137.000 0.288
2138.000 0.310
2139.000 0.342
2140.000 0.362
2141.000 0.375
2142.000 0.377
2143.000 0.365
2144.000 0.356
2145.000 0.337
2146.000 0.327
2147.000 0.319
2148.000 0.318
2149.000 0.322
2150.000 0.334
2151.000 0.364
2152.000 0.378
2153.000 0.391
2154.000 0.392
2155.000 0.374
2156.000 0.359
2157.000 0.356
2158.000 0.366
2159.000 0.357
2160.000 0.342
2161.000 0.339
2162.000 0.328
2163.000 0.328
2164.000 0.348
2165.000 0.357
2166.000 0.370
2167.000 0.374
2168.000 0.372
2169.000 0.382
2170.000 0.395
2171.000 0.398
2172.000 0.414
2173.000 0.411
2174.000 0.383
2175.000 0.370
2176.000 0.360
2177.000 0.354
2178.000 0.346
2179.000 0.348
2180.000 0.329
2181.000 0.320
2182.000 0.324
2183.000 0.324
2184.000 0.329
2185.000 0.349
2186.000 0.349
2187.000 0.338
2188.000 0.336
2189.000 0.325
2190.000 0.326
2191.000 0.336
2192.000 0.339
2193.000 0.351
2194.000 0.352
2195.000 0.340
2196.000 0.336
2197.000 0.320
2198.000 0.320
2199.000 0.344
2200.000 0.352
2201.000 0.359
2202.000 0.375
2203.000 0.368
2204.000 0.353
2205.000 0.353
2206.000 0.342
2207.000 0.343
2208.000 0.360
2209.000 0.359
2210.000 0.358
2211.000 0.355
2212.000 0.338
2213.000 0.334
2214.000 0.339
2215.000 0.338
2216.000 0.335
2217.000 0.341
2218.000 0.354
2219.000 0.361
2220.000 0.375
2221.000 0.383
2222.000 0.378
2223.000 0.379
2224.000 0.385
2225.000 0.384
2226.000 0.383
2227.000 0.375
2228.000 0.357
2229.000 0.348
2230.000 0.348
2231.000 0.348
2232.000 0.362
2233.000 0.376
2234.000 0.384
2235.000 0.385
2236.000 0.385
2237.000 0.385
2238.000 0.382
2239.000 0.386
2240.000 0.373
2241.000 0.347
2242.000 0.332
2243.000 0.303
2244.000 0.302
2245.000 0.328
2246.000 0.335
2247.000 0.346
2248.000 0.358
2249.000 0.359
2250.000 0.366
2251.000 0.398
2252.000 0.402
2253.000 0.372
2254.000 0.364
2255.000 0.347
2256.000 0.336
2257.000 0.339
2258.000 0.340
2259.000 0.333
2260.000 0.333
2261.000 0.340
2262.000 0.347
2263.000 0.349
2264.000 0.347
2265.000 0.340
2266.000 0.336
2267.000 0.338
2268.000 0.332
2269.000 0.328
2270.000 0.320
2271.000 0.304
2272.000 0.313
2273.000 0.314
2274.000 0.313
2275.000 0.313
2276.000 0.309
2277.000 0.312
2278.000 0.316
2279.000 0.320
2280.000 0.332
2281.000 0.343
2282.000 0.365
2283.000 0.378
2284.000 0.376
2285.000 0.387
2286.000 0.414
2287.000 0.400
2288.000 0.369
2289.000 0.362
2290.000 0.336
2291.000 0.335
2292.000 0.369
2293.000 0.392
2294.000 0.417
2295.000 0.437
2296.000 0.418
2297.000 0.433
2298.000 0.472
2299.000 0.431
2300.000 0.402
2301.000 0.370
2302.000 0.312
2303.000 0.312
2304.000 0.332
2305.000 0.362
2306.000 0.423
2307.000 0.470
2308.000 0.372
2309.000 0.292
2310.000 0.267
2311.000 0.263
2312.000 0.280
2313.000 0.316
2314.000 0.362
2315.000 0.395
2316.000 0.417
2317.000 0.388
2318.000 0.386
2319.000 0.303
2320.000 0.322
2321.000 0.354
2322.000 0.389
2323.000 0.512
2324.000 0.536
2325.000 0.470
2326.000 0.428
2327.000 0.395
2328.000 0.377
2329.000 0.363
2330.000 0.360
2331.000 0.355
2332.000 0.356
2333.000 0.373
2334.000 0.349
2335.000 0.309
2336.000 0.299
2337.000 0.260
2338.000 0.245
2339.000 0.291
2340.000 0.277
2341.000 0.238
2342.000 0.227
2343.000 0.205
2344.000 0.200
2345.000 0.234
2346.000 0.244
2347.000 0.303
2348.000 0.320
2349.000 0.474
2350.000 0.492
2351.000 0.264
2352.000 0.415
2353.000 0.473
2354.000 0.340
2355.000 0.211
2356.000 0.328
2357.000 0.365
2358.000 0.268
2359.000 0.293
2360.000 0.328
2361.000 0.253
2362.000 0.223
2363.000 0.253
2364.000 0.220
2365.000 0.186
2366.000 0.165
2367.000 0.180
2368.000 0.325
2369.000 0.580
2370.000 0.481
2371.000 0.353
2372.000 0.241
2373.000 0.334
2374.000 0.376
2375.000 0.416
2376.000 0.409
2377.000 0.322
2378.000 0.232
2379.000 0.218
2380.000 0.247
2381.000 0.280
2382.000 0.350
2383.000 0.240
2384.000 0.648
2385.000 0.788
2386.000 0.076
2387.000 0.155
2388.000 0.228
2389.000 0.307
2390.000 0.508
2391.000 0.522
2392.000 0.277
2393.000 0.149
2394.000 0.200
2395.000 0.257
2396.000 0.378
2397.000 0.381
2398.000 0.410
2399.000 0.374
2400.000 0.270
2401.000 0.300
2402.000 0.292
2403.000 0.275
2404.000 0.290
2405.000 0.346
2406.000 0.367
2407.000 0.456
2408.000 0.379
2409.000 0.408
2410.000 0.386
2411.000 0.139
2412.000 0.264
2413.000 0.230
2414.000 0.204
2415.000 0.166
2416.000 0.115
2417.000 0.481
2418.000 0.410
2419.000 0.551
2420.000 0.361
2421.000 0.273
2422.000 0.264
2423.000 0.402
2424.000 0.424
2425.000 0.364
2426.000 0.360
2427.000 0.459
2428.000 0.395
2429.000 0.444
2430.000 0.489
2431.000 0.414
2432.000 0.320
2433.000 0.404
2434.000 0.434
2435.000 0.674
2436.000 0.842
2437.000 0.548
2438.000 0.570
2439.000 0.421
2440.000 0.531
2441.000 0.664
2442.000 0.443
2443.000 0.320
2444.000 0.327
2445.000 0.307
2446.000 0.725
2447.000 0.530
2448.000 0.378
2449.000 0.378
2450.000 0.557
2451.000 0.562
2452.000 0.541
2453.000 0.472
2454.000 0.409
2455.000 0.227
2456.000 0.203
2457.000 0.282
2458.000 0.486
2459.000 0.467
2460.000 0.639
2461.000 0.252
2462.000 0.238
2463.000 0.618
2464.000 0.513
2465.000 0.457
2466.000 0.449
2467.000 0.254
2468.000 0.126
2469.000 0.289
2470.000 0.719
2471.000 0.542
2472.000 0.340
2473.000 0.387
2474.000 0.548
2475.000 0.433
2476.000 0.194
2477.000 0.196
2478.000 0.177
2479.000 0.119
2480.000 0.270
2481.000 0.416
2482.000 0.408
2483.000 0.452
2484.000 0.502
2485.000 0.724
2486.000 0.701
2487.000 0.666
2488.000 0.635
2489.000 0.486
2490.000 0.312
2491.000 0.622
2492.000 0.498
2493.000 0.568
2494.000 0.544
2495.000 0.322
2496.000 0.473
2497.000 0.642
2498.000 0.310
2499.000 0.380
2500.000 0.315
