391.000 0.069
392.000 0.060
393.000 0.075
394.000 0.081
395.000 0.058
396.000 0.057
397.000 0.080
398.000 0.080
399.000 0.075
400.000 0.078
401.000 0.089
402.000 0.080
403.000 0.080
404.000 0.082
405.000 0.068
406.000 0.071
407.000 0.070
408.000 0.062
409.000 0.068
410.000 0.069
411.000 0.069
412.000 0.073
413.000 0.074
414.000 0.078
415.000 0.078
416.000 0.074
417.000 0.083
418.000 0.087
419.000 0.081
420.000 0.077
421.000 0.076
422.000 0.077
423.000 0.078
424.000 0.073
425.000 0.073
426.000 0.077
427.000 0.079
428.000 0.076
429.000 0.072
430.000 0.072
431.000 0.080
432.000 0.080
433.000 0.077
434.000 0.077
435.000 0.078
436.000 0.075
437.000 0.074
438.000 0.075
439.000 0.072
440.000 0.072
441.000 0.074
442.000 0.075
443.000 0.073
444.000 0.071
445.000 0.071
446.000 0.070
447.000 0.071
448.000 0.073
449.000 0.074
450.000 0.075
451.000 0.075
452.000 0.077
453.000 0.084
454.000 0.079
455.000 0.074
456.000 0.077
457.000 0.071
458.000 0.072
459.000 0.075
460.000 0.072
461.000 0.072
462.000 0.074
463.000 0.076
464.000 0.076
465.000 0.075
466.000 0.074
467.000 0.074
468.000 0.078
469.000 0.081
470.000 0.083
471.000 0.081
472.000 0.079
473.000 0.077
474.000 0.077
475.000 0.076
476.000 0.077
477.000 0.077
478.000 0.076
479.000 0.071
480.000 0.073
481.000 0.077
482.000 0.074
483.000 0.073
484.000 0.073
485.000 0.075
486.000 0.075
487.000 0.079
488.000 0.083
489.000 0.083
490.000 0.074
491.000 0.073
492.000 0.079
493.000 0.080
494.000 0.078
495.000 0.074
496.000 0.073
497.000 0.078
498.000 0.075
499.000 0.073
500.000 0.080
501.000 0.078
502.000 0.079
503.000 0.081
504.000 0.081
505.000 0.080
506.000 0.080
507.000 0.082
508.000 0.089
509.000 0.091
510.000 0.089
511.000 0.090
512.000 0.091
513.000 0.095
514.000 0.098
515.000 0.099
516.000 0.101
517.000 0.103
518.000 0.101
519.000 0.107
520.000 0.111
521.000 0.113
522.000 0.119
523.000 0.122
524.000 0.125
525.000 0.127
526.000 0.130
527.000 0.134
528.000 0.139
529.000 0.143
530.000 0.147
531.000 0.148
532.000 0.148
533.000 0.152
534.000 0.155
535.000 0.156
536.000 0.155
537.000 0.155
538.000 0.156
539.000 0.157
540.000 0.157
541.000 0.159
542.000 0.161
543.000 0.161
544.000 0.162
545.000 0.162
546.000 0.162
547.000 0.164
548.000 0.164
549.000 0.164
550.000 0.164
551.000 0.163
552.000 0.163
553.000 0.164
554.000 0.163
555.000 0.162
556.000 0.162
557.000 0.161
558.000 0.160
559.000 0.159
560.000 0.158
561.000 0.156
562.000 0.157
563.000 0.155
564.000 0.152
565.000 0.150
566.000 0.145
567.000 0.143
568.000 0.142
569.000 0.139
570.000 0.136
571.000 0.135
572.000 0.132
573.000 0.131
574.000 0.131
575.000 0.129
576.000 0.125
577.000 0.125
578.000 0.123
579.000 0.119
580.000 0.118
581.000 0.119
582.000 0.120
583.000 0.119
584.000 0.116
585.000 0.116
586.000 0.116
587.000 0.112
588.000 0.112
589.000 0.112
590.000 0.109
591.000 0.108
592.000 0.107
593.000 0.108
594.000 0.113
595.000 0.108
596.000 0.104
597.000 0.103
598.000 0.106
599.000 0.108
600.000 0.106
601.000 0.103
602.000 0.104
603.000 0.106
604.000 0.107
605.000 0.106
606.000 0.106
607.000 0.104
608.000 0.102
609.000 0.102
610.000 0.102
611.000 0.100
612.000 0.099
613.000 0.101
614.000 0.101
615.000 0.101
616.000 0.100
617.000 0.098
618.000 0.096
619.000 0.096
620.000 0.097
621.000 0.097
622.000 0.095
623.000 0.094
624.000 0.095
625.000 0.097
626.000 0.098
627.000 0.096
628.000 0.095
629.000 0.097
630.000 0.098
631.000 0.099
632.000 0.097
633.000 0.094
634.000 0.095
635.000 0.096
636.000 0.094
637.000 0.091
638.000 0.091
639.000 0.092
640.000 0.094
641.000 0.094
642.000 0.092
643.000 0.089
644.000 0.089
645.000 0.091
646.000 0.089
647.000 0.089
648.000 0.094
649.000 0.092
650.000 0.093
651.000 0.093
652.000 0.089
653.000 0.090
654.000 0.091
655.000 0.090
656.000 0.091
657.000 0.092
658.000 0.094
659.000 0.097
660.000 0.090
661.000 0.091
662.000 0.096
663.000 0.088
664.000 0.092
665.000 0.098
666.000 0.098
667.000 0.097
668.000 0.097
669.000 0.097
670.000 0.100
671.000 0.098
672.000 0.093
673.000 0.090
674.000 0.096
675.000 0.099
676.000 0.101
677.000 0.104
678.000 0.105
679.000 0.106
680.000 0.108
681.000 0.110
682.000 0.108
683.000 0.106
684.000 0.109
685.000 0.115
686.000 0.116
687.000 0.117
688.000 0.125
689.000 0.122
690.000 0.120
691.000 0.123
692.000 0.124
693.000 0.132
694.000 0.137
695.000 0.140
696.000 0.146
697.000 0.156
698.000 0.167
699.000 0.177
700.000 0.186
701.000 0.197
702.000 0.209
703.000 0.219
704.000 0.232
705.000 0.243
706.000 0.253
707.000 0.267
708.000 0.279
709.000 0.290
710.000 0.301
711.000 0.312
712.000 0.324
713.000 0.335
714.000 0.348
715.000 0.360
716.000 0.371
717.000 0.383
718.000 0.395
719.000 0.408
720.000 0.421
721.000 0.432
722.000 0.443
723.000 0.454
724.000 0.465
725.000 0.477
726.000 0.488
727.000 0.498
728.000 0.508
729.000 0.517
730.000 0.526
731.000 0.535
732.000 0.544
733.000 0.551
734.000 0.558
735.000 0.566
736.000 0.572
737.000 0.579
738.000 0.585
739.000 0.591
740.000 0.596
741.000 0.601
742.000 0.606
743.000 0.611
744.000 0.615
745.000 0.618
746.000 0.621
747.000 0.625
748.000 0.628
749.000 0.631
750.000 0.633
751.000 0.635
752.000 0.637
753.000 0.639
754.000 0.641
755.000 0.641
756.000 0.642
757.000 0.644
758.000 0.645
759.000 0.645
760.000 0.646
761.000 0.649
762.000 0.649
763.000 0.649
764.000 0.650
765.000 0.651
766.000 0.651
767.000 0.652
768.000 0.652
769.000 0.653
770.000 0.653
771.000 0.654
772.000 0.654
773.000 0.654
774.000 0.656
775.000 0.656
776.000 0.656
777.000 0.656
778.000 0.656
779.000 0.657
780.000 0.657
781.000 0.657
782.000 0.658
783.000 0.658
784.000 0.659
785.000 0.659
786.000 0.659
787.000 0.659
788.000 0.659
789.000 0.660
790.000 0.661
791.000 0.661
792.000 0.661
793.000 0.661
794.000 0.662
795.000 0.662
796.000 0.662
797.000 0.663
798.000 0.663
799.000 0.664
800.000 0.665
801.000 0.665
802.000 0.665
803.000 0.666
804.000 0.666
805.000 0.666
806.000 0.666
807.000 0.667
808.000 0.667
809.000 0.668
810.000 0.668
811.000 0.668
812.000 0.669
813.000 0.668
814.000 0.668
815.000 0.669
816.000 0.669
817.000 0.670
818.000 0.671
819.000 0.671
820.000 0.671
821.000 0.672
822.000 0.672
823.000 0.672
824.000 0.672
825.000 0.673
826.000 0.673
827.000 0.673
828.000 0.673
829.000 0.674
830.000 0.674
831.000 0.674
832.000 0.675
833.000 0.675
834.000 0.675
835.000 0.675
836.000 0.676
837.000 0.677
838.000 0.677
839.000 0.678
840.000 0.678
841.000 0.679
842.000 0.679
843.000 0.679
844.000 0.679
845.000 0.679
846.000 0.680
847.000 0.680
848.000 0.680
849.000 0.680
850.000 0.681
851.000 0.681
852.000 0.681
853.000 0.681
854.000 0.682
855.000 0.682
856.000 0.682
857.000 0.682
858.000 0.682
859.000 0.683
860.000 0.683
861.000 0.683
862.000 0.683
863.000 0.684
864.000 0.684
865.000 0.685
866.000 0.685
867.000 0.685
868.000 0.686
869.000 0.686
870.000 0.687
871.000 0.686
872.000 0.686
873.000 0.686
874.000 0.687
875.000 0.688
876.000 0.688
877.000 0.688
878.000 0.688
879.000 0.688
880.000 0.689
881.000 0.689
882.000 0.690
883.000 0.690
884.000 0.690
885.000 0.691
886.000 0.691
887.000 0.691
888.000 0.692
889.000 0.692
890.000 0.692
891.000 0.693
892.000 0.693
893.000 0.693
894.000 0.693
895.000 0.693
896.000 0.693
897.000 0.694
898.000 0.694
899.000 0.694
900.000 0.693
901.000 0.696
902.000 0.696
903.000 0.695
904.000 0.695
905.000 0.696
906.000 0.696
907.000 0.696
908.000 0.698
909.000 0.698
910.000 0.698
911.000 0.698
912.000 0.698
913.000 0.699
914.000 0.699
915.000 0.699
916.000 0.700
917.000 0.700
918.000 0.699
919.000 0.700
920.000 0.700
921.000 0.700
922.000 0.700
923.000 0.700
924.000 0.700
925.000 0.700
926.000 0.700
927.000 0.699
928.000 0.700
929.000 0.700
930.000 0.699
931.000 0.700
932.000 0.700
933.000 0.700
934.000 0.700
935.000 0.699
936.000 0.699
937.000 0.698
938.000 0.697
939.000 0.696
940.000 0.696
941.000 0.695
942.000 0.694
943.000 0.694
944.000 0.700
945.000 0.696
946.000 0.694
947.000 0.698
948.000 0.697
949.000 0.697
950.000 0.697
951.000 0.694
952.000 0.695
953.000 0.692
954.000 0.692
955.000 0.695
956.000 0.698
957.000 0.695
958.000 0.693
959.000 0.694
960.000 0.692
961.000 0.694
962.000 0.695
963.000 0.693
964.000 0.691
965.000 0.693
966.000 0.692
967.000 0.688
968.000 0.692
969.000 0.694
970.000 0.693
971.000 0.692
972.000 0.693
973.000 0.693
974.000 0.694
975.000 0.694
976.000 0.696
977.000 0.694
978.000 0.694
979.000 0.695
980.000 0.694
981.000 0.694
982.000 0.695
983.000 0.696
984.000 0.695
985.000 0.697
986.000 0.695
987.000 0.693
988.000 0.697
989.000 0.699
990.000 0.700
991.000 0.701
992.000 0.700
993.000 0.700
994.000 0.698
995.000 0.698
996.000 0.700
997.000 0.699
998.000 0.699
999.000 0.700
1000.000 0.702
1001.000 0.698
1002.000 0.699
1003.000 0.699
1004.000 0.701
1005.000 0.701
1006.000 0.702
1007.000 0.702
1008.000 0.702
1009.000 0.702
1010.000 0.702
1011.000 0.702
1012.000 0.703
1013.000 0.704
1014.000 0.705
1015.000 0.706
1016.000 0.706
1017.000 0.707
1018.000 0.707
1019.000 0.708
1020.000 0.709
1021.000 0.709
1022.000 0.709
1023.000 0.711
1024.000 0.710
1025.000 0.708
1026.000 0.707
1027.000 0.707
1028.000 0.706
1029.000 0.707
1030.000 0.707
1031.000 0.707
1032.000 0.707
1033.000 0.708
1034.000 0.707
1035.000 0.706
1036.000 0.708
1037.000 0.709
1038.000 0.710
1039.000 0.711
1040.000 0.711
1041.000 0.710
1042.000 0.711
1043.000 0.712
1044.000 0.713
1045.000 0.714
1046.000 0.713
1047.000 0.712
1048.000 0.713
1049.000 0.712
1050.000 0.713
1051.000 0.713
1052.000 0.712
1053.000 0.711
1054.000 0.713
1055.000 0.714
1056.000 0.716
1057.000 0.717
1058.000 0.717
1059.000 0.718
1060.000 0.718
1061.000 0.719
1062.000 0.720
1063.000 0.719
1064.000 0.719
1065.000 0.719
1066.000 0.719
1067.000 0.718
1068.000 0.718
1069.000 0.718
1070.000 0.717
1071.000 0.716
1072.000 0.717
1073.000 0.717
1074.000 0.717
1075.000 0.718
1076.000 0.718
1077.000 0.718
1078.000 0.718
1079.000 0.718
1080.000 0.718
1081.000 0.719
1082.000 0.719
1083.000 0.720
1084.000 0.720
1085.000 0.720
1086.000 0.720
1087.000 0.720
1088.000 0.720
1089.000 0.720
1090.000 0.720
1091.000 0.720
1092.000 0.720
1093.000 0.720
1094.000 0.720
1095.000 0.720
1096.000 0.721
1097.000 0.722
1098.000 0.722
1099.000 0.722
1100.000 0.722
1101.000 0.724
1102.000 0.724
1103.000 0.723
1104.000 0.722
1105.000 0.720
1106.000 0.719
1107.000 0.718
1108.000 0.718
1109.000 0.719
1110.000 0.718
1111.000 0.718
1112.000 0.717
1113.000 0.715
1114.000 0.714
1115.000 0.715
1116.000 0.716
1117.000 0.718
1118.000 0.720
1119.000 0.720
1120.000 0.719
1121.000 0.717
1122.000 0.712
1123.000 0.711
1124.000 0.711
1125.000 0.712
1126.000 0.716
1127.000 0.717
1128.000 0.717
1129.000 0.713
1130.000 0.710
1131.000 0.710
1132.000 0.710
1133.000 0.714
1134.000 0.717
1135.000 0.718
1136.000 0.719
1137.000 0.719
1138.000 0.718
1139.000 0.718
1140.000 0.717
1141.000 0.716
1142.000 0.714
1143.000 0.709
1144.000 0.706
1145.000 0.704
1146.000 0.703
1147.000 0.701
1148.000 0.701
1149.000 0.702
1150.000 0.700
1151.000 0.700
1152.000 0.698
1153.000 0.696
1154.000 0.695
1155.000 0.694
1156.000 0.694
1157.000 0.694
1158.000 0.694
1159.000 0.694
1160.000 0.693
1161.000 0.693
1162.000 0.692
1163.000 0.692
1164.000 0.694
1165.000 0.694
1166.000 0.695
1167.000 0.694
1168.000 0.695
1169.000 0.695
1170.000 0.696
1171.000 0.696
1172.000 0.696
1173.000 0.695
1174.000 0.695
1175.000 0.696
1176.000 0.696
1177.000 0.695
1178.000 0.695
1179.000 0.694
1180.000 0.693
1181.000 0.694
1182.000 0.695
1183.000 0.697
1184.000 0.698
1185.000 0.697
1186.000 0.697
1187.000 0.695
1188.000 0.694
1189.000 0.695
1190.000 0.695
1191.000 0.697
1192.000 0.698
1193.000 0.698
1194.000 0.696
1195.000 0.697
1196.000 0.696
1197.000 0.696
1198.000 0.697
1199.000 0.697
1200.000 0.695
1201.000 0.696
1202.000 0.698
1203.000 0.699
1204.000 0.699
1205.000 0.700
1206.000 0.701
1207.000 0.702
1208.000 0.703
1209.000 0.704
1210.000 0.703
1211.000 0.702
1212.000 0.701
1213.000 0.701
1214.000 0.701
1215.000 0.701
1216.000 0.702
1217.000 0.701
1218.000 0.702
1219.000 0.703
1220.000 0.704
1221.000 0.704
1222.000 0.705
1223.000 0.705
1224.000 0.704
1225.000 0.703
1226.000 0.704
1227.000 0.704
1228.000 0.703
1229.000 0.704
1230.000 0.706
1231.000 0.705
1232.000 0.704
1233.000 0.704
1234.000 0.703
1235.000 0.703
1236.000 0.703
1237.000 0.703
1238.000 0.704
1239.000 0.704
1240.000 0.707
1241.000 0.706
1242.000 0.707
1243.000 0.707
1244.000 0.706
1245.000 0.706
1246.000 0.706
1247.000 0.706
1248.000 0.706
1249.000 0.706
1250.000 0.707
1251.000 0.707
1252.000 0.707
1253.000 0.708
1254.000 0.708
1255.000 0.708
1256.000 0.708
1257.000 0.710
1258.000 0.710
1259.000 0.711
1260.000 0.712
1261.000 0.711
1262.000 0.711
1263.000 0.711
1264.000 0.712
1265.000 0.712
1266.000 0.712
1267.000 0.711
1268.000 0.711
1269.000 0.710
1270.000 0.710
1271.000 0.711
1272.000 0.712
1273.000 0.713
1274.000 0.714
1275.000 0.715
1276.000 0.715
1277.000 0.715
1278.000 0.715
1279.000 0.715
1280.000 0.714
1281.000 0.714
1282.000 0.715
1283.000 0.715
1284.000 0.714
1285.000 0.714
1286.000 0.715
1287.000 0.715
1288.000 0.715
1289.000 0.716
1290.000 0.714
1291.000 0.714
1292.000 0.714
1293.000 0.713
1294.000 0.713
1295.000 0.713
1296.000 0.713
1297.000 0.713
1298.000 0.712
1299.000 0.713
1300.000 0.712
1301.000 0.712
1302.000 0.711
1303.000 0.711
1304.000 0.710
1305.000 0.710
1306.000 0.708
1307.000 0.707
1308.000 0.706
1309.000 0.705
1310.000 0.705
1311.000 0.705
1312.000 0.705
1313.000 0.706
1314.000 0.705
1315.000 0.702
1316.000 0.702
1317.000 0.699
1318.000 0.697
1319.000 0.695
1320.000 0.694
1321.000 0.692
1322.000 0.691
1323.000 0.689
1324.000 0.689
1325.000 0.687
1326.000 0.683
1327.000 0.682
1328.000 0.680
1329.000 0.679
1330.000 0.678
1331.000 0.677
1332.000 0.676
1333.000 0.675
1334.000 0.673
1335.000 0.670
1336.000 0.667
1337.000 0.664
1338.000 0.662
1339.000 0.659
1340.000 0.657
1341.000 0.655
1342.000 0.656
1343.000 0.654
1344.000 0.653
1345.000 0.652
1346.000 0.647
1347.000 0.643
1348.000 0.640
1349.000 0.637
1350.000 0.641
1351.000 0.664
1352.000 0.678
1353.000 0.705
1354.000 0.745
1355.000 0.742
1356.000 0.793
1357.000 0.708
1358.000 0.752
1359.000 0.617
1360.000 0.507
1361.000 0.586
1362.000 0.623
1363.000 0.725
1364.000 0.760
1365.000 0.811
1366.000 0.683
1367.000 0.274
1368.000 0.266
1369.000 0.284
1370.000 0.293
1371.000 0.171
1372.000 0.169
1373.000 0.234
1374.000 0.332
1375.000 0.441
1376.000 0.409
1377.000 0.345
1378.000 0.271
1379.000 0.391
1380.000 0.495
1381.000 0.559
1382.000 0.462
1383.000 0.694
1384.000 0.779
1385.000 0.833
1386.000 0.806
1387.000 0.425
1388.000 0.268
1389.000 0.074
1390.000 0.376
1391.000 0.670
1392.000 0.467
1393.000 0.396
1394.000 0.468
1395.000 0.526
1396.000 0.337
1397.000 0.368
1398.000 0.293
1399.000 0.321
1400.000 0.442
1401.000 0.578
1402.000 0.543
1403.000 0.491
1404.000 0.454
1405.000 0.396
1406.000 0.470
1407.000 0.526
1408.000 0.568
1409.000 0.674
1410.000 0.512
1411.000 0.587
1412.000 0.505
1413.000 0.494
1414.000 0.484
1415.000 0.425
1416.000 0.560
1417.000 0.632
1418.000 0.578
1419.000 0.465
1420.000 0.400
1421.000 0.340
1422.000 0.334
1423.000 0.323
1424.000 0.341
1425.000 0.405
1426.000 0.440
1427.000 0.532
1428.000 0.549
1429.000 0.497
1430.000 0.481
1431.000 0.451
1432.000 0.426
1433.000 0.406
1434.000 0.394
1435.000 0.373
1436.000 0.375
1437.000 0.423
1438.000 0.437
1439.000 0.453
1440.000 0.457
1441.000 0.434
1442.000 0.406
1443.000 0.350
1444.000 0.345
1445.000 0.353
1446.000 0.355
1447.000 0.418
1448.000 0.423
1449.000 0.379
1450.000 0.345
1451.000 0.322
1452.000 0.307
1453.000 0.306
1454.000 0.319
1455.000 0.327
1456.000 0.342
1457.000 0.347
1458.000 0.353
1459.000 0.356
1460.000 0.354
1461.000 0.350
1462.000 0.349
1463.000 0.336
1464.000 0.313
1465.000 0.305
1466.000 0.291
1467.000 0.292
1468.000 0.309
1469.000 0.319
1470.000 0.333
1471.000 0.343
1472.000 0.349
1473.000 0.354
1474.000 0.364
1475.000 0.363
1476.000 0.354
1477.000 0.351
1478.000 0.345
1479.000 0.341
1480.000 0.339
1481.000 0.337
1482.000 0.331
1483.000 0.329
1484.000 0.330
1485.000 0.330
1486.000 0.332
1487.000 0.334
1488.000 0.336
1489.000 0.339
1490.000 0.343
1491.000 0.343
1492.000 0.339
1493.000 0.338
1494.000 0.337
1495.000 0.336
1496.000 0.336
1497.000 0.338
1498.000 0.342
1499.000 0.343
1500.000 0.352
1501.000 0.356
1502.000 0.358
1503.000 0.361
1504.000 0.359
1505.000 0.357
1506.000 0.357
1507.000 0.359
1508.000 0.360
1509.000 0.362
1510.000 0.362
1511.000 0.361
1512.000 0.363
1513.000 0.368
1514.000 0.371
1515.000 0.375
1516.000 0.378
1517.000 0.380
1518.000 0.383
1519.000 0.389
1520.000 0.392
1521.000 0.395
1522.000 0.397
1523.000 0.394
1524.000 0.397
1525.000 0.400
1526.000 0.403
1527.000 0.408
1528.000 0.411
1529.000 0.413
1530.000 0.417
1531.000 0.419
1532.000 0.420
1533.000 0.416
1534.000 0.417
1535.000 0.414
1536.000 0.416
1537.000 0.421
1538.000 0.424
1539.000 0.432
1540.000 0.435
1541.000 0.436
1542.000 0.438
1543.000 0.435
1544.000 0.437
1545.000 0.443
1546.000 0.446
1547.000 0.449
1548.000 0.452
1549.000 0.452
1550.000 0.454
1551.000 0.456
1552.000 0.457
1553.000 0.455
1554.000 0.456
1555.000 0.455
1556.000 0.456
1557.000 0.459
1558.000 0.462
1559.000 0.465
1560.000 0.467
1561.000 0.466
1562.000 0.467
1563.000 0.468
1564.000 0.469
1565.000 0.469
1566.000 0.470
1567.000 0.472
1568.000 0.474
1569.000 0.475
1570.000 0.477
1571.000 0.476
1572.000 0.477
1573.000 0.478
1574.000 0.479
1575.000 0.478
1576.000 0.479
1577.000 0.482
1578.000 0.485
1579.000 0.492
1580.000 0.495
1581.000 0.496
1582.000 0.498
1583.000 0.500
1584.000 0.501
1585.000 0.501
1586.000 0.502
1587.000 0.502
1588.000 0.504
1589.000 0.508
1590.000 0.511
1591.000 0.514
1592.000 0.515
1593.000 0.516
1594.000 0.518
1595.000 0.519
1596.000 0.519
1597.000 0.518
1598.000 0.520
1599.000 0.523
1600.000 0.524
1601.000 0.527
1602.000 0.528
1603.000 0.527
1604.000 0.527
1605.000 0.530
1606.000 0.531
1607.000 0.532
1608.000 0.532
1609.000 0.530
1610.000 0.530
1611.000 0.529
1612.000 0.531
1613.000 0.534
1614.000 0.536
1615.000 0.542
1616.000 0.545
1617.000 0.545
1618.000 0.545
1619.000 0.546
1620.000 0.546
1621.000 0.544
1622.000 0.544
1623.000 0.541
1624.000 0.541
1625.000 0.542
1626.000 0.544
1627.000 0.547
1628.000 0.549
1629.000 0.549
1630.000 0.550
1631.000 0.548
1632.000 0.548
1633.000 0.551
1634.000 0.552
1635.000 0.553
1636.000 0.555
1637.000 0.556
1638.000 0.557
1639.000 0.560
1640.000 0.563
1641.000 0.566
1642.000 0.567
1643.000 0.563
1644.000 0.562
1645.000 0.562
1646.000 0.562
1647.000 0.567
1648.000 0.568
1649.000 0.569
1650.000 0.569
1651.000 0.565
1652.000 0.564
1653.000 0.560
1654.000 0.559
1655.000 0.562
1656.000 0.563
1657.000 0.566
1658.000 0.566
1659.000 0.561
1660.000 0.561
1661.000 0.562
1662.000 0.563
1663.000 0.568
1664.000 0.569
1665.000 0.565
1666.000 0.565
1667.000 0.565
1668.000 0.564
1669.000 0.564
1670.000 0.564
1671.000 0.562
1672.000 0.562
1673.000 0.568
1674.000 0.568
1675.000 0.567
1676.000 0.565
1677.000 0.557
1678.000 0.556
1679.000 0.558
1680.000 0.559
1681.000 0.564
1682.000 0.566
1683.000 0.564
1684.000 0.565
1685.000 0.566
1686.000 0.566
1687.000 0.570
1688.000 0.570
1689.000 0.568
1690.000 0.568
1691.000 0.573
1692.000 0.573
1693.000 0.574
1694.000 0.573
1695.000 0.567
1696.000 0.565
1697.000 0.566
1698.000 0.565
1699.000 0.568
1700.000 0.568
1701.000 0.568
1702.000 0.564
1703.000 0.559
1704.000 0.557
1705.000 0.554
1706.000 0.554
1707.000 0.558
1708.000 0.557
1709.000 0.552
1710.000 0.553
1711.000 0.556
1712.000 0.563
1713.000 0.569
1714.000 0.570
1715.000 0.569
1716.000 0.567
1717.000 0.567
1718.000 0.572
1719.000 0.575
1720.000 0.570
1721.000 0.567
1722.000 0.562
1723.000 0.557
1724.000 0.556
1725.000 0.554
1726.000 0.552
1727.000 0.553
1728.000 0.554
1729.000 0.560
1730.000 0.564
1731.000 0.563
1732.000 0.564
1733.000 0.566
1734.000 0.567
1735.000 0.564
1736.000 0.562
1737.000 0.558
1738.000 0.548
1739.000 0.544
1740.000 0.540
1741.000 0.539
1742.000 0.542
1743.000 0.543
1744.000 0.544
1745.000 0.545
1746.000 0.549
1747.000 0.549
1748.000 0.549
1749.000 0.546
1750.000 0.535
1751.000 0.531
1752.000 0.526
1753.000 0.525
1754.000 0.532
1755.000 0.535
1756.000 0.538
1757.000 0.538
1758.000 0.534
1759.000 0.529
1760.000 0.527
1761.000 0.520
1762.000 0.518
1763.000 0.519
1764.000 0.515
1765.000 0.518
1766.000 0.517
1767.000 0.510
1768.000 0.511
1769.000 0.513
1770.000 0.511
1771.000 0.518
1772.000 0.529
1773.000 0.525
1774.000 0.530
1775.000 0.528
1776.000 0.518
1777.000 0.525
1778.000 0.528
1779.000 0.526
1780.000 0.524
1781.000 0.517
1782.000 0.512
1783.000 0.508
1784.000 0.509
1785.000 0.509
1786.000 0.511
1787.000 0.521
1788.000 0.524
1789.000 0.522
1790.000 0.517
1791.000 0.508
1792.000 0.507
1793.000 0.514
1794.000 0.525
1795.000 0.529
1796.000 0.539
1797.000 0.576
1798.000 0.625
1799.000 0.665
1800.000 0.643
1801.000 0.610
1802.000 0.657
1803.000 0.667
1804.000 0.706
1805.000 0.743
1806.000 0.662
1807.000 0.690
1808.000 0.721
1809.000 0.743
1810.000 0.761
1811.000 0.828
1812.000 0.633
1813.000 0.515
1814.000 0.526
1815.000 0.454
1816.000 0.475
1817.000 0.660
1818.000 0.478
1819.000 0.522
1820.000 0.513
1821.000 0.331
1822.000 0.462
1823.000 0.803
1824.000 0.817
1825.000 0.750
1826.000 0.601
1827.000 0.672
1828.000 0.537
1829.000 0.443
1830.000 0.835
1831.000 0.743
1832.000 0.604
1833.000 0.668
1834.000 0.502
1835.000 0.409
1836.000 0.310
1837.000 0.705
1838.000 0.706
1839.000 0.641
1840.000 0.546
1841.000 0.667
1842.000 0.623
1843.000 0.527
1844.000 0.513
1845.000 0.500
1846.000 0.326
1847.000 0.404
1848.000 0.401
1849.000 0.302
1850.000 0.728
1851.000 0.257
1852.000 0.534
1853.000 0.529
1854.000 0.652
1855.000 0.704
1856.000 0.688
1857.000 0.749
1858.000 0.606
1859.000 0.519
1860.000 0.480
1861.000 0.428
1862.000 0.370
1863.000 0.745
1864.000 0.703
1865.000 0.707
1866.000 0.586
1867.000 0.580
1868.000 0.528
1869.000 0.559
1870.000 0.796
1871.000 0.762
1872.000 0.857
1873.000 0.453
1874.000 0.411
1875.000 0.616
1876.000 0.572
1877.000 0.446
1878.000 0.631
1879.000 0.541
1880.000 0.770
1881.000 0.694
1882.000 0.620
1883.000 0.578
1884.000 0.618
1885.000 0.511
1886.000 0.370
1887.000 0.371
1888.000 0.284
1889.000 0.277
1890.000 0.461
1891.000 0.442
1892.000 0.586
1893.000 0.698
1894.000 0.815
1895.000 0.629
1896.000 0.438
1897.000 0.487
1898.000 0.589
1899.000 0.672
1900.000 0.711
1901.000 0.507
1902.000 0.272
1903.000 0.598
1904.000 0.607
1905.000 0.319
1906.000 0.093
1907.000 0.249
1908.000 0.424
1909.000 0.279
1910.000 0.256
1911.000 0.422
1912.000 0.525
1913.000 0.543
1914.000 0.691
1915.000 0.553
1916.000 0.414
1917.000 0.455
1918.000 0.483
1919.000 0.236
1920.000 0.388
1921.000 0.592
1922.000 0.542
1923.000 0.554
1924.000 0.497
1925.000 0.569
1926.000 0.578
1927.000 0.597
1928.000 0.592
1929.000 0.398
1930.000 0.640
1931.000 0.548
1932.000 0.914
1933.000 0.260
1934.000 0.259
1935.000 0.296
1936.000 0.301
1937.000 0.618
1938.000 0.581
1939.000 0.523
1940.000 0.636
1941.000 0.779
1942.000 0.732
1943.000 0.702
1944.000 0.626
1945.000 0.669
1946.000 0.691
1947.000 0.700
1948.000 0.685
1949.000 0.650
1950.000 0.523
1951.000 0.527
1952.000 0.519
1953.000 0.548
1954.000 0.376
1955.000 0.431
1956.000 0.386
1957.000 0.354
1958.000 0.382
1959.000 0.349
1960.000 0.334
1961.000 0.353
1962.000 0.377
1963.000 0.384
1964.000 0.423
1965.000 0.576
1966.000 0.527
1967.000 0.622
1968.000 0.731
1969.000 0.535
1970.000 0.372
1971.000 0.344
1972.000 0.229
1973.000 0.243
1974.000 0.256
1975.000 0.251
1976.000 0.272
1977.000 0.287
1978.000 0.316
1979.000 0.305
1980.000 0.314
1981.000 0.321
1982.000 0.320
1983.000 0.341
1984.000 0.314
1985.000 0.320
1986.000 0.316
1987.000 0.296
1988.000 0.278
1989.000 0.256
1990.000 0.237
1991.000 0.232
1992.000 0.227
1993.000 0.241
1994.000 0.263
1995.000 0.234
1996.000 0.269
1997.000 0.364
1998.000 0.362
1999.000 0.414
2000.000 0.570
2001.000 0.627
2002.000 0.581
2003.000 0.495
2004.000 0.534
2005.000 0.516
2006.000 0.394
2007.000 0.254
2008.000 0.267
2009.000 0.279
2010.000 0.273
2011.000 0.300
2012.000 0.311
2013.000 0.287
2014.000 0.291
2015.000 0.318
2016.000 0.328
2017.000 0.335
2018.000 0.341
2019.000 0.338
2020.000 0.341
2021.000 0.356
2022.000 0.351
2023.000 0.315
2024.000 0.298
2025.000 0.279
2026.000 0.239
2027.000 0.232
2028.000 0.253
2029.000 0.261
2030.000 0.277
2031.000 0.291
2032.000 0.309
2033.000 0.314
2034.000 0.312
2035.000 0.310
2036.000 0.299
2037.000 0.297
2038.000 0.292
2039.000 0.298
2040.000 0.305
2041.000 0.283
2042.000 0.263
2043.000 0.222
2044.000 0.209
2045.000 0.212
2046.000 0.212
2047.000 0.226
2048.000 0.225
2049.000 0.208
2050.000 0.198
2051.000 0.194
2052.000 0.211
2053.000 0.277
2054.000 0.315
2055.000 0.346
2056.000 0.357
2057.000 0.355
2058.000 0.322
2059.000 0.307
2060.000 0.284
2061.000 0.283
2062.000 0.292
2063.000 0.294
2064.000 0.308
2065.000 0.303
2066.000 0.274
2067.000 0.266
2068.000 0.271
2069.000 0.285
2070.000 0.293
2071.000 0.294
2072.000 0.296
2073.000 0.284
2074.000 0.287
2075.000 0.299
2076.000 0.305
2077.000 0.301
2078.000 0.307
2079.000 0.328
2080.000 0.336
2081.000 0.322
2082.000 0.362
2083.000 0.367
2084.000 0.342
2085.000 0.359
2086.000 0.344
2087.000 0.344
2088.000 0.357
2089.000 0.354
2090.000 0.345
2091.000 0.340
2092.000 0.322
2093.000 0.315
2094.000 0.309
2095.000 0.311
2096.000 0.334
2097.000 0.340
2098.000 0.347
2099.000 0.351
2100.000 0.346
2101.000 0.328
2102.000 0.340
2103.000 0.352
2104.000 0.345
2105.000 0.335
2106.000 0.332
2107.000 0.311
2108.000 0.310
2109.000 0.327
2110.000 0.336
2111.000 0.351
2112.000 0.359
2113.000 0.367
2114.000 0.367
2115.000 0.351
2116.000 0.345
2117.000 0.338
2118.000 0.338
2119.000 0.346
2120.000 0.351
2121.000 0.359
2122.000 0.368
2123.000 0.370
2124.000 0.374
2125.000 0.368
2126.000 0.342
2127.000 0.339
2128.000 0.332
2129.000 0.337
2130.000 0.376
2131.000 0.386
2132.000 0.400
2133.000 0.386
2134.000 0.325
2135.000 0.308
2136.000 0.292
2137.000 0.287
2138.000 0.314
2139.000 0.344
2140.000 0.359
2141.000 0.380
2142.000 0.388
2143.000 0.381
2144.000 0.377
2145.000 0.359
2146.000 0.354
2147.000 0.350
2148.000 0.352
2149.000 0.358
2150.000 0.375
2151.000 0.415
2152.000 0.432
2153.000 0.453
2154.000 0.451
2155.000 0.415
2156.000 0.391
2157.000 0.374
2158.000 0.378
2159.000 0.373
2160.000 0.348
2161.000 0.345
2162.000 0.340
2163.000 0.343
2164.000 0.366
2165.000 0.380
2166.000 0.394
2167.000 0.404
2168.000 0.412
2169.000 0.431
2170.000 0.456
2171.000 0.466
2172.000 0.492
2173.000 0.487
2174.000 0.444
2175.000 0.422
2176.000 0.396
2177.000 0.379
2178.000 0.363
2179.000 0.365
2180.000 0.344
2181.000 0.332
2182.000 0.345
2183.000 0.353
2184.000 0.361
2185.000 0.391
2186.000 0.390
2187.000 0.364
2188.000 0.355
2189.000 0.335
2190.000 0.334
2191.000 0.346
2192.000 0.349
2193.000 0.365
2194.000 0.368
2195.000 0.352
2196.000 0.348
2197.000 0.340
2198.000 0.341
2199.000 0.357
2200.000 0.366
2201.000 0.375
2202.000 0.396
2203.000 0.395
2204.000 0.384
2205.000 0.380
2206.000 0.359
2207.000 0.359
2208.000 0.372
2209.000 0.370
2210.000 0.371
2211.000 0.367
2212.000 0.346
2213.000 0.342
2214.000 0.343
2215.000 0.340
2216.000 0.339
2217.000 0.345
2218.000 0.357
2219.000 0.365
2220.000 0.377
2221.000 0.386
2222.000 0.385
2223.000 0.390
2224.000 0.406
2225.000 0.412
2226.000 0.416
2227.000 0.417
2228.000 0.399
2229.000 0.382
2230.000 0.384
2231.000 0.378
2232.000 0.389
2233.000 0.412
2234.000 0.416
2235.000 0.410
2236.000 0.406
2237.000 0.403
2238.000 0.399
2239.000 0.408
2240.000 0.393
2241.000 0.362
2242.000 0.347
2243.000 0.316
2244.000 0.315
2245.000 0.347
2246.000 0.358
2247.000 0.368
2248.000 0.388
2249.000 0.413
2250.000 0.427
2251.000 0.466
2252.000 0.471
2253.000 0.421
2254.000 0.408
2255.000 0.398
2256.000 0.385
2257.000 0.381
2258.000 0.379
2259.000 0.366
2260.000 0.360
2261.000 0.372
2262.000 0.385
2263.000 0.393
2264.000 0.394
2265.000 0.385
2266.000 0.380
2267.000 0.388
2268.000 0.396
2269.000 0.404
2270.000 0.404
2271.000 0.374
2272.000 0.370
2273.000 0.363
2274.000 0.350
2275.000 0.341
2276.000 0.333
2277.000 0.329
2278.000 0.320
2279.000 0.332
2280.000 0.369
2281.000 0.395
2282.000 0.453
2283.000 0.475
2284.000 0.443
2285.000 0.454
2286.000 0.496
2287.000 0.474
2288.000 0.442
2289.000 0.434
2290.000 0.377
2291.000 0.368
2292.000 0.408
2293.000 0.446
2294.000 0.506
2295.000 0.542
2296.000 0.509
2297.000 0.533
2298.000 0.553
2299.000 0.496
2300.000 0.470
2301.000 0.417
2302.000 0.364
2303.000 0.364
2304.000 0.401
2305.000 0.462
2306.000 0.552
2307.000 0.642
2308.000 0.490
2309.000 0.363
2310.000 0.329
2311.000 0.309
2312.000 0.314
2313.000 0.352
2314.000 0.413
2315.000 0.487
2316.000 0.553
2317.000 0.514
2318.000 0.508
2319.000 0.372
2320.000 0.395
2321.000 0.415
2322.000 0.474
2323.000 0.687
2324.000 0.702
2325.000 0.604
2326.000 0.537
2327.000 0.476
2328.000 0.442
2329.000 0.429
2330.000 0.425
2331.000 0.414
2332.000 0.401
2333.000 0.398
2334.000 0.369
2335.000 0.321
2336.000 0.297
2337.000 0.264
2338.000 0.258
2339.000 0.300
2340.000 0.291
2341.000 0.264
2342.000 0.247
2343.000 0.204
2344.000 0.197
2345.000 0.262
2346.000 0.299
2347.000 0.397
2348.000 0.444
2349.000 0.726
2350.000 0.738
2351.000 0.352
2352.000 0.576
2353.000 0.624
2354.000 0.408
2355.000 0.238
2356.000 0.449
2357.000 0.511
2358.000 0.351
2359.000 0.365
2360.000 0.394
2361.000 0.303
2362.000 0.271
2363.000 0.332
2364.000 0.315
2365.000 0.268
2366.000 0.227
2367.000 0.220
2368.000 0.303
2369.000 0.461
2370.000 0.458
2371.000 0.269
2372.000 0.126
2373.000 0.291
2374.000 0.384
2375.000 0.512
2376.000 0.478
2377.000 0.323
2378.000 0.246
2379.000 0.253
2380.000 0.287
2381.000 0.283
2382.000 0.368
2383.000 0.273
2384.000 0.829
2385.000 0.795
2386.000 0.049
2387.000 0.090
2388.000 0.120
2389.000 0.183
2390.000 0.287
2391.000 0.455
2392.000 0.305
2393.000 0.122
2394.000 0.245
2395.000 0.357
2396.000 0.511
2397.000 0.460
2398.000 0.477
2399.000 0.425
2400.000 0.259
2401.000 0.272
2402.000 0.334
2403.000 0.287
2404.000 0.405
2405.000 0.480
2406.000 0.460
2407.000 0.450
2408.000 0.441
2409.000 0.347
2410.000 0.370
2411.000 0.065
2412.000 0.137
2413.000 0.136
2414.000 0.175
2415.000 0.165
2416.000 0.067
2417.000 0.628
2418.000 0.521
2419.000 0.557
2420.000 0.440
2421.000 0.390
2422.000 0.343
2423.000 0.528
2424.000 0.478
2425.000 0.388
2426.000 0.356
2427.000 0.557
2428.000 0.513
2429.000 0.520
2430.000 0.521
2431.000 0.479
2432.000 0.420
2433.000 0.498
2434.000 0.553
2435.000 0.709
2436.000 0.741
2437.000 0.544
2438.000 0.613
2439.000 0.501
2440.000 0.659
2441.000 0.811
2442.000 0.511
2443.000 0.394
2444.000 0.382
2445.000 0.361
2446.000 0.856
2447.000 0.536
2448.000 0.315
2449.000 0.222
2450.000 0.276
2451.000 0.357
2452.000 0.414
2453.000 0.378
2454.000 0.357
2455.000 0.286
2456.000 0.288
2457.000 0.338
2458.000 0.445
2459.000 0.428
2460.000 0.730
2461.000 0.182
2462.000 0.242
2463.000 0.497
2464.000 0.382
2465.000 0.382
2466.000 0.462
2467.000 0.390
2468.000 0.121
2469.000 0.305
2470.000 0.860
2471.000 0.444
2472.000 0.239
2473.000 0.282
2474.000 0.491
2475.000 0.320
2476.000 0.122
2477.000 0.148
2478.000 0.142
2479.000 0.087
2480.000 0.192
2481.000 0.379
2482.000 0.514
2483.000 0.433
2484.000 0.384
2485.000 0.683
2486.000 0.679
2487.000 0.647
2488.000 0.621
2489.000 0.599
2490.000 0.482
2491.000 0.688
2492.000 0.674
2493.000 0.641
2494.000 0.620
2495.000 0.199
2496.000 0.394
2497.000 0.645
2498.000 0.406
2499.000 0.316
2500.000 0.209
