391.000 0.099
392.000 0.095
393.000 0.104
394.000 0.132
395.000 0.110
396.000 0.103
397.000 0.122
398.000 0.109
399.000 0.116
400.000 0.119
401.000 0.101
402.000 0.102
403.000 0.098
404.000 0.091
405.000 0.093
406.000 0.107
407.000 0.110
408.000 0.106
409.000 0.108
410.000 0.098
411.000 0.088
412.000 0.088
413.000 0.100
414.000 0.105
415.000 0.101
416.000 0.092
417.000 0.083
418.000 0.090
419.000 0.103
420.000 0.103
421.000 0.099
422.000 0.100
423.000 0.107
424.000 0.100
425.000 0.102
426.000 0.106
427.000 0.102
428.000 0.094
429.000 0.094
430.000 0.101
431.000 0.103
432.000 0.104
433.000 0.101
434.000 0.098
435.000 0.105
436.000 0.104
437.000 0.098
438.000 0.094
439.000 0.094
440.000 0.096
441.000 0.098
442.000 0.095
443.000 0.096
444.000 0.094
445.000 0.087
446.000 0.094
447.000 0.094
448.000 0.093
449.000 0.097
450.000 0.099
451.000 0.098
452.000 0.094
453.000 0.092
454.000 0.095
455.000 0.099
456.000 0.100
457.000 0.099
458.000 0.097
459.000 0.096
460.000 0.097
461.000 0.100
462.000 0.103
463.000 0.102
464.000 0.099
465.000 0.099
466.000 0.099
467.000 0.097
468.000 0.097
469.000 0.097
470.000 0.098
471.000 0.101
472.000 0.097
473.000 0.095
474.000 0.097
475.000 0.096
476.000 0.098
477.000 0.099
478.000 0.100
479.000 0.093
480.000 0.091
481.000 0.094
482.000 0.097
483.000 0.099
484.000 0.101
485.000 0.101
486.000 0.100
487.000 0.093
488.000 0.087
489.000 0.090
490.000 0.097
491.000 0.100
492.000 0.099
493.000 0.100
494.000 0.098
495.000 0.100
496.000 0.104
497.000 0.098
498.000 0.093
499.000 0.094
500.000 0.099
501.000 0.096
502.000 0.095
503.000 0.098
504.000 0.103
505.000 0.100
506.000 0.097
507.000 0.099
508.000 0.100
509.000 0.102
510.000 0.103
511.000 0.098
512.000 0.102
513.000 0.106
514.000 0.109
515.000 0.115
516.000 0.116
517.000 0.115
518.000 0.117
519.000 0.117
520.000 0.121
521.000 0.127
522.000 0.133
523.000 0.135
524.000 0.137
525.000 0.137
526.000 0.141
527.000 0.144
528.000 0.148
529.000 0.153
530.000 0.156
531.000 0.157
532.000 0.159
533.000 0.163
534.000 0.165
535.000 0.167
536.000 0.167
537.000 0.168
538.000 0.168
539.000 0.170
540.000 0.172
541.000 0.174
542.000 0.174
543.000 0.172
544.000 0.173
545.000 0.173
546.000 0.173
547.000 0.174
548.000 0.173
549.000 0.173
550.000 0.174
551.000 0.174
552.000 0.174
553.000 0.174
554.000 0.175
555.000 0.174
556.000 0.172
557.000 0.171
558.000 0.170
559.000 0.169
560.000 0.166
561.000 0.164
562.000 0.164
563.000 0.162
564.000 0.160
565.000 0.160
566.000 0.157
567.000 0.153
568.000 0.151
569.000 0.149
570.000 0.147
571.000 0.144
572.000 0.139
573.000 0.138
574.000 0.136
575.000 0.135
576.000 0.134
577.000 0.133
578.000 0.132
579.000 0.130
580.000 0.130
581.000 0.126
582.000 0.123
583.000 0.120
584.000 0.120
585.000 0.120
586.000 0.121
587.000 0.121
588.000 0.121
589.000 0.119
590.000 0.116
591.000 0.116
592.000 0.117
593.000 0.118
594.000 0.118
595.000 0.118
596.000 0.116
597.000 0.113
598.000 0.112
599.000 0.111
600.000 0.112
601.000 0.113
602.000 0.111
603.000 0.109
604.000 0.109
605.000 0.110
606.000 0.112
607.000 0.110
608.000 0.106
609.000 0.107
610.000 0.110
611.000 0.111
612.000 0.106
613.000 0.108
614.000 0.105
615.000 0.101
616.000 0.102
617.000 0.106
618.000 0.106
619.000 0.101
620.000 0.099
621.000 0.100
622.000 0.102
623.000 0.101
624.000 0.104
625.000 0.104
626.000 0.102
627.000 0.105
628.000 0.106
629.000 0.105
630.000 0.104
631.000 0.105
632.000 0.103
633.000 0.102
634.000 0.101
635.000 0.102
636.000 0.103
637.000 0.104
638.000 0.107
639.000 0.104
640.000 0.101
641.000 0.100
642.000 0.099
643.000 0.099
644.000 0.100
645.000 0.096
646.000 0.094
647.000 0.095
648.000 0.099
649.000 0.100
650.000 0.099
651.000 0.098
652.000 0.101
653.000 0.099
654.000 0.098
655.000 0.101
656.000 0.100
657.000 0.097
658.000 0.097
659.000 0.102
660.000 0.106
661.000 0.106
662.000 0.103
663.000 0.103
664.000 0.109
665.000 0.111
666.000 0.107
667.000 0.109
668.000 0.106
669.000 0.104
670.000 0.114
671.000 0.111
672.000 0.109
673.000 0.112
674.000 0.116
675.000 0.118
676.000 0.119
677.000 0.123
678.000 0.124
679.000 0.122
680.000 0.120
681.000 0.121
682.000 0.126
683.000 0.129
684.000 0.127
685.000 0.130
686.000 0.134
687.000 0.138
688.000 0.140
689.000 0.135
690.000 0.134
691.000 0.136
692.000 0.136
693.000 0.141
694.000 0.148
695.000 0.155
696.000 0.159
697.000 0.165
698.000 0.172
699.000 0.180
700.000 0.192
701.000 0.205
702.000 0.218
703.000 0.227
704.000 0.239
705.000 0.252
706.000 0.262
707.000 0.277
708.000 0.290
709.000 0.302
710.000 0.316
711.000 0.328
712.000 0.340
713.000 0.353
714.000 0.366
715.000 0.380
716.000 0.393
717.000 0.406
718.000 0.419
719.000 0.434
720.000 0.449
721.000 0.461
722.000 0.472
723.000 0.483
724.000 0.496
725.000 0.507
726.000 0.518
727.000 0.529
728.000 0.539
729.000 0.549
730.000 0.559
731.000 0.568
732.000 0.576
733.000 0.583
734.000 0.590
735.000 0.597
736.000 0.604
737.000 0.609
738.000 0.614
739.000 0.619
740.000 0.624
741.000 0.629
742.000 0.632
743.000 0.635
744.000 0.639
745.000 0.642
746.000 0.645
747.000 0.647
748.000 0.650
749.000 0.652
750.000 0.654
751.000 0.656
752.000 0.657
753.000 0.659
754.000 0.661
755.000 0.662
756.000 0.662
757.000 0.663
758.000 0.664
759.000 0.665
760.000 0.666
761.000 0.666
762.000 0.667
763.000 0.668
764.000 0.668
765.000 0.669
766.000 0.669
767.000 0.670
768.000 0.671
769.000 0.671
770.000 0.671
771.000 0.672
772.000 0.673
773.000 0.673
774.000 0.674
775.000 0.674
776.000 0.674
777.000 0.674
778.000 0.675
779.000 0.675
780.000 0.675
781.000 0.676
782.000 0.676
783.000 0.676
784.000 0.676
785.000 0.676
786.000 0.676
787.000 0.677
788.000 0.678
789.000 0.678
790.000 0.678
791.000 0.678
792.000 0.679
793.000 0.679
794.000 0.680
795.000 0.679
796.000 0.680
797.000 0.680
798.000 0.680
799.000 0.680
800.000 0.681
801.000 0.681
802.000 0.682
803.000 0.682
804.000 0.682
805.000 0.682
806.000 0.683
807.000 0.683
808.000 0.684
809.000 0.683
810.000 0.683
811.000 0.683
812.000 0.684
813.000 0.684
814.000 0.685
815.000 0.685
816.000 0.685
817.000 0.685
818.000 0.685
819.000 0.685
820.000 0.686
821.000 0.686
822.000 0.686
823.000 0.687
824.000 0.687
825.000 0.688
826.000 0.688
827.000 0.688
828.000 0.688
829.000 0.689
830.000 0.689
831.000 0.689
832.000 0.690
833.000 0.690
834.000 0.691
835.000 0.690
836.000 0.691
837.000 0.692
838.000 0.692
839.000 0.692
840.000 0.692
841.000 0.693
842.000 0.693
843.000 0.693
844.000 0.693
845.000 0.693
846.000 0.694
847.000 0.694
848.000 0.694
849.000 0.694
850.000 0.695
851.000 0.695
852.000 0.695
853.000 0.696
854.000 0.696
855.000 0.696
856.000 0.696
857.000 0.696
858.000 0.697
859.000 0.697
860.000 0.697
861.000 0.697
862.000 0.697
863.000 0.698
864.000 0.698
865.000 0.698
866.000 0.698
867.000 0.698
868.000 0.698
869.000 0.699
870.000 0.699
871.000 0.700
872.000 0.700
873.000 0.700
874.000 0.700
875.000 0.701
876.000 0.701
877.000 0.701
878.000 0.701
879.000 0.702
880.000 0.702
881.000 0.702
882.000 0.702
883.000 0.703
884.000 0.703
885.000 0.703
886.000 0.703
887.000 0.704
888.000 0.704
889.000 0.705
890.000 0.704
891.000 0.704
892.000 0.705
893.000 0.705
894.000 0.705
895.000 0.705
896.000 0.705
897.000 0.704
898.000 0.704
899.000 0.705
900.000 0.705
901.000 0.706
902.000 0.707
903.000 0.707
904.000 0.706
905.000 0.707
906.000 0.708
907.000 0.707
908.000 0.707
909.000 0.706
910.000 0.707
911.000 0.707
912.000 0.707
913.000 0.709
914.000 0.709
915.000 0.709
916.000 0.709
917.000 0.707
918.000 0.708
919.000 0.710
920.000 0.710
921.000 0.711
922.000 0.712
923.000 0.712
924.000 0.712
925.000 0.712
926.000 0.711
927.000 0.710
928.000 0.710
929.000 0.710
930.000 0.709
931.000 0.708
932.000 0.708
933.000 0.707
934.000 0.706
935.000 0.705
936.000 0.704
937.000 0.706
938.000 0.707
939.000 0.706
940.000 0.706
941.000 0.706
942.000 0.705
943.000 0.705
944.000 0.711
945.000 0.709
946.000 0.704
947.000 0.704
948.000 0.708
949.000 0.708
950.000 0.710
951.000 0.713
952.000 0.706
953.000 0.705
954.000 0.709
955.000 0.712
956.000 0.707
957.000 0.708
958.000 0.709
959.000 0.708
960.000 0.707
961.000 0.709
962.000 0.711
963.000 0.712
964.000 0.711
965.000 0.713
966.000 0.713
967.000 0.713
968.000 0.712
969.000 0.712
970.000 0.713
971.000 0.714
972.000 0.714
973.000 0.714
974.000 0.715
975.000 0.715
976.000 0.713
977.000 0.713
978.000 0.715
979.000 0.715
980.000 0.715
981.000 0.715
982.000 0.716
983.000 0.716
984.000 0.717
985.000 0.718
986.000 0.717
987.000 0.717
988.000 0.719
989.000 0.719
990.000 0.718
991.000 0.719
992.000 0.720
993.000 0.720
994.000 0.721
995.000 0.722
996.000 0.720
997.000 0.719
998.000 0.719
999.000 0.721
1000.000 0.723
1001.000 0.722
1002.000 0.722
1003.000 0.721
1004.000 0.721
1005.000 0.722
1006.000 0.724
1007.000 0.726
1008.000 0.725
1009.000 0.725
1010.000 0.726
1011.000 0.725
1012.000 0.726
1013.000 0.726
1014.000 0.725
1015.000 0.725
1016.000 0.728
1017.000 0.728
1018.000 0.728
1019.000 0.728
1020.000 0.728
1021.000 0.726
1022.000 0.727
1023.000 0.726
1024.000 0.726
1025.000 0.728
1026.000 0.731
1027.000 0.732
1028.000 0.733
1029.000 0.732
1030.000 0.732
1031.000 0.731
1032.000 0.732
1033.000 0.732
1034.000 0.732
1035.000 0.733
1036.000 0.733
1037.000 0.733
1038.000 0.733
1039.000 0.733
1040.000 0.733
1041.000 0.735
1042.000 0.736
1043.000 0.736
1044.000 0.734
1045.000 0.733
1046.000 0.733
1047.000 0.732
1048.000 0.732
1049.000 0.733
1050.000 0.732
1051.000 0.732
1052.000 0.733
1053.000 0.735
1054.000 0.735
1055.000 0.736
1056.000 0.735
1057.000 0.736
1058.000 0.736
1059.000 0.736
1060.000 0.736
1061.000 0.736
1062.000 0.736
1063.000 0.735
1064.000 0.736
1065.000 0.736
1066.000 0.735
1067.000 0.737
1068.000 0.737
1069.000 0.738
1070.000 0.738
1071.000 0.738
1072.000 0.738
1073.000 0.738
1074.000 0.739
1075.000 0.739
1076.000 0.739
1077.000 0.740
1078.000 0.740
1079.000 0.740
1080.000 0.741
1081.000 0.741
1082.000 0.741
1083.000 0.742
1084.000 0.741
1085.000 0.740
1086.000 0.740
1087.000 0.739
1088.000 0.739
1089.000 0.740
1090.000 0.740
1091.000 0.741
1092.000 0.741
1093.000 0.741
1094.000 0.742
1095.000 0.742
1096.000 0.742
1097.000 0.742
1098.000 0.742
1099.000 0.742
1100.000 0.742
1101.000 0.742
1102.000 0.741
1103.000 0.741
1104.000 0.742
1105.000 0.743
1106.000 0.743
1107.000 0.742
1108.000 0.742
1109.000 0.743
1110.000 0.742
1111.000 0.742
1112.000 0.741
1113.000 0.740
1114.000 0.739
1115.000 0.741
1116.000 0.744
1117.000 0.746
1118.000 0.746
1119.000 0.741
1120.000 0.733
1121.000 0.730
1122.000 0.727
1123.000 0.726
1124.000 0.731
1125.000 0.730
1126.000 0.726
1127.000 0.726
1128.000 0.727
1129.000 0.726
1130.000 0.733
1131.000 0.741
1132.000 0.741
1133.000 0.741
1134.000 0.740
1135.000 0.736
1136.000 0.732
1137.000 0.728
1138.000 0.729
1139.000 0.730
1140.000 0.730
1141.000 0.735
1142.000 0.737
1143.000 0.735
1144.000 0.734
1145.000 0.733
1146.000 0.732
1147.000 0.732
1148.000 0.733
1149.000 0.729
1150.000 0.727
1151.000 0.728
1152.000 0.726
1153.000 0.726
1154.000 0.728
1155.000 0.727
1156.000 0.728
1157.000 0.729
1158.000 0.728
1159.000 0.729
1160.000 0.730
1161.000 0.731
1162.000 0.731
1163.000 0.732
1164.000 0.732
1165.000 0.732
1166.000 0.731
1167.000 0.730
1168.000 0.729
1169.000 0.729
1170.000 0.728
1171.000 0.728
1172.000 0.729
1173.000 0.730
1174.000 0.731
1175.000 0.732
1176.000 0.732
1177.000 0.731
1178.000 0.731
1179.000 0.731
1180.000 0.731
1181.000 0.731
1182.000 0.731
1183.000 0.732
1184.000 0.732
1185.000 0.732
1186.000 0.732
1187.000 0.732
1188.000 0.732
1189.000 0.732
1190.000 0.733
1191.000 0.734
1192.000 0.734
1193.000 0.734
1194.000 0.733
1195.000 0.732
1196.000 0.732
1197.000 0.732
1198.000 0.733
1199.000 0.733
1200.000 0.734
1201.000 0.734
1202.000 0.734
1203.000 0.734
1204.000 0.735
1205.000 0.736
1206.000 0.735
1207.000 0.736
1208.000 0.737
1209.000 0.736
1210.000 0.736
1211.000 0.735
1212.000 0.736
1213.000 0.736
1214.000 0.737
1215.000 0.738
1216.000 0.738
1217.000 0.737
1218.000 0.737
1219.000 0.737
1220.000 0.737
1221.000 0.738
1222.000 0.739
1223.000 0.739
1224.000 0.739
1225.000 0.739
1226.000 0.739
1227.000 0.740
1228.000 0.740
1229.000 0.740
1230.000 0.739
1231.000 0.739
1232.000 0.739
1233.000 0.739
1234.000 0.740
1235.000 0.740
1236.000 0.742
1237.000 0.743
1238.000 0.744
1239.000 0.744
1240.000 0.745
1241.000 0.745
1242.000 0.745
1243.000 0.744
1244.000 0.743
1245.000 0.743
1246.000 0.744
1247.000 0.745
1248.000 0.747
1249.000 0.748
1250.000 0.749
1251.000 0.750
1252.000 0.750
1253.000 0.749
1254.000 0.749
1255.000 0.748
1256.000 0.748
1257.000 0.749
1258.000 0.749
1259.000 0.748
1260.000 0.749
1261.000 0.749
1262.000 0.749
1263.000 0.750
1264.000 0.751
1265.000 0.750
1266.000 0.750
1267.000 0.751
1268.000 0.752
1269.000 0.753
1270.000 0.754
1271.000 0.754
1272.000 0.754
1273.000 0.754
1274.000 0.755
1275.000 0.754
1276.000 0.755
1277.000 0.754
1278.000 0.754
1279.000 0.753
1280.000 0.752
1281.000 0.752
1282.000 0.752
1283.000 0.753
1284.000 0.753
1285.000 0.753
1286.000 0.753
1287.000 0.753
1288.000 0.752
1289.000 0.752
1290.000 0.752
1291.000 0.751
1292.000 0.751
1293.000 0.751
1294.000 0.749
1295.000 0.748
1296.000 0.748
1297.000 0.748
1298.000 0.747
1299.000 0.748
1300.000 0.748
1301.000 0.748
1302.000 0.747
1303.000 0.746
1304.000 0.745
1305.000 0.743
1306.000 0.742
1307.000 0.742
1308.000 0.741
1309.000 0.740
1310.000 0.740
1311.000 0.740
1312.000 0.740
1313.000 0.739
1314.000 0.739
1315.000 0.740
1316.000 0.739
1317.000 0.740
1318.000 0.739
1319.000 0.738
1320.000 0.735
1321.000 0.733
1322.000 0.730
1323.000 0.729
1324.000 0.727
1325.000 0.725
1326.000 0.724
1327.000 0.722
1328.000 0.719
1329.000 0.718
1330.000 0.718
1331.000 0.716
1332.000 0.713
1333.000 0.710
1334.000 0.704
1335.000 0.702
1336.000 0.701
1337.000 0.701
1338.000 0.703
1339.000 0.703
1340.000 0.705
1341.000 0.706
1342.000 0.709
1343.000 0.709
1344.000 0.706
1345.000 0.704
1346.000 0.696
1347.000 0.688
1348.000 0.679
1349.000 0.667
1350.000 0.658
1351.000 0.653
1352.000 0.645
1353.000 0.661
1354.000 0.665
1355.000 0.647
1356.000 0.652
1357.000 0.599
1358.000 0.617
1359.000 0.665
1360.000 0.573
1361.000 0.535
1362.000 0.457
1363.000 0.364
1364.000 0.304
1365.000 0.253
1366.000 0.267
1367.000 0.242
1368.000 0.224
1369.000 0.270
1370.000 0.596
1371.000 0.478
1372.000 0.415
1373.000 0.447
1374.000 0.533
1375.000 0.456
1376.000 0.414
1377.000 0.662
1378.000 0.168
1379.000 0.355
1380.000 0.571
1381.000 0.453
1382.000 0.202
1383.000 0.240
1384.000 0.362
1385.000 0.451
1386.000 0.543
1387.000 0.563
1388.000 0.589
1389.000 0.484
1390.000 0.619
1391.000 0.747
1392.000 0.179
1393.000 0.767
1394.000 0.625
1395.000 0.501
1396.000 0.392
1397.000 0.271
1398.000 0.346
1399.000 0.358
1400.000 0.480
1401.000 0.560
1402.000 0.456
1403.000 0.620
1404.000 0.739
1405.000 0.880
1406.000 0.268
1407.000 0.423
1408.000 0.513
1409.000 0.597
1410.000 0.666
1411.000 0.549
1412.000 0.509
1413.000 0.378
1414.000 0.443
1415.000 0.621
1416.000 0.648
1417.000 0.443
1418.000 0.443
1419.000 0.420
1420.000 0.407
1421.000 0.415
1422.000 0.433
1423.000 0.501
1424.000 0.515
1425.000 0.517
1426.000 0.503
1427.000 0.408
1428.000 0.398
1429.000 0.456
1430.000 0.470
1431.000 0.559
1432.000 0.437
1433.000 0.370
1434.000 0.357
1435.000 0.476
1436.000 0.479
1437.000 0.411
1438.000 0.335
1439.000 0.371
1440.000 0.363
1441.000 0.411
1442.000 0.391
1443.000 0.281
1444.000 0.276
1445.000 0.282
1446.000 0.282
1447.000 0.346
1448.000 0.361
1449.000 0.332
1450.000 0.292
1451.000 0.281
1452.000 0.257
1453.000 0.252
1454.000 0.255
1455.000 0.258
1456.000 0.261
1457.000 0.267
1458.000 0.282
1459.000 0.284
1460.000 0.282
1461.000 0.278
1462.000 0.265
1463.000 0.260
1464.000 0.255
1465.000 0.255
1466.000 0.265
1467.000 0.264
1468.000 0.257
1469.000 0.260
1470.000 0.258
1471.000 0.263
1472.000 0.285
1473.000 0.286
1474.000 0.274
1475.000 0.272
1476.000 0.263
1477.000 0.264
1478.000 0.272
1479.000 0.282
1480.000 0.303
1481.000 0.317
1482.000 0.336
1483.000 0.338
1484.000 0.327
1485.000 0.323
1486.000 0.311
1487.000 0.311
1488.000 0.321
1489.000 0.325
1490.000 0.331
1491.000 0.331
1492.000 0.324
1493.000 0.324
1494.000 0.326
1495.000 0.330
1496.000 0.341
1497.000 0.347
1498.000 0.350
1499.000 0.352
1500.000 0.358
1501.000 0.363
1502.000 0.370
1503.000 0.377
1504.000 0.378
1505.000 0.375
1506.000 0.376
1507.000 0.375
1508.000 0.377
1509.000 0.381
1510.000 0.383
1511.000 0.385
1512.000 0.387
1513.000 0.389
1514.000 0.393
1515.000 0.399
1516.000 0.400
1517.000 0.402
1518.000 0.404
1519.000 0.402
1520.000 0.407
1521.000 0.417
1522.000 0.422
1523.000 0.428
1524.000 0.429
1525.000 0.422
1526.000 0.422
1527.000 0.421
1528.000 0.423
1529.000 0.428
1530.000 0.430
1531.000 0.433
1532.000 0.435
1533.000 0.437
1534.000 0.438
1535.000 0.438
1536.000 0.439
1537.000 0.437
1538.000 0.437
1539.000 0.439
1540.000 0.441
1541.000 0.446
1542.000 0.449
1543.000 0.451
1544.000 0.452
1545.000 0.452
1546.000 0.453
1547.000 0.455
1548.000 0.456
1549.000 0.459
1550.000 0.461
1551.000 0.465
1552.000 0.469
1553.000 0.473
1554.000 0.476
1555.000 0.479
1556.000 0.482
1557.000 0.485
1558.000 0.488
1559.000 0.492
1560.000 0.494
1561.000 0.495
1562.000 0.495
1563.000 0.492
1564.000 0.492
1565.000 0.493
1566.000 0.494
1567.000 0.499
1568.000 0.502
1569.000 0.506
1570.000 0.509
1571.000 0.508
1572.000 0.510
1573.000 0.513
1574.000 0.515
1575.000 0.518
1576.000 0.519
1577.000 0.516
1578.000 0.516
1579.000 0.515
1580.000 0.515
1581.000 0.518
1582.000 0.521
1583.000 0.525
1584.000 0.527
1585.000 0.530
1586.000 0.532
1587.000 0.536
1588.000 0.537
1589.000 0.535
1590.000 0.535
1591.000 0.534
1592.000 0.533
1593.000 0.534
1594.000 0.535
1595.000 0.533
1596.000 0.534
1597.000 0.537
1598.000 0.540
1599.000 0.544
1600.000 0.547
1601.000 0.547
1602.000 0.548
1603.000 0.548
1604.000 0.549
1605.000 0.553
1606.000 0.555
1607.000 0.555
1608.000 0.556
1609.000 0.557
1610.000 0.557
1611.000 0.560
1612.000 0.561
1613.000 0.559
1614.000 0.560
1615.000 0.561
1616.000 0.562
1617.000 0.563
1618.000 0.564
1619.000 0.564
1620.000 0.565
1621.000 0.565
1622.000 0.566
1623.000 0.567
1624.000 0.569
1625.000 0.572
1626.000 0.575
1627.000 0.577
1628.000 0.579
1629.000 0.577
1630.000 0.578
1631.000 0.577
1632.000 0.576
1633.000 0.579
1634.000 0.579
1635.000 0.577
1636.000 0.578
1637.000 0.578
1638.000 0.579
1639.000 0.583
1640.000 0.585
1641.000 0.584
1642.000 0.584
1643.000 0.580
1644.000 0.578
1645.000 0.577
1646.000 0.577
1647.000 0.581
1648.000 0.582
1649.000 0.582
1650.000 0.582
1651.000 0.580
1652.000 0.578
1653.000 0.578
1654.000 0.577
1655.000 0.577
1656.000 0.577
1657.000 0.578
1658.000 0.580
1659.000 0.584
1660.000 0.587
1661.000 0.591
1662.000 0.593
1663.000 0.591
1664.000 0.590
1665.000 0.585
1666.000 0.585
1667.000 0.587
1668.000 0.587
1669.000 0.588
1670.000 0.589
1671.000 0.589
1672.000 0.590
1673.000 0.591
1674.000 0.591
1675.000 0.590
1676.000 0.589
1677.000 0.588
1678.000 0.587
1679.000 0.585
1680.000 0.584
1681.000 0.586
1682.000 0.586
1683.000 0.586
1684.000 0.586
1685.000 0.584
1686.000 0.585
1687.000 0.591
1688.000 0.592
1689.000 0.594
1690.000 0.594
1691.000 0.590
1692.000 0.587
1693.000 0.583
1694.000 0.582
1695.000 0.583
1696.000 0.585
1697.000 0.592
1698.000 0.593
1699.000 0.589
1700.000 0.586
1701.000 0.580
1702.000 0.577
1703.000 0.576
1704.000 0.577
1705.000 0.580
1706.000 0.580
1707.000 0.580
1708.000 0.580
1709.000 0.578
1710.000 0.578
1711.000 0.578
1712.000 0.578
1713.000 0.576
1714.000 0.579
1715.000 0.579
1716.000 0.580
1717.000 0.582
1718.000 0.584
1719.000 0.582
1720.000 0.578
1721.000 0.575
1722.000 0.568
1723.000 0.565
1724.000 0.567
1725.000 0.568
1726.000 0.568
1727.000 0.567
1728.000 0.565
1729.000 0.564
1730.000 0.560
1731.000 0.560
1732.000 0.561
1733.000 0.558
1734.000 0.560
1735.000 0.563
1736.000 0.562
1737.000 0.564
1738.000 0.564
1739.000 0.564
1740.000 0.565
1741.000 0.565
1742.000 0.564
1743.000 0.565
1744.000 0.565
1745.000 0.566
1746.000 0.568
1747.000 0.566
1748.000 0.566
1749.000 0.565
1750.000 0.562
1751.000 0.558
1752.000 0.550
1753.000 0.548
1754.000 0.549
1755.000 0.548
1756.000 0.550
1757.000 0.547
1758.000 0.538
1759.000 0.535
1760.000 0.544
1761.000 0.545
1762.000 0.546
1763.000 0.549
1764.000 0.546
1765.000 0.552
1766.000 0.560
1767.000 0.561
1768.000 0.565
1769.000 0.567
1770.000 0.562
1771.000 0.556
1772.000 0.547
1773.000 0.541
1774.000 0.533
1775.000 0.528
1776.000 0.536
1777.000 0.538
1778.000 0.539
1779.000 0.547
1780.000 0.544
1781.000 0.546
1782.000 0.553
1783.000 0.571
1784.000 0.604
1785.000 0.606
1786.000 0.604
1787.000 0.563
1788.000 0.546
1789.000 0.544
1790.000 0.549
1791.000 0.568
1792.000 0.577
1793.000 0.578
1794.000 0.555
1795.000 0.575
1796.000 0.570
1797.000 0.576
1798.000 0.609
1799.000 0.580
1800.000 0.608
1801.000 0.630
1802.000 0.644
1803.000 0.661
1804.000 0.600
1805.000 0.556
1806.000 0.481
1807.000 0.457
1808.000 0.440
1809.000 0.444
1810.000 0.469
1811.000 0.514
1812.000 0.593
1813.000 0.551
1814.000 0.673
1815.000 0.624
1816.000 0.672
1817.000 0.369
1818.000 0.354
1819.000 0.446
1820.000 0.287
1821.000 0.452
1822.000 0.690
1823.000 0.423
1824.000 0.533
1825.000 0.495
1826.000 0.466
1827.000 0.445
1828.000 0.438
1829.000 0.401
1830.000 0.369
1831.000 0.420
1832.000 0.423
1833.000 0.470
1834.000 0.724
1835.000 0.555
1836.000 0.528
1837.000 0.437
1838.000 0.454
1839.000 0.502
1840.000 0.501
1841.000 0.579
1842.000 0.553
1843.000 0.423
1844.000 0.432
1845.000 0.448
1846.000 0.459
1847.000 0.385
1848.000 0.480
1849.000 0.549
1850.000 0.877
1851.000 0.699
1852.000 0.617
1853.000 0.636
1854.000 0.645
1855.000 0.507
1856.000 0.483
1857.000 0.500
1858.000 0.504
1859.000 0.572
1860.000 0.473
1861.000 0.347
1862.000 0.483
1863.000 0.566
1864.000 0.711
1865.000 0.459
1866.000 0.336
1867.000 0.456
1868.000 0.544
1869.000 0.760
1870.000 0.738
1871.000 0.726
1872.000 0.716
1873.000 0.727
1874.000 0.665
1875.000 0.584
1876.000 0.607
1877.000 0.528
1878.000 0.409
1879.000 0.444
1880.000 0.523
1881.000 0.437
1882.000 0.342
1883.000 0.442
1884.000 0.424
1885.000 0.413
1886.000 0.327
1887.000 0.303
1888.000 0.330
1889.000 0.490
1890.000 0.571
1891.000 0.263
1892.000 0.336
1893.000 0.592
1894.000 0.606
1895.000 0.588
1896.000 0.772
1897.000 0.233
1898.000 0.125
1899.000 0.202
1900.000 0.260
1901.000 0.358
1902.000 0.355
1903.000 0.403
1904.000 0.400
1905.000 0.432
1906.000 0.479
1907.000 0.448
1908.000 0.456
1909.000 0.484
1910.000 0.521
1911.000 0.568
1912.000 0.566
1913.000 0.562
1914.000 0.549
1915.000 0.566
1916.000 0.572
1917.000 0.306
1918.000 0.507
1919.000 0.487
1920.000 0.698
1921.000 0.687
1922.000 0.754
1923.000 0.733
1924.000 0.771
1925.000 0.390
1926.000 0.530
1927.000 0.489
1928.000 0.558
1929.000 0.361
1930.000 0.634
1931.000 0.576
1932.000 0.546
1933.000 0.668
1934.000 0.555
1935.000 0.531
1936.000 0.515
1937.000 0.509
1938.000 0.489
1939.000 0.507
1940.000 0.473
1941.000 0.384
1942.000 0.478
1943.000 0.465
1944.000 0.525
1945.000 0.480
1946.000 0.584
1947.000 0.496
1948.000 0.420
1949.000 0.384
1950.000 0.304
1951.000 0.335
1952.000 0.477
1953.000 0.294
1954.000 0.566
1955.000 0.875
1956.000 0.248
1957.000 0.427
1958.000 0.645
1959.000 0.849
1960.000 0.537
1961.000 0.544
1962.000 0.575
1963.000 0.592
1964.000 0.723
1965.000 0.700
1966.000 0.614
1967.000 0.523
1968.000 0.579
1969.000 0.471
1970.000 0.407
1971.000 0.261
1972.000 0.250
1973.000 0.270
1974.000 0.323
1975.000 0.360
1976.000 0.416
1977.000 0.393
1978.000 0.352
1979.000 0.308
1980.000 0.259
1981.000 0.232
1982.000 0.218
1983.000 0.267
1984.000 0.460
1985.000 0.542
1986.000 0.449
1987.000 0.348
1988.000 0.318
1989.000 0.263
1990.000 0.254
1991.000 0.269
1992.000 0.299
1993.000 0.320
1994.000 0.315
1995.000 0.292
1996.000 0.266
1997.000 0.274
1998.000 0.276
1999.000 0.278
2000.000 0.329
2001.000 0.342
2002.000 0.302
2003.000 0.290
2004.000 0.295
2005.000 0.273
2006.000 0.334
2007.000 0.414
2008.000 0.513
2009.000 0.585
2010.000 0.561
2011.000 0.417
2012.000 0.304
2013.000 0.247
2014.000 0.218
2015.000 0.178
2016.000 0.176
2017.000 0.242
2018.000 0.235
2019.000 0.279
2020.000 0.305
2021.000 0.309
2022.000 0.294
2023.000 0.293
2024.000 0.316
2025.000 0.299
2026.000 0.329
2027.000 0.325
2028.000 0.292
2029.000 0.292
2030.000 0.301
2031.000 0.293
2032.000 0.301
2033.000 0.298
2034.000 0.270
2035.000 0.266
2036.000 0.285
2037.000 0.266
2038.000 0.276
2039.000 0.288
2040.000 0.281
2041.000 0.287
2042.000 0.289
2043.000 0.285
2044.000 0.283
2045.000 0.292
2046.000 0.285
2047.000 0.255
2048.000 0.249
2049.000 0.246
2050.000 0.248
2051.000 0.275
2052.000 0.301
2053.000 0.306
2054.000 0.299
2055.000 0.277
2056.000 0.250
2057.000 0.247
2058.000 0.252
2059.000 0.255
2060.000 0.278
2061.000 0.284
2062.000 0.272
2063.000 0.267
2064.000 0.262
2065.000 0.258
2066.000 0.248
2067.000 0.250
2068.000 0.267
2069.000 0.261
2070.000 0.270
2071.000 0.282
2072.000 0.288
2073.000 0.286
2074.000 0.299
2075.000 0.315
2076.000 0.332
2077.000 0.380
2078.000 0.391
2079.000 0.375
2080.000 0.367
2081.000 0.342
2082.000 0.327
2083.000 0.330
2084.000 0.326
2085.000 0.319
2086.000 0.308
2087.000 0.299
2088.000 0.283
2089.000 0.279
2090.000 0.281
2091.000 0.282
2092.000 0.291
2093.000 0.296
2094.000 0.294
2095.000 0.300
2096.000 0.305
2097.000 0.317
2098.000 0.335
2099.000 0.373
2100.000 0.387
2101.000 0.381
2102.000 0.370
2103.000 0.347
2104.000 0.342
2105.000 0.348
2106.000 0.350
2107.000 0.355
2108.000 0.359
2109.000 0.366
2110.000 0.364
2111.000 0.359
2112.000 0.354
2113.000 0.336
2114.000 0.331
2115.000 0.326
2116.000 0.332
2117.000 0.356
2118.000 0.376
2119.000 0.382
2120.000 0.388
2121.000 0.391
2122.000 0.378
2123.000 0.373
2124.000 0.378
2125.000 0.374
2126.000 0.356
2127.000 0.355
2128.000 0.359
2129.000 0.364
2130.000 0.379
2131.000 0.384
2132.000 0.395
2133.000 0.397
2134.000 0.392
2135.000 0.384
2136.000 0.369
2137.000 0.352
2138.000 0.354
2139.000 0.347
2140.000 0.346
2141.000 0.361
2142.000 0.361
2143.000 0.355
2144.000 0.355
2145.000 0.350
2146.000 0.351
2147.000 0.357
2148.000 0.362
2149.000 0.374
2150.000 0.377
2151.000 0.374
2152.000 0.374
2153.000 0.371
2154.000 0.364
2155.000 0.353
2156.000 0.347
2157.000 0.341
2158.000 0.332
2159.000 0.336
2160.000 0.343
2161.000 0.346
2162.000 0.350
2163.000 0.353
2164.000 0.354
2165.000 0.358
2166.000 0.367
2167.000 0.372
2168.000 0.382
2169.000 0.377
2170.000 0.358
2171.000 0.347
2172.000 0.328
2173.000 0.319
2174.000 0.308
2175.000 0.310
2176.000 0.317
2177.000 0.335
2178.000 0.363
2179.000 0.397
2180.000 0.422
2181.000 0.420
2182.000 0.395
2183.000 0.370
2184.000 0.351
2185.000 0.323
2186.000 0.313
2187.000 0.310
2188.000 0.309
2189.000 0.317
2190.000 0.326
2191.000 0.338
2192.000 0.346
2193.000 0.358
2194.000 0.363
2195.000 0.363
2196.000 0.364
2197.000 0.358
2198.000 0.362
2199.000 0.372
2200.000 0.381
2201.000 0.394
2202.000 0.411
2203.000 0.406
2204.000 0.409
2205.000 0.417
2206.000 0.413
2207.000 0.432
2208.000 0.411
2209.000 0.394
2210.000 0.365
2211.000 0.351
2212.000 0.334
2213.000 0.337
2214.000 0.355
2215.000 0.367
2216.000 0.400
2217.000 0.405
2218.000 0.389
2219.000 0.377
2220.000 0.358
2221.000 0.345
2222.000 0.331
2223.000 0.326
2224.000 0.315
2225.000 0.321
2226.000 0.352
2227.000 0.379
2228.000 0.420
2229.000 0.470
2230.000 0.462
2231.000 0.441
2232.000 0.424
2233.000 0.402
2234.000 0.399
2235.000 0.413
2236.000 0.404
2237.000 0.386
2238.000 0.372
2239.000 0.344
2240.000 0.336
2241.000 0.338
2242.000 0.339
2243.000 0.354
2244.000 0.348
2245.000 0.332
2246.000 0.332
2247.000 0.322
2248.000 0.320
2249.000 0.329
2250.000 0.333
2251.000 0.336
2252.000 0.345
2253.000 0.367
2254.000 0.381
2255.000 0.394
2256.000 0.400
2257.000 0.398
2258.000 0.383
2259.000 0.396
2260.000 0.402
2261.000 0.381
2262.000 0.368
2263.000 0.338
2264.000 0.307
2265.000 0.328
2266.000 0.362
2267.000 0.386
2268.000 0.392
2269.000 0.368
2270.000 0.345
2271.000 0.337
2272.000 0.381
2273.000 0.406
2274.000 0.462
2275.000 0.467
2276.000 0.437
2277.000 0.419
2278.000 0.377
2279.000 0.360
2280.000 0.371
2281.000 0.346
2282.000 0.299
2283.000 0.274
2284.000 0.232
2285.000 0.230
2286.000 0.269
2287.000 0.289
2288.000 0.327
2289.000 0.358
2290.000 0.368
2291.000 0.383
2292.000 0.432
2293.000 0.450
2294.000 0.422
2295.000 0.402
2296.000 0.378
2297.000 0.336
2298.000 0.295
2299.000 0.286
2300.000 0.256
2301.000 0.247
2302.000 0.241
2303.000 0.235
2304.000 0.249
2305.000 0.255
2306.000 0.264
2307.000 0.259
2308.000 0.243
2309.000 0.246
2310.000 0.266
2311.000 0.294
2312.000 0.365
2313.000 0.365
2314.000 0.313
2315.000 0.312
2316.000 0.285
2317.000 0.256
2318.000 0.233
2319.000 0.205
2320.000 0.262
2321.000 0.211
2322.000 0.215
2323.000 0.223
2324.000 0.232
2325.000 0.223
2326.000 0.217
2327.000 0.209
2328.000 0.225
2329.000 0.260
2330.000 0.257
2331.000 0.255
2332.000 0.229
2333.000 0.159
2334.000 0.155
2335.000 0.195
2336.000 0.218
2337.000 0.436
2338.000 0.601
2339.000 0.573
2340.000 0.558
2341.000 0.516
2342.000 0.504
2343.000 0.348
2344.000 0.364
2345.000 0.471
2346.000 0.480
2347.000 0.461
2348.000 0.410
2349.000 0.341
2350.000 0.299
2351.000 0.294
2352.000 0.259
2353.000 0.232
2354.000 0.207
2355.000 0.178
2356.000 0.166
2357.000 0.195
2358.000 0.206
2359.000 0.204
2360.000 0.220
2361.000 0.293
2362.000 0.545
2363.000 0.231
2364.000 0.185
2365.000 0.453
2366.000 0.307
2367.000 0.225
2368.000 0.270
2369.000 0.220
2370.000 0.269
2371.000 0.466
2372.000 0.751
2373.000 0.653
2374.000 0.424
2375.000 0.369
2376.000 0.463
2377.000 0.545
2378.000 0.707
2379.000 0.771
2380.000 0.208
2381.000 0.450
2382.000 0.368
2383.000 0.346
2384.000 0.242
2385.000 0.215
2386.000 0.389
2387.000 0.361
2388.000 0.210
2389.000 0.218
2390.000 0.362
2391.000 0.458
2392.000 0.370
2393.000 0.410
2394.000 0.682
2395.000 0.425
2396.000 0.229
2397.000 0.393
2398.000 0.463
2399.000 0.413
2400.000 0.346
2401.000 0.262
2402.000 0.206
2403.000 0.213
2404.000 0.293
2405.000 0.225
2406.000 0.255
2407.000 0.199
2408.000 0.318
2409.000 0.322
2410.000 0.330
2411.000 0.575
2412.000 0.514
2413.000 0.542
2414.000 0.388
2415.000 0.383
2416.000 0.305
2417.000 0.165
2418.000 0.106
2419.000 0.406
2420.000 0.690
2421.000 0.463
2422.000 0.854
2423.000 0.776
2424.000 0.539
2425.000 0.524
2426.000 0.491
2427.000 0.576
2428.000 0.419
2429.000 0.490
2430.000 0.379
2431.000 0.236
2432.000 0.070
2433.000 0.124
2434.000 0.204
2435.000 0.236
2436.000 0.294
2437.000 0.385
2438.000 0.140
2439.000 0.153
2440.000 0.205
2441.000 0.123
2442.000 0.199
2443.000 0.175
2444.000 0.253
2445.000 0.226
2446.000 0.330
2447.000 0.402
2448.000 0.480
2449.000 0.403
2450.000 0.680
2451.000 0.515
2452.000 0.352
2453.000 0.366
2454.000 0.368
2455.000 0.399
2456.000 0.234
2457.000 0.643
2458.000 0.438
2459.000 0.395
2460.000 0.257
2461.000 0.175
2462.000 0.232
2463.000 0.415
2464.000 0.504
2465.000 0.605
2466.000 0.541
2467.000 0.551
2468.000 0.480
2469.000 0.388
2470.000 0.237
2471.000 0.185
2472.000 0.167
2473.000 0.188
2474.000 0.167
2475.000 0.186
2476.000 0.249
2477.000 0.250
2478.000 0.697
2479.000 0.786
2480.000 0.780
2481.000 0.242
2482.000 0.797
2483.000 0.604
2484.000 0.464
2485.000 0.540
2486.000 0.378
2487.000 0.379
2488.000 0.430
2489.000 0.498
2490.000 0.491
2491.000 0.273
2492.000 0.403
2493.000 0.505
2494.000 0.234
2495.000 0.278
2496.000 0.334
2497.000 0.434
2498.000 0.499
2499.000 0.297
2500.000 0.130
