391.000 0.040
392.000 0.032
393.000 0.027
394.000 0.033
395.000 0.038
396.000 0.038
397.000 0.035
398.000 0.037
399.000 0.034
400.000 0.033
401.000 0.036
402.000 0.036
403.000 0.036
404.000 0.035
405.000 0.034
406.000 0.033
407.000 0.034
408.000 0.035
409.000 0.033
410.000 0.032
411.000 0.032
412.000 0.035
413.000 0.032
414.000 0.033
415.000 0.034
416.000 0.035
417.000 0.036
418.000 0.035
419.000 0.033
420.000 0.035
421.000 0.036
422.000 0.036
423.000 0.034
424.000 0.034
425.000 0.035
426.000 0.037
427.000 0.038
428.000 0.035
429.000 0.033
430.000 0.033
431.000 0.034
432.000 0.035
433.000 0.035
434.000 0.035
435.000 0.036
436.000 0.034
437.000 0.033
438.000 0.034
439.000 0.036
440.000 0.036
441.000 0.034
442.000 0.036
443.000 0.034
444.000 0.034
445.000 0.035
446.000 0.035
447.000 0.034
448.000 0.035
449.000 0.037
450.000 0.036
451.000 0.035
452.000 0.034
453.000 0.036
454.000 0.035
455.000 0.035
456.000 0.036
457.000 0.036
458.000 0.037
459.000 0.037
460.000 0.035
461.000 0.035
462.000 0.036
463.000 0.035
464.000 0.035
465.000 0.037
466.000 0.037
467.000 0.035
468.000 0.036
469.000 0.038
470.000 0.037
471.000 0.037
472.000 0.037
473.000 0.036
474.000 0.035
475.000 0.035
476.000 0.037
477.000 0.037
478.000 0.039
479.000 0.038
480.000 0.039
481.000 0.038
482.000 0.036
483.000 0.037
484.000 0.039
485.000 0.039
486.000 0.036
487.000 0.035
488.000 0.037
489.000 0.040
490.000 0.038
491.000 0.037
492.000 0.037
493.000 0.039
494.000 0.040
495.000 0.040
496.000 0.039
497.000 0.040
498.000 0.041
499.000 0.043
500.000 0.043
501.000 0.042
502.000 0.042
503.000 0.044
504.000 0.046
505.000 0.045
506.000 0.045
507.000 0.047
508.000 0.049
509.000 0.050
510.000 0.051
511.000 0.052
512.000 0.053
513.000 0.054
514.000 0.056
515.000 0.060
516.000 0.060
517.000 0.061
518.000 0.064
519.000 0.068
520.000 0.071
521.000 0.075
522.000 0.078
523.000 0.080
524.000 0.081
525.000 0.083
526.000 0.088
527.000 0.092
528.000 0.093
529.000 0.095
530.000 0.098
531.000 0.100
532.000 0.102
533.000 0.104
534.000 0.105
535.000 0.106
536.000 0.107
537.000 0.109
538.000 0.110
539.000 0.110
540.000 0.110
541.000 0.112
542.000 0.113
543.000 0.113
544.000 0.113
545.000 0.113
546.000 0.113
547.000 0.113
548.000 0.114
549.000 0.114
550.000 0.115
551.000 0.114
552.000 0.114
553.000 0.115
554.000 0.116
555.000 0.116
556.000 0.114
557.000 0.113
558.000 0.113
559.000 0.111
560.000 0.110
561.000 0.109
562.000 0.108
563.000 0.107
564.000 0.105
565.000 0.103
566.000 0.102
567.000 0.100
568.000 0.097
569.000 0.096
570.000 0.093
571.000 0.091
572.000 0.091
573.000 0.089
574.000 0.087
575.000 0.086
576.000 0.086
577.000 0.084
578.000 0.082
579.000 0.082
580.000 0.080
581.000 0.079
582.000 0.077
583.000 0.077
584.000 0.077
585.000 0.076
586.000 0.075
587.000 0.074
588.000 0.074
589.000 0.073
590.000 0.072
591.000 0.071
592.000 0.070
593.000 0.071
594.000 0.070
595.000 0.071
596.000 0.070
597.000 0.069
598.000 0.069
599.000 0.069
600.000 0.069
601.000 0.068
602.000 0.069
603.000 0.069
604.000 0.068
605.000 0.067
606.000 0.066
607.000 0.066
608.000 0.066
609.000 0.065
610.000 0.066
611.000 0.066
612.000 0.065
613.000 0.064
614.000 0.062
615.000 0.061
616.000 0.061
617.000 0.061
618.000 0.062
619.000 0.062
620.000 0.061
621.000 0.062
622.000 0.062
623.000 0.060
624.000 0.059
625.000 0.060
626.000 0.060
627.000 0.060
628.000 0.060
629.000 0.060
630.000 0.060
631.000 0.060
632.000 0.060
633.000 0.060
634.000 0.060
635.000 0.061
636.000 0.060
637.000 0.057
638.000 0.058
639.000 0.059
640.000 0.059
641.000 0.057
642.000 0.054
643.000 0.054
644.000 0.053
645.000 0.055
646.000 0.055
647.000 0.054
648.000 0.052
649.000 0.051
650.000 0.052
651.000 0.054
652.000 0.054
653.000 0.054
654.000 0.054
655.000 0.055
656.000 0.054
657.000 0.053
658.000 0.054
659.000 0.054
660.000 0.055
661.000 0.052
662.000 0.049
663.000 0.052
664.000 0.055
665.000 0.056
666.000 0.053
667.000 0.054
668.000 0.055
669.000 0.054
670.000 0.055
671.000 0.057
672.000 0.056
673.000 0.056
674.000 0.058
675.000 0.059
676.000 0.060
677.000 0.062
678.000 0.061
679.000 0.064
680.000 0.067
681.000 0.068
682.000 0.065
683.000 0.064
684.000 0.066
685.000 0.068
686.000 0.070
687.000 0.073
688.000 0.076
689.000 0.078
690.000 0.079
691.000 0.079
692.000 0.082
693.000 0.086
694.000 0.089
695.000 0.094
696.000 0.101
697.000 0.108
698.000 0.115
699.000 0.123
700.000 0.132
701.000 0.141
702.000 0.152
703.000 0.161
704.000 0.170
705.000 0.180
706.000 0.191
707.000 0.200
708.000 0.211
709.000 0.222
710.000 0.232
711.000 0.241
712.000 0.252
713.000 0.263
714.000 0.274
715.000 0.285
716.000 0.296
717.000 0.308
718.000 0.321
719.000 0.333
720.000 0.346
721.000 0.357
722.000 0.367
723.000 0.378
724.000 0.390
725.000 0.402
726.000 0.413
727.000 0.424
728.000 0.434
729.000 0.444
730.000 0.454
731.000 0.464
732.000 0.473
733.000 0.481
734.000 0.489
735.000 0.496
736.000 0.504
737.000 0.511
738.000 0.518
739.000 0.524
740.000 0.530
741.000 0.535
742.000 0.541
743.000 0.545
744.000 0.550
745.000 0.554
746.000 0.558
747.000 0.562
748.000 0.565
749.000 0.568
750.000 0.570
751.000 0.573
752.000 0.575
753.000 0.577
754.000 0.580
755.000 0.582
756.000 0.583
757.000 0.585
758.000 0.586
759.000 0.588
760.000 0.589
761.000 0.592
762.000 0.593
763.000 0.594
764.000 0.594
765.000 0.595
766.000 0.596
767.000 0.596
768.000 0.597
769.000 0.597
770.000 0.598
771.000 0.599
772.000 0.599
773.000 0.599
774.000 0.600
775.000 0.601
776.000 0.601
777.000 0.602
778.000 0.602
779.000 0.603
780.000 0.603
781.000 0.604
782.000 0.604
783.000 0.605
784.000 0.605
785.000 0.606
786.000 0.606
787.000 0.607
788.000 0.607
789.000 0.608
790.000 0.608
791.000 0.609
792.000 0.609
793.000 0.610
794.000 0.610
795.000 0.611
796.000 0.611
797.000 0.612
798.000 0.612
799.000 0.613
800.000 0.613
801.000 0.614
802.000 0.614
803.000 0.615
804.000 0.615
805.000 0.616
806.000 0.616
807.000 0.617
808.000 0.617
809.000 0.618
810.000 0.618
811.000 0.618
812.000 0.619
813.000 0.620
814.000 0.620
815.000 0.620
816.000 0.621
817.000 0.621
818.000 0.622
819.000 0.622
820.000 0.622
821.000 0.623
822.000 0.623
823.000 0.624
824.000 0.625
825.000 0.625
826.000 0.625
827.000 0.625
828.000 0.626
829.000 0.626
830.000 0.627
831.000 0.627
832.000 0.627
833.000 0.628
834.000 0.628
835.000 0.629
836.000 0.629
837.000 0.629
838.000 0.630
839.000 0.631
840.000 0.631
841.000 0.631
842.000 0.631
843.000 0.632
844.000 0.633
845.000 0.633
846.000 0.634
847.000 0.634
848.000 0.634
849.000 0.634
850.000 0.634
851.000 0.635
852.000 0.635
853.000 0.635
854.000 0.636
855.000 0.637
856.000 0.637
857.000 0.637
858.000 0.638
859.000 0.638
860.000 0.639
861.000 0.638
862.000 0.639
863.000 0.640
864.000 0.640
865.000 0.641
866.000 0.640
867.000 0.640
868.000 0.641
869.000 0.641
870.000 0.642
871.000 0.642
872.000 0.643
873.000 0.643
874.000 0.644
875.000 0.644
876.000 0.644
877.000 0.644
878.000 0.645
879.000 0.645
880.000 0.645
881.000 0.647
882.000 0.646
883.000 0.647
884.000 0.648
885.000 0.647
886.000 0.648
887.000 0.649
888.000 0.649
889.000 0.649
890.000 0.650
891.000 0.650
892.000 0.651
893.000 0.650
894.000 0.651
895.000 0.651
896.000 0.652
897.000 0.652
898.000 0.652
899.000 0.653
900.000 0.653
901.000 0.654
902.000 0.654
903.000 0.654
904.000 0.655
905.000 0.654
906.000 0.655
907.000 0.655
908.000 0.655
909.000 0.656
910.000 0.657
911.000 0.657
912.000 0.657
913.000 0.656
914.000 0.656
915.000 0.657
916.000 0.658
917.000 0.658
918.000 0.658
919.000 0.659
920.000 0.659
921.000 0.659
922.000 0.659
923.000 0.659
924.000 0.659
925.000 0.660
926.000 0.659
927.000 0.659
928.000 0.659
929.000 0.660
930.000 0.659
931.000 0.659
932.000 0.659
933.000 0.658
934.000 0.657
935.000 0.656
936.000 0.655
937.000 0.657
938.000 0.657
939.000 0.655
940.000 0.656
941.000 0.654
942.000 0.654
943.000 0.655
944.000 0.654
945.000 0.653
946.000 0.653
947.000 0.653
948.000 0.654
949.000 0.653
950.000 0.651
951.000 0.650
952.000 0.651
953.000 0.651
954.000 0.650
955.000 0.649
956.000 0.648
957.000 0.648
958.000 0.648
959.000 0.648
960.000 0.647
961.000 0.647
962.000 0.647
963.000 0.647
964.000 0.645
965.000 0.646
966.000 0.648
967.000 0.648
968.000 0.647
969.000 0.647
970.000 0.647
971.000 0.648
972.000 0.647
973.000 0.646
974.000 0.647
975.000 0.647
976.000 0.645
977.000 0.648
978.000 0.649
979.000 0.647
980.000 0.649
981.000 0.650
982.000 0.650
983.000 0.650
984.000 0.650
985.000 0.651
986.000 0.651
987.000 0.652
988.000 0.653
989.000 0.652
990.000 0.654
991.000 0.655
992.000 0.654
993.000 0.654
994.000 0.655
995.000 0.656
996.000 0.656
997.000 0.656
998.000 0.656
999.000 0.657
1000.000 0.658
1001.000 0.660
1002.000 0.661
1003.000 0.663
1004.000 0.663
1005.000 0.663
1006.000 0.664
1007.000 0.664
1008.000 0.664
1009.000 0.666
1010.000 0.666
1011.000 0.666
1012.000 0.667
1013.000 0.667
1014.000 0.667
1015.000 0.668
1016.000 0.670
1017.000 0.671
1018.000 0.671
1019.000 0.672
1020.000 0.672
1021.000 0.672
1022.000 0.672
1023.000 0.672
1024.000 0.673
1025.000 0.674
1026.000 0.675
1027.000 0.676
1028.000 0.677
1029.000 0.678
1030.000 0.678
1031.000 0.679
1032.000 0.680
1033.000 0.680
1034.000 0.681
1035.000 0.682
1036.000 0.682
1037.000 0.682
1038.000 0.682
1039.000 0.682
1040.000 0.683
1041.000 0.684
1042.000 0.685
1043.000 0.685
1044.000 0.687
1045.000 0.687
1046.000 0.687
1047.000 0.688
1048.000 0.689
1049.000 0.689
1050.000 0.689
1051.000 0.689
1052.000 0.689
1053.000 0.689
1054.000 0.690
1055.000 0.690
1056.000 0.691
1057.000 0.692
1058.000 0.691
1059.000 0.691
1060.000 0.691
1061.000 0.691
1062.000 0.691
1063.000 0.692
1064.000 0.692
1065.000 0.693
1066.000 0.694
1067.000 0.694
1068.000 0.694
1069.000 0.694
1070.000 0.694
1071.000 0.694
1072.000 0.694
1073.000 0.694
1074.000 0.694
1075.000 0.694
1076.000 0.694
1077.000 0.695
1078.000 0.696
1079.000 0.696
1080.000 0.696
1081.000 0.696
1082.000 0.696
1083.000 0.695
1084.000 0.696
1085.000 0.696
1086.000 0.697
1087.000 0.697
1088.000 0.697
1089.000 0.696
1090.000 0.696
1091.000 0.696
1092.000 0.697
1093.000 0.697
1094.000 0.697
1095.000 0.696
1096.000 0.696
1097.000 0.696
1098.000 0.696
1099.000 0.696
1100.000 0.696
1101.000 0.696
1102.000 0.696
1103.000 0.696
1104.000 0.696
1105.000 0.696
1106.000 0.696
1107.000 0.695
1108.000 0.695
1109.000 0.695
1110.000 0.694
1111.000 0.694
1112.000 0.695
1113.000 0.695
1114.000 0.695
1115.000 0.694
1116.000 0.694
1117.000 0.691
1118.000 0.688
1119.000 0.687
1120.000 0.686
1121.000 0.686
1122.000 0.688
1123.000 0.688
1124.000 0.686
1125.000 0.685
1126.000 0.685
1127.000 0.684
1128.000 0.684
1129.000 0.682
1130.000 0.682
1131.000 0.680
1132.000 0.679
1133.000 0.678
1134.000 0.677
1135.000 0.676
1136.000 0.673
1137.000 0.672
1138.000 0.673
1139.000 0.672
1140.000 0.671
1141.000 0.671
1142.000 0.670
1143.000 0.667
1144.000 0.665
1145.000 0.662
1146.000 0.659
1147.000 0.655
1148.000 0.653
1149.000 0.652
1150.000 0.650
1151.000 0.648
1152.000 0.647
1153.000 0.646
1154.000 0.646
1155.000 0.646
1156.000 0.646
1157.000 0.645
1158.000 0.645
1159.000 0.645
1160.000 0.644
1161.000 0.645
1162.000 0.645
1163.000 0.645
1164.000 0.646
1165.000 0.646
1166.000 0.645
1167.000 0.645
1168.000 0.644
1169.000 0.643
1170.000 0.642
1171.000 0.642
1172.000 0.642
1173.000 0.642
1174.000 0.643
1175.000 0.643
1176.000 0.643
1177.000 0.643
1178.000 0.643
1179.000 0.643
1180.000 0.643
1181.000 0.643
1182.000 0.643
1183.000 0.643
1184.000 0.642
1185.000 0.642
1186.000 0.643
1187.000 0.643
1188.000 0.642
1189.000 0.642
1190.000 0.642
1191.000 0.642
1192.000 0.642
1193.000 0.642
1194.000 0.642
1195.000 0.642
1196.000 0.642
1197.000 0.642
1198.000 0.642
1199.000 0.641
1200.000 0.641
1201.000 0.641
1202.000 0.642
1203.000 0.642
1204.000 0.643
1205.000 0.643
1206.000 0.644
1207.000 0.643
1208.000 0.644
1209.000 0.644
1210.000 0.644
1211.000 0.645
1212.000 0.645
1213.000 0.646
1214.000 0.646
1215.000 0.647
1216.000 0.647
1217.000 0.646
1218.000 0.647
1219.000 0.647
1220.000 0.648
1221.000 0.649
1222.000 0.650
1223.000 0.650
1224.000 0.650
1225.000 0.650
1226.000 0.651
1227.000 0.651
1228.000 0.651
1229.000 0.652
1230.000 0.652
1231.000 0.652
1232.000 0.653
1233.000 0.653
1234.000 0.653
1235.000 0.653
1236.000 0.653
1237.000 0.654
1238.000 0.654
1239.000 0.655
1240.000 0.655
1241.000 0.656
1242.000 0.657
1243.000 0.657
1244.000 0.657
1245.000 0.657
1246.000 0.658
1247.000 0.659
1248.000 0.660
1249.000 0.660
1250.000 0.660
1251.000 0.660
1252.000 0.660
1253.000 0.660
1254.000 0.661
1255.000 0.661
1256.000 0.662
1257.000 0.662
1258.000 0.662
1259.000 0.662
1260.000 0.662
1261.000 0.663
1262.000 0.663
1263.000 0.663
1264.000 0.665
1265.000 0.664
1266.000 0.664
1267.000 0.664
1268.000 0.664
1269.000 0.664
1270.000 0.663
1271.000 0.663
1272.000 0.664
1273.000 0.664
1274.000 0.664
1275.000 0.665
1276.000 0.665
1277.000 0.666
1278.000 0.666
1279.000 0.666
1280.000 0.667
1281.000 0.666
1282.000 0.667
1283.000 0.667
1284.000 0.666
1285.000 0.666
1286.000 0.665
1287.000 0.665
1288.000 0.664
1289.000 0.663
1290.000 0.662
1291.000 0.662
1292.000 0.661
1293.000 0.661
1294.000 0.660
1295.000 0.660
1296.000 0.659
1297.000 0.659
1298.000 0.658
1299.000 0.656
1300.000 0.655
1301.000 0.654
1302.000 0.653
1303.000 0.653
1304.000 0.652
1305.000 0.650
1306.000 0.648
1307.000 0.647
1308.000 0.646
1309.000 0.645
1310.000 0.645
1311.000 0.644
1312.000 0.642
1313.000 0.641
1314.000 0.639
1315.000 0.637
1316.000 0.635
1317.000 0.633
1318.000 0.632
1319.000 0.631
1320.000 0.629
1321.000 0.627
1322.000 0.626
1323.000 0.624
1324.000 0.622
1325.000 0.620
1326.000 0.618
1327.000 0.616
1328.000 0.614
1329.000 0.611
1330.000 0.609
1331.000 0.606
1332.000 0.603
1333.000 0.601
1334.000 0.598
1335.000 0.596
1336.000 0.596
1337.000 0.594
1338.000 0.591
1339.000 0.589
1340.000 0.585
1341.000 0.582
1342.000 0.580
1343.000 0.579
1344.000 0.579
1345.000 0.578
1346.000 0.580
1347.000 0.579
1348.000 0.577
1349.000 0.571
1350.000 0.568
1351.000 0.565
1352.000 0.563
1353.000 0.576
1354.000 0.578
1355.000 0.551
1356.000 0.508
1357.000 0.444
1358.000 0.393
1359.000 0.406
1360.000 0.431
1361.000 0.415
1362.000 0.499
1363.000 0.488
1364.000 0.405
1365.000 0.418
1366.000 0.439
1367.000 0.244
1368.000 0.321
1369.000 0.256
1370.000 0.300
1371.000 0.366
1372.000 0.219
1373.000 0.363
1374.000 0.417
1375.000 0.385
1376.000 0.347
1377.000 0.326
1378.000 0.240
1379.000 0.455
1380.000 0.660
1381.000 0.561
1382.000 0.435
1383.000 0.399
1384.000 0.296
1385.000 0.412
1386.000 0.430
1387.000 0.428
1388.000 0.453
1389.000 0.432
1390.000 0.373
1391.000 0.350
1392.000 0.343
1393.000 0.322
1394.000 0.336
1395.000 0.356
1396.000 0.447
1397.000 0.390
1398.000 0.448
1399.000 0.408
1400.000 0.388
1401.000 0.372
1402.000 0.446
1403.000 0.520
1404.000 0.274
1405.000 0.566
1406.000 0.322
1407.000 0.303
1408.000 0.336
1409.000 0.432
1410.000 0.367
1411.000 0.346
1412.000 0.345
1413.000 0.322
1414.000 0.320
1415.000 0.315
1416.000 0.237
1417.000 0.434
1418.000 0.476
1419.000 0.326
1420.000 0.447
1421.000 0.282
1422.000 0.281
1423.000 0.296
1424.000 0.261
1425.000 0.259
1426.000 0.243
1427.000 0.215
1428.000 0.205
1429.000 0.195
1430.000 0.186
1431.000 0.187
1432.000 0.206
1433.000 0.181
1434.000 0.185
1435.000 0.182
1436.000 0.187
1437.000 0.186
1438.000 0.192
1439.000 0.202
1440.000 0.203
1441.000 0.226
1442.000 0.226
1443.000 0.202
1444.000 0.196
1445.000 0.186
1446.000 0.182
1447.000 0.178
1448.000 0.178
1449.000 0.184
1450.000 0.186
1451.000 0.196
1452.000 0.206
1453.000 0.208
1454.000 0.211
1455.000 0.211
1456.000 0.203
1457.000 0.200
1458.000 0.197
1459.000 0.199
1460.000 0.198
1461.000 0.201
1462.000 0.209
1463.000 0.211
1464.000 0.210
1465.000 0.209
1466.000 0.204
1467.000 0.205
1468.000 0.211
1469.000 0.216
1470.000 0.228
1471.000 0.233
1472.000 0.237
1473.000 0.236
1474.000 0.228
1475.000 0.224
1476.000 0.217
1477.000 0.217
1478.000 0.220
1479.000 0.221
1480.000 0.228
1481.000 0.233
1482.000 0.240
1483.000 0.241
1484.000 0.237
1485.000 0.238
1486.000 0.236
1487.000 0.238
1488.000 0.243
1489.000 0.246
1490.000 0.247
1491.000 0.247
1492.000 0.247
1493.000 0.248
1494.000 0.247
1495.000 0.248
1496.000 0.249
1497.000 0.250
1498.000 0.253
1499.000 0.256
1500.000 0.259
1501.000 0.261
1502.000 0.261
1503.000 0.262
1504.000 0.264
1505.000 0.265
1506.000 0.267
1507.000 0.268
1508.000 0.269
1509.000 0.270
1510.000 0.273
1511.000 0.277
1512.000 0.280
1513.000 0.283
1514.000 0.285
1515.000 0.286
1516.000 0.287
1517.000 0.290
1518.000 0.292
1519.000 0.293
1520.000 0.295
1521.000 0.297
1522.000 0.300
1523.000 0.302
1524.000 0.304
1525.000 0.307
1526.000 0.309
1527.000 0.311
1528.000 0.313
1529.000 0.312
1530.000 0.314
1531.000 0.315
1532.000 0.317
1533.000 0.322
1534.000 0.324
1535.000 0.328
1536.000 0.330
1537.000 0.331
1538.000 0.332
1539.000 0.332
1540.000 0.333
1541.000 0.335
1542.000 0.337
1543.000 0.340
1544.000 0.342
1545.000 0.345
1546.000 0.347
1547.000 0.347
1548.000 0.349
1549.000 0.350
1550.000 0.351
1551.000 0.354
1552.000 0.355
1553.000 0.356
1554.000 0.357
1555.000 0.357
1556.000 0.359
1557.000 0.363
1558.000 0.365
1559.000 0.366
1560.000 0.367
1561.000 0.368
1562.000 0.369
1563.000 0.371
1564.000 0.373
1565.000 0.374
1566.000 0.376
1567.000 0.377
1568.000 0.379
1569.000 0.381
1570.000 0.382
1571.000 0.383
1572.000 0.384
1573.000 0.386
1574.000 0.387
1575.000 0.390
1576.000 0.392
1577.000 0.394
1578.000 0.396
1579.000 0.398
1580.000 0.399
1581.000 0.400
1582.000 0.401
1583.000 0.403
1584.000 0.405
1585.000 0.407
1586.000 0.408
1587.000 0.408
1588.000 0.409
1589.000 0.410
1590.000 0.411
1591.000 0.412
1592.000 0.413
1593.000 0.413
1594.000 0.413
1595.000 0.413
1596.000 0.414
1597.000 0.416
1598.000 0.418
1599.000 0.419
1600.000 0.421
1601.000 0.420
1602.000 0.421
1603.000 0.422
1604.000 0.423
1605.000 0.423
1606.000 0.424
1607.000 0.425
1608.000 0.427
1609.000 0.431
1610.000 0.432
1611.000 0.430
1612.000 0.430
1613.000 0.429
1614.000 0.430
1615.000 0.433
1616.000 0.434
1617.000 0.436
1618.000 0.437
1619.000 0.439
1620.000 0.440
1621.000 0.440
1622.000 0.441
1623.000 0.439
1624.000 0.439
1625.000 0.442
1626.000 0.442
1627.000 0.443
1628.000 0.443
1629.000 0.441
1630.000 0.442
1631.000 0.443
1632.000 0.445
1633.000 0.447
1634.000 0.448
1635.000 0.449
1636.000 0.450
1637.000 0.449
1638.000 0.449
1639.000 0.449
1640.000 0.449
1641.000 0.449
1642.000 0.449
1643.000 0.449
1644.000 0.449
1645.000 0.450
1646.000 0.451
1647.000 0.451
1648.000 0.452
1649.000 0.453
1650.000 0.454
1651.000 0.454
1652.000 0.454
1653.000 0.455
1654.000 0.455
1655.000 0.457
1656.000 0.457
1657.000 0.457
1658.000 0.457
1659.000 0.458
1660.000 0.458
1661.000 0.458
1662.000 0.458
1663.000 0.459
1664.000 0.459
1665.000 0.459
1666.000 0.459
1667.000 0.457
1668.000 0.457
1669.000 0.457
1670.000 0.457
1671.000 0.460
1672.000 0.461
1673.000 0.461
1674.000 0.461
1675.000 0.461
1676.000 0.461
1677.000 0.461
1678.000 0.461
1679.000 0.461
1680.000 0.462
1681.000 0.463
1682.000 0.464
1683.000 0.464
1684.000 0.464
1685.000 0.463
1686.000 0.462
1687.000 0.460
1688.000 0.459
1689.000 0.459
1690.000 0.459
1691.000 0.457
1692.000 0.457
1693.000 0.455
1694.000 0.456
1695.000 0.458
1696.000 0.458
1697.000 0.460
1698.000 0.461
1699.000 0.459
1700.000 0.457
1701.000 0.455
1702.000 0.455
1703.000 0.455
1704.000 0.457
1705.000 0.459
1706.000 0.459
1707.000 0.460
1708.000 0.459
1709.000 0.457
1710.000 0.456
1711.000 0.455
1712.000 0.452
1713.000 0.451
1714.000 0.452
1715.000 0.452
1716.000 0.453
1717.000 0.454
1718.000 0.455
1719.000 0.456
1720.000 0.454
1721.000 0.453
1722.000 0.452
1723.000 0.450
1724.000 0.448
1725.000 0.448
1726.000 0.448
1727.000 0.450
1728.000 0.451
1729.000 0.449
1730.000 0.448
1731.000 0.444
1732.000 0.442
1733.000 0.442
1734.000 0.440
1735.000 0.439
1736.000 0.435
1737.000 0.434
1738.000 0.437
1739.000 0.436
1740.000 0.434
1741.000 0.432
1742.000 0.426
1743.000 0.425
1744.000 0.428
1745.000 0.430
1746.000 0.435
1747.000 0.435
1748.000 0.431
1749.000 0.429
1750.000 0.427
1751.000 0.424
1752.000 0.423
1753.000 0.420
1754.000 0.417
1755.000 0.416
1756.000 0.420
1757.000 0.419
1758.000 0.417
1759.000 0.416
1760.000 0.413
1761.000 0.415
1762.000 0.416
1763.000 0.413
1764.000 0.413
1765.000 0.414
1766.000 0.413
1767.000 0.412
1768.000 0.410
1769.000 0.403
1770.000 0.399
1771.000 0.398
1772.000 0.394
1773.000 0.396
1774.000 0.398
1775.000 0.398
1776.000 0.398
1777.000 0.395
1778.000 0.392
1779.000 0.393
1780.000 0.392
1781.000 0.393
1782.000 0.397
1783.000 0.397
1784.000 0.400
1785.000 0.403
1786.000 0.404
1787.000 0.407
1788.000 0.406
1789.000 0.402
1790.000 0.403
1791.000 0.401
1792.000 0.408
1793.000 0.405
1794.000 0.399
1795.000 0.395
1796.000 0.380
1797.000 0.365
1798.000 0.351
1799.000 0.339
1800.000 0.352
1801.000 0.568
1802.000 0.622
1803.000 0.719
1804.000 0.715
1805.000 0.761
1806.000 0.784
1807.000 0.781
1808.000 0.746
1809.000 0.737
1810.000 0.766
1811.000 0.765
1812.000 0.755
1813.000 0.689
1814.000 0.662
1815.000 0.566
1816.000 0.529
1817.000 0.535
1818.000 0.483
1819.000 0.532
1820.000 0.535
1821.000 0.509
1822.000 0.659
1823.000 0.453
1824.000 0.455
1825.000 0.551
1826.000 0.668
1827.000 0.704
1828.000 0.655
1829.000 0.705
1830.000 0.582
1831.000 0.646
1832.000 0.760
1833.000 0.738
1834.000 0.708
1835.000 0.708
1836.000 0.696
1837.000 0.627
1838.000 0.501
1839.000 0.561
1840.000 0.460
1841.000 0.378
1842.000 0.346
1843.000 0.379
1844.000 0.337
1845.000 0.380
1846.000 0.355
1847.000 0.354
1848.000 0.314
1849.000 0.383
1850.000 0.485
1851.000 0.234
1852.000 0.553
1853.000 0.493
1854.000 0.493
1855.000 0.605
1856.000 0.527
1857.000 0.573
1858.000 0.589
1859.000 0.561
1860.000 0.552
1861.000 0.505
1862.000 0.400
1863.000 0.408
1864.000 0.420
1865.000 0.481
1866.000 0.436
1867.000 0.402
1868.000 0.378
1869.000 0.403
1870.000 0.445
1871.000 0.458
1872.000 0.462
1873.000 0.468
1874.000 0.436
1875.000 0.478
1876.000 0.605
1877.000 0.621
1878.000 0.625
1879.000 0.492
1880.000 0.524
1881.000 0.544
1882.000 0.635
1883.000 0.638
1884.000 0.648
1885.000 0.658
1886.000 0.649
1887.000 0.787
1888.000 0.812
1889.000 0.512
1890.000 0.413
1891.000 0.470
1892.000 0.463
1893.000 0.634
1894.000 0.605
1895.000 0.486
1896.000 0.500
1897.000 0.537
1898.000 0.615
1899.000 0.345
1900.000 0.481
1901.000 0.686
1902.000 0.498
1903.000 0.573
1904.000 0.533
1905.000 0.366
1906.000 0.512
1907.000 0.499
1908.000 0.360
1909.000 0.170
1910.000 0.475
1911.000 0.369
1912.000 0.332
1913.000 0.333
1914.000 0.300
1915.000 0.314
1916.000 0.244
1917.000 0.207
1918.000 0.243
1919.000 0.294
1920.000 0.389
1921.000 0.404
1922.000 0.234
1923.000 0.350
1924.000 0.170
1925.000 0.146
1926.000 0.341
1927.000 0.360
1928.000 0.303
1929.000 0.224
1930.000 0.316
1931.000 0.367
1932.000 0.379
1933.000 0.410
1934.000 0.736
1935.000 0.512
1936.000 0.533
1937.000 0.546
1938.000 0.561
1939.000 0.540
1940.000 0.548
1941.000 0.572
1942.000 0.386
1943.000 0.653
1944.000 0.635
1945.000 0.536
1946.000 0.510
1947.000 0.556
1948.000 0.638
1949.000 0.575
1950.000 0.452
1951.000 0.372
1952.000 0.606
1953.000 0.588
1954.000 0.751
1955.000 0.663
1956.000 0.509
1957.000 0.251
1958.000 0.473
1959.000 0.476
1960.000 0.429
1961.000 0.554
1962.000 0.580
1963.000 0.537
1964.000 0.516
1965.000 0.446
1966.000 0.324
1967.000 0.241
1968.000 0.210
1969.000 0.208
1970.000 0.248
1971.000 0.262
1972.000 0.298
1973.000 0.312
1974.000 0.312
1975.000 0.278
1976.000 0.246
1977.000 0.239
1978.000 0.238
1979.000 0.253
1980.000 0.247
1981.000 0.242
1982.000 0.225
1983.000 0.209
1984.000 0.210
1985.000 0.209
1986.000 0.202
1987.000 0.194
1988.000 0.194
1989.000 0.199
1990.000 0.193
1991.000 0.182
1992.000 0.188
1993.000 0.180
1994.000 0.186
1995.000 0.202
1996.000 0.242
1997.000 0.273
1998.000 0.266
1999.000 0.243
2000.000 0.252
2001.000 0.255
2002.000 0.215
2003.000 0.223
2004.000 0.278
2005.000 0.294
2006.000 0.317
2007.000 0.333
2008.000 0.346
2009.000 0.406
2010.000 0.516
2011.000 0.480
2012.000 0.460
2013.000 0.347
2014.000 0.317
2015.000 0.294
2016.000 0.274
2017.000 0.238
2018.000 0.226
2019.000 0.236
2020.000 0.238
2021.000 0.239
2022.000 0.230
2023.000 0.207
2024.000 0.204
2025.000 0.207
2026.000 0.210
2027.000 0.209
2028.000 0.205
2029.000 0.202
2030.000 0.200
2031.000 0.197
2032.000 0.191
2033.000 0.191
2034.000 0.194
2035.000 0.188
2036.000 0.191
2037.000 0.191
2038.000 0.196
2039.000 0.209
2040.000 0.208
2041.000 0.202
2042.000 0.199
2043.000 0.188
2044.000 0.187
2045.000 0.199
2046.000 0.204
2047.000 0.206
2048.000 0.211
2049.000 0.221
2050.000 0.213
2051.000 0.218
2052.000 0.234
2053.000 0.237
2054.000 0.234
2055.000 0.230
2056.000 0.226
2057.000 0.224
2058.000 0.223
2059.000 0.226
2060.000 0.229
2061.000 0.236
2062.000 0.254
2063.000 0.261
2064.000 0.271
2065.000 0.270
2066.000 0.256
2067.000 0.247
2068.000 0.241
2069.000 0.236
2070.000 0.232
2071.000 0.224
2072.000 0.217
2073.000 0.206
2074.000 0.203
2075.000 0.205
2076.000 0.206
2077.000 0.206
2078.000 0.210
2079.000 0.222
2080.000 0.229
2081.000 0.239
2082.000 0.242
2083.000 0.239
2084.000 0.232
2085.000 0.230
2086.000 0.230
2087.000 0.228
2088.000 0.228
2089.000 0.228
2090.000 0.225
2091.000 0.225
2092.000 0.232
2093.000 0.232
2094.000 0.229
2095.000 0.229
2096.000 0.225
2097.000 0.225
2098.000 0.230
2099.000 0.238
2100.000 0.243
2101.000 0.249
2102.000 0.246
2103.000 0.244
2104.000 0.242
2105.000 0.234
2106.000 0.235
2107.000 0.239
2108.000 0.243
2109.000 0.248
2110.000 0.253
2111.000 0.263
2112.000 0.265
2113.000 0.262
2114.000 0.263
2115.000 0.256
2116.000 0.255
2117.000 0.263
2118.000 0.264
2119.000 0.260
2120.000 0.257
2121.000 0.254
2122.000 0.259
2123.000 0.263
2124.000 0.278
2125.000 0.282
2126.000 0.282
2127.000 0.278
2128.000 0.270
2129.000 0.264
2130.000 0.250
2131.000 0.247
2132.000 0.251
2133.000 0.252
2134.000 0.261
2135.000 0.268
2136.000 0.271
2137.000 0.273
2138.000 0.278
2139.000 0.280
2140.000 0.282
2141.000 0.279
2142.000 0.278
2143.000 0.273
2144.000 0.273
2145.000 0.282
2146.000 0.279
2147.000 0.271
2148.000 0.269
2149.000 0.257
2150.000 0.256
2151.000 0.268
2152.000 0.273
2153.000 0.275
2154.000 0.275
2155.000 0.271
2156.000 0.269
2157.000 0.265
2158.000 0.261
2159.000 0.263
2160.000 0.269
2161.000 0.274
2162.000 0.282
2163.000 0.288
2164.000 0.295
2165.000 0.299
2166.000 0.303
2167.000 0.301
2168.000 0.294
2169.000 0.292
2170.000 0.293
2171.000 0.292
2172.000 0.289
2173.000 0.288
2174.000 0.294
2175.000 0.295
2176.000 0.297
2177.000 0.300
2178.000 0.299
2179.000 0.290
2180.000 0.293
2181.000 0.292
2182.000 0.287
2183.000 0.283
2184.000 0.281
2185.000 0.272
2186.000 0.274
2187.000 0.284
2188.000 0.292
2189.000 0.308
2190.000 0.315
2191.000 0.321
2192.000 0.321
2193.000 0.310
2194.000 0.301
2195.000 0.284
2196.000 0.277
2197.000 0.280
2198.000 0.278
2199.000 0.283
2200.000 0.285
2201.000 0.287
2202.000 0.279
2203.000 0.286
2204.000 0.292
2205.000 0.298
2206.000 0.306
2207.000 0.309
2208.000 0.309
2209.000 0.305
2210.000 0.298
2211.000 0.288
2212.000 0.270
2213.000 0.265
2214.000 0.257
2215.000 0.259
2216.000 0.276
2217.000 0.281
2218.000 0.287
2219.000 0.287
2220.000 0.275
2221.000 0.272
2222.000 0.269
2223.000 0.272
2224.000 0.282
2225.000 0.291
2226.000 0.307
2227.000 0.315
2228.000 0.319
2229.000 0.329
2230.000 0.333
2231.000 0.334
2232.000 0.332
2233.000 0.320
2234.000 0.302
2235.000 0.285
2236.000 0.273
2237.000 0.263
2238.000 0.259
2239.000 0.263
2240.000 0.262
2241.000 0.263
2242.000 0.262
2243.000 0.261
2244.000 0.259
2245.000 0.255
2246.000 0.254
2247.000 0.250
2248.000 0.250
2249.000 0.253
2250.000 0.252
2251.000 0.251
2252.000 0.255
2253.000 0.259
2254.000 0.264
2255.000 0.278
2256.000 0.284
2257.000 0.288
2258.000 0.286
2259.000 0.285
2260.000 0.284
2261.000 0.281
2262.000 0.286
2263.000 0.288
2264.000 0.291
2265.000 0.305
2266.000 0.319
2267.000 0.329
2268.000 0.334
2269.000 0.334
2270.000 0.313
2271.000 0.290
2272.000 0.276
2273.000 0.268
2274.000 0.260
2275.000 0.265
2276.000 0.288
2277.000 0.300
2278.000 0.328
2279.000 0.335
2280.000 0.315
2281.000 0.304
2282.000 0.281
2283.000 0.272
2284.000 0.283
2285.000 0.276
2286.000 0.260
2287.000 0.251
2288.000 0.238
2289.000 0.234
2290.000 0.240
2291.000 0.242
2292.000 0.239
2293.000 0.240
2294.000 0.244
2295.000 0.248
2296.000 0.253
2297.000 0.267
2298.000 0.278
2299.000 0.278
2300.000 0.271
2301.000 0.268
2302.000 0.271
2303.000 0.276
2304.000 0.295
2305.000 0.321
2306.000 0.321
2307.000 0.295
2308.000 0.271
2309.000 0.239
2310.000 0.203
2311.000 0.190
2312.000 0.191
2313.000 0.196
2314.000 0.197
2315.000 0.186
2316.000 0.180
2317.000 0.182
2318.000 0.207
2319.000 0.231
2320.000 0.240
2321.000 0.232
2322.000 0.211
2323.000 0.220
2324.000 0.239
2325.000 0.271
2326.000 0.288
2327.000 0.312
2328.000 0.303
2329.000 0.254
2330.000 0.237
2331.000 0.222
2332.000 0.221
2333.000 0.261
2334.000 0.280
2335.000 0.341
2336.000 0.344
2337.000 0.281
2338.000 0.293
2339.000 0.233
2340.000 0.215
2341.000 0.249
2342.000 0.264
2343.000 0.261
2344.000 0.253
2345.000 0.268
2346.000 0.279
2347.000 0.322
2348.000 0.366
2349.000 0.296
2350.000 0.282
2351.000 0.328
2352.000 0.327
2353.000 0.398
2354.000 0.368
2355.000 0.338
2356.000 0.419
2357.000 0.390
2358.000 0.281
2359.000 0.267
2360.000 0.212
2361.000 0.191
2362.000 0.178
2363.000 0.204
2364.000 0.236
2365.000 0.274
2366.000 0.329
2367.000 0.323
2368.000 0.257
2369.000 0.200
2370.000 0.268
2371.000 0.267
2372.000 0.286
2373.000 0.279
2374.000 0.310
2375.000 0.336
2376.000 0.324
2377.000 0.274
2378.000 0.201
2379.000 0.226
2380.000 0.288
2381.000 0.440
2382.000 0.295
2383.000 0.388
2384.000 0.477
2385.000 0.510
2386.000 0.386
2387.000 0.313
2388.000 0.587
2389.000 0.513
2390.000 0.467
2391.000 0.507
2392.000 0.548
2393.000 0.394
2394.000 0.342
2395.000 0.303
2396.000 0.151
2397.000 0.256
2398.000 0.266
2399.000 0.274
2400.000 0.348
2401.000 0.583
2402.000 0.600
2403.000 0.428
2404.000 0.312
2405.000 0.331
2406.000 0.300
2407.000 0.283
2408.000 0.426
2409.000 0.312
2410.000 0.499
2411.000 0.631
2412.000 0.491
2413.000 0.411
2414.000 0.293
2415.000 0.691
2416.000 0.611
2417.000 0.514
2418.000 0.565
2419.000 0.488
2420.000 0.398
2421.000 0.315
2422.000 0.407
2423.000 0.364
2424.000 0.313
2425.000 0.241
2426.000 0.237
2427.000 0.402
2428.000 0.397
2429.000 0.458
2430.000 0.530
2431.000 0.629
2432.000 0.507
2433.000 0.655
2434.000 0.378
2435.000 0.438
2436.000 0.338
2437.000 0.348
2438.000 0.454
2439.000 0.583
2440.000 0.605
2441.000 0.534
2442.000 0.394
2443.000 0.313
2444.000 0.624
2445.000 0.327
2446.000 0.243
2447.000 0.347
2448.000 0.531
2449.000 0.449
2450.000 0.583
2451.000 0.513
2452.000 0.215
2453.000 0.224
2454.000 0.402
2455.000 0.344
2456.000 0.632
2457.000 0.497
2458.000 0.369
2459.000 0.551
2460.000 0.446
2461.000 0.452
2462.000 0.583
2463.000 0.441
2464.000 0.505
2465.000 0.359
2466.000 0.455
2467.000 0.519
2468.000 0.613
2469.000 0.612
2470.000 0.481
2471.000 0.332
2472.000 0.201
2473.000 0.376
2474.000 0.256
2475.000 0.437
2476.000 0.429
2477.000 0.393
2478.000 0.318
2479.000 0.236
2480.000 0.353
2481.000 0.252
2482.000 0.310
2483.000 0.306
2484.000 0.449
2485.000 0.309
2486.000 0.364
2487.000 0.240
2488.000 0.207
2489.000 0.251
2490.000 0.378
2491.000 0.441
2492.000 0.444
2493.000 0.475
2494.000 0.653
2495.000 0.643
2496.000 0.644
2497.000 0.681
2498.000 0.500
2499.000 0.385
2500.000 0.551
