391.000 0.030
392.000 0.030
393.000 0.028
394.000 0.028
395.000 0.031
396.000 0.031
397.000 0.028
398.000 0.029
399.000 0.030
400.000 0.031
401.000 0.030
402.000 0.031
403.000 0.030
404.000 0.027
405.000 0.026
406.000 0.027
407.000 0.028
408.000 0.028
409.000 0.027
410.000 0.024
411.000 0.024
412.000 0.026
413.000 0.026
414.000 0.026
415.000 0.027
416.000 0.028
417.000 0.026
418.000 0.026
419.000 0.027
420.000 0.028
421.000 0.027
422.000 0.027
423.000 0.028
424.000 0.029
425.000 0.028
426.000 0.028
427.000 0.030
428.000 0.027
429.000 0.027
430.000 0.028
431.000 0.028
432.000 0.028
433.000 0.028
434.000 0.029
435.000 0.029
436.000 0.028
437.000 0.026
438.000 0.026
439.000 0.028
440.000 0.028
441.000 0.028
442.000 0.028
443.000 0.028
444.000 0.026
445.000 0.026
446.000 0.026
447.000 0.027
448.000 0.028
449.000 0.028
450.000 0.027
451.000 0.027
452.000 0.026
453.000 0.026
454.000 0.026
455.000 0.027
456.000 0.028
457.000 0.027
458.000 0.027
459.000 0.028
460.000 0.027
461.000 0.029
462.000 0.029
463.000 0.027
464.000 0.028
465.000 0.029
466.000 0.029
467.000 0.030
468.000 0.028
469.000 0.029
470.000 0.029
471.000 0.030
472.000 0.028
473.000 0.027
474.000 0.028
475.000 0.029
476.000 0.028
477.000 0.028
478.000 0.028
479.000 0.029
480.000 0.029
481.000 0.029
482.000 0.028
483.000 0.029
484.000 0.029
485.000 0.029
486.000 0.028
487.000 0.028
488.000 0.029
489.000 0.030
490.000 0.029
491.000 0.030
492.000 0.030
493.000 0.029
494.000 0.030
495.000 0.031
496.000 0.029
497.000 0.029
498.000 0.030
499.000 0.032
500.000 0.032
501.000 0.031
502.000 0.032
503.000 0.033
504.000 0.034
505.000 0.033
506.000 0.033
507.000 0.035
508.000 0.036
509.000 0.036
510.000 0.036
511.000 0.036
512.000 0.038
513.000 0.039
514.000 0.040
515.000 0.042
516.000 0.043
517.000 0.044
518.000 0.045
519.000 0.047
520.000 0.050
521.000 0.052
522.000 0.054
523.000 0.056
524.000 0.057
525.000 0.058
526.000 0.061
527.000 0.062
528.000 0.064
529.000 0.066
530.000 0.067
531.000 0.068
532.000 0.069
533.000 0.071
534.000 0.072
535.000 0.073
536.000 0.074
537.000 0.075
538.000 0.075
539.000 0.076
540.000 0.076
541.000 0.076
542.000 0.077
543.000 0.078
544.000 0.077
545.000 0.078
546.000 0.078
547.000 0.078
548.000 0.078
549.000 0.079
550.000 0.079
551.000 0.079
552.000 0.078
553.000 0.078
554.000 0.079
555.000 0.079
556.000 0.079
557.000 0.079
558.000 0.078
559.000 0.077
560.000 0.076
561.000 0.076
562.000 0.074
563.000 0.073
564.000 0.073
565.000 0.071
566.000 0.070
567.000 0.068
568.000 0.066
569.000 0.066
570.000 0.065
571.000 0.064
572.000 0.063
573.000 0.062
574.000 0.061
575.000 0.060
576.000 0.060
577.000 0.059
578.000 0.058
579.000 0.057
580.000 0.056
581.000 0.055
582.000 0.055
583.000 0.055
584.000 0.054
585.000 0.053
586.000 0.051
587.000 0.051
588.000 0.051
589.000 0.051
590.000 0.051
591.000 0.051
592.000 0.050
593.000 0.050
594.000 0.049
595.000 0.050
596.000 0.050
597.000 0.050
598.000 0.048
599.000 0.049
600.000 0.049
601.000 0.049
602.000 0.049
603.000 0.049
604.000 0.047
605.000 0.046
606.000 0.047
607.000 0.047
608.000 0.047
609.000 0.046
610.000 0.047
611.000 0.048
612.000 0.047
613.000 0.045
614.000 0.044
615.000 0.044
616.000 0.045
617.000 0.045
618.000 0.045
619.000 0.045
620.000 0.044
621.000 0.044
622.000 0.044
623.000 0.044
624.000 0.044
625.000 0.043
626.000 0.043
627.000 0.044
628.000 0.044
629.000 0.043
630.000 0.044
631.000 0.044
632.000 0.044
633.000 0.044
634.000 0.044
635.000 0.045
636.000 0.045
637.000 0.044
638.000 0.044
639.000 0.043
640.000 0.043
641.000 0.041
642.000 0.040
643.000 0.040
644.000 0.040
645.000 0.040
646.000 0.041
647.000 0.040
648.000 0.037
649.000 0.038
650.000 0.039
651.000 0.039
652.000 0.039
653.000 0.040
654.000 0.042
655.000 0.043
656.000 0.042
657.000 0.041
658.000 0.042
659.000 0.044
660.000 0.041
661.000 0.039
662.000 0.038
663.000 0.039
664.000 0.041
665.000 0.042
666.000 0.041
667.000 0.040
668.000 0.041
669.000 0.041
670.000 0.042
671.000 0.042
672.000 0.042
673.000 0.040
674.000 0.043
675.000 0.045
676.000 0.047
677.000 0.047
678.000 0.046
679.000 0.046
680.000 0.047
681.000 0.048
682.000 0.049
683.000 0.049
684.000 0.050
685.000 0.050
686.000 0.053
687.000 0.056
688.000 0.058
689.000 0.059
690.000 0.058
691.000 0.059
692.000 0.063
693.000 0.065
694.000 0.067
695.000 0.070
696.000 0.075
697.000 0.080
698.000 0.083
699.000 0.090
700.000 0.096
701.000 0.104
702.000 0.112
703.000 0.118
704.000 0.126
705.000 0.133
706.000 0.141
707.000 0.150
708.000 0.158
709.000 0.166
710.000 0.175
711.000 0.184
712.000 0.193
713.000 0.202
714.000 0.212
715.000 0.222
716.000 0.232
717.000 0.242
718.000 0.254
719.000 0.266
720.000 0.278
721.000 0.288
722.000 0.298
723.000 0.308
724.000 0.320
725.000 0.333
726.000 0.344
727.000 0.355
728.000 0.366
729.000 0.377
730.000 0.388
731.000 0.398
732.000 0.408
733.000 0.417
734.000 0.426
735.000 0.435
736.000 0.444
737.000 0.452
738.000 0.460
739.000 0.467
740.000 0.474
741.000 0.481
742.000 0.487
743.000 0.493
744.000 0.499
745.000 0.504
746.000 0.509
747.000 0.513
748.000 0.518
749.000 0.522
750.000 0.525
751.000 0.529
752.000 0.532
753.000 0.535
754.000 0.537
755.000 0.540
756.000 0.542
757.000 0.544
758.000 0.546
759.000 0.548
760.000 0.550
761.000 0.553
762.000 0.555
763.000 0.556
764.000 0.557
765.000 0.558
766.000 0.558
767.000 0.559
768.000 0.560
769.000 0.560
770.000 0.561
771.000 0.562
772.000 0.563
773.000 0.563
774.000 0.564
775.000 0.565
776.000 0.565
777.000 0.566
778.000 0.567
779.000 0.568
780.000 0.568
781.000 0.569
782.000 0.569
783.000 0.570
784.000 0.570
785.000 0.571
786.000 0.571
787.000 0.572
788.000 0.573
789.000 0.573
790.000 0.574
791.000 0.574
792.000 0.575
793.000 0.575
794.000 0.576
795.000 0.577
796.000 0.577
797.000 0.578
798.000 0.578
799.000 0.578
800.000 0.579
801.000 0.580
802.000 0.580
803.000 0.581
804.000 0.581
805.000 0.582
806.000 0.582
807.000 0.583
808.000 0.583
809.000 0.584
810.000 0.584
811.000 0.585
812.000 0.586
813.000 0.586
814.000 0.587
815.000 0.587
816.000 0.588
817.000 0.588
818.000 0.589
819.000 0.589
820.000 0.590
821.000 0.590
822.000 0.591
823.000 0.591
824.000 0.591
825.000 0.591
826.000 0.592
827.000 0.592
828.000 0.593
829.000 0.593
830.000 0.594
831.000 0.594
832.000 0.594
833.000 0.594
834.000 0.595
835.000 0.596
836.000 0.596
837.000 0.597
838.000 0.597
839.000 0.597
840.000 0.598
841.000 0.598
842.000 0.598
843.000 0.599
844.000 0.599
845.000 0.600
846.000 0.600
847.000 0.601
848.000 0.601
849.000 0.602
850.000 0.602
851.000 0.602
852.000 0.603
853.000 0.603
854.000 0.604
855.000 0.604
856.000 0.604
857.000 0.605
858.000 0.605
859.000 0.605
860.000 0.606
861.000 0.606
862.000 0.606
863.000 0.607
864.000 0.607
865.000 0.607
866.000 0.607
867.000 0.608
868.000 0.608
869.000 0.609
870.000 0.609
871.000 0.609
872.000 0.610
873.000 0.610
874.000 0.611
875.000 0.612
876.000 0.611
877.000 0.612
878.000 0.612
879.000 0.612
880.000 0.613
881.000 0.613
882.000 0.614
883.000 0.614
884.000 0.615
885.000 0.615
886.000 0.615
887.000 0.616
888.000 0.616
889.000 0.617
890.000 0.617
891.000 0.618
892.000 0.618
893.000 0.618
894.000 0.618
895.000 0.619
896.000 0.619
897.000 0.620
898.000 0.620
899.000 0.620
900.000 0.621
901.000 0.621
902.000 0.622
903.000 0.622
904.000 0.622
905.000 0.622
906.000 0.622
907.000 0.623
908.000 0.623
909.000 0.624
910.000 0.624
911.000 0.625
912.000 0.625
913.000 0.625
914.000 0.624
915.000 0.624
916.000 0.626
917.000 0.626
918.000 0.627
919.000 0.626
920.000 0.627
921.000 0.627
922.000 0.627
923.000 0.627
924.000 0.627
925.000 0.627
926.000 0.627
927.000 0.627
928.000 0.627
929.000 0.626
930.000 0.626
931.000 0.627
932.000 0.628
933.000 0.628
934.000 0.626
935.000 0.625
936.000 0.624
937.000 0.625
938.000 0.625
939.000 0.623
940.000 0.623
941.000 0.621
942.000 0.621
943.000 0.624
944.000 0.624
945.000 0.622
946.000 0.621
947.000 0.622
948.000 0.621
949.000 0.620
950.000 0.618
951.000 0.617
952.000 0.620
953.000 0.618
954.000 0.615
955.000 0.612
956.000 0.612
957.000 0.611
958.000 0.611
959.000 0.612
960.000 0.609
961.000 0.608
962.000 0.609
963.000 0.608
964.000 0.607
965.000 0.610
966.000 0.611
967.000 0.609
968.000 0.610
969.000 0.609
970.000 0.608
971.000 0.609
972.000 0.608
973.000 0.609
974.000 0.610
975.000 0.610
976.000 0.608
977.000 0.609
978.000 0.610
979.000 0.610
980.000 0.611
981.000 0.610
982.000 0.611
983.000 0.611
984.000 0.610
985.000 0.611
986.000 0.612
987.000 0.613
988.000 0.614
989.000 0.614
990.000 0.614
991.000 0.615
992.000 0.615
993.000 0.615
994.000 0.616
995.000 0.616
996.000 0.618
997.000 0.617
998.000 0.617
999.000 0.618
1000.000 0.618
1001.000 0.621
1002.000 0.622
1003.000 0.623
1004.000 0.623
1005.000 0.624
1006.000 0.626
1007.000 0.627
1008.000 0.627
1009.000 0.629
1010.000 0.629
1011.000 0.630
1012.000 0.631
1013.000 0.632
1014.000 0.632
1015.000 0.633
1016.000 0.634
1017.000 0.635
1018.000 0.635
1019.000 0.636
1020.000 0.636
1021.000 0.636
1022.000 0.636
1023.000 0.637
1024.000 0.638
1025.000 0.639
1026.000 0.640
1027.000 0.641
1028.000 0.642
1029.000 0.642
1030.000 0.642
1031.000 0.643
1032.000 0.645
1033.000 0.646
1034.000 0.647
1035.000 0.647
1036.000 0.646
1037.000 0.645
1038.000 0.646
1039.000 0.646
1040.000 0.648
1041.000 0.649
1042.000 0.649
1043.000 0.650
1044.000 0.651
1045.000 0.651
1046.000 0.652
1047.000 0.652
1048.000 0.653
1049.000 0.654
1050.000 0.654
1051.000 0.655
1052.000 0.655
1053.000 0.656
1054.000 0.656
1055.000 0.657
1056.000 0.657
1057.000 0.657
1058.000 0.657
1059.000 0.657
1060.000 0.658
1061.000 0.659
1062.000 0.659
1063.000 0.660
1064.000 0.661
1065.000 0.661
1066.000 0.661
1067.000 0.661
1068.000 0.662
1069.000 0.663
1070.000 0.662
1071.000 0.662
1072.000 0.662
1073.000 0.662
1074.000 0.662
1075.000 0.662
1076.000 0.662
1077.000 0.663
1078.000 0.664
1079.000 0.664
1080.000 0.664
1081.000 0.664
1082.000 0.664
1083.000 0.663
1084.000 0.663
1085.000 0.663
1086.000 0.663
1087.000 0.664
1088.000 0.663
1089.000 0.663
1090.000 0.662
1091.000 0.662
1092.000 0.663
1093.000 0.663
1094.000 0.663
1095.000 0.664
1096.000 0.664
1097.000 0.664
1098.000 0.664
1099.000 0.664
1100.000 0.664
1101.000 0.664
1102.000 0.664
1103.000 0.664
1104.000 0.663
1105.000 0.664
1106.000 0.663
1107.000 0.663
1108.000 0.662
1109.000 0.662
1110.000 0.662
1111.000 0.662
1112.000 0.661
1113.000 0.661
1114.000 0.660
1115.000 0.659
1116.000 0.657
1117.000 0.655
1118.000 0.652
1119.000 0.651
1120.000 0.650
1121.000 0.650
1122.000 0.653
1123.000 0.653
1124.000 0.651
1125.000 0.650
1126.000 0.648
1127.000 0.646
1128.000 0.645
1129.000 0.645
1130.000 0.646
1131.000 0.644
1132.000 0.643
1133.000 0.642
1134.000 0.639
1135.000 0.636
1136.000 0.632
1137.000 0.631
1138.000 0.630
1139.000 0.628
1140.000 0.627
1141.000 0.625
1142.000 0.623
1143.000 0.620
1144.000 0.617
1145.000 0.615
1146.000 0.612
1147.000 0.608
1148.000 0.605
1149.000 0.603
1150.000 0.599
1151.000 0.597
1152.000 0.596
1153.000 0.594
1154.000 0.593
1155.000 0.593
1156.000 0.592
1157.000 0.592
1158.000 0.590
1159.000 0.590
1160.000 0.590
1161.000 0.590
1162.000 0.590
1163.000 0.590
1164.000 0.591
1165.000 0.590
1166.000 0.589
1167.000 0.588
1168.000 0.587
1169.000 0.586
1170.000 0.585
1171.000 0.586
1172.000 0.585
1173.000 0.584
1174.000 0.584
1175.000 0.585
1176.000 0.585
1177.000 0.586
1178.000 0.585
1179.000 0.583
1180.000 0.583
1181.000 0.582
1182.000 0.581
1183.000 0.582
1184.000 0.582
1185.000 0.580
1186.000 0.580
1187.000 0.580
1188.000 0.579
1189.000 0.580
1190.000 0.580
1191.000 0.579
1192.000 0.580
1193.000 0.580
1194.000 0.580
1195.000 0.580
1196.000 0.580
1197.000 0.580
1198.000 0.580
1199.000 0.580
1200.000 0.579
1201.000 0.579
1202.000 0.579
1203.000 0.579
1204.000 0.581
1205.000 0.581
1206.000 0.582
1207.000 0.583
1208.000 0.582
1209.000 0.582
1210.000 0.582
1211.000 0.583
1212.000 0.583
1213.000 0.584
1214.000 0.585
1215.000 0.585
1216.000 0.586
1217.000 0.586
1218.000 0.587
1219.000 0.588
1220.000 0.588
1221.000 0.589
1222.000 0.589
1223.000 0.589
1224.000 0.590
1225.000 0.590
1226.000 0.591
1227.000 0.591
1228.000 0.592
1229.000 0.593
1230.000 0.593
1231.000 0.594
1232.000 0.594
1233.000 0.594
1234.000 0.595
1235.000 0.595
1236.000 0.595
1237.000 0.595
1238.000 0.596
1239.000 0.596
1240.000 0.596
1241.000 0.597
1242.000 0.597
1243.000 0.598
1244.000 0.598
1245.000 0.599
1246.000 0.599
1247.000 0.600
1248.000 0.601
1249.000 0.601
1250.000 0.602
1251.000 0.603
1252.000 0.603
1253.000 0.603
1254.000 0.603
1255.000 0.604
1256.000 0.604
1257.000 0.605
1258.000 0.605
1259.000 0.605
1260.000 0.605
1261.000 0.605
1262.000 0.605
1263.000 0.606
1264.000 0.606
1265.000 0.606
1266.000 0.606
1267.000 0.606
1268.000 0.606
1269.000 0.605
1270.000 0.605
1271.000 0.606
1272.000 0.606
1273.000 0.606
1274.000 0.607
1275.000 0.607
1276.000 0.608
1277.000 0.607
1278.000 0.608
1279.000 0.608
1280.000 0.607
1281.000 0.607
1282.000 0.605
1283.000 0.605
1284.000 0.605
1285.000 0.605
1286.000 0.605
1287.000 0.605
1288.000 0.605
1289.000 0.605
1290.000 0.604
1291.000 0.603
1292.000 0.602
1293.000 0.602
1294.000 0.601
1295.000 0.601
1296.000 0.600
1297.000 0.600
1298.000 0.599
1299.000 0.597
1300.000 0.596
1301.000 0.594
1302.000 0.593
1303.000 0.592
1304.000 0.591
1305.000 0.589
1306.000 0.588
1307.000 0.587
1308.000 0.586
1309.000 0.585
1310.000 0.583
1311.000 0.583
1312.000 0.581
1313.000 0.578
1314.000 0.576
1315.000 0.573
1316.000 0.570
1317.000 0.569
1318.000 0.567
1319.000 0.565
1320.000 0.563
1321.000 0.561
1322.000 0.560
1323.000 0.558
1324.000 0.557
1325.000 0.555
1326.000 0.553
1327.000 0.551
1328.000 0.548
1329.000 0.545
1330.000 0.542
1331.000 0.540
1332.000 0.539
1333.000 0.537
1334.000 0.534
1335.000 0.532
1336.000 0.528
1337.000 0.525
1338.000 0.523
1339.000 0.521
1340.000 0.519
1341.000 0.517
1342.000 0.514
1343.000 0.512
1344.000 0.513
1345.000 0.512
1346.000 0.512
1347.000 0.512
1348.000 0.511
1349.000 0.506
1350.000 0.503
1351.000 0.503
1352.000 0.500
1353.000 0.496
1354.000 0.492
1355.000 0.515
1356.000 0.498
1357.000 0.430
1358.000 0.383
1359.000 0.320
1360.000 0.306
1361.000 0.293
1362.000 0.277
1363.000 0.285
1364.000 0.325
1365.000 0.350
1366.000 0.447
1367.000 0.326
1368.000 0.379
1369.000 0.482
1370.000 0.428
1371.000 0.372
1372.000 0.321
1373.000 0.270
1374.000 0.296
1375.000 0.347
1376.000 0.364
1377.000 0.427
1378.000 0.376
1379.000 0.379
1380.000 0.345
1381.000 0.411
1382.000 0.476
1383.000 0.415
1384.000 0.407
1385.000 0.406
1386.000 0.365
1387.000 0.405
1388.000 0.675
1389.000 0.634
1390.000 0.492
1391.000 0.468
1392.000 0.321
1393.000 0.365
1394.000 0.671
1395.000 0.658
1396.000 0.456
1397.000 0.403
1398.000 0.242
1399.000 0.278
1400.000 0.222
1401.000 0.229
1402.000 0.281
1403.000 0.324
1404.000 0.324
1405.000 0.269
1406.000 0.316
1407.000 0.224
1408.000 0.187
1409.000 0.172
1410.000 0.251
1411.000 0.280
1412.000 0.258
1413.000 0.172
1414.000 0.164
1415.000 0.278
1416.000 0.366
1417.000 0.417
1418.000 0.339
1419.000 0.280
1420.000 0.249
1421.000 0.171
1422.000 0.160
1423.000 0.274
1424.000 0.239
1425.000 0.195
1426.000 0.187
1427.000 0.182
1428.000 0.186
1429.000 0.181
1430.000 0.181
1431.000 0.215
1432.000 0.217
1433.000 0.185
1434.000 0.151
1435.000 0.208
1436.000 0.194
1437.000 0.192
1438.000 0.218
1439.000 0.202
1440.000 0.197
1441.000 0.209
1442.000 0.197
1443.000 0.169
1444.000 0.163
1445.000 0.156
1446.000 0.154
1447.000 0.171
1448.000 0.177
1449.000 0.175
1450.000 0.166
1451.000 0.158
1452.000 0.151
1453.000 0.153
1454.000 0.166
1455.000 0.170
1456.000 0.172
1457.000 0.170
1458.000 0.162
1459.000 0.160
1460.000 0.158
1461.000 0.154
1462.000 0.148
1463.000 0.143
1464.000 0.135
1465.000 0.133
1466.000 0.136
1467.000 0.137
1468.000 0.141
1469.000 0.143
1470.000 0.147
1471.000 0.147
1472.000 0.146
1473.000 0.145
1474.000 0.140
1475.000 0.142
1476.000 0.150
1477.000 0.153
1478.000 0.155
1479.000 0.159
1480.000 0.164
1481.000 0.168
1482.000 0.176
1483.000 0.177
1484.000 0.172
1485.000 0.171
1486.000 0.169
1487.000 0.170
1488.000 0.174
1489.000 0.176
1490.000 0.179
1491.000 0.181
1492.000 0.181
1493.000 0.182
1494.000 0.180
1495.000 0.181
1496.000 0.183
1497.000 0.185
1498.000 0.187
1499.000 0.189
1500.000 0.191
1501.000 0.192
1502.000 0.194
1503.000 0.195
1504.000 0.196
1505.000 0.199
1506.000 0.200
1507.000 0.202
1508.000 0.204
1509.000 0.205
1510.000 0.207
1511.000 0.210
1512.000 0.211
1513.000 0.214
1514.000 0.216
1515.000 0.218
1516.000 0.218
1517.000 0.219
1518.000 0.220
1519.000 0.219
1520.000 0.221
1521.000 0.223
1522.000 0.225
1523.000 0.227
1524.000 0.229
1525.000 0.231
1526.000 0.232
1527.000 0.234
1528.000 0.236
1529.000 0.237
1530.000 0.238
1531.000 0.239
1532.000 0.241
1533.000 0.244
1534.000 0.245
1535.000 0.248
1536.000 0.249
1537.000 0.250
1538.000 0.251
1539.000 0.253
1540.000 0.255
1541.000 0.257
1542.000 0.258
1543.000 0.259
1544.000 0.261
1545.000 0.262
1546.000 0.263
1547.000 0.265
1548.000 0.267
1549.000 0.268
1550.000 0.269
1551.000 0.270
1552.000 0.271
1553.000 0.273
1554.000 0.275
1555.000 0.277
1556.000 0.279
1557.000 0.279
1558.000 0.281
1559.000 0.283
1560.000 0.284
1561.000 0.285
1562.000 0.287
1563.000 0.289
1564.000 0.291
1565.000 0.293
1566.000 0.295
1567.000 0.298
1568.000 0.299
1569.000 0.299
1570.000 0.299
1571.000 0.299
1572.000 0.300
1573.000 0.300
1574.000 0.301
1575.000 0.301
1576.000 0.302
1577.000 0.305
1578.000 0.306
1579.000 0.308
1580.000 0.309
1581.000 0.310
1582.000 0.311
1583.000 0.313
1584.000 0.315
1585.000 0.318
1586.000 0.319
1587.000 0.321
1588.000 0.322
1589.000 0.321
1590.000 0.321
1591.000 0.322
1592.000 0.322
1593.000 0.325
1594.000 0.326
1595.000 0.327
1596.000 0.328
1597.000 0.329
1598.000 0.330
1599.000 0.332
1600.000 0.334
1601.000 0.334
1602.000 0.336
1603.000 0.336
1604.000 0.337
1605.000 0.337
1606.000 0.337
1607.000 0.339
1608.000 0.340
1609.000 0.342
1610.000 0.344
1611.000 0.344
1612.000 0.345
1613.000 0.344
1614.000 0.344
1615.000 0.346
1616.000 0.347
1617.000 0.348
1618.000 0.349
1619.000 0.350
1620.000 0.351
1621.000 0.351
1622.000 0.351
1623.000 0.351
1624.000 0.351
1625.000 0.352
1626.000 0.353
1627.000 0.354
1628.000 0.355
1629.000 0.356
1630.000 0.356
1631.000 0.357
1632.000 0.358
1633.000 0.360
1634.000 0.361
1635.000 0.362
1636.000 0.363
1637.000 0.363
1638.000 0.363
1639.000 0.363
1640.000 0.363
1641.000 0.363
1642.000 0.364
1643.000 0.366
1644.000 0.367
1645.000 0.367
1646.000 0.367
1647.000 0.368
1648.000 0.368
1649.000 0.368
1650.000 0.368
1651.000 0.368
1652.000 0.368
1653.000 0.369
1654.000 0.369
1655.000 0.368
1656.000 0.369
1657.000 0.371
1658.000 0.372
1659.000 0.373
1660.000 0.374
1661.000 0.373
1662.000 0.373
1663.000 0.375
1664.000 0.375
1665.000 0.375
1666.000 0.376
1667.000 0.376
1668.000 0.376
1669.000 0.377
1670.000 0.377
1671.000 0.376
1672.000 0.375
1673.000 0.372
1674.000 0.372
1675.000 0.372
1676.000 0.372
1677.000 0.373
1678.000 0.375
1679.000 0.376
1680.000 0.376
1681.000 0.375
1682.000 0.374
1683.000 0.372
1684.000 0.372
1685.000 0.373
1686.000 0.373
1687.000 0.373
1688.000 0.372
1689.000 0.372
1690.000 0.371
1691.000 0.368
1692.000 0.369
1693.000 0.369
1694.000 0.369
1695.000 0.369
1696.000 0.369
1697.000 0.369
1698.000 0.368
1699.000 0.369
1700.000 0.369
1701.000 0.367
1702.000 0.366
1703.000 0.365
1704.000 0.365
1705.000 0.364
1706.000 0.364
1707.000 0.364
1708.000 0.363
1709.000 0.361
1710.000 0.360
1711.000 0.358
1712.000 0.358
1713.000 0.359
1714.000 0.357
1715.000 0.356
1716.000 0.356
1717.000 0.356
1718.000 0.357
1719.000 0.358
1720.000 0.356
1721.000 0.354
1722.000 0.354
1723.000 0.352
1724.000 0.353
1725.000 0.353
1726.000 0.351
1727.000 0.351
1728.000 0.349
1729.000 0.347
1730.000 0.347
1731.000 0.345
1732.000 0.343
1733.000 0.343
1734.000 0.343
1735.000 0.342
1736.000 0.342
1737.000 0.342
1738.000 0.343
1739.000 0.343
1740.000 0.344
1741.000 0.343
1742.000 0.341
1743.000 0.340
1744.000 0.341
1745.000 0.341
1746.000 0.343
1747.000 0.342
1748.000 0.338
1749.000 0.337
1750.000 0.335
1751.000 0.334
1752.000 0.336
1753.000 0.336
1754.000 0.334
1755.000 0.333
1756.000 0.332
1757.000 0.331
1758.000 0.330
1759.000 0.328
1760.000 0.327
1761.000 0.329
1762.000 0.331
1763.000 0.329
1764.000 0.330
1765.000 0.328
1766.000 0.325
1767.000 0.326
1768.000 0.327
1769.000 0.326
1770.000 0.325
1771.000 0.325
1772.000 0.324
1773.000 0.321
1774.000 0.321
1775.000 0.320
1776.000 0.322
1777.000 0.322
1778.000 0.317
1779.000 0.313
1780.000 0.310
1781.000 0.312
1782.000 0.316
1783.000 0.322
1784.000 0.320
1785.000 0.312
1786.000 0.311
1787.000 0.308
1788.000 0.308
1789.000 0.317
1790.000 0.318
1791.000 0.313
1792.000 0.305
1793.000 0.294
1794.000 0.298
1795.000 0.319
1796.000 0.341
1797.000 0.351
1798.000 0.339
1799.000 0.328
1800.000 0.310
1801.000 0.461
1802.000 0.528
1803.000 0.590
1804.000 0.543
1805.000 0.564
1806.000 0.777
1807.000 0.779
1808.000 0.742
1809.000 0.722
1810.000 0.698
1811.000 0.676
1812.000 0.652
1813.000 0.657
1814.000 0.653
1815.000 0.634
1816.000 0.627
1817.000 0.619
1818.000 0.623
1819.000 0.605
1820.000 0.595
1821.000 0.526
1822.000 0.522
1823.000 0.550
1824.000 0.473
1825.000 0.427
1826.000 0.464
1827.000 0.532
1828.000 0.480
1829.000 0.458
1830.000 0.767
1831.000 0.461
1832.000 0.386
1833.000 0.592
1834.000 0.637
1835.000 0.538
1836.000 0.437
1837.000 0.508
1838.000 0.568
1839.000 0.504
1840.000 0.510
1841.000 0.483
1842.000 0.491
1843.000 0.799
1844.000 0.571
1845.000 0.396
1846.000 0.427
1847.000 0.452
1848.000 0.533
1849.000 0.601
1850.000 0.605
1851.000 0.621
1852.000 0.598
1853.000 0.603
1854.000 0.498
1855.000 0.501
1856.000 0.464
1857.000 0.484
1858.000 0.350
1859.000 0.343
1860.000 0.350
1861.000 0.353
1862.000 0.341
1863.000 0.359
1864.000 0.384
1865.000 0.485
1866.000 0.400
1867.000 0.403
1868.000 0.814
1869.000 0.804
1870.000 0.713
1871.000 0.709
1872.000 0.758
1873.000 0.721
1874.000 0.727
1875.000 0.683
1876.000 0.616
1877.000 0.497
1878.000 0.538
1879.000 0.593
1880.000 0.614
1881.000 0.529
1882.000 0.429
1883.000 0.164
1884.000 0.318
1885.000 0.449
1886.000 0.617
1887.000 0.531
1888.000 0.498
1889.000 0.562
1890.000 0.520
1891.000 0.546
1892.000 0.503
1893.000 0.469
1894.000 0.472
1895.000 0.322
1896.000 0.580
1897.000 0.624
1898.000 0.676
1899.000 0.687
1900.000 0.637
1901.000 0.648
1902.000 0.605
1903.000 0.511
1904.000 0.456
1905.000 0.457
1906.000 0.429
1907.000 0.372
1908.000 0.303
1909.000 0.295
1910.000 0.522
1911.000 0.580
1912.000 0.498
1913.000 0.424
1914.000 0.459
1915.000 0.447
1916.000 0.472
1917.000 0.484
1918.000 0.514
1919.000 0.537
1920.000 0.561
1921.000 0.532
1922.000 0.453
1923.000 0.672
1924.000 0.473
1925.000 0.260
1926.000 0.109
1927.000 0.188
1928.000 0.355
1929.000 0.370
1930.000 0.388
1931.000 0.405
1932.000 0.424
1933.000 0.438
1934.000 0.418
1935.000 0.402
1936.000 0.334
1937.000 0.259
1938.000 0.199
1939.000 0.384
1940.000 0.217
1941.000 0.295
1942.000 0.321
1943.000 0.400
1944.000 0.360
1945.000 0.483
1946.000 0.320
1947.000 0.316
1948.000 0.335
1949.000 0.410
1950.000 0.353
1951.000 0.352
1952.000 0.353
1953.000 0.295
1954.000 0.288
1955.000 0.188
1956.000 0.226
1957.000 0.213
1958.000 0.279
1959.000 0.286
1960.000 0.354
1961.000 0.364
1962.000 0.364
1963.000 0.340
1964.000 0.329
1965.000 0.450
1966.000 0.257
1967.000 0.276
1968.000 0.218
1969.000 0.188
1970.000 0.195
1971.000 0.203
1972.000 0.194
1973.000 0.216
1974.000 0.267
1975.000 0.278
1976.000 0.241
1977.000 0.204
1978.000 0.186
1979.000 0.149
1980.000 0.130
1981.000 0.173
1982.000 0.176
1983.000 0.187
1984.000 0.175
1985.000 0.156
1986.000 0.150
1987.000 0.135
1988.000 0.132
1989.000 0.160
1990.000 0.156
1991.000 0.135
1992.000 0.127
1993.000 0.108
1994.000 0.093
1995.000 0.104
1996.000 0.117
1997.000 0.122
1998.000 0.148
1999.000 0.168
2000.000 0.188
2001.000 0.228
2002.000 0.216
2003.000 0.229
2004.000 0.250
2005.000 0.256
2006.000 0.248
2007.000 0.289
2008.000 0.254
2009.000 0.242
2010.000 0.260
2011.000 0.243
2012.000 0.245
2013.000 0.203
2014.000 0.195
2015.000 0.194
2016.000 0.202
2017.000 0.230
2018.000 0.233
2019.000 0.231
2020.000 0.221
2021.000 0.199
2022.000 0.173
2023.000 0.186
2024.000 0.187
2025.000 0.171
2026.000 0.169
2027.000 0.160
2028.000 0.140
2029.000 0.137
2030.000 0.146
2031.000 0.148
2032.000 0.152
2033.000 0.152
2034.000 0.152
2035.000 0.146
2036.000 0.136
2037.000 0.134
2038.000 0.123
2039.000 0.120
2040.000 0.122
2041.000 0.117
2042.000 0.119
2043.000 0.126
2044.000 0.131
2045.000 0.139
2046.000 0.145
2047.000 0.152
2048.000 0.156
2049.000 0.158
2050.000 0.150
2051.000 0.150
2052.000 0.147
2053.000 0.146
2054.000 0.155
2055.000 0.156
2056.000 0.165
2057.000 0.171
2058.000 0.177
2059.000 0.182
2060.000 0.188
2061.000 0.192
2062.000 0.201
2063.000 0.201
2064.000 0.192
2065.000 0.187
2066.000 0.181
2067.000 0.169
2068.000 0.160
2069.000 0.162
2070.000 0.163
2071.000 0.160
2072.000 0.157
2073.000 0.154
2074.000 0.153
2075.000 0.150
2076.000 0.149
2077.000 0.152
2078.000 0.153
2079.000 0.154
2080.000 0.157
2081.000 0.161
2082.000 0.167
2083.000 0.176
2084.000 0.179
2085.000 0.182
2086.000 0.176
2087.000 0.174
2088.000 0.168
2089.000 0.167
2090.000 0.170
2091.000 0.170
2092.000 0.166
2093.000 0.163
2094.000 0.157
2095.000 0.153
2096.000 0.151
2097.000 0.151
2098.000 0.153
2099.000 0.157
2100.000 0.162
2101.000 0.163
2102.000 0.158
2103.000 0.156
2104.000 0.160
2105.000 0.169
2106.000 0.173
2107.000 0.185
2108.000 0.184
2109.000 0.167
2110.000 0.163
2111.000 0.160
2112.000 0.158
2113.000 0.163
2114.000 0.164
2115.000 0.163
2116.000 0.164
2117.000 0.170
2118.000 0.170
2119.000 0.168
2120.000 0.173
2121.000 0.176
2122.000 0.179
2123.000 0.182
2124.000 0.186
2125.000 0.188
2126.000 0.188
2127.000 0.188
2128.000 0.189
2129.000 0.188
2130.000 0.185
2131.000 0.186
2132.000 0.189
2133.000 0.190
2134.000 0.192
2135.000 0.192
2136.000 0.187
2137.000 0.182
2138.000 0.184
2139.000 0.186
2140.000 0.191
2141.000 0.198
2142.000 0.197
2143.000 0.188
2144.000 0.188
2145.000 0.183
2146.000 0.182
2147.000 0.191
2148.000 0.193
2149.000 0.189
2150.000 0.191
2151.000 0.196
2152.000 0.198
2153.000 0.207
2154.000 0.210
2155.000 0.209
2156.000 0.206
2157.000 0.203
2158.000 0.198
2159.000 0.197
2160.000 0.199
2161.000 0.200
2162.000 0.206
2163.000 0.203
2164.000 0.194
2165.000 0.192
2166.000 0.190
2167.000 0.189
2168.000 0.189
2169.000 0.191
2170.000 0.192
2171.000 0.193
2172.000 0.199
2173.000 0.202
2174.000 0.204
2175.000 0.206
2176.000 0.213
2177.000 0.212
2178.000 0.208
2179.000 0.202
2180.000 0.194
2181.000 0.190
2182.000 0.195
2183.000 0.201
2184.000 0.205
2185.000 0.211
2186.000 0.215
2187.000 0.215
2188.000 0.217
2189.000 0.219
2190.000 0.222
2191.000 0.228
2192.000 0.227
2193.000 0.224
2194.000 0.220
2195.000 0.208
2196.000 0.203
2197.000 0.198
2198.000 0.198
2199.000 0.201
2200.000 0.204
2201.000 0.214
2202.000 0.216
2203.000 0.223
2204.000 0.232
2205.000 0.230
2206.000 0.231
2207.000 0.227
2208.000 0.209
2209.000 0.201
2210.000 0.196
2211.000 0.192
2212.000 0.191
2213.000 0.193
2214.000 0.199
2215.000 0.204
2216.000 0.215
2217.000 0.219
2218.000 0.214
2219.000 0.216
2220.000 0.216
2221.000 0.218
2222.000 0.227
2223.000 0.229
2224.000 0.221
2225.000 0.220
2226.000 0.220
2227.000 0.218
2228.000 0.218
2229.000 0.222
2230.000 0.219
2231.000 0.209
2232.000 0.206
2233.000 0.202
2234.000 0.194
2235.000 0.188
2236.000 0.184
2237.000 0.184
2238.000 0.188
2239.000 0.203
2240.000 0.207
2241.000 0.207
2242.000 0.206
2243.000 0.196
2244.000 0.194
2245.000 0.194
2246.000 0.196
2247.000 0.204
2248.000 0.205
2249.000 0.202
2250.000 0.204
2251.000 0.206
2252.000 0.207
2253.000 0.210
2254.000 0.214
2255.000 0.212
2256.000 0.214
2257.000 0.226
2258.000 0.224
2259.000 0.234
2260.000 0.238
2261.000 0.226
2262.000 0.227
2263.000 0.219
2264.000 0.207
2265.000 0.208
2266.000 0.213
2267.000 0.219
2268.000 0.225
2269.000 0.226
2270.000 0.221
2271.000 0.219
2272.000 0.202
2273.000 0.197
2274.000 0.198
2275.000 0.199
2276.000 0.209
2277.000 0.209
2278.000 0.198
2279.000 0.192
2280.000 0.186
2281.000 0.180
2282.000 0.171
2283.000 0.173
2284.000 0.177
2285.000 0.182
2286.000 0.209
2287.000 0.212
2288.000 0.197
2289.000 0.190
2290.000 0.167
2291.000 0.162
2292.000 0.173
2293.000 0.180
2294.000 0.197
2295.000 0.205
2296.000 0.204
2297.000 0.207
2298.000 0.218
2299.000 0.208
2300.000 0.202
2301.000 0.192
2302.000 0.181
2303.000 0.163
2304.000 0.148
2305.000 0.172
2306.000 0.176
2307.000 0.166
2308.000 0.148
2309.000 0.152
2310.000 0.141
2311.000 0.152
2312.000 0.162
2313.000 0.155
2314.000 0.189
2315.000 0.190
2316.000 0.198
2317.000 0.269
2318.000 0.274
2319.000 0.297
2320.000 0.275
2321.000 0.248
2322.000 0.259
2323.000 0.257
2324.000 0.205
2325.000 0.184
2326.000 0.162
2327.000 0.133
2328.000 0.127
2329.000 0.140
2330.000 0.131
2331.000 0.127
2332.000 0.135
2333.000 0.137
2334.000 0.150
2335.000 0.226
2336.000 0.299
2337.000 0.320
2338.000 0.303
2339.000 0.212
2340.000 0.193
2341.000 0.187
2342.000 0.194
2343.000 0.212
2344.000 0.200
2345.000 0.193
2346.000 0.213
2347.000 0.223
2348.000 0.217
2349.000 0.212
2350.000 0.211
2351.000 0.201
2352.000 0.198
2353.000 0.201
2354.000 0.197
2355.000 0.208
2356.000 0.227
2357.000 0.227
2358.000 0.257
2359.000 0.253
2360.000 0.215
2361.000 0.208
2362.000 0.229
2363.000 0.244
2364.000 0.283
2365.000 0.315
2366.000 0.289
2367.000 0.305
2368.000 0.247
2369.000 0.234
2370.000 0.188
2371.000 0.227
2372.000 0.249
2373.000 0.281
2374.000 0.150
2375.000 0.169
2376.000 0.258
2377.000 0.203
2378.000 0.204
2379.000 0.245
2380.000 0.249
2381.000 0.144
2382.000 0.148
2383.000 0.190
2384.000 0.252
2385.000 0.303
2386.000 0.257
2387.000 0.290
2388.000 0.259
2389.000 0.297
2390.000 0.358
2391.000 0.367
2392.000 0.299
2393.000 0.105
2394.000 0.349
2395.000 0.463
2396.000 0.504
2397.000 0.455
2398.000 0.242
2399.000 0.267
2400.000 0.341
2401.000 0.461
2402.000 0.428
2403.000 0.372
2404.000 0.291
2405.000 0.279
2406.000 0.108
2407.000 0.136
2408.000 0.222
2409.000 0.521
2410.000 0.349
2411.000 0.242
2412.000 0.483
2413.000 0.445
2414.000 0.531
2415.000 0.427
2416.000 0.552
2417.000 0.188
2418.000 0.152
2419.000 0.251
2420.000 0.391
2421.000 0.256
2422.000 0.299
2423.000 0.445
2424.000 0.487
2425.000 0.489
2426.000 0.309
2427.000 0.369
2428.000 0.427
2429.000 0.496
2430.000 0.456
2431.000 0.480
2432.000 0.538
2433.000 0.587
2434.000 0.402
2435.000 0.284
2436.000 0.628
2437.000 0.668
2438.000 0.614
2439.000 0.470
2440.000 0.406
2441.000 0.338
2442.000 0.317
2443.000 0.438
2444.000 0.365
2445.000 0.368
2446.000 0.319
2447.000 0.323
2448.000 0.250
2449.000 0.334
2450.000 0.325
2451.000 0.339
2452.000 0.321
2453.000 0.339
2454.000 0.646
2455.000 0.332
2456.000 0.478
2457.000 0.722
2458.000 0.361
2459.000 0.416
2460.000 0.282
2461.000 0.241
2462.000 0.387
2463.000 0.332
2464.000 0.446
2465.000 0.599
2466.000 0.591
2467.000 0.581
2468.000 0.579
2469.000 0.650
2470.000 0.584
2471.000 0.341
2472.000 0.352
2473.000 0.396
2474.000 0.266
2475.000 0.392
2476.000 0.600
2477.000 0.726
2478.000 0.488
2479.000 0.426
2480.000 0.380
2481.000 0.264
2482.000 0.306
2483.000 0.443
2484.000 0.383
2485.000 0.275
2486.000 0.463
2487.000 0.344
2488.000 0.276
2489.000 0.194
2490.000 0.228
2491.000 0.421
2492.000 0.479
2493.000 0.532
2494.000 0.578
2495.000 0.698
2496.000 0.808
2497.000 0.551
2498.000 0.526
2499.000 0.400
2500.000 0.400
