391.000 0.032
392.000 0.027
393.000 0.024
394.000 0.027
395.000 0.030
396.000 0.030
397.000 0.030
398.000 0.031
399.000 0.030
400.000 0.030
401.000 0.031
402.000 0.032
403.000 0.031
404.000 0.030
405.000 0.028
406.000 0.028
407.000 0.029
408.000 0.031
409.000 0.029
410.000 0.027
411.000 0.027
412.000 0.029
413.000 0.028
414.000 0.029
415.000 0.029
416.000 0.030
417.000 0.030
418.000 0.029
419.000 0.029
420.000 0.030
421.000 0.030
422.000 0.030
423.000 0.029
424.000 0.029
425.000 0.030
426.000 0.032
427.000 0.032
428.000 0.030
429.000 0.029
430.000 0.030
431.000 0.030
432.000 0.030
433.000 0.031
434.000 0.031
435.000 0.031
436.000 0.030
437.000 0.028
438.000 0.029
439.000 0.031
440.000 0.031
441.000 0.030
442.000 0.031
443.000 0.030
444.000 0.030
445.000 0.031
446.000 0.031
447.000 0.030
448.000 0.030
449.000 0.032
450.000 0.031
451.000 0.030
452.000 0.030
453.000 0.031
454.000 0.031
455.000 0.031
456.000 0.032
457.000 0.031
458.000 0.032
459.000 0.032
460.000 0.031
461.000 0.032
462.000 0.032
463.000 0.031
464.000 0.031
465.000 0.032
466.000 0.033
467.000 0.031
468.000 0.032
469.000 0.033
470.000 0.033
471.000 0.032
472.000 0.032
473.000 0.031
474.000 0.031
475.000 0.032
476.000 0.032
477.000 0.032
478.000 0.034
479.000 0.033
480.000 0.034
481.000 0.034
482.000 0.032
483.000 0.033
484.000 0.035
485.000 0.034
486.000 0.032
487.000 0.031
488.000 0.033
489.000 0.035
490.000 0.034
491.000 0.033
492.000 0.033
493.000 0.034
494.000 0.035
495.000 0.036
496.000 0.034
497.000 0.035
498.000 0.036
499.000 0.037
500.000 0.038
501.000 0.038
502.000 0.038
503.000 0.039
504.000 0.040
505.000 0.040
506.000 0.039
507.000 0.041
508.000 0.043
509.000 0.044
510.000 0.045
511.000 0.045
512.000 0.046
513.000 0.048
514.000 0.050
515.000 0.053
516.000 0.053
517.000 0.055
518.000 0.058
519.000 0.061
520.000 0.063
521.000 0.067
522.000 0.070
523.000 0.071
524.000 0.073
525.000 0.075
526.000 0.079
527.000 0.082
528.000 0.083
529.000 0.086
530.000 0.088
531.000 0.089
532.000 0.091
533.000 0.092
534.000 0.094
535.000 0.095
536.000 0.096
537.000 0.097
538.000 0.098
539.000 0.099
540.000 0.099
541.000 0.100
542.000 0.101
543.000 0.101
544.000 0.101
545.000 0.100
546.000 0.101
547.000 0.101
548.000 0.101
549.000 0.102
550.000 0.103
551.000 0.102
552.000 0.102
553.000 0.103
554.000 0.103
555.000 0.103
556.000 0.102
557.000 0.101
558.000 0.101
559.000 0.099
560.000 0.099
561.000 0.098
562.000 0.096
563.000 0.095
564.000 0.094
565.000 0.092
566.000 0.091
567.000 0.089
568.000 0.087
569.000 0.085
570.000 0.083
571.000 0.082
572.000 0.081
573.000 0.080
574.000 0.078
575.000 0.076
576.000 0.076
577.000 0.075
578.000 0.073
579.000 0.073
580.000 0.071
581.000 0.071
582.000 0.069
583.000 0.069
584.000 0.069
585.000 0.068
586.000 0.067
587.000 0.066
588.000 0.066
589.000 0.065
590.000 0.065
591.000 0.064
592.000 0.063
593.000 0.063
594.000 0.063
595.000 0.063
596.000 0.063
597.000 0.062
598.000 0.061
599.000 0.062
600.000 0.061
601.000 0.061
602.000 0.062
603.000 0.061
604.000 0.061
605.000 0.060
606.000 0.059
607.000 0.059
608.000 0.059
609.000 0.058
610.000 0.059
611.000 0.059
612.000 0.058
613.000 0.057
614.000 0.055
615.000 0.055
616.000 0.055
617.000 0.055
618.000 0.055
619.000 0.056
620.000 0.055
621.000 0.055
622.000 0.054
623.000 0.054
624.000 0.053
625.000 0.054
626.000 0.054
627.000 0.053
628.000 0.053
629.000 0.053
630.000 0.053
631.000 0.054
632.000 0.054
633.000 0.054
634.000 0.053
635.000 0.054
636.000 0.054
637.000 0.052
638.000 0.052
639.000 0.052
640.000 0.052
641.000 0.051
642.000 0.049
643.000 0.048
644.000 0.048
645.000 0.048
646.000 0.049
647.000 0.048
648.000 0.046
649.000 0.045
650.000 0.046
651.000 0.048
652.000 0.048
653.000 0.048
654.000 0.048
655.000 0.049
656.000 0.048
657.000 0.048
658.000 0.048
659.000 0.049
660.000 0.049
661.000 0.047
662.000 0.044
663.000 0.046
664.000 0.048
665.000 0.049
666.000 0.047
667.000 0.048
668.000 0.048
669.000 0.048
670.000 0.049
671.000 0.050
672.000 0.050
673.000 0.049
674.000 0.051
675.000 0.053
676.000 0.053
677.000 0.055
678.000 0.054
679.000 0.056
680.000 0.058
681.000 0.059
682.000 0.058
683.000 0.057
684.000 0.058
685.000 0.059
686.000 0.061
687.000 0.065
688.000 0.068
689.000 0.069
690.000 0.069
691.000 0.070
692.000 0.073
693.000 0.077
694.000 0.080
695.000 0.085
696.000 0.092
697.000 0.097
698.000 0.103
699.000 0.111
700.000 0.119
701.000 0.128
702.000 0.137
703.000 0.146
704.000 0.155
705.000 0.163
706.000 0.173
707.000 0.182
708.000 0.192
709.000 0.201
710.000 0.211
711.000 0.220
712.000 0.230
713.000 0.240
714.000 0.250
715.000 0.260
716.000 0.270
717.000 0.281
718.000 0.293
719.000 0.305
720.000 0.316
721.000 0.327
722.000 0.336
723.000 0.346
724.000 0.357
725.000 0.368
726.000 0.379
727.000 0.388
728.000 0.398
729.000 0.407
730.000 0.416
731.000 0.425
732.000 0.433
733.000 0.441
734.000 0.448
735.000 0.455
736.000 0.462
737.000 0.469
738.000 0.475
739.000 0.481
740.000 0.487
741.000 0.492
742.000 0.497
743.000 0.501
744.000 0.506
745.000 0.509
746.000 0.513
747.000 0.517
748.000 0.520
749.000 0.523
750.000 0.525
751.000 0.528
752.000 0.530
753.000 0.532
754.000 0.534
755.000 0.536
756.000 0.538
757.000 0.540
758.000 0.541
759.000 0.543
760.000 0.544
761.000 0.547
762.000 0.548
763.000 0.549
764.000 0.549
765.000 0.550
766.000 0.551
767.000 0.551
768.000 0.552
769.000 0.553
770.000 0.553
771.000 0.554
772.000 0.554
773.000 0.555
774.000 0.556
775.000 0.556
776.000 0.557
777.000 0.557
778.000 0.557
779.000 0.558
780.000 0.559
781.000 0.559
782.000 0.560
783.000 0.560
784.000 0.561
785.000 0.561
786.000 0.562
787.000 0.563
788.000 0.563
789.000 0.564
790.000 0.564
791.000 0.565
792.000 0.565
793.000 0.566
794.000 0.567
795.000 0.567
796.000 0.567
797.000 0.568
798.000 0.568
799.000 0.569
800.000 0.569
801.000 0.570
802.000 0.570
803.000 0.571
804.000 0.571
805.000 0.572
806.000 0.572
807.000 0.573
808.000 0.573
809.000 0.574
810.000 0.574
811.000 0.575
812.000 0.575
813.000 0.576
814.000 0.576
815.000 0.577
816.000 0.577
817.000 0.578
818.000 0.579
819.000 0.578
820.000 0.579
821.000 0.580
822.000 0.580
823.000 0.580
824.000 0.581
825.000 0.582
826.000 0.582
827.000 0.582
828.000 0.582
829.000 0.583
830.000 0.583
831.000 0.584
832.000 0.584
833.000 0.584
834.000 0.584
835.000 0.585
836.000 0.585
837.000 0.586
838.000 0.586
839.000 0.587
840.000 0.587
841.000 0.587
842.000 0.588
843.000 0.588
844.000 0.589
845.000 0.589
846.000 0.590
847.000 0.590
848.000 0.590
849.000 0.590
850.000 0.590
851.000 0.591
852.000 0.591
853.000 0.591
854.000 0.592
855.000 0.593
856.000 0.593
857.000 0.593
858.000 0.593
859.000 0.594
860.000 0.594
861.000 0.594
862.000 0.595
863.000 0.595
864.000 0.596
865.000 0.596
866.000 0.596
867.000 0.596
868.000 0.597
869.000 0.597
870.000 0.598
871.000 0.598
872.000 0.599
873.000 0.599
874.000 0.599
875.000 0.600
876.000 0.600
877.000 0.600
878.000 0.601
879.000 0.601
880.000 0.601
881.000 0.602
882.000 0.602
883.000 0.603
884.000 0.603
885.000 0.603
886.000 0.604
887.000 0.604
888.000 0.605
889.000 0.605
890.000 0.605
891.000 0.606
892.000 0.606
893.000 0.606
894.000 0.607
895.000 0.607
896.000 0.608
897.000 0.607
898.000 0.608
899.000 0.608
900.000 0.609
901.000 0.609
902.000 0.609
903.000 0.610
904.000 0.610
905.000 0.610
906.000 0.611
907.000 0.611
908.000 0.611
909.000 0.611
910.000 0.613
911.000 0.613
912.000 0.613
913.000 0.612
914.000 0.612
915.000 0.613
916.000 0.614
917.000 0.614
918.000 0.614
919.000 0.614
920.000 0.614
921.000 0.614
922.000 0.614
923.000 0.615
924.000 0.615
925.000 0.615
926.000 0.615
927.000 0.615
928.000 0.614
929.000 0.615
930.000 0.614
931.000 0.614
932.000 0.615
933.000 0.615
934.000 0.613
935.000 0.611
936.000 0.611
937.000 0.613
938.000 0.612
939.000 0.610
940.000 0.612
941.000 0.611
942.000 0.610
943.000 0.611
944.000 0.611
945.000 0.609
946.000 0.608
947.000 0.609
948.000 0.610
949.000 0.609
950.000 0.607
951.000 0.605
952.000 0.607
953.000 0.607
954.000 0.606
955.000 0.605
956.000 0.604
957.000 0.605
958.000 0.605
959.000 0.604
960.000 0.604
961.000 0.603
962.000 0.603
963.000 0.603
964.000 0.602
965.000 0.602
966.000 0.604
967.000 0.604
968.000 0.604
969.000 0.603
970.000 0.604
971.000 0.604
972.000 0.604
973.000 0.603
974.000 0.603
975.000 0.604
976.000 0.603
977.000 0.604
978.000 0.605
979.000 0.604
980.000 0.606
981.000 0.606
982.000 0.607
983.000 0.607
984.000 0.607
985.000 0.607
986.000 0.607
987.000 0.608
988.000 0.609
989.000 0.609
990.000 0.610
991.000 0.611
992.000 0.610
993.000 0.610
994.000 0.611
995.000 0.612
996.000 0.612
997.000 0.611
998.000 0.611
999.000 0.613
1000.000 0.613
1001.000 0.617
1002.000 0.617
1003.000 0.618
1004.000 0.618
1005.000 0.619
1006.000 0.620
1007.000 0.620
1008.000 0.621
1009.000 0.622
1010.000 0.622
1011.000 0.623
1012.000 0.624
1013.000 0.624
1014.000 0.624
1015.000 0.625
1016.000 0.626
1017.000 0.626
1018.000 0.627
1019.000 0.627
1020.000 0.627
1021.000 0.627
1022.000 0.627
1023.000 0.627
1024.000 0.628
1025.000 0.630
1026.000 0.630
1027.000 0.631
1028.000 0.632
1029.000 0.632
1030.000 0.633
1031.000 0.634
1032.000 0.635
1033.000 0.636
1034.000 0.637
1035.000 0.637
1036.000 0.638
1037.000 0.638
1038.000 0.638
1039.000 0.638
1040.000 0.639
1041.000 0.640
1042.000 0.641
1043.000 0.641
1044.000 0.642
1045.000 0.642
1046.000 0.642
1047.000 0.643
1048.000 0.644
1049.000 0.644
1050.000 0.644
1051.000 0.644
1052.000 0.644
1053.000 0.645
1054.000 0.645
1055.000 0.646
1056.000 0.647
1057.000 0.647
1058.000 0.646
1059.000 0.646
1060.000 0.647
1061.000 0.647
1062.000 0.647
1063.000 0.648
1064.000 0.649
1065.000 0.649
1066.000 0.650
1067.000 0.650
1068.000 0.650
1069.000 0.651
1070.000 0.651
1071.000 0.651
1072.000 0.650
1073.000 0.651
1074.000 0.650
1075.000 0.650
1076.000 0.651
1077.000 0.651
1078.000 0.652
1079.000 0.653
1080.000 0.653
1081.000 0.653
1082.000 0.652
1083.000 0.652
1084.000 0.652
1085.000 0.652
1086.000 0.652
1087.000 0.653
1088.000 0.653
1089.000 0.652
1090.000 0.652
1091.000 0.653
1092.000 0.653
1093.000 0.653
1094.000 0.653
1095.000 0.653
1096.000 0.653
1097.000 0.652
1098.000 0.652
1099.000 0.653
1100.000 0.652
1101.000 0.653
1102.000 0.653
1103.000 0.653
1104.000 0.653
1105.000 0.653
1106.000 0.653
1107.000 0.653
1108.000 0.652
1109.000 0.653
1110.000 0.652
1111.000 0.652
1112.000 0.651
1113.000 0.651
1114.000 0.650
1115.000 0.649
1116.000 0.649
1117.000 0.647
1118.000 0.645
1119.000 0.645
1120.000 0.646
1121.000 0.645
1122.000 0.646
1123.000 0.645
1124.000 0.642
1125.000 0.640
1126.000 0.640
1127.000 0.640
1128.000 0.640
1129.000 0.639
1130.000 0.640
1131.000 0.637
1132.000 0.637
1133.000 0.636
1134.000 0.634
1135.000 0.633
1136.000 0.631
1137.000 0.630
1138.000 0.630
1139.000 0.631
1140.000 0.630
1141.000 0.628
1142.000 0.627
1143.000 0.625
1144.000 0.623
1145.000 0.621
1146.000 0.619
1147.000 0.614
1148.000 0.612
1149.000 0.610
1150.000 0.607
1151.000 0.605
1152.000 0.605
1153.000 0.603
1154.000 0.603
1155.000 0.603
1156.000 0.602
1157.000 0.602
1158.000 0.601
1159.000 0.601
1160.000 0.600
1161.000 0.601
1162.000 0.601
1163.000 0.601
1164.000 0.601
1165.000 0.602
1166.000 0.602
1167.000 0.601
1168.000 0.600
1169.000 0.598
1170.000 0.597
1171.000 0.597
1172.000 0.597
1173.000 0.598
1174.000 0.598
1175.000 0.599
1176.000 0.599
1177.000 0.599
1178.000 0.599
1179.000 0.599
1180.000 0.599
1181.000 0.599
1182.000 0.599
1183.000 0.598
1184.000 0.598
1185.000 0.598
1186.000 0.598
1187.000 0.598
1188.000 0.598
1189.000 0.597
1190.000 0.598
1191.000 0.598
1192.000 0.598
1193.000 0.598
1194.000 0.598
1195.000 0.597
1196.000 0.598
1197.000 0.598
1198.000 0.597
1199.000 0.597
1200.000 0.597
1201.000 0.597
1202.000 0.598
1203.000 0.598
1204.000 0.600
1205.000 0.600
1206.000 0.600
1207.000 0.600
1208.000 0.600
1209.000 0.600
1210.000 0.600
1211.000 0.601
1212.000 0.601
1213.000 0.602
1214.000 0.602
1215.000 0.603
1216.000 0.603
1217.000 0.603
1218.000 0.603
1219.000 0.603
1220.000 0.604
1221.000 0.605
1222.000 0.606
1223.000 0.606
1224.000 0.606
1225.000 0.607
1226.000 0.607
1227.000 0.607
1228.000 0.607
1229.000 0.608
1230.000 0.608
1231.000 0.609
1232.000 0.609
1233.000 0.610
1234.000 0.610
1235.000 0.610
1236.000 0.610
1237.000 0.611
1238.000 0.611
1239.000 0.611
1240.000 0.611
1241.000 0.612
1242.000 0.613
1243.000 0.613
1244.000 0.614
1245.000 0.614
1246.000 0.615
1247.000 0.615
1248.000 0.616
1249.000 0.616
1250.000 0.617
1251.000 0.617
1252.000 0.618
1253.000 0.617
1254.000 0.618
1255.000 0.618
1256.000 0.619
1257.000 0.619
1258.000 0.619
1259.000 0.619
1260.000 0.619
1261.000 0.620
1262.000 0.620
1263.000 0.620
1264.000 0.621
1265.000 0.622
1266.000 0.622
1267.000 0.621
1268.000 0.621
1269.000 0.620
1270.000 0.620
1271.000 0.620
1272.000 0.621
1273.000 0.621
1274.000 0.621
1275.000 0.622
1276.000 0.622
1277.000 0.623
1278.000 0.623
1279.000 0.623
1280.000 0.623
1281.000 0.622
1282.000 0.622
1283.000 0.622
1284.000 0.622
1285.000 0.622
1286.000 0.622
1287.000 0.622
1288.000 0.621
1289.000 0.620
1290.000 0.619
1291.000 0.619
1292.000 0.618
1293.000 0.618
1294.000 0.618
1295.000 0.618
1296.000 0.617
1297.000 0.616
1298.000 0.615
1299.000 0.614
1300.000 0.613
1301.000 0.612
1302.000 0.611
1303.000 0.611
1304.000 0.610
1305.000 0.608
1306.000 0.607
1307.000 0.606
1308.000 0.605
1309.000 0.604
1310.000 0.603
1311.000 0.602
1312.000 0.600
1313.000 0.599
1314.000 0.598
1315.000 0.596
1316.000 0.594
1317.000 0.592
1318.000 0.590
1319.000 0.589
1320.000 0.587
1321.000 0.586
1322.000 0.585
1323.000 0.583
1324.000 0.582
1325.000 0.581
1326.000 0.579
1327.000 0.577
1328.000 0.574
1329.000 0.573
1330.000 0.571
1331.000 0.568
1332.000 0.565
1333.000 0.563
1334.000 0.560
1335.000 0.557
1336.000 0.558
1337.000 0.557
1338.000 0.554
1339.000 0.552
1340.000 0.547
1341.000 0.544
1342.000 0.542
1343.000 0.541
1344.000 0.542
1345.000 0.542
1346.000 0.545
1347.000 0.545
1348.000 0.546
1349.000 0.541
1350.000 0.541
1351.000 0.544
1352.000 0.552
1353.000 0.579
1354.000 0.597
1355.000 0.548
1356.000 0.480
1357.000 0.385
1358.000 0.299
1359.000 0.316
1360.000 0.355
1361.000 0.372
1362.000 0.423
1363.000 0.397
1364.000 0.319
1365.000 0.322
1366.000 0.371
1367.000 0.269
1368.000 0.325
1369.000 0.262
1370.000 0.306
1371.000 0.380
1372.000 0.321
1373.000 0.448
1374.000 0.412
1375.000 0.360
1376.000 0.306
1377.000 0.298
1378.000 0.256
1379.000 0.381
1380.000 0.584
1381.000 0.490
1382.000 0.414
1383.000 0.380
1384.000 0.263
1385.000 0.358
1386.000 0.462
1387.000 0.443
1388.000 0.426
1389.000 0.412
1390.000 0.393
1391.000 0.419
1392.000 0.363
1393.000 0.292
1394.000 0.310
1395.000 0.337
1396.000 0.481
1397.000 0.430
1398.000 0.422
1399.000 0.332
1400.000 0.450
1401.000 0.433
1402.000 0.485
1403.000 0.581
1404.000 0.348
1405.000 0.628
1406.000 0.350
1407.000 0.306
1408.000 0.335
1409.000 0.426
1410.000 0.335
1411.000 0.314
1412.000 0.332
1413.000 0.361
1414.000 0.374
1415.000 0.365
1416.000 0.220
1417.000 0.433
1418.000 0.490
1419.000 0.346
1420.000 0.491
1421.000 0.318
1422.000 0.302
1423.000 0.309
1424.000 0.272
1425.000 0.282
1426.000 0.268
1427.000 0.235
1428.000 0.220
1429.000 0.212
1430.000 0.190
1431.000 0.196
1432.000 0.218
1433.000 0.193
1434.000 0.199
1435.000 0.190
1436.000 0.189
1437.000 0.185
1438.000 0.190
1439.000 0.192
1440.000 0.188
1441.000 0.221
1442.000 0.224
1443.000 0.198
1444.000 0.191
1445.000 0.172
1446.000 0.168
1447.000 0.168
1448.000 0.170
1449.000 0.180
1450.000 0.185
1451.000 0.191
1452.000 0.197
1453.000 0.198
1454.000 0.198
1455.000 0.198
1456.000 0.193
1457.000 0.188
1458.000 0.184
1459.000 0.186
1460.000 0.185
1461.000 0.188
1462.000 0.199
1463.000 0.203
1464.000 0.203
1465.000 0.201
1466.000 0.194
1467.000 0.191
1468.000 0.194
1469.000 0.198
1470.000 0.209
1471.000 0.215
1472.000 0.224
1473.000 0.225
1474.000 0.219
1475.000 0.218
1476.000 0.212
1477.000 0.213
1478.000 0.213
1479.000 0.213
1480.000 0.219
1481.000 0.223
1482.000 0.229
1483.000 0.229
1484.000 0.224
1485.000 0.225
1486.000 0.224
1487.000 0.226
1488.000 0.230
1489.000 0.234
1490.000 0.234
1491.000 0.235
1492.000 0.236
1493.000 0.236
1494.000 0.235
1495.000 0.235
1496.000 0.234
1497.000 0.235
1498.000 0.237
1499.000 0.240
1500.000 0.243
1501.000 0.245
1502.000 0.245
1503.000 0.247
1504.000 0.248
1505.000 0.249
1506.000 0.251
1507.000 0.253
1508.000 0.254
1509.000 0.256
1510.000 0.258
1511.000 0.261
1512.000 0.263
1513.000 0.266
1514.000 0.268
1515.000 0.268
1516.000 0.270
1517.000 0.273
1518.000 0.274
1519.000 0.276
1520.000 0.278
1521.000 0.279
1522.000 0.281
1523.000 0.284
1524.000 0.286
1525.000 0.289
1526.000 0.291
1527.000 0.293
1528.000 0.294
1529.000 0.294
1530.000 0.295
1531.000 0.296
1532.000 0.298
1533.000 0.301
1534.000 0.303
1535.000 0.306
1536.000 0.308
1537.000 0.309
1538.000 0.310
1539.000 0.312
1540.000 0.313
1541.000 0.314
1542.000 0.316
1543.000 0.318
1544.000 0.320
1545.000 0.323
1546.000 0.325
1547.000 0.326
1548.000 0.327
1549.000 0.328
1550.000 0.329
1551.000 0.332
1552.000 0.333
1553.000 0.333
1554.000 0.335
1555.000 0.335
1556.000 0.337
1557.000 0.340
1558.000 0.341
1559.000 0.342
1560.000 0.343
1561.000 0.344
1562.000 0.345
1563.000 0.347
1564.000 0.348
1565.000 0.350
1566.000 0.352
1567.000 0.354
1568.000 0.356
1569.000 0.357
1570.000 0.358
1571.000 0.359
1572.000 0.360
1573.000 0.361
1574.000 0.362
1575.000 0.364
1576.000 0.366
1577.000 0.367
1578.000 0.369
1579.000 0.370
1580.000 0.372
1581.000 0.371
1582.000 0.373
1583.000 0.375
1584.000 0.377
1585.000 0.379
1586.000 0.381
1587.000 0.381
1588.000 0.382
1589.000 0.382
1590.000 0.383
1591.000 0.384
1592.000 0.385
1593.000 0.385
1594.000 0.386
1595.000 0.387
1596.000 0.388
1597.000 0.389
1598.000 0.390
1599.000 0.391
1600.000 0.392
1601.000 0.392
1602.000 0.392
1603.000 0.394
1604.000 0.395
1605.000 0.395
1606.000 0.397
1607.000 0.399
1608.000 0.400
1609.000 0.403
1610.000 0.404
1611.000 0.401
1612.000 0.401
1613.000 0.401
1614.000 0.401
1615.000 0.404
1616.000 0.405
1617.000 0.406
1618.000 0.407
1619.000 0.407
1620.000 0.408
1621.000 0.408
1622.000 0.409
1623.000 0.408
1624.000 0.408
1625.000 0.411
1626.000 0.412
1627.000 0.412
1628.000 0.413
1629.000 0.411
1630.000 0.412
1631.000 0.414
1632.000 0.415
1633.000 0.417
1634.000 0.418
1635.000 0.418
1636.000 0.419
1637.000 0.418
1638.000 0.418
1639.000 0.418
1640.000 0.417
1641.000 0.418
1642.000 0.418
1643.000 0.418
1644.000 0.418
1645.000 0.419
1646.000 0.420
1647.000 0.421
1648.000 0.421
1649.000 0.422
1650.000 0.423
1651.000 0.423
1652.000 0.423
1653.000 0.424
1654.000 0.425
1655.000 0.426
1656.000 0.426
1657.000 0.427
1658.000 0.427
1659.000 0.428
1660.000 0.427
1661.000 0.427
1662.000 0.427
1663.000 0.427
1664.000 0.427
1665.000 0.427
1666.000 0.427
1667.000 0.426
1668.000 0.426
1669.000 0.426
1670.000 0.426
1671.000 0.429
1672.000 0.429
1673.000 0.429
1674.000 0.429
1675.000 0.428
1676.000 0.428
1677.000 0.428
1678.000 0.429
1679.000 0.429
1680.000 0.429
1681.000 0.430
1682.000 0.429
1683.000 0.430
1684.000 0.429
1685.000 0.429
1686.000 0.429
1687.000 0.428
1688.000 0.427
1689.000 0.426
1690.000 0.426
1691.000 0.425
1692.000 0.425
1693.000 0.423
1694.000 0.424
1695.000 0.426
1696.000 0.426
1697.000 0.427
1698.000 0.428
1699.000 0.426
1700.000 0.425
1701.000 0.423
1702.000 0.422
1703.000 0.421
1704.000 0.422
1705.000 0.424
1706.000 0.424
1707.000 0.425
1708.000 0.425
1709.000 0.423
1710.000 0.422
1711.000 0.420
1712.000 0.419
1713.000 0.418
1714.000 0.419
1715.000 0.419
1716.000 0.419
1717.000 0.420
1718.000 0.420
1719.000 0.420
1720.000 0.417
1721.000 0.417
1722.000 0.416
1723.000 0.413
1724.000 0.413
1725.000 0.412
1726.000 0.411
1727.000 0.413
1728.000 0.415
1729.000 0.414
1730.000 0.413
1731.000 0.410
1732.000 0.407
1733.000 0.406
1734.000 0.404
1735.000 0.402
1736.000 0.401
1737.000 0.400
1738.000 0.402
1739.000 0.402
1740.000 0.400
1741.000 0.399
1742.000 0.395
1743.000 0.394
1744.000 0.397
1745.000 0.398
1746.000 0.400
1747.000 0.401
1748.000 0.398
1749.000 0.397
1750.000 0.398
1751.000 0.395
1752.000 0.392
1753.000 0.390
1754.000 0.387
1755.000 0.386
1756.000 0.389
1757.000 0.388
1758.000 0.385
1759.000 0.383
1760.000 0.382
1761.000 0.384
1762.000 0.385
1763.000 0.383
1764.000 0.381
1765.000 0.382
1766.000 0.380
1767.000 0.378
1768.000 0.379
1769.000 0.374
1770.000 0.372
1771.000 0.370
1772.000 0.366
1773.000 0.366
1774.000 0.367
1775.000 0.368
1776.000 0.369
1777.000 0.366
1778.000 0.365
1779.000 0.365
1780.000 0.364
1781.000 0.368
1782.000 0.373
1783.000 0.375
1784.000 0.378
1785.000 0.378
1786.000 0.377
1787.000 0.377
1788.000 0.374
1789.000 0.370
1790.000 0.369
1791.000 0.368
1792.000 0.372
1793.000 0.367
1794.000 0.358
1795.000 0.359
1796.000 0.348
1797.000 0.336
1798.000 0.329
1799.000 0.309
1800.000 0.318
1801.000 0.591
1802.000 0.651
1803.000 0.748
1804.000 0.725
1805.000 0.772
1806.000 0.803
1807.000 0.796
1808.000 0.733
1809.000 0.700
1810.000 0.701
1811.000 0.686
1812.000 0.677
1813.000 0.620
1814.000 0.606
1815.000 0.578
1816.000 0.547
1817.000 0.547
1818.000 0.415
1819.000 0.524
1820.000 0.516
1821.000 0.500
1822.000 0.656
1823.000 0.456
1824.000 0.465
1825.000 0.542
1826.000 0.677
1827.000 0.709
1828.000 0.644
1829.000 0.699
1830.000 0.549
1831.000 0.675
1832.000 0.742
1833.000 0.691
1834.000 0.649
1835.000 0.634
1836.000 0.658
1837.000 0.617
1838.000 0.479
1839.000 0.720
1840.000 0.574
1841.000 0.425
1842.000 0.402
1843.000 0.422
1844.000 0.392
1845.000 0.504
1846.000 0.472
1847.000 0.453
1848.000 0.396
1849.000 0.407
1850.000 0.454
1851.000 0.332
1852.000 0.455
1853.000 0.393
1854.000 0.396
1855.000 0.647
1856.000 0.516
1857.000 0.556
1858.000 0.612
1859.000 0.611
1860.000 0.641
1861.000 0.527
1862.000 0.496
1863.000 0.494
1864.000 0.515
1865.000 0.553
1866.000 0.477
1867.000 0.507
1868.000 0.424
1869.000 0.421
1870.000 0.496
1871.000 0.497
1872.000 0.480
1873.000 0.488
1874.000 0.305
1875.000 0.421
1876.000 0.523
1877.000 0.549
1878.000 0.525
1879.000 0.467
1880.000 0.555
1881.000 0.580
1882.000 0.617
1883.000 0.600
1884.000 0.636
1885.000 0.638
1886.000 0.657
1887.000 0.767
1888.000 0.813
1889.000 0.480
1890.000 0.429
1891.000 0.463
1892.000 0.419
1893.000 0.550
1894.000 0.578
1895.000 0.488
1896.000 0.478
1897.000 0.534
1898.000 0.541
1899.000 0.324
1900.000 0.473
1901.000 0.616
1902.000 0.465
1903.000 0.518
1904.000 0.495
1905.000 0.330
1906.000 0.497
1907.000 0.529
1908.000 0.392
1909.000 0.193
1910.000 0.388
1911.000 0.234
1912.000 0.250
1913.000 0.283
1914.000 0.258
1915.000 0.296
1916.000 0.253
1917.000 0.236
1918.000 0.337
1919.000 0.450
1920.000 0.511
1921.000 0.410
1922.000 0.314
1923.000 0.326
1924.000 0.195
1925.000 0.201
1926.000 0.331
1927.000 0.343
1928.000 0.259
1929.000 0.293
1930.000 0.315
1931.000 0.363
1932.000 0.387
1933.000 0.465
1934.000 0.679
1935.000 0.587
1936.000 0.606
1937.000 0.632
1938.000 0.666
1939.000 0.605
1940.000 0.562
1941.000 0.526
1942.000 0.480
1943.000 0.634
1944.000 0.662
1945.000 0.535
1946.000 0.559
1947.000 0.551
1948.000 0.577
1949.000 0.544
1950.000 0.465
1951.000 0.451
1952.000 0.619
1953.000 0.576
1954.000 0.683
1955.000 0.643
1956.000 0.509
1957.000 0.363
1958.000 0.556
1959.000 0.473
1960.000 0.471
1961.000 0.556
1962.000 0.548
1963.000 0.527
1964.000 0.490
1965.000 0.434
1966.000 0.320
1967.000 0.263
1968.000 0.236
1969.000 0.218
1970.000 0.242
1971.000 0.254
1972.000 0.271
1973.000 0.289
1974.000 0.292
1975.000 0.272
1976.000 0.233
1977.000 0.227
1978.000 0.229
1979.000 0.243
1980.000 0.241
1981.000 0.250
1982.000 0.237
1983.000 0.221
1984.000 0.221
1985.000 0.213
1986.000 0.204
1987.000 0.199
1988.000 0.201
1989.000 0.207
1990.000 0.203
1991.000 0.191
1992.000 0.189
1993.000 0.177
1994.000 0.174
1995.000 0.175
1996.000 0.205
1997.000 0.233
1998.000 0.237
1999.000 0.220
2000.000 0.249
2001.000 0.260
2002.000 0.220
2003.000 0.227
2004.000 0.274
2005.000 0.288
2006.000 0.310
2007.000 0.312
2008.000 0.328
2009.000 0.382
2010.000 0.502
2011.000 0.458
2012.000 0.455
2013.000 0.334
2014.000 0.305
2015.000 0.282
2016.000 0.266
2017.000 0.238
2018.000 0.223
2019.000 0.225
2020.000 0.224
2021.000 0.225
2022.000 0.212
2023.000 0.196
2024.000 0.196
2025.000 0.199
2026.000 0.206
2027.000 0.205
2028.000 0.197
2029.000 0.196
2030.000 0.196
2031.000 0.194
2032.000 0.189
2033.000 0.191
2034.000 0.191
2035.000 0.186
2036.000 0.189
2037.000 0.187
2038.000 0.185
2039.000 0.190
2040.000 0.189
2041.000 0.180
2042.000 0.178
2043.000 0.175
2044.000 0.177
2045.000 0.192
2046.000 0.197
2047.000 0.196
2048.000 0.200
2049.000 0.203
2050.000 0.197
2051.000 0.208
2052.000 0.223
2053.000 0.227
2054.000 0.228
2055.000 0.220
2056.000 0.217
2057.000 0.217
2058.000 0.221
2059.000 0.223
2060.000 0.224
2061.000 0.229
2062.000 0.240
2063.000 0.245
2064.000 0.256
2065.000 0.256
2066.000 0.246
2067.000 0.234
2068.000 0.227
2069.000 0.219
2070.000 0.211
2071.000 0.206
2072.000 0.203
2073.000 0.197
2074.000 0.197
2075.000 0.206
2076.000 0.206
2077.000 0.200
2078.000 0.202
2079.000 0.206
2080.000 0.209
2081.000 0.219
2082.000 0.228
2083.000 0.228
2084.000 0.224
2085.000 0.222
2086.000 0.220
2087.000 0.218
2088.000 0.216
2089.000 0.216
2090.000 0.218
2091.000 0.218
2092.000 0.223
2093.000 0.224
2094.000 0.222
2095.000 0.221
2096.000 0.218
2097.000 0.218
2098.000 0.220
2099.000 0.225
2100.000 0.231
2101.000 0.234
2102.000 0.232
2103.000 0.230
2104.000 0.228
2105.000 0.221
2106.000 0.221
2107.000 0.222
2108.000 0.226
2109.000 0.234
2110.000 0.239
2111.000 0.249
2112.000 0.252
2113.000 0.252
2114.000 0.251
2115.000 0.242
2116.000 0.240
2117.000 0.242
2118.000 0.239
2119.000 0.238
2120.000 0.239
2121.000 0.239
2122.000 0.243
2123.000 0.247
2124.000 0.256
2125.000 0.259
2126.000 0.260
2127.000 0.258
2128.000 0.252
2129.000 0.248
2130.000 0.239
2131.000 0.237
2132.000 0.241
2133.000 0.243
2134.000 0.250
2135.000 0.256
2136.000 0.258
2137.000 0.261
2138.000 0.264
2139.000 0.262
2140.000 0.261
2141.000 0.260
2142.000 0.257
2143.000 0.255
2144.000 0.254
2145.000 0.256
2146.000 0.254
2147.000 0.248
2148.000 0.247
2149.000 0.243
2150.000 0.243
2151.000 0.250
2152.000 0.253
2153.000 0.253
2154.000 0.253
2155.000 0.253
2156.000 0.255
2157.000 0.254
2158.000 0.252
2159.000 0.253
2160.000 0.259
2161.000 0.262
2162.000 0.266
2163.000 0.270
2164.000 0.274
2165.000 0.280
2166.000 0.285
2167.000 0.283
2168.000 0.275
2169.000 0.273
2170.000 0.275
2171.000 0.273
2172.000 0.272
2173.000 0.270
2174.000 0.271
2175.000 0.271
2176.000 0.271
2177.000 0.272
2178.000 0.271
2179.000 0.267
2180.000 0.269
2181.000 0.267
2182.000 0.265
2183.000 0.264
2184.000 0.264
2185.000 0.260
2186.000 0.261
2187.000 0.266
2188.000 0.273
2189.000 0.281
2190.000 0.286
2191.000 0.293
2192.000 0.293
2193.000 0.287
2194.000 0.281
2195.000 0.269
2196.000 0.265
2197.000 0.269
2198.000 0.268
2199.000 0.272
2200.000 0.274
2201.000 0.276
2202.000 0.269
2203.000 0.277
2204.000 0.278
2205.000 0.279
2206.000 0.284
2207.000 0.283
2208.000 0.282
2209.000 0.281
2210.000 0.278
2211.000 0.272
2212.000 0.263
2213.000 0.260
2214.000 0.256
2215.000 0.256
2216.000 0.266
2217.000 0.270
2218.000 0.274
2219.000 0.273
2220.000 0.265
2221.000 0.261
2222.000 0.254
2223.000 0.254
2224.000 0.259
2225.000 0.264
2226.000 0.278
2227.000 0.288
2228.000 0.293
2229.000 0.300
2230.000 0.301
2231.000 0.302
2232.000 0.300
2233.000 0.294
2234.000 0.284
2235.000 0.272
2236.000 0.261
2237.000 0.251
2238.000 0.248
2239.000 0.252
2240.000 0.251
2241.000 0.253
2242.000 0.253
2243.000 0.251
2244.000 0.249
2245.000 0.247
2246.000 0.246
2247.000 0.242
2248.000 0.241
2249.000 0.241
2250.000 0.239
2251.000 0.235
2252.000 0.236
2253.000 0.238
2254.000 0.244
2255.000 0.256
2256.000 0.264
2257.000 0.275
2258.000 0.275
2259.000 0.276
2260.000 0.279
2261.000 0.272
2262.000 0.273
2263.000 0.273
2264.000 0.276
2265.000 0.291
2266.000 0.302
2267.000 0.305
2268.000 0.304
2269.000 0.294
2270.000 0.275
2271.000 0.259
2272.000 0.245
2273.000 0.241
2274.000 0.243
2275.000 0.248
2276.000 0.270
2277.000 0.278
2278.000 0.289
2279.000 0.291
2280.000 0.278
2281.000 0.269
2282.000 0.252
2283.000 0.243
2284.000 0.243
2285.000 0.235
2286.000 0.222
2287.000 0.216
2288.000 0.214
2289.000 0.215
2290.000 0.225
2291.000 0.231
2292.000 0.230
2293.000 0.232
2294.000 0.231
2295.000 0.237
2296.000 0.247
2297.000 0.261
2298.000 0.268
2299.000 0.271
2300.000 0.265
2301.000 0.258
2302.000 0.263
2303.000 0.268
2304.000 0.277
2305.000 0.298
2306.000 0.296
2307.000 0.274
2308.000 0.254
2309.000 0.227
2310.000 0.198
2311.000 0.185
2312.000 0.189
2313.000 0.198
2314.000 0.188
2315.000 0.169
2316.000 0.167
2317.000 0.163
2318.000 0.179
2319.000 0.203
2320.000 0.211
2321.000 0.217
2322.000 0.205
2323.000 0.216
2324.000 0.236
2325.000 0.255
2326.000 0.265
2327.000 0.279
2328.000 0.266
2329.000 0.235
2330.000 0.220
2331.000 0.206
2332.000 0.206
2333.000 0.238
2334.000 0.259
2335.000 0.334
2336.000 0.346
2337.000 0.291
2338.000 0.306
2339.000 0.233
2340.000 0.207
2341.000 0.229
2342.000 0.232
2343.000 0.232
2344.000 0.220
2345.000 0.234
2346.000 0.238
2347.000 0.271
2348.000 0.316
2349.000 0.271
2350.000 0.266
2351.000 0.297
2352.000 0.305
2353.000 0.366
2354.000 0.376
2355.000 0.311
2356.000 0.345
2357.000 0.330
2358.000 0.257
2359.000 0.266
2360.000 0.216
2361.000 0.206
2362.000 0.193
2363.000 0.220
2364.000 0.254
2365.000 0.288
2366.000 0.354
2367.000 0.341
2368.000 0.254
2369.000 0.200
2370.000 0.251
2371.000 0.253
2372.000 0.289
2373.000 0.293
2374.000 0.331
2375.000 0.361
2376.000 0.319
2377.000 0.256
2378.000 0.191
2379.000 0.238
2380.000 0.337
2381.000 0.505
2382.000 0.336
2383.000 0.428
2384.000 0.468
2385.000 0.470
2386.000 0.369
2387.000 0.313
2388.000 0.467
2389.000 0.418
2390.000 0.396
2391.000 0.435
2392.000 0.537
2393.000 0.398
2394.000 0.344
2395.000 0.247
2396.000 0.162
2397.000 0.247
2398.000 0.302
2399.000 0.281
2400.000 0.360
2401.000 0.533
2402.000 0.566
2403.000 0.489
2404.000 0.305
2405.000 0.293
2406.000 0.326
2407.000 0.364
2408.000 0.420
2409.000 0.389
2410.000 0.549
2411.000 0.558
2412.000 0.498
2413.000 0.498
2414.000 0.285
2415.000 0.653
2416.000 0.594
2417.000 0.472
2418.000 0.517
2419.000 0.480
2420.000 0.434
2421.000 0.370
2422.000 0.408
2423.000 0.338
2424.000 0.268
2425.000 0.201
2426.000 0.199
2427.000 0.363
2428.000 0.327
2429.000 0.391
2430.000 0.576
2431.000 0.650
2432.000 0.541
2433.000 0.632
2434.000 0.285
2435.000 0.336
2436.000 0.321
2437.000 0.445
2438.000 0.539
2439.000 0.576
2440.000 0.553
2441.000 0.518
2442.000 0.415
2443.000 0.364
2444.000 0.597
2445.000 0.374
2446.000 0.294
2447.000 0.344
2448.000 0.550
2449.000 0.432
2450.000 0.557
2451.000 0.609
2452.000 0.220
2453.000 0.190
2454.000 0.373
2455.000 0.288
2456.000 0.623
2457.000 0.469
2458.000 0.376
2459.000 0.554
2460.000 0.417
2461.000 0.389
2462.000 0.495
2463.000 0.443
2464.000 0.557
2465.000 0.360
2466.000 0.456
2467.000 0.520
2468.000 0.532
2469.000 0.647
2470.000 0.595
2471.000 0.503
2472.000 0.196
2473.000 0.396
2474.000 0.298
2475.000 0.506
2476.000 0.471
2477.000 0.423
2478.000 0.363
2479.000 0.239
2480.000 0.300
2481.000 0.250
2482.000 0.351
2483.000 0.365
2484.000 0.480
2485.000 0.375
2486.000 0.345
2487.000 0.223
2488.000 0.263
2489.000 0.346
2490.000 0.502
2491.000 0.453
2492.000 0.516
2493.000 0.523
2494.000 0.593
2495.000 0.541
2496.000 0.531
2497.000 0.656
2498.000 0.455
2499.000 0.360
2500.000 0.525
