391.000 0.031
392.000 0.033
393.000 0.035
394.000 0.030
395.000 0.027
396.000 0.027
397.000 0.031
398.000 0.035
399.000 0.027
400.000 0.025
401.000 0.034
402.000 0.029
403.000 0.025
404.000 0.027
405.000 0.031
406.000 0.029
407.000 0.029
408.000 0.029
409.000 0.027
410.000 0.029
411.000 0.031
412.000 0.029
413.000 0.028
414.000 0.028
415.000 0.027
416.000 0.025
417.000 0.030
418.000 0.031
419.000 0.029
420.000 0.030
421.000 0.031
422.000 0.031
423.000 0.030
424.000 0.031
425.000 0.030
426.000 0.028
427.000 0.029
428.000 0.032
429.000 0.031
430.000 0.028
431.000 0.031
432.000 0.031
433.000 0.031
434.000 0.033
435.000 0.032
436.000 0.031
437.000 0.030
438.000 0.030
439.000 0.031
440.000 0.031
441.000 0.030
442.000 0.031
443.000 0.030
444.000 0.029
445.000 0.029
446.000 0.030
447.000 0.032
448.000 0.033
449.000 0.033
450.000 0.032
451.000 0.030
452.000 0.031
453.000 0.031
454.000 0.032
455.000 0.033
456.000 0.033
457.000 0.032
458.000 0.032
459.000 0.032
460.000 0.032
461.000 0.033
462.000 0.034
463.000 0.033
464.000 0.032
465.000 0.033
466.000 0.033
467.000 0.032
468.000 0.034
469.000 0.035
470.000 0.033
471.000 0.032
472.000 0.032
473.000 0.034
474.000 0.035
475.000 0.035
476.000 0.034
477.000 0.033
478.000 0.033
479.000 0.033
480.000 0.034
481.000 0.035
482.000 0.036
483.000 0.035
484.000 0.032
485.000 0.033
486.000 0.037
487.000 0.037
488.000 0.036
489.000 0.034
490.000 0.035
491.000 0.036
492.000 0.035
493.000 0.034
494.000 0.035
495.000 0.035
496.000 0.035
497.000 0.038
498.000 0.040
499.000 0.040
500.000 0.039
501.000 0.038
502.000 0.039
503.000 0.040
504.000 0.042
505.000 0.042
506.000 0.042
507.000 0.043
508.000 0.042
509.000 0.044
510.000 0.048
511.000 0.050
512.000 0.050
513.000 0.050
514.000 0.053
515.000 0.056
516.000 0.057
517.000 0.058
518.000 0.061
519.000 0.065
520.000 0.068
521.000 0.071
522.000 0.073
523.000 0.076
524.000 0.078
525.000 0.079
526.000 0.083
527.000 0.087
528.000 0.089
529.000 0.091
530.000 0.092
531.000 0.094
532.000 0.098
533.000 0.098
534.000 0.100
535.000 0.101
536.000 0.102
537.000 0.103
538.000 0.104
539.000 0.105
540.000 0.106
541.000 0.106
542.000 0.106
543.000 0.107
544.000 0.108
545.000 0.109
546.000 0.109
547.000 0.109
548.000 0.108
549.000 0.109
550.000 0.109
551.000 0.110
552.000 0.110
553.000 0.109
554.000 0.109
555.000 0.110
556.000 0.110
557.000 0.109
558.000 0.108
559.000 0.108
560.000 0.106
561.000 0.105
562.000 0.103
563.000 0.102
564.000 0.101
565.000 0.099
566.000 0.098
567.000 0.096
568.000 0.094
569.000 0.092
570.000 0.092
571.000 0.090
572.000 0.087
573.000 0.085
574.000 0.084
575.000 0.083
576.000 0.082
577.000 0.081
578.000 0.080
579.000 0.078
580.000 0.078
581.000 0.076
582.000 0.074
583.000 0.074
584.000 0.074
585.000 0.073
586.000 0.072
587.000 0.071
588.000 0.072
589.000 0.071
590.000 0.069
591.000 0.068
592.000 0.067
593.000 0.067
594.000 0.068
595.000 0.067
596.000 0.066
597.000 0.067
598.000 0.067
599.000 0.066
600.000 0.066
601.000 0.064
602.000 0.065
603.000 0.066
604.000 0.065
605.000 0.064
606.000 0.064
607.000 0.065
608.000 0.064
609.000 0.065
610.000 0.063
611.000 0.061
612.000 0.062
613.000 0.061
614.000 0.061
615.000 0.061
616.000 0.061
617.000 0.060
618.000 0.060
619.000 0.059
620.000 0.057
621.000 0.056
622.000 0.058
623.000 0.059
624.000 0.058
625.000 0.058
626.000 0.059
627.000 0.056
628.000 0.056
629.000 0.056
630.000 0.055
631.000 0.056
632.000 0.057
633.000 0.057
634.000 0.057
635.000 0.057
636.000 0.057
637.000 0.059
638.000 0.056
639.000 0.053
640.000 0.052
641.000 0.052
642.000 0.052
643.000 0.052
644.000 0.052
645.000 0.051
646.000 0.050
647.000 0.050
648.000 0.050
649.000 0.049
650.000 0.048
651.000 0.049
652.000 0.047
653.000 0.047
654.000 0.047
655.000 0.049
656.000 0.049
657.000 0.049
658.000 0.049
659.000 0.050
660.000 0.047
661.000 0.047
662.000 0.049
663.000 0.047
664.000 0.046
665.000 0.047
666.000 0.050
667.000 0.050
668.000 0.050
669.000 0.050
670.000 0.049
671.000 0.047
672.000 0.046
673.000 0.050
674.000 0.050
675.000 0.051
676.000 0.052
677.000 0.053
678.000 0.053
679.000 0.053
680.000 0.053
681.000 0.054
682.000 0.055
683.000 0.056
684.000 0.057
685.000 0.060
686.000 0.063
687.000 0.064
688.000 0.066
689.000 0.067
690.000 0.069
691.000 0.072
692.000 0.074
693.000 0.080
694.000 0.086
695.000 0.092
696.000 0.096
697.000 0.104
698.000 0.112
699.000 0.121
700.000 0.129
701.000 0.138
702.000 0.148
703.000 0.158
704.000 0.167
705.000 0.176
706.000 0.185
707.000 0.194
708.000 0.204
709.000 0.214
710.000 0.225
711.000 0.234
712.000 0.244
713.000 0.255
714.000 0.266
715.000 0.276
716.000 0.287
717.000 0.297
718.000 0.308
719.000 0.320
720.000 0.332
721.000 0.343
722.000 0.354
723.000 0.364
724.000 0.374
725.000 0.386
726.000 0.396
727.000 0.406
728.000 0.416
729.000 0.426
730.000 0.435
731.000 0.444
732.000 0.453
733.000 0.461
734.000 0.469
735.000 0.477
736.000 0.483
737.000 0.491
738.000 0.497
739.000 0.503
740.000 0.509
741.000 0.514
742.000 0.519
743.000 0.524
744.000 0.528
745.000 0.532
746.000 0.535
747.000 0.539
748.000 0.542
749.000 0.545
750.000 0.548
751.000 0.550
752.000 0.552
753.000 0.555
754.000 0.557
755.000 0.558
756.000 0.560
757.000 0.561
758.000 0.563
759.000 0.564
760.000 0.566
761.000 0.568
762.000 0.570
763.000 0.571
764.000 0.571
765.000 0.572
766.000 0.572
767.000 0.572
768.000 0.573
769.000 0.573
770.000 0.573
771.000 0.574
772.000 0.574
773.000 0.575
774.000 0.575
775.000 0.576
776.000 0.576
777.000 0.577
778.000 0.577
779.000 0.578
780.000 0.578
781.000 0.578
782.000 0.579
783.000 0.580
784.000 0.581
785.000 0.581
786.000 0.581
787.000 0.582
788.000 0.582
789.000 0.583
790.000 0.583
791.000 0.583
792.000 0.584
793.000 0.585
794.000 0.585
795.000 0.585
796.000 0.586
797.000 0.587
798.000 0.587
799.000 0.588
800.000 0.588
801.000 0.589
802.000 0.589
803.000 0.589
804.000 0.590
805.000 0.591
806.000 0.591
807.000 0.592
808.000 0.593
809.000 0.593
810.000 0.593
811.000 0.594
812.000 0.594
813.000 0.594
814.000 0.594
815.000 0.594
816.000 0.594
817.000 0.595
818.000 0.596
819.000 0.597
820.000 0.597
821.000 0.598
822.000 0.598
823.000 0.598
824.000 0.599
825.000 0.600
826.000 0.600
827.000 0.601
828.000 0.601
829.000 0.601
830.000 0.602
831.000 0.603
832.000 0.603
833.000 0.604
834.000 0.604
835.000 0.605
836.000 0.605
837.000 0.605
838.000 0.606
839.000 0.607
840.000 0.607
841.000 0.607
842.000 0.607
843.000 0.608
844.000 0.609
845.000 0.610
846.000 0.610
847.000 0.610
848.000 0.611
849.000 0.611
850.000 0.612
851.000 0.612
852.000 0.612
853.000 0.612
854.000 0.613
855.000 0.613
856.000 0.613
857.000 0.614
858.000 0.614
859.000 0.615
860.000 0.615
861.000 0.615
862.000 0.616
863.000 0.616
864.000 0.617
865.000 0.617
866.000 0.618
867.000 0.618
868.000 0.618
869.000 0.619
870.000 0.620
871.000 0.620
872.000 0.620
873.000 0.620
874.000 0.620
875.000 0.620
876.000 0.621
877.000 0.622
878.000 0.622
879.000 0.623
880.000 0.623
881.000 0.624
882.000 0.624
883.000 0.625
884.000 0.625
885.000 0.626
886.000 0.626
887.000 0.627
888.000 0.627
889.000 0.627
890.000 0.628
891.000 0.628
892.000 0.629
893.000 0.629
894.000 0.629
895.000 0.629
896.000 0.629
897.000 0.629
898.000 0.629
899.000 0.630
900.000 0.631
901.000 0.630
902.000 0.631
903.000 0.632
904.000 0.632
905.000 0.632
906.000 0.633
907.000 0.634
908.000 0.634
909.000 0.634
910.000 0.633
911.000 0.634
912.000 0.635
913.000 0.635
914.000 0.635
915.000 0.635
916.000 0.636
917.000 0.636
918.000 0.636
919.000 0.637
920.000 0.639
921.000 0.639
922.000 0.638
923.000 0.639
924.000 0.639
925.000 0.638
926.000 0.638
927.000 0.637
928.000 0.637
929.000 0.636
930.000 0.634
931.000 0.632
932.000 0.630
933.000 0.628
934.000 0.627
935.000 0.628
936.000 0.627
937.000 0.627
938.000 0.628
939.000 0.628
940.000 0.627
941.000 0.627
942.000 0.628
943.000 0.628
944.000 0.626
945.000 0.626
946.000 0.626
947.000 0.625
948.000 0.624
949.000 0.623
950.000 0.623
951.000 0.624
952.000 0.622
953.000 0.621
954.000 0.620
955.000 0.620
956.000 0.621
957.000 0.621
958.000 0.620
959.000 0.619
960.000 0.620
961.000 0.619
962.000 0.622
963.000 0.625
964.000 0.622
965.000 0.622
966.000 0.623
967.000 0.623
968.000 0.623
969.000 0.624
970.000 0.625
971.000 0.625
972.000 0.623
973.000 0.624
974.000 0.625
975.000 0.624
976.000 0.625
977.000 0.626
978.000 0.626
979.000 0.624
980.000 0.625
981.000 0.627
982.000 0.628
983.000 0.628
984.000 0.628
985.000 0.628
986.000 0.629
987.000 0.630
988.000 0.630
989.000 0.632
990.000 0.632
991.000 0.633
992.000 0.635
993.000 0.634
994.000 0.634
995.000 0.636
996.000 0.635
997.000 0.634
998.000 0.636
999.000 0.638
1000.000 0.637
1001.000 0.636
1002.000 0.636
1003.000 0.637
1004.000 0.638
1005.000 0.640
1006.000 0.640
1007.000 0.640
1008.000 0.640
1009.000 0.641
1010.000 0.641
1011.000 0.641
1012.000 0.641
1013.000 0.642
1014.000 0.644
1015.000 0.644
1016.000 0.644
1017.000 0.645
1018.000 0.647
1019.000 0.647
1020.000 0.648
1021.000 0.649
1022.000 0.649
1023.000 0.650
1024.000 0.652
1025.000 0.652
1026.000 0.653
1027.000 0.653
1028.000 0.653
1029.000 0.652
1030.000 0.653
1031.000 0.655
1032.000 0.656
1033.000 0.658
1034.000 0.660
1035.000 0.659
1036.000 0.660
1037.000 0.660
1038.000 0.659
1039.000 0.660
1040.000 0.660
1041.000 0.661
1042.000 0.662
1043.000 0.663
1044.000 0.663
1045.000 0.664
1046.000 0.663
1047.000 0.663
1048.000 0.664
1049.000 0.664
1050.000 0.664
1051.000 0.665
1052.000 0.666
1053.000 0.666
1054.000 0.666
1055.000 0.666
1056.000 0.668
1057.000 0.668
1058.000 0.669
1059.000 0.670
1060.000 0.670
1061.000 0.669
1062.000 0.669
1063.000 0.669
1064.000 0.669
1065.000 0.669
1066.000 0.669
1067.000 0.669
1068.000 0.670
1069.000 0.670
1070.000 0.671
1071.000 0.671
1072.000 0.671
1073.000 0.671
1074.000 0.671
1075.000 0.670
1076.000 0.670
1077.000 0.670
1078.000 0.670
1079.000 0.670
1080.000 0.670
1081.000 0.671
1082.000 0.671
1083.000 0.670
1084.000 0.671
1085.000 0.670
1086.000 0.670
1087.000 0.669
1088.000 0.668
1089.000 0.668
1090.000 0.669
1091.000 0.668
1092.000 0.667
1093.000 0.667
1094.000 0.667
1095.000 0.667
1096.000 0.667
1097.000 0.667
1098.000 0.667
1099.000 0.666
1100.000 0.667
1101.000 0.668
1102.000 0.668
1103.000 0.668
1104.000 0.668
1105.000 0.667
1106.000 0.665
1107.000 0.665
1108.000 0.664
1109.000 0.663
1110.000 0.662
1111.000 0.662
1112.000 0.661
1113.000 0.659
1114.000 0.658
1115.000 0.657
1116.000 0.655
1117.000 0.653
1118.000 0.652
1119.000 0.650
1120.000 0.648
1121.000 0.646
1122.000 0.645
1123.000 0.644
1124.000 0.643
1125.000 0.643
1126.000 0.644
1127.000 0.643
1128.000 0.641
1129.000 0.640
1130.000 0.639
1131.000 0.637
1132.000 0.636
1133.000 0.636
1134.000 0.635
1135.000 0.634
1136.000 0.635
1137.000 0.635
1138.000 0.635
1139.000 0.636
1140.000 0.634
1141.000 0.631
1142.000 0.630
1143.000 0.629
1144.000 0.627
1145.000 0.625
1146.000 0.623
1147.000 0.620
1148.000 0.618
1149.000 0.618
1150.000 0.617
1151.000 0.617
1152.000 0.617
1153.000 0.616
1154.000 0.616
1155.000 0.615
1156.000 0.613
1157.000 0.613
1158.000 0.613
1159.000 0.613
1160.000 0.612
1161.000 0.612
1162.000 0.612
1163.000 0.612
1164.000 0.613
1165.000 0.612
1166.000 0.613
1167.000 0.612
1168.000 0.613
1169.000 0.613
1170.000 0.612
1171.000 0.612
1172.000 0.611
1173.000 0.611
1174.000 0.612
1175.000 0.613
1176.000 0.614
1177.000 0.614
1178.000 0.615
1179.000 0.615
1180.000 0.615
1181.000 0.614
1182.000 0.614
1183.000 0.614
1184.000 0.614
1185.000 0.614
1186.000 0.615
1187.000 0.615
1188.000 0.615
1189.000 0.615
1190.000 0.614
1191.000 0.614
1192.000 0.614
1193.000 0.614
1194.000 0.613
1195.000 0.612
1196.000 0.613
1197.000 0.614
1198.000 0.615
1199.000 0.616
1200.000 0.616
1201.000 0.616
1202.000 0.616
1203.000 0.616
1204.000 0.616
1205.000 0.617
1206.000 0.617
1207.000 0.617
1208.000 0.617
1209.000 0.618
1210.000 0.618
1211.000 0.618
1212.000 0.619
1213.000 0.619
1214.000 0.619
1215.000 0.620
1216.000 0.620
1217.000 0.621
1218.000 0.621
1219.000 0.620
1220.000 0.621
1221.000 0.621
1222.000 0.622
1223.000 0.622
1224.000 0.622
1225.000 0.622
1226.000 0.621
1227.000 0.621
1228.000 0.622
1229.000 0.623
1230.000 0.623
1231.000 0.623
1232.000 0.624
1233.000 0.624
1234.000 0.624
1235.000 0.624
1236.000 0.625
1237.000 0.625
1238.000 0.625
1239.000 0.626
1240.000 0.626
1241.000 0.627
1242.000 0.627
1243.000 0.627
1244.000 0.628
1245.000 0.628
1246.000 0.627
1247.000 0.627
1248.000 0.628
1249.000 0.629
1250.000 0.630
1251.000 0.630
1252.000 0.630
1253.000 0.630
1254.000 0.630
1255.000 0.631
1256.000 0.631
1257.000 0.631
1258.000 0.631
1259.000 0.631
1260.000 0.632
1261.000 0.633
1262.000 0.634
1263.000 0.634
1264.000 0.635
1265.000 0.634
1266.000 0.634
1267.000 0.633
1268.000 0.633
1269.000 0.633
1270.000 0.633
1271.000 0.635
1272.000 0.635
1273.000 0.635
1274.000 0.635
1275.000 0.635
1276.000 0.635
1277.000 0.635
1278.000 0.636
1279.000 0.636
1280.000 0.636
1281.000 0.636
1282.000 0.636
1283.000 0.636
1284.000 0.634
1285.000 0.633
1286.000 0.632
1287.000 0.632
1288.000 0.632
1289.000 0.631
1290.000 0.630
1291.000 0.629
1292.000 0.629
1293.000 0.628
1294.000 0.627
1295.000 0.627
1296.000 0.626
1297.000 0.625
1298.000 0.624
1299.000 0.623
1300.000 0.623
1301.000 0.622
1302.000 0.621
1303.000 0.620
1304.000 0.619
1305.000 0.617
1306.000 0.615
1307.000 0.614
1308.000 0.612
1309.000 0.611
1310.000 0.610
1311.000 0.608
1312.000 0.606
1313.000 0.606
1314.000 0.604
1315.000 0.602
1316.000 0.600
1317.000 0.597
1318.000 0.595
1319.000 0.593
1320.000 0.591
1321.000 0.590
1322.000 0.589
1323.000 0.588
1324.000 0.587
1325.000 0.584
1326.000 0.581
1327.000 0.578
1328.000 0.574
1329.000 0.572
1330.000 0.570
1331.000 0.568
1332.000 0.567
1333.000 0.565
1334.000 0.563
1335.000 0.561
1336.000 0.558
1337.000 0.555
1338.000 0.553
1339.000 0.550
1340.000 0.547
1341.000 0.545
1342.000 0.541
1343.000 0.539
1344.000 0.539
1345.000 0.538
1346.000 0.537
1347.000 0.537
1348.000 0.535
1349.000 0.531
1350.000 0.529
1351.000 0.535
1352.000 0.533
1353.000 0.523
1354.000 0.517
1355.000 0.502
1356.000 0.488
1357.000 0.499
1358.000 0.502
1359.000 0.518
1360.000 0.499
1361.000 0.433
1362.000 0.371
1363.000 0.316
1364.000 0.274
1365.000 0.167
1366.000 0.177
1367.000 0.267
1368.000 0.269
1369.000 0.207
1370.000 0.271
1371.000 0.144
1372.000 0.139
1373.000 0.322
1374.000 0.438
1375.000 0.518
1376.000 0.475
1377.000 0.326
1378.000 0.283
1379.000 0.291
1380.000 0.182
1381.000 0.224
1382.000 0.385
1383.000 0.450
1384.000 0.492
1385.000 0.538
1386.000 0.337
1387.000 0.281
1388.000 0.344
1389.000 0.331
1390.000 0.350
1391.000 0.316
1392.000 0.340
1393.000 0.276
1394.000 0.465
1395.000 0.479
1396.000 0.366
1397.000 0.378
1398.000 0.521
1399.000 0.502
1400.000 0.440
1401.000 0.411
1402.000 0.400
1403.000 0.618
1404.000 0.589
1405.000 0.354
1406.000 0.355
1407.000 0.364
1408.000 0.319
1409.000 0.185
1410.000 0.211
1411.000 0.225
1412.000 0.307
1413.000 0.334
1414.000 0.379
1415.000 0.435
1416.000 0.476
1417.000 0.498
1418.000 0.418
1419.000 0.297
1420.000 0.267
1421.000 0.233
1422.000 0.223
1423.000 0.260
1424.000 0.246
1425.000 0.201
1426.000 0.192
1427.000 0.174
1428.000 0.168
1429.000 0.174
1430.000 0.174
1431.000 0.170
1432.000 0.172
1433.000 0.185
1434.000 0.185
1435.000 0.178
1436.000 0.176
1437.000 0.171
1438.000 0.174
1439.000 0.191
1440.000 0.199
1441.000 0.206
1442.000 0.210
1443.000 0.213
1444.000 0.212
1445.000 0.207
1446.000 0.202
1447.000 0.190
1448.000 0.186
1449.000 0.189
1450.000 0.191
1451.000 0.190
1452.000 0.190
1453.000 0.188
1454.000 0.182
1455.000 0.182
1456.000 0.186
1457.000 0.188
1458.000 0.188
1459.000 0.189
1460.000 0.187
1461.000 0.185
1462.000 0.182
1463.000 0.181
1464.000 0.180
1465.000 0.182
1466.000 0.188
1467.000 0.192
1468.000 0.197
1469.000 0.204
1470.000 0.214
1471.000 0.218
1472.000 0.222
1473.000 0.224
1474.000 0.219
1475.000 0.218
1476.000 0.223
1477.000 0.222
1478.000 0.219
1479.000 0.217
1480.000 0.211
1481.000 0.212
1482.000 0.218
1483.000 0.220
1484.000 0.224
1485.000 0.226
1486.000 0.227
1487.000 0.228
1488.000 0.231
1489.000 0.233
1490.000 0.233
1491.000 0.234
1492.000 0.235
1493.000 0.236
1494.000 0.239
1495.000 0.242
1496.000 0.245
1497.000 0.248
1498.000 0.252
1499.000 0.254
1500.000 0.257
1501.000 0.257
1502.000 0.255
1503.000 0.256
1504.000 0.255
1505.000 0.256
1506.000 0.257
1507.000 0.261
1508.000 0.262
1509.000 0.263
1510.000 0.265
1511.000 0.266
1512.000 0.268
1513.000 0.269
1514.000 0.272
1515.000 0.274
1516.000 0.277
1517.000 0.280
1518.000 0.282
1519.000 0.282
1520.000 0.284
1521.000 0.288
1522.000 0.289
1523.000 0.290
1524.000 0.291
1525.000 0.290
1526.000 0.291
1527.000 0.294
1528.000 0.296
1529.000 0.298
1530.000 0.301
1531.000 0.302
1532.000 0.304
1533.000 0.306
1534.000 0.307
1535.000 0.308
1536.000 0.309
1537.000 0.312
1538.000 0.314
1539.000 0.318
1540.000 0.321
1541.000 0.322
1542.000 0.324
1543.000 0.325
1544.000 0.326
1545.000 0.328
1546.000 0.330
1547.000 0.332
1548.000 0.333
1549.000 0.334
1550.000 0.334
1551.000 0.333
1552.000 0.334
1553.000 0.334
1554.000 0.336
1555.000 0.339
1556.000 0.341
1557.000 0.345
1558.000 0.347
1559.000 0.348
1560.000 0.350
1561.000 0.350
1562.000 0.351
1563.000 0.353
1564.000 0.354
1565.000 0.356
1566.000 0.357
1567.000 0.354
1568.000 0.355
1569.000 0.355
1570.000 0.357
1571.000 0.360
1572.000 0.362
1573.000 0.364
1574.000 0.367
1575.000 0.369
1576.000 0.370
1577.000 0.371
1578.000 0.372
1579.000 0.372
1580.000 0.372
1581.000 0.374
1582.000 0.375
1583.000 0.378
1584.000 0.379
1585.000 0.378
1586.000 0.380
1587.000 0.381
1588.000 0.383
1589.000 0.388
1590.000 0.390
1591.000 0.392
1592.000 0.392
1593.000 0.392
1594.000 0.392
1595.000 0.390
1596.000 0.390
1597.000 0.390
1598.000 0.391
1599.000 0.396
1600.000 0.398
1601.000 0.400
1602.000 0.401
1603.000 0.401
1604.000 0.401
1605.000 0.401
1606.000 0.401
1607.000 0.402
1608.000 0.403
1609.000 0.404
1610.000 0.405
1611.000 0.406
1612.000 0.407
1613.000 0.410
1614.000 0.412
1615.000 0.411
1616.000 0.411
1617.000 0.410
1618.000 0.410
1619.000 0.411
1620.000 0.411
1621.000 0.413
1622.000 0.414
1623.000 0.416
1624.000 0.417
1625.000 0.416
1626.000 0.417
1627.000 0.419
1628.000 0.420
1629.000 0.422
1630.000 0.423
1631.000 0.421
1632.000 0.421
1633.000 0.420
1634.000 0.421
1635.000 0.423
1636.000 0.425
1637.000 0.428
1638.000 0.429
1639.000 0.428
1640.000 0.428
1641.000 0.428
1642.000 0.428
1643.000 0.428
1644.000 0.429
1645.000 0.430
1646.000 0.430
1647.000 0.432
1648.000 0.433
1649.000 0.432
1650.000 0.433
1651.000 0.434
1652.000 0.435
1653.000 0.436
1654.000 0.436
1655.000 0.434
1656.000 0.433
1657.000 0.430
1658.000 0.429
1659.000 0.431
1660.000 0.432
1661.000 0.435
1662.000 0.437
1663.000 0.436
1664.000 0.436
1665.000 0.438
1666.000 0.437
1667.000 0.434
1668.000 0.434
1669.000 0.433
1670.000 0.434
1671.000 0.438
1672.000 0.440
1673.000 0.440
1674.000 0.440
1675.000 0.438
1676.000 0.437
1677.000 0.438
1678.000 0.438
1679.000 0.438
1680.000 0.439
1681.000 0.437
1682.000 0.437
1683.000 0.440
1684.000 0.442
1685.000 0.444
1686.000 0.445
1687.000 0.445
1688.000 0.445
1689.000 0.446
1690.000 0.446
1691.000 0.446
1692.000 0.446
1693.000 0.442
1694.000 0.440
1695.000 0.437
1696.000 0.435
1697.000 0.433
1698.000 0.432
1699.000 0.434
1700.000 0.434
1701.000 0.436
1702.000 0.437
1703.000 0.438
1704.000 0.438
1705.000 0.440
1706.000 0.441
1707.000 0.442
1708.000 0.442
1709.000 0.441
1710.000 0.439
1711.000 0.436
1712.000 0.433
1713.000 0.434
1714.000 0.434
1715.000 0.434
1716.000 0.436
1717.000 0.435
1718.000 0.431
1719.000 0.429
1720.000 0.428
1721.000 0.426
1722.000 0.424
1723.000 0.422
1724.000 0.419
1725.000 0.418
1726.000 0.418
1727.000 0.421
1728.000 0.426
1729.000 0.426
1730.000 0.425
1731.000 0.424
1732.000 0.419
1733.000 0.418
1734.000 0.420
1735.000 0.419
1736.000 0.418
1737.000 0.415
1738.000 0.411
1739.000 0.408
1740.000 0.403
1741.000 0.402
1742.000 0.404
1743.000 0.404
1744.000 0.406
1745.000 0.406
1746.000 0.401
1747.000 0.400
1748.000 0.403
1749.000 0.402
1750.000 0.403
1751.000 0.403
1752.000 0.400
1753.000 0.399
1754.000 0.401
1755.000 0.400
1756.000 0.399
1757.000 0.397
1758.000 0.393
1759.000 0.391
1760.000 0.389
1761.000 0.387
1762.000 0.390
1763.000 0.388
1764.000 0.386
1765.000 0.387
1766.000 0.386
1767.000 0.387
1768.000 0.390
1769.000 0.385
1770.000 0.378
1771.000 0.374
1772.000 0.367
1773.000 0.365
1774.000 0.369
1775.000 0.371
1776.000 0.373
1777.000 0.373
1778.000 0.370
1779.000 0.366
1780.000 0.359
1781.000 0.357
1782.000 0.355
1783.000 0.358
1784.000 0.365
1785.000 0.367
1786.000 0.371
1787.000 0.371
1788.000 0.371
1789.000 0.374
1790.000 0.374
1791.000 0.372
1792.000 0.371
1793.000 0.365
1794.000 0.348
1795.000 0.335
1796.000 0.333
1797.000 0.340
1798.000 0.348
1799.000 0.357
1800.000 0.369
1801.000 0.436
1802.000 0.448
1803.000 0.466
1804.000 0.455
1805.000 0.447
1806.000 0.410
1807.000 0.385
1808.000 0.361
1809.000 0.332
1810.000 0.282
1811.000 0.270
1812.000 0.259
1813.000 0.299
1814.000 0.381
1815.000 0.449
1816.000 0.518
1817.000 0.423
1818.000 0.467
1819.000 0.740
1820.000 0.667
1821.000 0.595
1822.000 0.464
1823.000 0.345
1824.000 0.255
1825.000 0.487
1826.000 0.525
1827.000 0.274
1828.000 0.351
1829.000 0.483
1830.000 0.396
1831.000 0.587
1832.000 0.434
1833.000 0.656
1834.000 0.366
1835.000 0.365
1836.000 0.326
1837.000 0.243
1838.000 0.209
1839.000 0.365
1840.000 0.408
1841.000 0.371
1842.000 0.323
1843.000 0.455
1844.000 0.384
1845.000 0.460
1846.000 0.349
1847.000 0.529
1848.000 0.523
1849.000 0.552
1850.000 0.634
1851.000 0.529
1852.000 0.504
1853.000 0.529
1854.000 0.414
1855.000 0.351
1856.000 0.310
1857.000 0.372
1858.000 0.448
1859.000 0.568
1860.000 0.576
1861.000 0.605
1862.000 0.712
1863.000 0.584
1864.000 0.468
1865.000 0.392
1866.000 0.398
1867.000 0.387
1868.000 0.338
1869.000 0.600
1870.000 0.441
1871.000 0.448
1872.000 0.325
1873.000 0.289
1874.000 0.162
1875.000 0.187
1876.000 0.241
1877.000 0.374
1878.000 0.239
1879.000 0.352
1880.000 0.430
1881.000 0.442
1882.000 0.500
1883.000 0.627
1884.000 0.584
1885.000 0.652
1886.000 0.664
1887.000 0.651
1888.000 0.644
1889.000 0.583
1890.000 0.472
1891.000 0.622
1892.000 0.547
1893.000 0.448
1894.000 0.400
1895.000 0.480
1896.000 0.415
1897.000 0.349
1898.000 0.268
1899.000 0.528
1900.000 0.469
1901.000 0.425
1902.000 0.420
1903.000 0.601
1904.000 0.569
1905.000 0.607
1906.000 0.557
1907.000 0.617
1908.000 0.694
1909.000 0.497
1910.000 0.461
1911.000 0.424
1912.000 0.396
1913.000 0.332
1914.000 0.383
1915.000 0.422
1916.000 0.455
1917.000 0.551
1918.000 0.407
1919.000 0.485
1920.000 0.423
1921.000 0.362
1922.000 0.270
1923.000 0.328
1924.000 0.507
1925.000 0.727
1926.000 0.556
1927.000 0.408
1928.000 0.419
1929.000 0.342
1930.000 0.298
1931.000 0.283
1932.000 0.424
1933.000 0.567
1934.000 0.576
1935.000 0.336
1936.000 0.305
1937.000 0.259
1938.000 0.222
1939.000 0.279
1940.000 0.308
1941.000 0.463
1942.000 0.570
1943.000 0.491
1944.000 0.418
1945.000 0.492
1946.000 0.409
1947.000 0.365
1948.000 0.334
1949.000 0.308
1950.000 0.310
1951.000 0.282
1952.000 0.303
1953.000 0.264
1954.000 0.250
1955.000 0.455
1956.000 0.371
1957.000 0.291
1958.000 0.253
1959.000 0.243
1960.000 0.237
1961.000 0.249
1962.000 0.254
1963.000 0.250
1964.000 0.281
1965.000 0.340
1966.000 0.392
1967.000 0.412
1968.000 0.391
1969.000 0.320
1970.000 0.258
1971.000 0.208
1972.000 0.196
1973.000 0.190
1974.000 0.192
1975.000 0.199
1976.000 0.215
1977.000 0.222
1978.000 0.233
1979.000 0.259
1980.000 0.233
1981.000 0.225
1982.000 0.234
1983.000 0.235
1984.000 0.228
1985.000 0.229
1986.000 0.219
1987.000 0.188
1988.000 0.176
1989.000 0.177
1990.000 0.169
1991.000 0.161
1992.000 0.141
1993.000 0.123
1994.000 0.109
1995.000 0.109
1996.000 0.122
1997.000 0.147
1998.000 0.191
1999.000 0.216
2000.000 0.227
2001.000 0.246
2002.000 0.224
2003.000 0.241
2004.000 0.238
2005.000 0.261
2006.000 0.304
2007.000 0.587
2008.000 0.409
2009.000 0.189
2010.000 0.520
2011.000 0.368
2012.000 0.314
2013.000 0.291
2014.000 0.263
2015.000 0.243
2016.000 0.215
2017.000 0.298
2018.000 0.328
2019.000 0.334
2020.000 0.399
2021.000 0.396
2022.000 0.313
2023.000 0.266
2024.000 0.212
2025.000 0.186
2026.000 0.168
2027.000 0.158
2028.000 0.159
2029.000 0.161
2030.000 0.164
2031.000 0.165
2032.000 0.171
2033.000 0.167
2034.000 0.155
2035.000 0.148
2036.000 0.149
2037.000 0.164
2038.000 0.186
2039.000 0.201
2040.000 0.202
2041.000 0.190
2042.000 0.189
2043.000 0.185
2044.000 0.194
2045.000 0.225
2046.000 0.237
2047.000 0.243
2048.000 0.256
2049.000 0.266
2050.000 0.256
2051.000 0.275
2052.000 0.314
2053.000 0.282
2054.000 0.259
2055.000 0.224
2056.000 0.197
2057.000 0.190
2058.000 0.198
2059.000 0.195
2060.000 0.192
2061.000 0.194
2062.000 0.202
2063.000 0.205
2064.000 0.220
2065.000 0.225
2066.000 0.224
2067.000 0.208
2068.000 0.189
2069.000 0.181
2070.000 0.190
2071.000 0.197
2072.000 0.207
2073.000 0.240
2074.000 0.245
2075.000 0.234
2076.000 0.229
2077.000 0.213
2078.000 0.210
2079.000 0.220
2080.000 0.223
2081.000 0.228
2082.000 0.233
2083.000 0.238
2084.000 0.230
2085.000 0.225
2086.000 0.229
2087.000 0.231
2088.000 0.240
2089.000 0.236
2090.000 0.222
2091.000 0.217
2092.000 0.208
2093.000 0.206
2094.000 0.218
2095.000 0.222
2096.000 0.222
2097.000 0.223
2098.000 0.223
2099.000 0.219
2100.000 0.216
2101.000 0.217
2102.000 0.219
2103.000 0.224
2104.000 0.229
2105.000 0.236
2106.000 0.242
2107.000 0.246
2108.000 0.252
2109.000 0.265
2110.000 0.271
2111.000 0.279
2112.000 0.277
2113.000 0.265
2114.000 0.257
2115.000 0.247
2116.000 0.239
2117.000 0.235
2118.000 0.228
2119.000 0.221
2120.000 0.218
2121.000 0.224
2122.000 0.233
2123.000 0.238
2124.000 0.249
2125.000 0.251
2126.000 0.242
2127.000 0.241
2128.000 0.239
2129.000 0.237
2130.000 0.239
2131.000 0.239
2132.000 0.237
2133.000 0.238
2134.000 0.242
2135.000 0.241
2136.000 0.236
2137.000 0.236
2138.000 0.236
2139.000 0.239
2140.000 0.240
2141.000 0.241
2142.000 0.240
2143.000 0.229
2144.000 0.230
2145.000 0.237
2146.000 0.241
2147.000 0.252
2148.000 0.258
2149.000 0.263
2150.000 0.264
2151.000 0.258
2152.000 0.260
2153.000 0.265
2154.000 0.267
2155.000 0.275
2156.000 0.282
2157.000 0.270
2158.000 0.267
2159.000 0.260
2160.000 0.248
2161.000 0.245
2162.000 0.245
2163.000 0.243
2164.000 0.240
2165.000 0.244
2166.000 0.252
2167.000 0.254
2168.000 0.262
2169.000 0.265
2170.000 0.256
2171.000 0.259
2172.000 0.270
2173.000 0.274
2174.000 0.277
2175.000 0.280
2176.000 0.279
2177.000 0.274
2178.000 0.267
2179.000 0.262
2180.000 0.258
2181.000 0.253
2182.000 0.258
2183.000 0.263
2184.000 0.268
2185.000 0.278
2186.000 0.279
2187.000 0.274
2188.000 0.277
2189.000 0.275
2190.000 0.275
2191.000 0.284
2192.000 0.283
2193.000 0.274
2194.000 0.269
2195.000 0.265
2196.000 0.260
2197.000 0.251
2198.000 0.250
2199.000 0.252
2200.000 0.253
2201.000 0.256
2202.000 0.258
2203.000 0.258
2204.000 0.257
2205.000 0.255
2206.000 0.257
2207.000 0.262
2208.000 0.268
2209.000 0.272
2210.000 0.284
2211.000 0.288
2212.000 0.289
2213.000 0.285
2214.000 0.274
2215.000 0.269
2216.000 0.258
2217.000 0.258
2218.000 0.272
2219.000 0.275
2220.000 0.276
2221.000 0.277
2222.000 0.269
2223.000 0.266
2224.000 0.270
2225.000 0.269
2226.000 0.266
2227.000 0.271
2228.000 0.271
2229.000 0.272
2230.000 0.273
2231.000 0.272
2232.000 0.272
2233.000 0.274
2234.000 0.271
2235.000 0.264
2236.000 0.263
2237.000 0.257
2238.000 0.257
2239.000 0.266
2240.000 0.270
2241.000 0.274
2242.000 0.279
2243.000 0.281
2244.000 0.284
2245.000 0.292
2246.000 0.289
2247.000 0.282
2248.000 0.279
2249.000 0.269
2250.000 0.265
2251.000 0.267
2252.000 0.263
2253.000 0.259
2254.000 0.251
2255.000 0.233
2256.000 0.230
2257.000 0.229
2258.000 0.237
2259.000 0.252
2260.000 0.263
2261.000 0.274
2262.000 0.268
2263.000 0.262
2264.000 0.246
2265.000 0.224
2266.000 0.216
2267.000 0.206
2268.000 0.203
2269.000 0.207
2270.000 0.211
2271.000 0.220
2272.000 0.241
2273.000 0.246
2274.000 0.240
2275.000 0.234
2276.000 0.217
2277.000 0.211
2278.000 0.205
2279.000 0.210
2280.000 0.230
2281.000 0.238
2282.000 0.249
2283.000 0.255
2284.000 0.247
2285.000 0.236
2286.000 0.226
2287.000 0.216
2288.000 0.196
2289.000 0.187
2290.000 0.176
2291.000 0.180
2292.000 0.218
2293.000 0.229
2294.000 0.239
2295.000 0.245
2296.000 0.223
2297.000 0.218
2298.000 0.223
2299.000 0.228
2300.000 0.239
2301.000 0.229
2302.000 0.240
2303.000 0.238
2304.000 0.220
2305.000 0.200
2306.000 0.172
2307.000 0.165
2308.000 0.163
2309.000 0.168
2310.000 0.203
2311.000 0.216
2312.000 0.214
2313.000 0.236
2314.000 0.241
2315.000 0.252
2316.000 0.254
2317.000 0.245
2318.000 0.220
2319.000 0.187
2320.000 0.181
2321.000 0.176
2322.000 0.172
2323.000 0.175
2324.000 0.169
2325.000 0.167
2326.000 0.168
2327.000 0.170
2328.000 0.172
2329.000 0.182
2330.000 0.205
2331.000 0.219
2332.000 0.235
2333.000 0.265
2334.000 0.287
2335.000 0.283
2336.000 0.273
2337.000 0.253
2338.000 0.256
2339.000 0.261
2340.000 0.275
2341.000 0.284
2342.000 0.334
2343.000 0.283
2344.000 0.274
2345.000 0.294
2346.000 0.265
2347.000 0.210
2348.000 0.191
2349.000 0.149
2350.000 0.170
2351.000 0.151
2352.000 0.154
2353.000 0.165
2354.000 0.173
2355.000 0.154
2356.000 0.143
2357.000 0.157
2358.000 0.130
2359.000 0.119
2360.000 0.112
2361.000 0.109
2362.000 0.136
2363.000 0.156
2364.000 0.212
2365.000 0.239
2366.000 0.214
2367.000 0.194
2368.000 0.189
2369.000 0.157
2370.000 0.223
2371.000 0.442
2372.000 0.428
2373.000 0.441
2374.000 0.359
2375.000 0.458
2376.000 0.417
2377.000 0.474
2378.000 0.462
2379.000 0.300
2380.000 0.576
2381.000 0.405
2382.000 0.349
2383.000 0.332
2384.000 0.328
2385.000 0.338
2386.000 0.207
2387.000 0.171
2388.000 0.190
2389.000 0.137
2390.000 0.069
2391.000 0.091
2392.000 0.158
2393.000 0.262
2394.000 0.268
2395.000 0.268
2396.000 0.239
2397.000 0.187
2398.000 0.217
2399.000 0.290
2400.000 0.170
2401.000 0.634
2402.000 0.370
2403.000 0.252
2404.000 0.229
2405.000 0.208
2406.000 0.163
2407.000 0.186
2408.000 0.371
2409.000 0.380
2410.000 0.371
2411.000 0.388
2412.000 0.421
2413.000 0.361
2414.000 0.508
2415.000 0.497
2416.000 0.550
2417.000 0.665
2418.000 0.522
2419.000 0.658
2420.000 0.401
2421.000 0.312
2422.000 0.315
2423.000 0.287
2424.000 0.418
2425.000 0.670
2426.000 0.360
2427.000 0.194
2428.000 0.193
2429.000 0.172
2430.000 0.320
2431.000 0.519
2432.000 0.441
2433.000 0.370
2434.000 0.316
2435.000 0.209
2436.000 0.279
2437.000 0.224
2438.000 0.087
2439.000 0.111
2440.000 0.297
2441.000 0.471
2442.000 0.392
2443.000 0.510
2444.000 0.439
2445.000 0.391
2446.000 0.549
2447.000 0.400
2448.000 0.245
2449.000 0.266
2450.000 0.277
2451.000 0.178
2452.000 0.227
2453.000 0.164
2454.000 0.135
2455.000 0.077
2456.000 0.157
2457.000 0.219
2458.000 0.204
2459.000 0.226
2460.000 0.196
2461.000 0.212
2462.000 0.222
2463.000 0.170
2464.000 0.120
2465.000 0.333
2466.000 0.471
2467.000 0.539
2468.000 0.693
2469.000 0.529
2470.000 0.516
2471.000 0.556
2472.000 0.542
2473.000 0.590
2474.000 0.595
2475.000 0.667
2476.000 0.595
2477.000 0.115
2478.000 0.417
2479.000 0.338
2480.000 0.593
2481.000 0.677
2482.000 0.534
2483.000 0.465
2484.000 0.260
2485.000 0.266
2486.000 0.364
2487.000 0.307
2488.000 0.451
2489.000 0.518
2490.000 0.540
2491.000 0.634
2492.000 0.438
2493.000 0.644
2494.000 0.330
2495.000 0.357
2496.000 0.273
2497.000 0.226
2498.000 0.273
2499.000 0.369
2500.000 0.283
