391.000 0.010
392.000 0.011
393.000 0.011
394.000 0.012
395.000 0.013
396.000 0.013
397.000 0.012
398.000 0.011
399.000 0.013
400.000 0.014
401.000 0.013
402.000 0.014
403.000 0.013
404.000 0.011
405.000 0.011
406.000 0.011
407.000 0.011
408.000 0.013
409.000 0.011
410.000 0.009
411.000 0.009
412.000 0.010
413.000 0.011
414.000 0.011
415.000 0.011
416.000 0.012
417.000 0.011
418.000 0.010
419.000 0.011
420.000 0.012
421.000 0.011
422.000 0.011
423.000 0.011
424.000 0.012
425.000 0.012
426.000 0.012
427.000 0.012
428.000 0.011
429.000 0.011
430.000 0.013
431.000 0.011
432.000 0.012
433.000 0.012
434.000 0.013
435.000 0.013
436.000 0.012
437.000 0.011
438.000 0.010
439.000 0.012
440.000 0.012
441.000 0.012
442.000 0.012
443.000 0.012
444.000 0.011
445.000 0.011
446.000 0.011
447.000 0.012
448.000 0.012
449.000 0.012
450.000 0.012
451.000 0.011
452.000 0.011
453.000 0.011
454.000 0.011
455.000 0.012
456.000 0.012
457.000 0.012
458.000 0.012
459.000 0.012
460.000 0.012
461.000 0.014
462.000 0.013
463.000 0.012
464.000 0.012
465.000 0.014
466.000 0.014
467.000 0.014
468.000 0.012
469.000 0.013
470.000 0.013
471.000 0.014
472.000 0.013
473.000 0.012
474.000 0.012
475.000 0.014
476.000 0.013
477.000 0.012
478.000 0.013
479.000 0.013
480.000 0.013
481.000 0.013
482.000 0.012
483.000 0.014
484.000 0.015
485.000 0.014
486.000 0.013
487.000 0.013
488.000 0.013
489.000 0.014
490.000 0.014
491.000 0.014
492.000 0.015
493.000 0.014
494.000 0.015
495.000 0.016
496.000 0.014
497.000 0.014
498.000 0.015
499.000 0.016
500.000 0.016
501.000 0.016
502.000 0.016
503.000 0.016
504.000 0.017
505.000 0.017
506.000 0.017
507.000 0.017
508.000 0.018
509.000 0.019
510.000 0.020
511.000 0.019
512.000 0.019
513.000 0.021
514.000 0.021
515.000 0.023
516.000 0.024
517.000 0.024
518.000 0.025
519.000 0.026
520.000 0.028
521.000 0.030
522.000 0.031
523.000 0.032
524.000 0.032
525.000 0.033
526.000 0.035
527.000 0.036
528.000 0.036
529.000 0.038
530.000 0.039
531.000 0.039
532.000 0.040
533.000 0.041
534.000 0.042
535.000 0.042
536.000 0.043
537.000 0.043
538.000 0.043
539.000 0.044
540.000 0.044
541.000 0.044
542.000 0.045
543.000 0.045
544.000 0.045
545.000 0.046
546.000 0.046
547.000 0.045
548.000 0.046
549.000 0.047
550.000 0.047
551.000 0.047
552.000 0.046
553.000 0.046
554.000 0.047
555.000 0.047
556.000 0.047
557.000 0.047
558.000 0.046
559.000 0.046
560.000 0.046
561.000 0.045
562.000 0.044
563.000 0.044
564.000 0.043
565.000 0.043
566.000 0.042
567.000 0.041
568.000 0.040
569.000 0.040
570.000 0.039
571.000 0.038
572.000 0.038
573.000 0.038
574.000 0.037
575.000 0.036
576.000 0.037
577.000 0.036
578.000 0.035
579.000 0.034
580.000 0.034
581.000 0.034
582.000 0.034
583.000 0.034
584.000 0.033
585.000 0.032
586.000 0.031
587.000 0.031
588.000 0.031
589.000 0.031
590.000 0.032
591.000 0.031
592.000 0.031
593.000 0.031
594.000 0.031
595.000 0.031
596.000 0.031
597.000 0.031
598.000 0.030
599.000 0.030
600.000 0.031
601.000 0.030
602.000 0.031
603.000 0.030
604.000 0.029
605.000 0.029
606.000 0.029
607.000 0.030
608.000 0.030
609.000 0.029
610.000 0.030
611.000 0.030
612.000 0.030
613.000 0.028
614.000 0.027
615.000 0.027
616.000 0.028
617.000 0.028
618.000 0.028
619.000 0.028
620.000 0.028
621.000 0.028
622.000 0.028
623.000 0.028
624.000 0.028
625.000 0.027
626.000 0.027
627.000 0.028
628.000 0.027
629.000 0.027
630.000 0.028
631.000 0.028
632.000 0.028
633.000 0.028
634.000 0.028
635.000 0.028
636.000 0.028
637.000 0.028
638.000 0.028
639.000 0.027
640.000 0.027
641.000 0.026
642.000 0.025
643.000 0.025
644.000 0.025
645.000 0.024
646.000 0.025
647.000 0.025
648.000 0.023
649.000 0.022
650.000 0.023
651.000 0.025
652.000 0.025
653.000 0.025
654.000 0.025
655.000 0.025
656.000 0.025
657.000 0.025
658.000 0.026
659.000 0.028
660.000 0.025
661.000 0.023
662.000 0.023
663.000 0.024
664.000 0.025
665.000 0.025
666.000 0.024
667.000 0.024
668.000 0.024
669.000 0.024
670.000 0.024
671.000 0.025
672.000 0.025
673.000 0.023
674.000 0.025
675.000 0.026
676.000 0.028
677.000 0.028
678.000 0.027
679.000 0.027
680.000 0.027
681.000 0.029
682.000 0.029
683.000 0.029
684.000 0.029
685.000 0.029
686.000 0.031
687.000 0.034
688.000 0.035
689.000 0.036
690.000 0.036
691.000 0.037
692.000 0.041
693.000 0.042
694.000 0.043
695.000 0.046
696.000 0.050
697.000 0.053
698.000 0.055
699.000 0.060
700.000 0.064
701.000 0.069
702.000 0.075
703.000 0.079
704.000 0.084
705.000 0.089
706.000 0.094
707.000 0.100
708.000 0.106
709.000 0.112
710.000 0.118
711.000 0.125
712.000 0.131
713.000 0.137
714.000 0.144
715.000 0.152
716.000 0.160
717.000 0.167
718.000 0.176
719.000 0.185
720.000 0.195
721.000 0.203
722.000 0.211
723.000 0.219
724.000 0.229
725.000 0.239
726.000 0.249
727.000 0.258
728.000 0.267
729.000 0.276
730.000 0.285
731.000 0.294
732.000 0.302
733.000 0.311
734.000 0.318
735.000 0.326
736.000 0.334
737.000 0.341
738.000 0.348
739.000 0.355
740.000 0.361
741.000 0.367
742.000 0.373
743.000 0.378
744.000 0.383
745.000 0.388
746.000 0.392
747.000 0.396
748.000 0.400
749.000 0.403
750.000 0.407
751.000 0.409
752.000 0.412
753.000 0.415
754.000 0.418
755.000 0.420
756.000 0.422
757.000 0.424
758.000 0.425
759.000 0.427
760.000 0.429
761.000 0.431
762.000 0.433
763.000 0.434
764.000 0.435
765.000 0.436
766.000 0.436
767.000 0.437
768.000 0.438
769.000 0.439
770.000 0.440
771.000 0.441
772.000 0.442
773.000 0.443
774.000 0.443
775.000 0.444
776.000 0.445
777.000 0.445
778.000 0.446
779.000 0.447
780.000 0.448
781.000 0.448
782.000 0.449
783.000 0.450
784.000 0.451
785.000 0.451
786.000 0.451
787.000 0.452
788.000 0.453
789.000 0.453
790.000 0.454
791.000 0.455
792.000 0.456
793.000 0.456
794.000 0.456
795.000 0.457
796.000 0.458
797.000 0.458
798.000 0.459
799.000 0.459
800.000 0.460
801.000 0.461
802.000 0.461
803.000 0.462
804.000 0.463
805.000 0.463
806.000 0.464
807.000 0.465
808.000 0.465
809.000 0.466
810.000 0.466
811.000 0.467
812.000 0.467
813.000 0.467
814.000 0.468
815.000 0.469
816.000 0.469
817.000 0.470
818.000 0.471
819.000 0.472
820.000 0.472
821.000 0.472
822.000 0.473
823.000 0.473
824.000 0.474
825.000 0.474
826.000 0.475
827.000 0.476
828.000 0.476
829.000 0.477
830.000 0.477
831.000 0.478
832.000 0.478
833.000 0.479
834.000 0.479
835.000 0.480
836.000 0.480
837.000 0.481
838.000 0.482
839.000 0.482
840.000 0.483
841.000 0.483
842.000 0.484
843.000 0.485
844.000 0.485
845.000 0.486
846.000 0.486
847.000 0.487
848.000 0.487
849.000 0.488
850.000 0.488
851.000 0.489
852.000 0.489
853.000 0.490
854.000 0.490
855.000 0.490
856.000 0.491
857.000 0.492
858.000 0.492
859.000 0.493
860.000 0.493
861.000 0.494
862.000 0.494
863.000 0.494
864.000 0.495
865.000 0.495
866.000 0.496
867.000 0.496
868.000 0.496
869.000 0.497
870.000 0.497
871.000 0.498
872.000 0.498
873.000 0.499
874.000 0.499
875.000 0.500
876.000 0.500
877.000 0.500
878.000 0.501
879.000 0.501
880.000 0.502
881.000 0.502
882.000 0.503
883.000 0.503
884.000 0.504
885.000 0.504
886.000 0.505
887.000 0.505
888.000 0.506
889.000 0.506
890.000 0.506
891.000 0.507
892.000 0.507
893.000 0.507
894.000 0.508
895.000 0.508
896.000 0.508
897.000 0.509
898.000 0.509
899.000 0.509
900.000 0.510
901.000 0.510
902.000 0.511
903.000 0.511
904.000 0.511
905.000 0.511
906.000 0.511
907.000 0.512
908.000 0.513
909.000 0.513
910.000 0.513
911.000 0.514
912.000 0.514
913.000 0.514
914.000 0.514
915.000 0.514
916.000 0.516
917.000 0.516
918.000 0.516
919.000 0.516
920.000 0.517
921.000 0.517
922.000 0.517
923.000 0.518
924.000 0.518
925.000 0.517
926.000 0.517
927.000 0.517
928.000 0.517
929.000 0.516
930.000 0.515
931.000 0.515
932.000 0.516
933.000 0.515
934.000 0.514
935.000 0.514
936.000 0.513
937.000 0.513
938.000 0.512
939.000 0.510
940.000 0.511
941.000 0.510
942.000 0.510
943.000 0.512
944.000 0.512
945.000 0.510
946.000 0.510
947.000 0.510
948.000 0.509
949.000 0.508
950.000 0.507
951.000 0.507
952.000 0.508
953.000 0.507
954.000 0.504
955.000 0.503
956.000 0.504
957.000 0.504
958.000 0.503
959.000 0.503
960.000 0.501
961.000 0.500
962.000 0.500
963.000 0.500
964.000 0.501
965.000 0.503
966.000 0.503
967.000 0.502
968.000 0.503
969.000 0.502
970.000 0.501
971.000 0.502
972.000 0.502
973.000 0.502
974.000 0.503
975.000 0.504
976.000 0.502
977.000 0.503
978.000 0.504
979.000 0.504
980.000 0.505
981.000 0.505
982.000 0.506
983.000 0.506
984.000 0.505
985.000 0.506
986.000 0.507
987.000 0.508
988.000 0.507
989.000 0.508
990.000 0.509
991.000 0.511
992.000 0.510
993.000 0.510
994.000 0.510
995.000 0.511
996.000 0.512
997.000 0.513
998.000 0.512
999.000 0.512
1000.000 0.513
1001.000 0.517
1002.000 0.518
1003.000 0.519
1004.000 0.520
1005.000 0.521
1006.000 0.522
1007.000 0.523
1008.000 0.524
1009.000 0.525
1010.000 0.526
1011.000 0.527
1012.000 0.528
1013.000 0.529
1014.000 0.529
1015.000 0.530
1016.000 0.531
1017.000 0.532
1018.000 0.533
1019.000 0.533
1020.000 0.533
1021.000 0.533
1022.000 0.533
1023.000 0.534
1024.000 0.535
1025.000 0.536
1026.000 0.537
1027.000 0.537
1028.000 0.538
1029.000 0.538
1030.000 0.539
1031.000 0.540
1032.000 0.541
1033.000 0.542
1034.000 0.543
1035.000 0.543
1036.000 0.543
1037.000 0.543
1038.000 0.543
1039.000 0.544
1040.000 0.545
1041.000 0.546
1042.000 0.546
1043.000 0.547
1044.000 0.547
1045.000 0.548
1046.000 0.549
1047.000 0.549
1048.000 0.550
1049.000 0.551
1050.000 0.551
1051.000 0.552
1052.000 0.553
1053.000 0.553
1054.000 0.553
1055.000 0.553
1056.000 0.554
1057.000 0.554
1058.000 0.554
1059.000 0.554
1060.000 0.555
1061.000 0.555
1062.000 0.556
1063.000 0.557
1064.000 0.557
1065.000 0.557
1066.000 0.558
1067.000 0.558
1068.000 0.559
1069.000 0.559
1070.000 0.559
1071.000 0.560
1072.000 0.560
1073.000 0.559
1074.000 0.560
1075.000 0.560
1076.000 0.560
1077.000 0.561
1078.000 0.562
1079.000 0.561
1080.000 0.561
1081.000 0.562
1082.000 0.562
1083.000 0.562
1084.000 0.562
1085.000 0.562
1086.000 0.561
1087.000 0.562
1088.000 0.562
1089.000 0.561
1090.000 0.561
1091.000 0.561
1092.000 0.561
1093.000 0.561
1094.000 0.561
1095.000 0.561
1096.000 0.561
1097.000 0.560
1098.000 0.560
1099.000 0.561
1100.000 0.561
1101.000 0.561
1102.000 0.562
1103.000 0.561
1104.000 0.562
1105.000 0.562
1106.000 0.561
1107.000 0.561
1108.000 0.561
1109.000 0.561
1110.000 0.560
1111.000 0.560
1112.000 0.560
1113.000 0.560
1114.000 0.559
1115.000 0.558
1116.000 0.556
1117.000 0.554
1118.000 0.552
1119.000 0.552
1120.000 0.551
1121.000 0.550
1122.000 0.551
1123.000 0.551
1124.000 0.549
1125.000 0.548
1126.000 0.549
1127.000 0.548
1128.000 0.547
1129.000 0.546
1130.000 0.546
1131.000 0.544
1132.000 0.543
1133.000 0.542
1134.000 0.540
1135.000 0.538
1136.000 0.536
1137.000 0.534
1138.000 0.533
1139.000 0.532
1140.000 0.530
1141.000 0.528
1142.000 0.526
1143.000 0.523
1144.000 0.520
1145.000 0.518
1146.000 0.515
1147.000 0.511
1148.000 0.508
1149.000 0.506
1150.000 0.503
1151.000 0.499
1152.000 0.498
1153.000 0.497
1154.000 0.497
1155.000 0.496
1156.000 0.497
1157.000 0.496
1158.000 0.495
1159.000 0.494
1160.000 0.494
1161.000 0.494
1162.000 0.494
1163.000 0.494
1164.000 0.494
1165.000 0.494
1166.000 0.492
1167.000 0.492
1168.000 0.491
1169.000 0.490
1170.000 0.490
1171.000 0.490
1172.000 0.490
1173.000 0.489
1174.000 0.489
1175.000 0.489
1176.000 0.489
1177.000 0.490
1178.000 0.489
1179.000 0.488
1180.000 0.488
1181.000 0.487
1182.000 0.486
1183.000 0.487
1184.000 0.487
1185.000 0.486
1186.000 0.486
1187.000 0.485
1188.000 0.485
1189.000 0.485
1190.000 0.485
1191.000 0.485
1192.000 0.485
1193.000 0.485
1194.000 0.485
1195.000 0.485
1196.000 0.486
1197.000 0.486
1198.000 0.486
1199.000 0.486
1200.000 0.485
1201.000 0.485
1202.000 0.485
1203.000 0.486
1204.000 0.487
1205.000 0.488
1206.000 0.488
1207.000 0.489
1208.000 0.489
1209.000 0.489
1210.000 0.489
1211.000 0.489
1212.000 0.490
1213.000 0.490
1214.000 0.491
1215.000 0.492
1216.000 0.492
1217.000 0.492
1218.000 0.493
1219.000 0.494
1220.000 0.494
1221.000 0.495
1222.000 0.496
1223.000 0.496
1224.000 0.497
1225.000 0.497
1226.000 0.498
1227.000 0.499
1228.000 0.499
1229.000 0.500
1230.000 0.501
1231.000 0.501
1232.000 0.501
1233.000 0.502
1234.000 0.502
1235.000 0.502
1236.000 0.503
1237.000 0.503
1238.000 0.504
1239.000 0.504
1240.000 0.504
1241.000 0.505
1242.000 0.505
1243.000 0.506
1244.000 0.507
1245.000 0.507
1246.000 0.508
1247.000 0.508
1248.000 0.509
1249.000 0.510
1250.000 0.510
1251.000 0.511
1252.000 0.511
1253.000 0.511
1254.000 0.511
1255.000 0.512
1256.000 0.512
1257.000 0.513
1258.000 0.513
1259.000 0.513
1260.000 0.514
1261.000 0.514
1262.000 0.514
1263.000 0.515
1264.000 0.515
1265.000 0.515
1266.000 0.515
1267.000 0.516
1268.000 0.516
1269.000 0.515
1270.000 0.515
1271.000 0.516
1272.000 0.516
1273.000 0.516
1274.000 0.516
1275.000 0.516
1276.000 0.517
1277.000 0.517
1278.000 0.518
1279.000 0.518
1280.000 0.517
1281.000 0.517
1282.000 0.516
1283.000 0.516
1284.000 0.515
1285.000 0.515
1286.000 0.516
1287.000 0.516
1288.000 0.515
1289.000 0.515
1290.000 0.514
1291.000 0.513
1292.000 0.514
1293.000 0.513
1294.000 0.513
1295.000 0.512
1296.000 0.511
1297.000 0.510
1298.000 0.510
1299.000 0.508
1300.000 0.507
1301.000 0.506
1302.000 0.505
1303.000 0.504
1304.000 0.502
1305.000 0.501
1306.000 0.501
1307.000 0.499
1308.000 0.498
1309.000 0.496
1310.000 0.495
1311.000 0.494
1312.000 0.492
1313.000 0.491
1314.000 0.489
1315.000 0.486
1316.000 0.483
1317.000 0.482
1318.000 0.480
1319.000 0.478
1320.000 0.476
1321.000 0.474
1322.000 0.472
1323.000 0.470
1324.000 0.469
1325.000 0.467
1326.000 0.464
1327.000 0.463
1328.000 0.460
1329.000 0.457
1330.000 0.455
1331.000 0.452
1332.000 0.451
1333.000 0.448
1334.000 0.446
1335.000 0.444
1336.000 0.441
1337.000 0.438
1338.000 0.436
1339.000 0.434
1340.000 0.431
1341.000 0.429
1342.000 0.428
1343.000 0.427
1344.000 0.428
1345.000 0.427
1346.000 0.427
1347.000 0.427
1348.000 0.426
1349.000 0.422
1350.000 0.419
1351.000 0.414
1352.000 0.413
1353.000 0.419
1354.000 0.425
1355.000 0.469
1356.000 0.479
1357.000 0.427
1358.000 0.406
1359.000 0.364
1360.000 0.405
1361.000 0.380
1362.000 0.351
1363.000 0.408
1364.000 0.484
1365.000 0.243
1366.000 0.399
1367.000 0.285
1368.000 0.295
1369.000 0.299
1370.000 0.390
1371.000 0.325
1372.000 0.338
1373.000 0.332
1374.000 0.347
1375.000 0.567
1376.000 0.623
1377.000 0.517
1378.000 0.429
1379.000 0.460
1380.000 0.483
1381.000 0.589
1382.000 0.687
1383.000 0.602
1384.000 0.508
1385.000 0.507
1386.000 0.389
1387.000 0.508
1388.000 0.555
1389.000 0.621
1390.000 0.424
1391.000 0.693
1392.000 0.442
1393.000 0.442
1394.000 0.597
1395.000 0.555
1396.000 0.534
1397.000 0.436
1398.000 0.313
1399.000 0.247
1400.000 0.183
1401.000 0.170
1402.000 0.233
1403.000 0.232
1404.000 0.245
1405.000 0.214
1406.000 0.160
1407.000 0.138
1408.000 0.133
1409.000 0.120
1410.000 0.132
1411.000 0.162
1412.000 0.159
1413.000 0.088
1414.000 0.093
1415.000 0.101
1416.000 0.198
1417.000 0.369
1418.000 0.345
1419.000 0.228
1420.000 0.198
1421.000 0.128
1422.000 0.110
1423.000 0.162
1424.000 0.203
1425.000 0.123
1426.000 0.117
1427.000 0.103
1428.000 0.103
1429.000 0.103
1430.000 0.103
1431.000 0.113
1432.000 0.111
1433.000 0.109
1434.000 0.088
1435.000 0.084
1436.000 0.092
1437.000 0.115
1438.000 0.126
1439.000 0.119
1440.000 0.121
1441.000 0.122
1442.000 0.117
1443.000 0.115
1444.000 0.115
1445.000 0.112
1446.000 0.111
1447.000 0.120
1448.000 0.120
1449.000 0.115
1450.000 0.108
1451.000 0.107
1452.000 0.108
1453.000 0.110
1454.000 0.119
1455.000 0.120
1456.000 0.115
1457.000 0.114
1458.000 0.114
1459.000 0.113
1460.000 0.116
1461.000 0.114
1462.000 0.108
1463.000 0.105
1464.000 0.099
1465.000 0.097
1466.000 0.098
1467.000 0.100
1468.000 0.106
1469.000 0.110
1470.000 0.117
1471.000 0.117
1472.000 0.111
1473.000 0.108
1474.000 0.102
1475.000 0.102
1476.000 0.109
1477.000 0.110
1478.000 0.112
1479.000 0.115
1480.000 0.116
1481.000 0.118
1482.000 0.120
1483.000 0.121
1484.000 0.119
1485.000 0.120
1486.000 0.120
1487.000 0.121
1488.000 0.123
1489.000 0.125
1490.000 0.126
1491.000 0.128
1492.000 0.130
1493.000 0.131
1494.000 0.130
1495.000 0.131
1496.000 0.131
1497.000 0.131
1498.000 0.133
1499.000 0.135
1500.000 0.136
1501.000 0.138
1502.000 0.140
1503.000 0.141
1504.000 0.143
1505.000 0.144
1506.000 0.144
1507.000 0.145
1508.000 0.146
1509.000 0.147
1510.000 0.148
1511.000 0.149
1512.000 0.151
1513.000 0.154
1514.000 0.155
1515.000 0.156
1516.000 0.157
1517.000 0.157
1518.000 0.158
1519.000 0.157
1520.000 0.159
1521.000 0.161
1522.000 0.162
1523.000 0.164
1524.000 0.165
1525.000 0.167
1526.000 0.168
1527.000 0.170
1528.000 0.172
1529.000 0.173
1530.000 0.174
1531.000 0.175
1532.000 0.176
1533.000 0.178
1534.000 0.179
1535.000 0.181
1536.000 0.181
1537.000 0.182
1538.000 0.183
1539.000 0.185
1540.000 0.186
1541.000 0.188
1542.000 0.189
1543.000 0.190
1544.000 0.192
1545.000 0.194
1546.000 0.195
1547.000 0.195
1548.000 0.197
1549.000 0.197
1550.000 0.198
1551.000 0.199
1552.000 0.200
1553.000 0.201
1554.000 0.202
1555.000 0.204
1556.000 0.205
1557.000 0.205
1558.000 0.207
1559.000 0.209
1560.000 0.210
1561.000 0.211
1562.000 0.212
1563.000 0.213
1564.000 0.215
1565.000 0.217
1566.000 0.218
1567.000 0.220
1568.000 0.221
1569.000 0.222
1570.000 0.222
1571.000 0.223
1572.000 0.223
1573.000 0.224
1574.000 0.224
1575.000 0.225
1576.000 0.226
1577.000 0.228
1578.000 0.229
1579.000 0.230
1580.000 0.232
1581.000 0.232
1582.000 0.233
1583.000 0.235
1584.000 0.236
1585.000 0.240
1586.000 0.241
1587.000 0.243
1588.000 0.244
1589.000 0.243
1590.000 0.244
1591.000 0.244
1592.000 0.244
1593.000 0.246
1594.000 0.247
1595.000 0.248
1596.000 0.249
1597.000 0.250
1598.000 0.251
1599.000 0.253
1600.000 0.254
1601.000 0.255
1602.000 0.256
1603.000 0.257
1604.000 0.257
1605.000 0.256
1606.000 0.257
1607.000 0.258
1608.000 0.259
1609.000 0.262
1610.000 0.263
1611.000 0.264
1612.000 0.265
1613.000 0.264
1614.000 0.265
1615.000 0.266
1616.000 0.266
1617.000 0.267
1618.000 0.268
1619.000 0.269
1620.000 0.269
1621.000 0.269
1622.000 0.269
1623.000 0.269
1624.000 0.268
1625.000 0.269
1626.000 0.270
1627.000 0.272
1628.000 0.273
1629.000 0.274
1630.000 0.275
1631.000 0.276
1632.000 0.276
1633.000 0.277
1634.000 0.278
1635.000 0.279
1636.000 0.279
1637.000 0.279
1638.000 0.279
1639.000 0.279
1640.000 0.279
1641.000 0.280
1642.000 0.280
1643.000 0.281
1644.000 0.282
1645.000 0.282
1646.000 0.282
1647.000 0.283
1648.000 0.283
1649.000 0.284
1650.000 0.284
1651.000 0.284
1652.000 0.284
1653.000 0.284
1654.000 0.284
1655.000 0.283
1656.000 0.284
1657.000 0.285
1658.000 0.286
1659.000 0.288
1660.000 0.288
1661.000 0.287
1662.000 0.288
1663.000 0.289
1664.000 0.289
1665.000 0.289
1666.000 0.289
1667.000 0.289
1668.000 0.289
1669.000 0.290
1670.000 0.289
1671.000 0.289
1672.000 0.289
1673.000 0.287
1674.000 0.287
1675.000 0.287
1676.000 0.288
1677.000 0.289
1678.000 0.290
1679.000 0.290
1680.000 0.290
1681.000 0.289
1682.000 0.288
1683.000 0.287
1684.000 0.287
1685.000 0.287
1686.000 0.287
1687.000 0.288
1688.000 0.287
1689.000 0.287
1690.000 0.287
1691.000 0.284
1692.000 0.284
1693.000 0.284
1694.000 0.284
1695.000 0.285
1696.000 0.284
1697.000 0.284
1698.000 0.284
1699.000 0.284
1700.000 0.283
1701.000 0.282
1702.000 0.281
1703.000 0.280
1704.000 0.280
1705.000 0.279
1706.000 0.279
1707.000 0.280
1708.000 0.279
1709.000 0.278
1710.000 0.278
1711.000 0.276
1712.000 0.276
1713.000 0.276
1714.000 0.274
1715.000 0.274
1716.000 0.273
1717.000 0.273
1718.000 0.273
1719.000 0.274
1720.000 0.272
1721.000 0.271
1722.000 0.270
1723.000 0.268
1724.000 0.270
1725.000 0.270
1726.000 0.269
1727.000 0.269
1728.000 0.268
1729.000 0.265
1730.000 0.265
1731.000 0.264
1732.000 0.262
1733.000 0.263
1734.000 0.262
1735.000 0.260
1736.000 0.259
1737.000 0.259
1738.000 0.261
1739.000 0.261
1740.000 0.262
1741.000 0.261
1742.000 0.259
1743.000 0.259
1744.000 0.258
1745.000 0.258
1746.000 0.260
1747.000 0.259
1748.000 0.259
1749.000 0.258
1750.000 0.257
1751.000 0.256
1752.000 0.255
1753.000 0.255
1754.000 0.254
1755.000 0.253
1756.000 0.252
1757.000 0.251
1758.000 0.249
1759.000 0.248
1760.000 0.246
1761.000 0.246
1762.000 0.247
1763.000 0.246
1764.000 0.246
1765.000 0.244
1766.000 0.242
1767.000 0.243
1768.000 0.243
1769.000 0.243
1770.000 0.242
1771.000 0.241
1772.000 0.240
1773.000 0.239
1774.000 0.239
1775.000 0.238
1776.000 0.239
1777.000 0.239
1778.000 0.234
1779.000 0.232
1780.000 0.230
1781.000 0.228
1782.000 0.228
1783.000 0.232
1784.000 0.232
1785.000 0.232
1786.000 0.233
1787.000 0.232
1788.000 0.232
1789.000 0.238
1790.000 0.237
1791.000 0.230
1792.000 0.226
1793.000 0.220
1794.000 0.227
1795.000 0.244
1796.000 0.252
1797.000 0.254
1798.000 0.239
1799.000 0.218
1800.000 0.207
1801.000 0.373
1802.000 0.432
1803.000 0.506
1804.000 0.501
1805.000 0.468
1806.000 0.610
1807.000 0.606
1808.000 0.603
1809.000 0.602
1810.000 0.608
1811.000 0.607
1812.000 0.601
1813.000 0.601
1814.000 0.590
1815.000 0.581
1816.000 0.573
1817.000 0.559
1818.000 0.560
1819.000 0.553
1820.000 0.552
1821.000 0.405
1822.000 0.395
1823.000 0.418
1824.000 0.431
1825.000 0.376
1826.000 0.358
1827.000 0.430
1828.000 0.471
1829.000 0.412
1830.000 0.769
1831.000 0.408
1832.000 0.455
1833.000 0.580
1834.000 0.506
1835.000 0.477
1836.000 0.438
1837.000 0.560
1838.000 0.592
1839.000 0.504
1840.000 0.564
1841.000 0.587
1842.000 0.519
1843.000 0.646
1844.000 0.586
1845.000 0.564
1846.000 0.478
1847.000 0.489
1848.000 0.577
1849.000 0.722
1850.000 0.729
1851.000 0.737
1852.000 0.681
1853.000 0.660
1854.000 0.461
1855.000 0.419
1856.000 0.357
1857.000 0.486
1858.000 0.394
1859.000 0.433
1860.000 0.426
1861.000 0.458
1862.000 0.463
1863.000 0.476
1864.000 0.517
1865.000 0.483
1866.000 0.449
1867.000 0.436
1868.000 0.739
1869.000 0.696
1870.000 0.609
1871.000 0.589
1872.000 0.658
1873.000 0.687
1874.000 0.678
1875.000 0.639
1876.000 0.554
1877.000 0.461
1878.000 0.482
1879.000 0.501
1880.000 0.647
1881.000 0.637
1882.000 0.439
1883.000 0.298
1884.000 0.408
1885.000 0.466
1886.000 0.449
1887.000 0.363
1888.000 0.518
1889.000 0.565
1890.000 0.519
1891.000 0.578
1892.000 0.544
1893.000 0.526
1894.000 0.593
1895.000 0.520
1896.000 0.647
1897.000 0.526
1898.000 0.698
1899.000 0.746
1900.000 0.739
1901.000 0.749
1902.000 0.643
1903.000 0.566
1904.000 0.359
1905.000 0.504
1906.000 0.469
1907.000 0.359
1908.000 0.318
1909.000 0.282
1910.000 0.354
1911.000 0.402
1912.000 0.306
1913.000 0.242
1914.000 0.264
1915.000 0.274
1916.000 0.268
1917.000 0.290
1918.000 0.356
1919.000 0.409
1920.000 0.452
1921.000 0.482
1922.000 0.294
1923.000 0.509
1924.000 0.388
1925.000 0.247
1926.000 0.128
1927.000 0.213
1928.000 0.370
1929.000 0.372
1930.000 0.387
1931.000 0.417
1932.000 0.441
1933.000 0.472
1934.000 0.510
1935.000 0.557
1936.000 0.348
1937.000 0.329
1938.000 0.314
1939.000 0.348
1940.000 0.306
1941.000 0.309
1942.000 0.313
1943.000 0.323
1944.000 0.313
1945.000 0.425
1946.000 0.243
1947.000 0.212
1948.000 0.210
1949.000 0.199
1950.000 0.251
1951.000 0.266
1952.000 0.284
1953.000 0.229
1954.000 0.201
1955.000 0.175
1956.000 0.188
1957.000 0.278
1958.000 0.335
1959.000 0.370
1960.000 0.307
1961.000 0.298
1962.000 0.284
1963.000 0.308
1964.000 0.274
1965.000 0.391
1966.000 0.186
1967.000 0.236
1968.000 0.169
1969.000 0.147
1970.000 0.167
1971.000 0.162
1972.000 0.157
1973.000 0.175
1974.000 0.202
1975.000 0.202
1976.000 0.171
1977.000 0.152
1978.000 0.135
1979.000 0.111
1980.000 0.098
1981.000 0.112
1982.000 0.110
1983.000 0.114
1984.000 0.118
1985.000 0.119
1986.000 0.120
1987.000 0.118
1988.000 0.123
1989.000 0.147
1990.000 0.143
1991.000 0.127
1992.000 0.116
1993.000 0.097
1994.000 0.079
1995.000 0.083
1996.000 0.094
1997.000 0.104
1998.000 0.120
1999.000 0.134
2000.000 0.159
2001.000 0.173
2002.000 0.150
2003.000 0.160
2004.000 0.193
2005.000 0.197
2006.000 0.196
2007.000 0.226
2008.000 0.194
2009.000 0.181
2010.000 0.236
2011.000 0.244
2012.000 0.263
2013.000 0.230
2014.000 0.216
2015.000 0.198
2016.000 0.192
2017.000 0.191
2018.000 0.181
2019.000 0.173
2020.000 0.158
2021.000 0.143
2022.000 0.125
2023.000 0.129
2024.000 0.128
2025.000 0.123
2026.000 0.125
2027.000 0.119
2028.000 0.107
2029.000 0.104
2030.000 0.104
2031.000 0.104
2032.000 0.107
2033.000 0.107
2034.000 0.109
2035.000 0.107
2036.000 0.102
2037.000 0.102
2038.000 0.094
2039.000 0.090
2040.000 0.088
2041.000 0.079
2042.000 0.078
2043.000 0.079
2044.000 0.079
2045.000 0.085
2046.000 0.090
2047.000 0.097
2048.000 0.103
2049.000 0.107
2050.000 0.110
2051.000 0.114
2052.000 0.116
2053.000 0.118
2054.000 0.123
2055.000 0.125
2056.000 0.132
2057.000 0.136
2058.000 0.140
2059.000 0.141
2060.000 0.141
2061.000 0.142
2062.000 0.149
2063.000 0.146
2064.000 0.135
2065.000 0.127
2066.000 0.119
2067.000 0.104
2068.000 0.097
2069.000 0.099
2070.000 0.101
2071.000 0.103
2072.000 0.102
2073.000 0.098
2074.000 0.099
2075.000 0.099
2076.000 0.098
2077.000 0.099
2078.000 0.101
2079.000 0.100
2080.000 0.101
2081.000 0.106
2082.000 0.116
2083.000 0.120
2084.000 0.122
2085.000 0.128
2086.000 0.124
2087.000 0.123
2088.000 0.121
2089.000 0.119
2090.000 0.115
2091.000 0.115
2092.000 0.117
2093.000 0.116
2094.000 0.117
2095.000 0.116
2096.000 0.114
2097.000 0.114
2098.000 0.114
2099.000 0.115
2100.000 0.117
2101.000 0.115
2102.000 0.111
2103.000 0.111
2104.000 0.113
2105.000 0.119
2106.000 0.122
2107.000 0.130
2108.000 0.129
2109.000 0.118
2110.000 0.115
2111.000 0.110
2112.000 0.110
2113.000 0.117
2114.000 0.121
2115.000 0.125
2116.000 0.127
2117.000 0.127
2118.000 0.122
2119.000 0.117
2120.000 0.119
2121.000 0.122
2122.000 0.128
2123.000 0.131
2124.000 0.137
2125.000 0.137
2126.000 0.131
2127.000 0.130
2128.000 0.127
2129.000 0.127
2130.000 0.131
2131.000 0.134
2132.000 0.141
2133.000 0.144
2134.000 0.144
2135.000 0.144
2136.000 0.140
2137.000 0.134
2138.000 0.133
2139.000 0.130
2140.000 0.128
2141.000 0.129
2142.000 0.125
2143.000 0.119
2144.000 0.118
2145.000 0.118
2146.000 0.119
2147.000 0.129
2148.000 0.131
2149.000 0.131
2150.000 0.132
2151.000 0.133
2152.000 0.133
2153.000 0.139
2154.000 0.140
2155.000 0.138
2156.000 0.137
2157.000 0.135
2158.000 0.129
2159.000 0.130
2160.000 0.135
2161.000 0.137
2162.000 0.145
2163.000 0.144
2164.000 0.137
2165.000 0.136
2166.000 0.136
2167.000 0.135
2168.000 0.137
2169.000 0.138
2170.000 0.137
2171.000 0.138
2172.000 0.145
2173.000 0.147
2174.000 0.148
2175.000 0.149
2176.000 0.150
2177.000 0.148
2178.000 0.145
2179.000 0.139
2180.000 0.135
2181.000 0.131
2182.000 0.136
2183.000 0.141
2184.000 0.143
2185.000 0.148
2186.000 0.149
2187.000 0.145
2188.000 0.146
2189.000 0.149
2190.000 0.151
2191.000 0.158
2192.000 0.159
2193.000 0.158
2194.000 0.156
2195.000 0.148
2196.000 0.146
2197.000 0.146
2198.000 0.147
2199.000 0.151
2200.000 0.154
2201.000 0.158
2202.000 0.157
2203.000 0.160
2204.000 0.164
2205.000 0.162
2206.000 0.163
2207.000 0.160
2208.000 0.146
2209.000 0.140
2210.000 0.134
2211.000 0.131
2212.000 0.131
2213.000 0.133
2214.000 0.136
2215.000 0.140
2216.000 0.148
2217.000 0.152
2218.000 0.151
2219.000 0.153
2220.000 0.151
2221.000 0.152
2222.000 0.155
2223.000 0.157
2224.000 0.155
2225.000 0.156
2226.000 0.158
2227.000 0.158
2228.000 0.158
2229.000 0.159
2230.000 0.158
2231.000 0.154
2232.000 0.152
2233.000 0.151
2234.000 0.145
2235.000 0.143
2236.000 0.143
2237.000 0.141
2238.000 0.143
2239.000 0.151
2240.000 0.152
2241.000 0.152
2242.000 0.149
2243.000 0.139
2244.000 0.137
2245.000 0.135
2246.000 0.136
2247.000 0.144
2248.000 0.145
2249.000 0.144
2250.000 0.145
2251.000 0.145
2252.000 0.146
2253.000 0.147
2254.000 0.149
2255.000 0.150
2256.000 0.152
2257.000 0.162
2258.000 0.162
2259.000 0.168
2260.000 0.168
2261.000 0.153
2262.000 0.148
2263.000 0.141
2264.000 0.134
2265.000 0.136
2266.000 0.142
2267.000 0.150
2268.000 0.150
2269.000 0.153
2270.000 0.149
2271.000 0.144
2272.000 0.134
2273.000 0.129
2274.000 0.129
2275.000 0.130
2276.000 0.139
2277.000 0.140
2278.000 0.135
2279.000 0.133
2280.000 0.131
2281.000 0.130
2282.000 0.129
2283.000 0.133
2284.000 0.137
2285.000 0.141
2286.000 0.159
2287.000 0.161
2288.000 0.148
2289.000 0.144
2290.000 0.133
2291.000 0.130
2292.000 0.134
2293.000 0.136
2294.000 0.148
2295.000 0.152
2296.000 0.148
2297.000 0.156
2298.000 0.158
2299.000 0.143
2300.000 0.140
2301.000 0.132
2302.000 0.131
2303.000 0.130
2304.000 0.130
2305.000 0.144
2306.000 0.145
2307.000 0.132
2308.000 0.117
2309.000 0.123
2310.000 0.110
2311.000 0.115
2312.000 0.118
2313.000 0.097
2314.000 0.140
2315.000 0.150
2316.000 0.146
2317.000 0.179
2318.000 0.183
2319.000 0.184
2320.000 0.175
2321.000 0.153
2322.000 0.152
2323.000 0.156
2324.000 0.128
2325.000 0.118
2326.000 0.108
2327.000 0.095
2328.000 0.087
2329.000 0.098
2330.000 0.090
2331.000 0.072
2332.000 0.071
2333.000 0.074
2334.000 0.090
2335.000 0.177
2336.000 0.227
2337.000 0.235
2338.000 0.218
2339.000 0.132
2340.000 0.119
2341.000 0.107
2342.000 0.116
2343.000 0.103
2344.000 0.095
2345.000 0.105
2346.000 0.127
2347.000 0.156
2348.000 0.159
2349.000 0.163
2350.000 0.175
2351.000 0.172
2352.000 0.168
2353.000 0.192
2354.000 0.156
2355.000 0.131
2356.000 0.152
2357.000 0.143
2358.000 0.113
2359.000 0.128
2360.000 0.123
2361.000 0.123
2362.000 0.162
2363.000 0.227
2364.000 0.301
2365.000 0.334
2366.000 0.247
2367.000 0.250
2368.000 0.152
2369.000 0.112
2370.000 0.116
2371.000 0.121
2372.000 0.136
2373.000 0.239
2374.000 0.100
2375.000 0.160
2376.000 0.322
2377.000 0.133
2378.000 0.097
2379.000 0.151
2380.000 0.179
2381.000 0.156
2382.000 0.200
2383.000 0.211
2384.000 0.230
2385.000 0.159
2386.000 0.185
2387.000 0.204
2388.000 0.158
2389.000 0.189
2390.000 0.277
2391.000 0.380
2392.000 0.217
2393.000 0.100
2394.000 0.314
2395.000 0.306
2396.000 0.347
2397.000 0.346
2398.000 0.195
2399.000 0.236
2400.000 0.214
2401.000 0.345
2402.000 0.242
2403.000 0.264
2404.000 0.294
2405.000 0.349
2406.000 0.118
2407.000 0.127
2408.000 0.209
2409.000 0.389
2410.000 0.291
2411.000 0.260
2412.000 0.331
2413.000 0.330
2414.000 0.321
2415.000 0.270
2416.000 0.274
2417.000 0.174
2418.000 0.156
2419.000 0.274
2420.000 0.467
2421.000 0.174
2422.000 0.162
2423.000 0.255
2424.000 0.357
2425.000 0.484
2426.000 0.341
2427.000 0.364
2428.000 0.258
2429.000 0.384
2430.000 0.368
2431.000 0.375
2432.000 0.388
2433.000 0.416
2434.000 0.346
2435.000 0.145
2436.000 0.313
2437.000 0.419
2438.000 0.385
2439.000 0.332
2440.000 0.278
2441.000 0.231
2442.000 0.157
2443.000 0.325
2444.000 0.172
2445.000 0.325
2446.000 0.231
2447.000 0.281
2448.000 0.157
2449.000 0.285
2450.000 0.168
2451.000 0.241
2452.000 0.286
2453.000 0.333
2454.000 0.627
2455.000 0.203
2456.000 0.490
2457.000 0.517
2458.000 0.437
2459.000 0.405
2460.000 0.166
2461.000 0.169
2462.000 0.197
2463.000 0.166
2464.000 0.352
2465.000 0.460
2466.000 0.378
2467.000 0.282
2468.000 0.450
2469.000 0.589
2470.000 0.405
2471.000 0.305
2472.000 0.308
2473.000 0.185
2474.000 0.321
2475.000 0.402
2476.000 0.482
2477.000 0.540
2478.000 0.508
2479.000 0.445
2480.000 0.525
2481.000 0.313
2482.000 0.384
2483.000 0.440
2484.000 0.371
2485.000 0.358
2486.000 0.537
2487.000 0.590
2488.000 0.213
2489.000 0.073
2490.000 0.115
2491.000 0.365
2492.000 0.477
2493.000 0.592
2494.000 0.494
2495.000 0.637
2496.000 0.642
2497.000 0.389
2498.000 0.479
2499.000 0.398
2500.000 0.515
