391.000 0.030
392.000 0.030
393.000 0.031
394.000 0.029
395.000 0.026
396.000 0.026
397.000 0.029
398.000 0.032
399.000 0.025
400.000 0.023
401.000 0.034
402.000 0.029
403.000 0.025
404.000 0.026
405.000 0.030
406.000 0.028
407.000 0.028
408.000 0.028
409.000 0.027
410.000 0.028
411.000 0.030
412.000 0.028
413.000 0.027
414.000 0.027
415.000 0.027
416.000 0.025
417.000 0.029
418.000 0.030
419.000 0.029
420.000 0.029
421.000 0.031
422.000 0.032
423.000 0.030
424.000 0.031
425.000 0.030
426.000 0.028
427.000 0.029
428.000 0.031
429.000 0.030
430.000 0.028
431.000 0.030
432.000 0.030
433.000 0.031
434.000 0.032
435.000 0.031
436.000 0.030
437.000 0.030
438.000 0.030
439.000 0.031
440.000 0.030
441.000 0.029
442.000 0.031
443.000 0.030
444.000 0.029
445.000 0.029
446.000 0.030
447.000 0.032
448.000 0.032
449.000 0.032
450.000 0.031
451.000 0.030
452.000 0.031
453.000 0.031
454.000 0.032
455.000 0.033
456.000 0.032
457.000 0.032
458.000 0.032
459.000 0.032
460.000 0.032
461.000 0.033
462.000 0.033
463.000 0.033
464.000 0.032
465.000 0.032
466.000 0.032
467.000 0.032
468.000 0.034
469.000 0.035
470.000 0.033
471.000 0.032
472.000 0.032
473.000 0.034
474.000 0.034
475.000 0.034
476.000 0.034
477.000 0.033
478.000 0.033
479.000 0.033
480.000 0.034
481.000 0.035
482.000 0.035
483.000 0.035
484.000 0.032
485.000 0.033
486.000 0.036
487.000 0.037
488.000 0.036
489.000 0.034
490.000 0.035
491.000 0.036
492.000 0.035
493.000 0.034
494.000 0.035
495.000 0.035
496.000 0.035
497.000 0.037
498.000 0.040
499.000 0.040
500.000 0.039
501.000 0.038
502.000 0.039
503.000 0.040
504.000 0.041
505.000 0.041
506.000 0.041
507.000 0.042
508.000 0.041
509.000 0.043
510.000 0.046
511.000 0.048
512.000 0.049
513.000 0.049
514.000 0.051
515.000 0.053
516.000 0.055
517.000 0.056
518.000 0.058
519.000 0.062
520.000 0.065
521.000 0.067
522.000 0.069
523.000 0.072
524.000 0.074
525.000 0.075
526.000 0.078
527.000 0.082
528.000 0.084
529.000 0.086
530.000 0.086
531.000 0.089
532.000 0.092
533.000 0.092
534.000 0.093
535.000 0.095
536.000 0.096
537.000 0.097
538.000 0.097
539.000 0.098
540.000 0.099
541.000 0.099
542.000 0.099
543.000 0.100
544.000 0.101
545.000 0.102
546.000 0.102
547.000 0.101
548.000 0.101
549.000 0.102
550.000 0.102
551.000 0.103
552.000 0.103
553.000 0.102
554.000 0.102
555.000 0.103
556.000 0.103
557.000 0.102
558.000 0.101
559.000 0.101
560.000 0.100
561.000 0.099
562.000 0.097
563.000 0.096
564.000 0.095
565.000 0.093
566.000 0.092
567.000 0.090
568.000 0.088
569.000 0.087
570.000 0.086
571.000 0.085
572.000 0.082
573.000 0.080
574.000 0.080
575.000 0.079
576.000 0.078
577.000 0.077
578.000 0.076
579.000 0.074
580.000 0.074
581.000 0.072
582.000 0.071
583.000 0.071
584.000 0.071
585.000 0.070
586.000 0.069
587.000 0.068
588.000 0.068
589.000 0.068
590.000 0.067
591.000 0.065
592.000 0.065
593.000 0.065
594.000 0.066
595.000 0.064
596.000 0.064
597.000 0.064
598.000 0.064
599.000 0.064
600.000 0.064
601.000 0.062
602.000 0.063
603.000 0.063
604.000 0.063
605.000 0.062
606.000 0.062
607.000 0.062
608.000 0.062
609.000 0.062
610.000 0.061
611.000 0.060
612.000 0.061
613.000 0.059
614.000 0.059
615.000 0.059
616.000 0.059
617.000 0.059
618.000 0.058
619.000 0.057
620.000 0.056
621.000 0.055
622.000 0.056
623.000 0.057
624.000 0.057
625.000 0.057
626.000 0.057
627.000 0.055
628.000 0.055
629.000 0.055
630.000 0.054
631.000 0.055
632.000 0.056
633.000 0.056
634.000 0.057
635.000 0.056
636.000 0.056
637.000 0.057
638.000 0.055
639.000 0.053
640.000 0.052
641.000 0.052
642.000 0.051
643.000 0.051
644.000 0.052
645.000 0.051
646.000 0.050
647.000 0.049
648.000 0.049
649.000 0.049
650.000 0.048
651.000 0.049
652.000 0.047
653.000 0.047
654.000 0.047
655.000 0.050
656.000 0.049
657.000 0.048
658.000 0.049
659.000 0.049
660.000 0.048
661.000 0.048
662.000 0.049
663.000 0.047
664.000 0.046
665.000 0.047
666.000 0.049
667.000 0.051
668.000 0.050
669.000 0.049
670.000 0.049
671.000 0.047
672.000 0.047
673.000 0.050
674.000 0.051
675.000 0.052
676.000 0.052
677.000 0.053
678.000 0.053
679.000 0.053
680.000 0.053
681.000 0.054
682.000 0.054
683.000 0.056
684.000 0.056
685.000 0.060
686.000 0.062
687.000 0.063
688.000 0.065
689.000 0.065
690.000 0.068
691.000 0.070
692.000 0.072
693.000 0.078
694.000 0.084
695.000 0.089
696.000 0.093
697.000 0.099
698.000 0.108
699.000 0.115
700.000 0.123
701.000 0.131
702.000 0.140
703.000 0.149
704.000 0.158
705.000 0.166
706.000 0.175
707.000 0.183
708.000 0.192
709.000 0.202
710.000 0.211
711.000 0.220
712.000 0.229
713.000 0.239
714.000 0.249
715.000 0.259
716.000 0.268
717.000 0.278
718.000 0.287
719.000 0.299
720.000 0.309
721.000 0.320
722.000 0.329
723.000 0.338
724.000 0.348
725.000 0.358
726.000 0.367
727.000 0.377
728.000 0.385
729.000 0.394
730.000 0.402
731.000 0.410
732.000 0.418
733.000 0.426
734.000 0.433
735.000 0.440
736.000 0.446
737.000 0.452
738.000 0.458
739.000 0.463
740.000 0.468
741.000 0.473
742.000 0.478
743.000 0.483
744.000 0.486
745.000 0.490
746.000 0.493
747.000 0.498
748.000 0.501
749.000 0.503
750.000 0.506
751.000 0.508
752.000 0.510
753.000 0.512
754.000 0.514
755.000 0.516
756.000 0.518
757.000 0.519
758.000 0.521
759.000 0.521
760.000 0.523
761.000 0.525
762.000 0.527
763.000 0.528
764.000 0.528
765.000 0.528
766.000 0.529
767.000 0.529
768.000 0.529
769.000 0.530
770.000 0.530
771.000 0.531
772.000 0.531
773.000 0.531
774.000 0.532
775.000 0.532
776.000 0.533
777.000 0.534
778.000 0.534
779.000 0.535
780.000 0.535
781.000 0.535
782.000 0.536
783.000 0.536
784.000 0.537
785.000 0.537
786.000 0.538
787.000 0.538
788.000 0.539
789.000 0.540
790.000 0.540
791.000 0.540
792.000 0.541
793.000 0.541
794.000 0.542
795.000 0.542
796.000 0.543
797.000 0.543
798.000 0.544
799.000 0.545
800.000 0.545
801.000 0.546
802.000 0.546
803.000 0.546
804.000 0.547
805.000 0.548
806.000 0.549
807.000 0.549
808.000 0.549
809.000 0.550
810.000 0.550
811.000 0.551
812.000 0.551
813.000 0.551
814.000 0.551
815.000 0.552
816.000 0.552
817.000 0.552
818.000 0.553
819.000 0.554
820.000 0.554
821.000 0.555
822.000 0.555
823.000 0.555
824.000 0.556
825.000 0.557
826.000 0.558
827.000 0.558
828.000 0.558
829.000 0.559
830.000 0.559
831.000 0.560
832.000 0.560
833.000 0.561
834.000 0.561
835.000 0.562
836.000 0.562
837.000 0.563
838.000 0.563
839.000 0.565
840.000 0.565
841.000 0.565
842.000 0.565
843.000 0.566
844.000 0.566
845.000 0.567
846.000 0.567
847.000 0.568
848.000 0.568
849.000 0.569
850.000 0.569
851.000 0.570
852.000 0.570
853.000 0.570
854.000 0.571
855.000 0.571
856.000 0.571
857.000 0.572
858.000 0.573
859.000 0.574
860.000 0.574
861.000 0.574
862.000 0.574
863.000 0.574
864.000 0.575
865.000 0.575
866.000 0.576
867.000 0.576
868.000 0.576
869.000 0.577
870.000 0.578
871.000 0.578
872.000 0.578
873.000 0.579
874.000 0.579
875.000 0.579
876.000 0.580
877.000 0.580
878.000 0.581
879.000 0.582
880.000 0.582
881.000 0.582
882.000 0.583
883.000 0.584
884.000 0.584
885.000 0.584
886.000 0.585
887.000 0.586
888.000 0.586
889.000 0.586
890.000 0.587
891.000 0.587
892.000 0.588
893.000 0.588
894.000 0.588
895.000 0.588
896.000 0.588
897.000 0.588
898.000 0.588
899.000 0.589
900.000 0.589
901.000 0.589
902.000 0.590
903.000 0.591
904.000 0.592
905.000 0.592
906.000 0.593
907.000 0.593
908.000 0.593
909.000 0.593
910.000 0.592
911.000 0.593
912.000 0.594
913.000 0.594
914.000 0.594
915.000 0.594
916.000 0.595
917.000 0.595
918.000 0.596
919.000 0.597
920.000 0.599
921.000 0.598
922.000 0.598
923.000 0.599
924.000 0.599
925.000 0.598
926.000 0.598
927.000 0.598
928.000 0.597
929.000 0.596
930.000 0.595
931.000 0.592
932.000 0.590
933.000 0.588
934.000 0.587
935.000 0.587
936.000 0.587
937.000 0.588
938.000 0.588
939.000 0.589
940.000 0.589
941.000 0.588
942.000 0.589
943.000 0.589
944.000 0.587
945.000 0.587
946.000 0.587
947.000 0.586
948.000 0.585
949.000 0.585
950.000 0.585
951.000 0.586
952.000 0.584
953.000 0.583
954.000 0.584
955.000 0.584
956.000 0.584
957.000 0.585
958.000 0.584
959.000 0.582
960.000 0.583
961.000 0.583
962.000 0.586
963.000 0.589
964.000 0.587
965.000 0.586
966.000 0.587
967.000 0.587
968.000 0.588
969.000 0.589
970.000 0.590
971.000 0.590
972.000 0.588
973.000 0.588
974.000 0.589
975.000 0.588
976.000 0.589
977.000 0.591
978.000 0.590
979.000 0.589
980.000 0.591
981.000 0.592
982.000 0.593
983.000 0.593
984.000 0.593
985.000 0.593
986.000 0.594
987.000 0.595
988.000 0.595
989.000 0.597
990.000 0.597
991.000 0.597
992.000 0.599
993.000 0.599
994.000 0.599
995.000 0.601
996.000 0.600
997.000 0.599
998.000 0.601
999.000 0.603
1000.000 0.602
1001.000 0.599
1002.000 0.600
1003.000 0.601
1004.000 0.602
1005.000 0.604
1006.000 0.604
1007.000 0.603
1008.000 0.603
1009.000 0.603
1010.000 0.604
1011.000 0.605
1012.000 0.604
1013.000 0.605
1014.000 0.607
1015.000 0.607
1016.000 0.607
1017.000 0.609
1018.000 0.610
1019.000 0.610
1020.000 0.611
1021.000 0.612
1022.000 0.612
1023.000 0.613
1024.000 0.614
1025.000 0.615
1026.000 0.615
1027.000 0.615
1028.000 0.616
1029.000 0.614
1030.000 0.615
1031.000 0.617
1032.000 0.619
1033.000 0.620
1034.000 0.622
1035.000 0.622
1036.000 0.622
1037.000 0.622
1038.000 0.622
1039.000 0.622
1040.000 0.622
1041.000 0.623
1042.000 0.624
1043.000 0.625
1044.000 0.626
1045.000 0.626
1046.000 0.625
1047.000 0.625
1048.000 0.626
1049.000 0.626
1050.000 0.627
1051.000 0.628
1052.000 0.628
1053.000 0.628
1054.000 0.628
1055.000 0.629
1056.000 0.630
1057.000 0.630
1058.000 0.631
1059.000 0.631
1060.000 0.631
1061.000 0.631
1062.000 0.631
1063.000 0.631
1064.000 0.631
1065.000 0.631
1066.000 0.630
1067.000 0.631
1068.000 0.632
1069.000 0.632
1070.000 0.633
1071.000 0.633
1072.000 0.633
1073.000 0.633
1074.000 0.632
1075.000 0.632
1076.000 0.632
1077.000 0.632
1078.000 0.632
1079.000 0.632
1080.000 0.632
1081.000 0.633
1082.000 0.633
1083.000 0.633
1084.000 0.633
1085.000 0.632
1086.000 0.632
1087.000 0.631
1088.000 0.631
1089.000 0.631
1090.000 0.631
1091.000 0.630
1092.000 0.630
1093.000 0.630
1094.000 0.630
1095.000 0.630
1096.000 0.630
1097.000 0.631
1098.000 0.630
1099.000 0.629
1100.000 0.630
1101.000 0.631
1102.000 0.631
1103.000 0.631
1104.000 0.631
1105.000 0.630
1106.000 0.628
1107.000 0.628
1108.000 0.627
1109.000 0.626
1110.000 0.626
1111.000 0.625
1112.000 0.625
1113.000 0.623
1114.000 0.623
1115.000 0.622
1116.000 0.620
1117.000 0.618
1118.000 0.617
1119.000 0.615
1120.000 0.613
1121.000 0.612
1122.000 0.611
1123.000 0.611
1124.000 0.609
1125.000 0.609
1126.000 0.610
1127.000 0.610
1128.000 0.608
1129.000 0.606
1130.000 0.605
1131.000 0.604
1132.000 0.603
1133.000 0.604
1134.000 0.602
1135.000 0.603
1136.000 0.603
1137.000 0.604
1138.000 0.604
1139.000 0.605
1140.000 0.604
1141.000 0.601
1142.000 0.600
1143.000 0.599
1144.000 0.598
1145.000 0.596
1146.000 0.594
1147.000 0.592
1148.000 0.590
1149.000 0.590
1150.000 0.589
1151.000 0.589
1152.000 0.590
1153.000 0.589
1154.000 0.589
1155.000 0.589
1156.000 0.587
1157.000 0.587
1158.000 0.587
1159.000 0.587
1160.000 0.586
1161.000 0.587
1162.000 0.587
1163.000 0.587
1164.000 0.587
1165.000 0.587
1166.000 0.587
1167.000 0.587
1168.000 0.587
1169.000 0.587
1170.000 0.587
1171.000 0.586
1172.000 0.586
1173.000 0.586
1174.000 0.586
1175.000 0.588
1176.000 0.588
1177.000 0.589
1178.000 0.589
1179.000 0.589
1180.000 0.590
1181.000 0.590
1182.000 0.590
1183.000 0.589
1184.000 0.590
1185.000 0.590
1186.000 0.590
1187.000 0.591
1188.000 0.591
1189.000 0.590
1190.000 0.590
1191.000 0.590
1192.000 0.590
1193.000 0.589
1194.000 0.589
1195.000 0.588
1196.000 0.589
1197.000 0.590
1198.000 0.591
1199.000 0.591
1200.000 0.591
1201.000 0.592
1202.000 0.592
1203.000 0.592
1204.000 0.593
1205.000 0.593
1206.000 0.593
1207.000 0.593
1208.000 0.593
1209.000 0.594
1210.000 0.594
1211.000 0.594
1212.000 0.595
1213.000 0.595
1214.000 0.595
1215.000 0.595
1216.000 0.596
1217.000 0.596
1218.000 0.596
1219.000 0.596
1220.000 0.597
1221.000 0.597
1222.000 0.598
1223.000 0.598
1224.000 0.598
1225.000 0.598
1226.000 0.598
1227.000 0.597
1228.000 0.598
1229.000 0.599
1230.000 0.599
1231.000 0.600
1232.000 0.600
1233.000 0.600
1234.000 0.600
1235.000 0.600
1236.000 0.601
1237.000 0.602
1238.000 0.602
1239.000 0.602
1240.000 0.602
1241.000 0.603
1242.000 0.603
1243.000 0.604
1244.000 0.604
1245.000 0.604
1246.000 0.603
1247.000 0.604
1248.000 0.605
1249.000 0.605
1250.000 0.606
1251.000 0.606
1252.000 0.606
1253.000 0.606
1254.000 0.606
1255.000 0.607
1256.000 0.608
1257.000 0.608
1258.000 0.608
1259.000 0.608
1260.000 0.608
1261.000 0.610
1262.000 0.610
1263.000 0.610
1264.000 0.611
1265.000 0.610
1266.000 0.610
1267.000 0.609
1268.000 0.610
1269.000 0.610
1270.000 0.610
1271.000 0.611
1272.000 0.612
1273.000 0.613
1274.000 0.613
1275.000 0.612
1276.000 0.612
1277.000 0.612
1278.000 0.613
1279.000 0.613
1280.000 0.613
1281.000 0.613
1282.000 0.613
1283.000 0.613
1284.000 0.612
1285.000 0.611
1286.000 0.610
1287.000 0.610
1288.000 0.609
1289.000 0.608
1290.000 0.608
1291.000 0.607
1292.000 0.606
1293.000 0.605
1294.000 0.605
1295.000 0.605
1296.000 0.604
1297.000 0.603
1298.000 0.602
1299.000 0.601
1300.000 0.601
1301.000 0.601
1302.000 0.600
1303.000 0.599
1304.000 0.598
1305.000 0.596
1306.000 0.594
1307.000 0.594
1308.000 0.592
1309.000 0.591
1310.000 0.590
1311.000 0.589
1312.000 0.587
1313.000 0.587
1314.000 0.585
1315.000 0.583
1316.000 0.581
1317.000 0.579
1318.000 0.577
1319.000 0.576
1320.000 0.574
1321.000 0.573
1322.000 0.573
1323.000 0.571
1324.000 0.571
1325.000 0.568
1326.000 0.565
1327.000 0.562
1328.000 0.558
1329.000 0.556
1330.000 0.554
1331.000 0.553
1332.000 0.552
1333.000 0.550
1334.000 0.547
1335.000 0.545
1336.000 0.542
1337.000 0.540
1338.000 0.537
1339.000 0.535
1340.000 0.532
1341.000 0.529
1342.000 0.526
1343.000 0.523
1344.000 0.524
1345.000 0.522
1346.000 0.521
1347.000 0.520
1348.000 0.519
1349.000 0.512
1350.000 0.510
1351.000 0.517
1352.000 0.516
1353.000 0.513
1354.000 0.511
1355.000 0.500
1356.000 0.491
1357.000 0.489
1358.000 0.516
1359.000 0.540
1360.000 0.527
1361.000 0.435
1362.000 0.372
1363.000 0.382
1364.000 0.304
1365.000 0.175
1366.000 0.162
1367.000 0.254
1368.000 0.257
1369.000 0.166
1370.000 0.214
1371.000 0.097
1372.000 0.096
1373.000 0.329
1374.000 0.494
1375.000 0.508
1376.000 0.417
1377.000 0.318
1378.000 0.290
1379.000 0.329
1380.000 0.230
1381.000 0.250
1382.000 0.360
1383.000 0.429
1384.000 0.443
1385.000 0.571
1386.000 0.358
1387.000 0.286
1388.000 0.382
1389.000 0.372
1390.000 0.429
1391.000 0.296
1392.000 0.373
1393.000 0.341
1394.000 0.554
1395.000 0.571
1396.000 0.383
1397.000 0.312
1398.000 0.539
1399.000 0.546
1400.000 0.456
1401.000 0.390
1402.000 0.359
1403.000 0.583
1404.000 0.427
1405.000 0.262
1406.000 0.316
1407.000 0.316
1408.000 0.303
1409.000 0.206
1410.000 0.235
1411.000 0.253
1412.000 0.346
1413.000 0.347
1414.000 0.390
1415.000 0.455
1416.000 0.498
1417.000 0.515
1418.000 0.431
1419.000 0.313
1420.000 0.284
1421.000 0.244
1422.000 0.237
1423.000 0.288
1424.000 0.270
1425.000 0.229
1426.000 0.216
1427.000 0.194
1428.000 0.188
1429.000 0.192
1430.000 0.191
1431.000 0.185
1432.000 0.186
1433.000 0.198
1434.000 0.198
1435.000 0.192
1436.000 0.193
1437.000 0.185
1438.000 0.187
1439.000 0.203
1440.000 0.210
1441.000 0.215
1442.000 0.219
1443.000 0.222
1444.000 0.220
1445.000 0.217
1446.000 0.213
1447.000 0.198
1448.000 0.194
1449.000 0.197
1450.000 0.199
1451.000 0.197
1452.000 0.198
1453.000 0.197
1454.000 0.189
1455.000 0.189
1456.000 0.193
1457.000 0.194
1458.000 0.195
1459.000 0.196
1460.000 0.196
1461.000 0.194
1462.000 0.191
1463.000 0.189
1464.000 0.184
1465.000 0.184
1466.000 0.190
1467.000 0.194
1468.000 0.201
1469.000 0.209
1470.000 0.219
1471.000 0.224
1472.000 0.228
1473.000 0.229
1474.000 0.223
1475.000 0.223
1476.000 0.227
1477.000 0.226
1478.000 0.224
1479.000 0.222
1480.000 0.217
1481.000 0.216
1482.000 0.222
1483.000 0.224
1484.000 0.227
1485.000 0.229
1486.000 0.228
1487.000 0.230
1488.000 0.233
1489.000 0.235
1490.000 0.236
1491.000 0.237
1492.000 0.238
1493.000 0.239
1494.000 0.242
1495.000 0.245
1496.000 0.248
1497.000 0.251
1498.000 0.254
1499.000 0.257
1500.000 0.260
1501.000 0.261
1502.000 0.259
1503.000 0.260
1504.000 0.258
1505.000 0.258
1506.000 0.259
1507.000 0.262
1508.000 0.263
1509.000 0.264
1510.000 0.267
1511.000 0.269
1512.000 0.270
1513.000 0.271
1514.000 0.274
1515.000 0.276
1516.000 0.279
1517.000 0.282
1518.000 0.285
1519.000 0.285
1520.000 0.287
1521.000 0.291
1522.000 0.292
1523.000 0.292
1524.000 0.292
1525.000 0.292
1526.000 0.293
1527.000 0.295
1528.000 0.297
1529.000 0.300
1530.000 0.302
1531.000 0.304
1532.000 0.305
1533.000 0.307
1534.000 0.308
1535.000 0.309
1536.000 0.310
1537.000 0.312
1538.000 0.314
1539.000 0.319
1540.000 0.321
1541.000 0.322
1542.000 0.324
1543.000 0.325
1544.000 0.327
1545.000 0.329
1546.000 0.331
1547.000 0.332
1548.000 0.333
1549.000 0.334
1550.000 0.334
1551.000 0.334
1552.000 0.334
1553.000 0.334
1554.000 0.336
1555.000 0.338
1556.000 0.340
1557.000 0.344
1558.000 0.346
1559.000 0.347
1560.000 0.349
1561.000 0.349
1562.000 0.351
1563.000 0.352
1564.000 0.353
1565.000 0.355
1566.000 0.355
1567.000 0.353
1568.000 0.353
1569.000 0.354
1570.000 0.355
1571.000 0.359
1572.000 0.361
1573.000 0.363
1574.000 0.366
1575.000 0.368
1576.000 0.369
1577.000 0.370
1578.000 0.371
1579.000 0.370
1580.000 0.371
1581.000 0.372
1582.000 0.374
1583.000 0.377
1584.000 0.378
1585.000 0.377
1586.000 0.379
1587.000 0.380
1588.000 0.382
1589.000 0.386
1590.000 0.388
1591.000 0.390
1592.000 0.390
1593.000 0.390
1594.000 0.389
1595.000 0.387
1596.000 0.387
1597.000 0.387
1598.000 0.388
1599.000 0.393
1600.000 0.395
1601.000 0.397
1602.000 0.399
1603.000 0.399
1604.000 0.398
1605.000 0.397
1606.000 0.397
1607.000 0.398
1608.000 0.399
1609.000 0.400
1610.000 0.401
1611.000 0.403
1612.000 0.404
1613.000 0.407
1614.000 0.408
1615.000 0.408
1616.000 0.408
1617.000 0.406
1618.000 0.406
1619.000 0.407
1620.000 0.407
1621.000 0.409
1622.000 0.410
1623.000 0.413
1624.000 0.413
1625.000 0.413
1626.000 0.413
1627.000 0.415
1628.000 0.416
1629.000 0.418
1630.000 0.418
1631.000 0.417
1632.000 0.416
1633.000 0.416
1634.000 0.417
1635.000 0.419
1636.000 0.421
1637.000 0.424
1638.000 0.425
1639.000 0.424
1640.000 0.423
1641.000 0.424
1642.000 0.424
1643.000 0.424
1644.000 0.424
1645.000 0.426
1646.000 0.427
1647.000 0.428
1648.000 0.428
1649.000 0.428
1650.000 0.428
1651.000 0.430
1652.000 0.430
1653.000 0.432
1654.000 0.432
1655.000 0.430
1656.000 0.429
1657.000 0.425
1658.000 0.424
1659.000 0.426
1660.000 0.427
1661.000 0.430
1662.000 0.432
1663.000 0.431
1664.000 0.431
1665.000 0.433
1666.000 0.432
1667.000 0.430
1668.000 0.430
1669.000 0.428
1670.000 0.429
1671.000 0.434
1672.000 0.435
1673.000 0.435
1674.000 0.436
1675.000 0.433
1676.000 0.432
1677.000 0.432
1678.000 0.432
1679.000 0.433
1680.000 0.433
1681.000 0.432
1682.000 0.433
1683.000 0.436
1684.000 0.437
1685.000 0.440
1686.000 0.441
1687.000 0.440
1688.000 0.440
1689.000 0.441
1690.000 0.441
1691.000 0.440
1692.000 0.439
1693.000 0.437
1694.000 0.434
1695.000 0.432
1696.000 0.430
1697.000 0.428
1698.000 0.428
1699.000 0.430
1700.000 0.430
1701.000 0.432
1702.000 0.432
1703.000 0.433
1704.000 0.434
1705.000 0.436
1706.000 0.437
1707.000 0.438
1708.000 0.437
1709.000 0.436
1710.000 0.434
1711.000 0.431
1712.000 0.428
1713.000 0.429
1714.000 0.429
1715.000 0.428
1716.000 0.430
1717.000 0.429
1718.000 0.425
1719.000 0.423
1720.000 0.423
1721.000 0.421
1722.000 0.419
1723.000 0.417
1724.000 0.415
1725.000 0.414
1726.000 0.414
1727.000 0.417
1728.000 0.421
1729.000 0.421
1730.000 0.420
1731.000 0.420
1732.000 0.415
1733.000 0.414
1734.000 0.416
1735.000 0.416
1736.000 0.415
1737.000 0.412
1738.000 0.407
1739.000 0.404
1740.000 0.401
1741.000 0.399
1742.000 0.401
1743.000 0.401
1744.000 0.402
1745.000 0.401
1746.000 0.396
1747.000 0.396
1748.000 0.400
1749.000 0.399
1750.000 0.401
1751.000 0.401
1752.000 0.397
1753.000 0.396
1754.000 0.400
1755.000 0.399
1756.000 0.398
1757.000 0.396
1758.000 0.391
1759.000 0.389
1760.000 0.387
1761.000 0.386
1762.000 0.388
1763.000 0.387
1764.000 0.385
1765.000 0.386
1766.000 0.386
1767.000 0.387
1768.000 0.391
1769.000 0.386
1770.000 0.380
1771.000 0.376
1772.000 0.368
1773.000 0.365
1774.000 0.368
1775.000 0.370
1776.000 0.372
1777.000 0.373
1778.000 0.370
1779.000 0.365
1780.000 0.359
1781.000 0.359
1782.000 0.358
1783.000 0.361
1784.000 0.367
1785.000 0.367
1786.000 0.370
1787.000 0.370
1788.000 0.370
1789.000 0.375
1790.000 0.375
1791.000 0.374
1792.000 0.372
1793.000 0.365
1794.000 0.350
1795.000 0.338
1796.000 0.335
1797.000 0.341
1798.000 0.347
1799.000 0.355
1800.000 0.369
1801.000 0.419
1802.000 0.425
1803.000 0.441
1804.000 0.430
1805.000 0.422
1806.000 0.387
1807.000 0.365
1808.000 0.342
1809.000 0.320
1810.000 0.293
1811.000 0.285
1812.000 0.269
1813.000 0.302
1814.000 0.388
1815.000 0.434
1816.000 0.482
1817.000 0.408
1818.000 0.498
1819.000 0.765
1820.000 0.682
1821.000 0.587
1822.000 0.458
1823.000 0.304
1824.000 0.232
1825.000 0.463
1826.000 0.502
1827.000 0.257
1828.000 0.379
1829.000 0.473
1830.000 0.350
1831.000 0.498
1832.000 0.406
1833.000 0.590
1834.000 0.340
1835.000 0.360
1836.000 0.326
1837.000 0.220
1838.000 0.208
1839.000 0.345
1840.000 0.420
1841.000 0.376
1842.000 0.276
1843.000 0.467
1844.000 0.358
1845.000 0.488
1846.000 0.384
1847.000 0.514
1848.000 0.587
1849.000 0.548
1850.000 0.633
1851.000 0.489
1852.000 0.470
1853.000 0.512
1854.000 0.371
1855.000 0.349
1856.000 0.290
1857.000 0.341
1858.000 0.422
1859.000 0.588
1860.000 0.612
1861.000 0.638
1862.000 0.718
1863.000 0.608
1864.000 0.452
1865.000 0.385
1866.000 0.415
1867.000 0.445
1868.000 0.374
1869.000 0.736
1870.000 0.552
1871.000 0.553
1872.000 0.374
1873.000 0.351
1874.000 0.214
1875.000 0.298
1876.000 0.327
1877.000 0.446
1878.000 0.275
1879.000 0.434
1880.000 0.513
1881.000 0.574
1882.000 0.615
1883.000 0.615
1884.000 0.668
1885.000 0.667
1886.000 0.695
1887.000 0.630
1888.000 0.619
1889.000 0.622
1890.000 0.527
1891.000 0.683
1892.000 0.618
1893.000 0.543
1894.000 0.472
1895.000 0.603
1896.000 0.505
1897.000 0.378
1898.000 0.255
1899.000 0.480
1900.000 0.416
1901.000 0.450
1902.000 0.404
1903.000 0.624
1904.000 0.566
1905.000 0.570
1906.000 0.490
1907.000 0.586
1908.000 0.729
1909.000 0.449
1910.000 0.437
1911.000 0.426
1912.000 0.393
1913.000 0.312
1914.000 0.378
1915.000 0.493
1916.000 0.514
1917.000 0.589
1918.000 0.410
1919.000 0.544
1920.000 0.371
1921.000 0.300
1922.000 0.204
1923.000 0.272
1924.000 0.425
1925.000 0.635
1926.000 0.567
1927.000 0.426
1928.000 0.429
1929.000 0.344
1930.000 0.295
1931.000 0.301
1932.000 0.440
1933.000 0.561
1934.000 0.622
1935.000 0.381
1936.000 0.334
1937.000 0.266
1938.000 0.311
1939.000 0.364
1940.000 0.439
1941.000 0.530
1942.000 0.615
1943.000 0.524
1944.000 0.415
1945.000 0.485
1946.000 0.359
1947.000 0.347
1948.000 0.371
1949.000 0.285
1950.000 0.270
1951.000 0.254
1952.000 0.308
1953.000 0.273
1954.000 0.282
1955.000 0.477
1956.000 0.345
1957.000 0.296
1958.000 0.260
1959.000 0.257
1960.000 0.264
1961.000 0.286
1962.000 0.287
1963.000 0.269
1964.000 0.275
1965.000 0.322
1966.000 0.368
1967.000 0.347
1968.000 0.374
1969.000 0.322
1970.000 0.256
1971.000 0.211
1972.000 0.200
1973.000 0.190
1974.000 0.209
1975.000 0.213
1976.000 0.233
1977.000 0.239
1978.000 0.233
1979.000 0.243
1980.000 0.231
1981.000 0.218
1982.000 0.230
1983.000 0.237
1984.000 0.236
1985.000 0.231
1986.000 0.220
1987.000 0.188
1988.000 0.178
1989.000 0.186
1990.000 0.180
1991.000 0.171
1992.000 0.154
1993.000 0.135
1994.000 0.122
1995.000 0.122
1996.000 0.131
1997.000 0.146
1998.000 0.181
1999.000 0.204
2000.000 0.219
2001.000 0.228
2002.000 0.220
2003.000 0.227
2004.000 0.227
2005.000 0.243
2006.000 0.324
2007.000 0.605
2008.000 0.353
2009.000 0.155
2010.000 0.465
2011.000 0.389
2012.000 0.321
2013.000 0.296
2014.000 0.266
2015.000 0.240
2016.000 0.213
2017.000 0.290
2018.000 0.318
2019.000 0.320
2020.000 0.385
2021.000 0.394
2022.000 0.319
2023.000 0.279
2024.000 0.223
2025.000 0.184
2026.000 0.161
2027.000 0.154
2028.000 0.159
2029.000 0.164
2030.000 0.178
2031.000 0.179
2032.000 0.177
2033.000 0.173
2034.000 0.160
2035.000 0.153
2036.000 0.159
2037.000 0.179
2038.000 0.198
2039.000 0.210
2040.000 0.210
2041.000 0.194
2042.000 0.190
2043.000 0.185
2044.000 0.193
2045.000 0.221
2046.000 0.233
2047.000 0.243
2048.000 0.256
2049.000 0.267
2050.000 0.256
2051.000 0.272
2052.000 0.306
2053.000 0.275
2054.000 0.255
2055.000 0.221
2056.000 0.199
2057.000 0.193
2058.000 0.199
2059.000 0.197
2060.000 0.197
2061.000 0.201
2062.000 0.211
2063.000 0.215
2064.000 0.227
2065.000 0.231
2066.000 0.227
2067.000 0.209
2068.000 0.192
2069.000 0.185
2070.000 0.194
2071.000 0.201
2072.000 0.209
2073.000 0.235
2074.000 0.239
2075.000 0.229
2076.000 0.226
2077.000 0.216
2078.000 0.215
2079.000 0.224
2080.000 0.228
2081.000 0.235
2082.000 0.239
2083.000 0.244
2084.000 0.235
2085.000 0.226
2086.000 0.228
2087.000 0.229
2088.000 0.237
2089.000 0.233
2090.000 0.219
2091.000 0.215
2092.000 0.206
2093.000 0.204
2094.000 0.217
2095.000 0.222
2096.000 0.224
2097.000 0.226
2098.000 0.228
2099.000 0.225
2100.000 0.223
2101.000 0.224
2102.000 0.224
2103.000 0.229
2104.000 0.233
2105.000 0.239
2106.000 0.246
2107.000 0.252
2108.000 0.257
2109.000 0.270
2110.000 0.275
2111.000 0.279
2112.000 0.277
2113.000 0.264
2114.000 0.257
2115.000 0.249
2116.000 0.242
2117.000 0.239
2118.000 0.233
2119.000 0.224
2120.000 0.219
2121.000 0.223
2122.000 0.231
2123.000 0.238
2124.000 0.256
2125.000 0.258
2126.000 0.250
2127.000 0.247
2128.000 0.239
2129.000 0.236
2130.000 0.236
2131.000 0.235
2132.000 0.233
2133.000 0.234
2134.000 0.239
2135.000 0.239
2136.000 0.237
2137.000 0.239
2138.000 0.240
2139.000 0.245
2140.000 0.246
2141.000 0.246
2142.000 0.244
2143.000 0.232
2144.000 0.233
2145.000 0.240
2146.000 0.245
2147.000 0.257
2148.000 0.262
2149.000 0.264
2150.000 0.265
2151.000 0.257
2152.000 0.260
2153.000 0.268
2154.000 0.272
2155.000 0.285
2156.000 0.293
2157.000 0.278
2158.000 0.274
2159.000 0.267
2160.000 0.253
2161.000 0.249
2162.000 0.250
2163.000 0.249
2164.000 0.248
2165.000 0.252
2166.000 0.262
2167.000 0.264
2168.000 0.266
2169.000 0.268
2170.000 0.259
2171.000 0.260
2172.000 0.272
2173.000 0.276
2174.000 0.280
2175.000 0.283
2176.000 0.281
2177.000 0.277
2178.000 0.269
2179.000 0.262
2180.000 0.256
2181.000 0.250
2182.000 0.253
2183.000 0.257
2184.000 0.262
2185.000 0.276
2186.000 0.278
2187.000 0.277
2188.000 0.280
2189.000 0.275
2190.000 0.274
2191.000 0.282
2192.000 0.281
2193.000 0.273
2194.000 0.270
2195.000 0.268
2196.000 0.264
2197.000 0.257
2198.000 0.257
2199.000 0.260
2200.000 0.260
2201.000 0.263
2202.000 0.265
2203.000 0.262
2204.000 0.258
2205.000 0.255
2206.000 0.256
2207.000 0.265
2208.000 0.273
2209.000 0.278
2210.000 0.288
2211.000 0.294
2212.000 0.295
2213.000 0.290
2214.000 0.282
2215.000 0.276
2216.000 0.262
2217.000 0.261
2218.000 0.273
2219.000 0.276
2220.000 0.279
2221.000 0.281
2222.000 0.274
2223.000 0.272
2224.000 0.276
2225.000 0.276
2226.000 0.271
2227.000 0.273
2228.000 0.270
2229.000 0.270
2230.000 0.269
2231.000 0.271
2232.000 0.271
2233.000 0.271
2234.000 0.271
2235.000 0.264
2236.000 0.263
2237.000 0.259
2238.000 0.260
2239.000 0.269
2240.000 0.273
2241.000 0.276
2242.000 0.280
2243.000 0.278
2244.000 0.282
2245.000 0.293
2246.000 0.292
2247.000 0.288
2248.000 0.285
2249.000 0.271
2250.000 0.263
2251.000 0.258
2252.000 0.252
2253.000 0.246
2254.000 0.240
2255.000 0.228
2256.000 0.228
2257.000 0.232
2258.000 0.242
2259.000 0.257
2260.000 0.269
2261.000 0.276
2262.000 0.269
2263.000 0.263
2264.000 0.246
2265.000 0.226
2266.000 0.218
2267.000 0.206
2268.000 0.203
2269.000 0.206
2270.000 0.207
2271.000 0.210
2272.000 0.228
2273.000 0.231
2274.000 0.223
2275.000 0.220
2276.000 0.211
2277.000 0.207
2278.000 0.203
2279.000 0.208
2280.000 0.227
2281.000 0.234
2282.000 0.247
2283.000 0.252
2284.000 0.246
2285.000 0.234
2286.000 0.220
2287.000 0.211
2288.000 0.191
2289.000 0.185
2290.000 0.181
2291.000 0.188
2292.000 0.225
2293.000 0.239
2294.000 0.250
2295.000 0.258
2296.000 0.241
2297.000 0.237
2298.000 0.240
2299.000 0.239
2300.000 0.242
2301.000 0.232
2302.000 0.238
2303.000 0.233
2304.000 0.217
2305.000 0.193
2306.000 0.165
2307.000 0.159
2308.000 0.157
2309.000 0.160
2310.000 0.188
2311.000 0.197
2312.000 0.197
2313.000 0.221
2314.000 0.233
2315.000 0.247
2316.000 0.250
2317.000 0.239
2318.000 0.212
2319.000 0.181
2320.000 0.177
2321.000 0.176
2322.000 0.177
2323.000 0.187
2324.000 0.183
2325.000 0.179
2326.000 0.180
2327.000 0.177
2328.000 0.179
2329.000 0.190
2330.000 0.209
2331.000 0.231
2332.000 0.250
2333.000 0.280
2334.000 0.291
2335.000 0.283
2336.000 0.273
2337.000 0.270
2338.000 0.268
2339.000 0.270
2340.000 0.269
2341.000 0.263
2342.000 0.305
2343.000 0.255
2344.000 0.247
2345.000 0.252
2346.000 0.232
2347.000 0.208
2348.000 0.180
2349.000 0.146
2350.000 0.170
2351.000 0.145
2352.000 0.148
2353.000 0.165
2354.000 0.174
2355.000 0.157
2356.000 0.155
2357.000 0.161
2358.000 0.136
2359.000 0.139
2360.000 0.138
2361.000 0.120
2362.000 0.144
2363.000 0.158
2364.000 0.205
2365.000 0.233
2366.000 0.205
2367.000 0.182
2368.000 0.175
2369.000 0.124
2370.000 0.182
2371.000 0.361
2372.000 0.365
2373.000 0.333
2374.000 0.407
2375.000 0.391
2376.000 0.387
2377.000 0.490
2378.000 0.466
2379.000 0.319
2380.000 0.497
2381.000 0.401
2382.000 0.315
2383.000 0.323
2384.000 0.305
2385.000 0.317
2386.000 0.211
2387.000 0.183
2388.000 0.212
2389.000 0.160
2390.000 0.091
2391.000 0.114
2392.000 0.201
2393.000 0.321
2394.000 0.321
2395.000 0.301
2396.000 0.260
2397.000 0.186
2398.000 0.229
2399.000 0.241
2400.000 0.100
2401.000 0.598
2402.000 0.308
2403.000 0.220
2404.000 0.183
2405.000 0.182
2406.000 0.169
2407.000 0.198
2408.000 0.341
2409.000 0.334
2410.000 0.349
2411.000 0.383
2412.000 0.422
2413.000 0.399
2414.000 0.519
2415.000 0.495
2416.000 0.557
2417.000 0.620
2418.000 0.481
2419.000 0.521
2420.000 0.340
2421.000 0.291
2422.000 0.200
2423.000 0.249
2424.000 0.443
2425.000 0.621
2426.000 0.360
2427.000 0.172
2428.000 0.221
2429.000 0.142
2430.000 0.314
2431.000 0.442
2432.000 0.362
2433.000 0.301
2434.000 0.322
2435.000 0.215
2436.000 0.184
2437.000 0.172
2438.000 0.090
2439.000 0.157
2440.000 0.277
2441.000 0.450
2442.000 0.385
2443.000 0.483
2444.000 0.398
2445.000 0.326
2446.000 0.519
2447.000 0.386
2448.000 0.206
2449.000 0.235
2450.000 0.224
2451.000 0.100
2452.000 0.194
2453.000 0.137
2454.000 0.125
2455.000 0.060
2456.000 0.136
2457.000 0.203
2458.000 0.191
2459.000 0.238
2460.000 0.228
2461.000 0.171
2462.000 0.111
2463.000 0.148
2464.000 0.123
2465.000 0.248
2466.000 0.356
2467.000 0.468
2468.000 0.616
2469.000 0.601
2470.000 0.563
2471.000 0.544
2472.000 0.500
2473.000 0.467
2474.000 0.471
2475.000 0.565
2476.000 0.577
2477.000 0.104
2478.000 0.431
2479.000 0.341
2480.000 0.553
2481.000 0.659
2482.000 0.555
2483.000 0.493
2484.000 0.259
2485.000 0.259
2486.000 0.393
2487.000 0.312
2488.000 0.414
2489.000 0.460
2490.000 0.521
2491.000 0.637
2492.000 0.384
2493.000 0.595
2494.000 0.313
2495.000 0.356
2496.000 0.325
2497.000 0.250
2498.000 0.287
2499.000 0.348
2500.000 0.249
