391.000 0.070
392.000 0.071
393.000 0.071
394.000 0.071
395.000 0.066
396.000 0.067
397.000 0.073
398.000 0.075
399.000 0.069
400.000 0.067
401.000 0.070
402.000 0.066
403.000 0.065
404.000 0.067
405.000 0.067
406.000 0.068
407.000 0.068
408.000 0.067
409.000 0.067
410.000 0.067
411.000 0.066
412.000 0.065
413.000 0.068
414.000 0.067
415.000 0.066
416.000 0.066
417.000 0.068
418.000 0.068
419.000 0.066
420.000 0.066
421.000 0.067
422.000 0.067
423.000 0.067
424.000 0.067
425.000 0.066
426.000 0.066
427.000 0.066
428.000 0.068
429.000 0.067
430.000 0.065
431.000 0.067
432.000 0.066
433.000 0.066
434.000 0.066
435.000 0.066
436.000 0.067
437.000 0.067
438.000 0.066
439.000 0.067
440.000 0.067
441.000 0.067
442.000 0.068
443.000 0.067
444.000 0.067
445.000 0.067
446.000 0.066
447.000 0.068
448.000 0.069
449.000 0.070
450.000 0.068
451.000 0.067
452.000 0.067
453.000 0.067
454.000 0.069
455.000 0.070
456.000 0.071
457.000 0.070
458.000 0.069
459.000 0.069
460.000 0.069
461.000 0.070
462.000 0.071
463.000 0.070
464.000 0.069
465.000 0.071
466.000 0.072
467.000 0.070
468.000 0.072
469.000 0.072
470.000 0.071
471.000 0.069
472.000 0.070
473.000 0.071
474.000 0.072
475.000 0.071
476.000 0.071
477.000 0.071
478.000 0.071
479.000 0.072
480.000 0.072
481.000 0.073
482.000 0.073
483.000 0.072
484.000 0.072
485.000 0.073
486.000 0.074
487.000 0.074
488.000 0.074
489.000 0.074
490.000 0.074
491.000 0.074
492.000 0.075
493.000 0.075
494.000 0.075
495.000 0.076
496.000 0.077
497.000 0.078
498.000 0.079
499.000 0.080
500.000 0.080
501.000 0.080
502.000 0.082
503.000 0.083
504.000 0.086
505.000 0.086
506.000 0.087
507.000 0.089
508.000 0.091
509.000 0.093
510.000 0.096
511.000 0.100
512.000 0.102
513.000 0.105
514.000 0.110
515.000 0.113
516.000 0.117
517.000 0.120
518.000 0.125
519.000 0.131
520.000 0.137
521.000 0.142
522.000 0.147
523.000 0.151
524.000 0.156
525.000 0.161
526.000 0.166
527.000 0.171
528.000 0.175
529.000 0.180
530.000 0.183
531.000 0.187
532.000 0.190
533.000 0.193
534.000 0.196
535.000 0.198
536.000 0.200
537.000 0.201
538.000 0.202
539.000 0.204
540.000 0.205
541.000 0.206
542.000 0.207
543.000 0.207
544.000 0.209
545.000 0.209
546.000 0.210
547.000 0.210
548.000 0.210
549.000 0.211
550.000 0.212
551.000 0.212
552.000 0.212
553.000 0.211
554.000 0.211
555.000 0.211
556.000 0.210
557.000 0.209
558.000 0.207
559.000 0.206
560.000 0.204
561.000 0.202
562.000 0.200
563.000 0.198
564.000 0.195
565.000 0.192
566.000 0.189
567.000 0.186
568.000 0.183
569.000 0.179
570.000 0.177
571.000 0.173
572.000 0.170
573.000 0.167
574.000 0.164
575.000 0.162
576.000 0.160
577.000 0.158
578.000 0.156
579.000 0.154
580.000 0.151
581.000 0.148
582.000 0.146
583.000 0.145
584.000 0.144
585.000 0.142
586.000 0.140
587.000 0.140
588.000 0.140
589.000 0.139
590.000 0.136
591.000 0.134
592.000 0.134
593.000 0.134
594.000 0.133
595.000 0.132
596.000 0.131
597.000 0.131
598.000 0.131
599.000 0.130
600.000 0.129
601.000 0.127
602.000 0.128
603.000 0.128
604.000 0.127
605.000 0.125
606.000 0.125
607.000 0.125
608.000 0.124
609.000 0.124
610.000 0.122
611.000 0.121
612.000 0.120
613.000 0.118
614.000 0.117
615.000 0.116
616.000 0.116
617.000 0.114
618.000 0.114
619.000 0.113
620.000 0.112
621.000 0.111
622.000 0.111
623.000 0.111
624.000 0.110
625.000 0.110
626.000 0.110
627.000 0.109
628.000 0.109
629.000 0.109
630.000 0.108
631.000 0.109
632.000 0.109
633.000 0.109
634.000 0.109
635.000 0.108
636.000 0.107
637.000 0.107
638.000 0.105
639.000 0.103
640.000 0.102
641.000 0.102
642.000 0.100
643.000 0.099
644.000 0.098
645.000 0.097
646.000 0.096
647.000 0.095
648.000 0.094
649.000 0.094
650.000 0.094
651.000 0.094
652.000 0.093
653.000 0.092
654.000 0.091
655.000 0.093
656.000 0.092
657.000 0.092
658.000 0.093
659.000 0.092
660.000 0.091
661.000 0.090
662.000 0.090
663.000 0.089
664.000 0.089
665.000 0.089
666.000 0.090
667.000 0.092
668.000 0.092
669.000 0.091
670.000 0.091
671.000 0.091
672.000 0.091
673.000 0.092
674.000 0.093
675.000 0.095
676.000 0.097
677.000 0.098
678.000 0.099
679.000 0.101
680.000 0.101
681.000 0.101
682.000 0.102
683.000 0.104
684.000 0.107
685.000 0.109
686.000 0.114
687.000 0.117
688.000 0.119
689.000 0.122
690.000 0.125
691.000 0.128
692.000 0.132
693.000 0.140
694.000 0.149
695.000 0.158
696.000 0.167
697.000 0.178
698.000 0.191
699.000 0.204
700.000 0.217
701.000 0.231
702.000 0.246
703.000 0.260
704.000 0.274
705.000 0.287
706.000 0.302
707.000 0.315
708.000 0.330
709.000 0.344
710.000 0.358
711.000 0.373
712.000 0.387
713.000 0.401
714.000 0.415
715.000 0.430
716.000 0.444
717.000 0.458
718.000 0.473
719.000 0.488
720.000 0.504
721.000 0.518
722.000 0.529
723.000 0.541
724.000 0.554
725.000 0.567
726.000 0.579
727.000 0.591
728.000 0.602
729.000 0.612
730.000 0.622
731.000 0.632
732.000 0.641
733.000 0.649
734.000 0.657
735.000 0.665
736.000 0.672
737.000 0.679
738.000 0.685
739.000 0.691
740.000 0.696
741.000 0.701
742.000 0.706
743.000 0.710
744.000 0.714
745.000 0.718
746.000 0.721
747.000 0.725
748.000 0.727
749.000 0.730
750.000 0.733
751.000 0.735
752.000 0.737
753.000 0.738
754.000 0.740
755.000 0.741
756.000 0.743
757.000 0.744
758.000 0.744
759.000 0.745
760.000 0.745
761.000 0.746
762.000 0.746
763.000 0.746
764.000 0.747
765.000 0.748
766.000 0.750
767.000 0.751
768.000 0.752
769.000 0.752
770.000 0.752
771.000 0.753
772.000 0.753
773.000 0.754
774.000 0.754
775.000 0.755
776.000 0.755
777.000 0.755
778.000 0.755
779.000 0.755
780.000 0.756
781.000 0.756
782.000 0.757
783.000 0.757
784.000 0.757
785.000 0.757
786.000 0.757
787.000 0.757
788.000 0.758
789.000 0.759
790.000 0.759
791.000 0.759
792.000 0.760
793.000 0.760
794.000 0.760
795.000 0.761
796.000 0.761
797.000 0.761
798.000 0.761
799.000 0.761
800.000 0.762
801.000 0.762
802.000 0.762
803.000 0.763
804.000 0.763
805.000 0.763
806.000 0.764
807.000 0.764
808.000 0.764
809.000 0.765
810.000 0.765
811.000 0.765
812.000 0.765
813.000 0.765
814.000 0.765
815.000 0.765
816.000 0.765
817.000 0.765
818.000 0.766
819.000 0.766
820.000 0.767
821.000 0.767
822.000 0.767
823.000 0.768
824.000 0.768
825.000 0.769
826.000 0.769
827.000 0.769
828.000 0.770
829.000 0.770
830.000 0.770
831.000 0.771
832.000 0.771
833.000 0.771
834.000 0.771
835.000 0.771
836.000 0.772
837.000 0.772
838.000 0.773
839.000 0.773
840.000 0.773
841.000 0.774
842.000 0.774
843.000 0.774
844.000 0.775
845.000 0.775
846.000 0.775
847.000 0.775
848.000 0.776
849.000 0.776
850.000 0.776
851.000 0.776
852.000 0.776
853.000 0.777
854.000 0.777
855.000 0.777
856.000 0.777
857.000 0.778
858.000 0.778
859.000 0.778
860.000 0.778
861.000 0.778
862.000 0.779
863.000 0.779
864.000 0.779
865.000 0.779
866.000 0.779
867.000 0.779
868.000 0.780
869.000 0.780
870.000 0.781
871.000 0.781
872.000 0.781
873.000 0.782
874.000 0.782
875.000 0.781
876.000 0.782
877.000 0.782
878.000 0.783
879.000 0.783
880.000 0.783
881.000 0.784
882.000 0.784
883.000 0.784
884.000 0.785
885.000 0.785
886.000 0.785
887.000 0.785
888.000 0.785
889.000 0.786
890.000 0.786
891.000 0.786
892.000 0.786
893.000 0.786
894.000 0.786
895.000 0.786
896.000 0.786
897.000 0.786
898.000 0.786
899.000 0.787
900.000 0.787
901.000 0.787
902.000 0.787
903.000 0.788
904.000 0.788
905.000 0.788
906.000 0.789
907.000 0.788
908.000 0.789
909.000 0.789
910.000 0.789
911.000 0.789
912.000 0.789
913.000 0.790
914.000 0.790
915.000 0.789
916.000 0.790
917.000 0.790
918.000 0.790
919.000 0.783
920.000 0.783
921.000 0.783
922.000 0.783
923.000 0.783
924.000 0.783
925.000 0.782
926.000 0.791
927.000 0.782
928.000 0.781
929.000 0.789
930.000 0.788
931.000 0.787
932.000 0.787
933.000 0.784
934.000 0.781
935.000 0.782
936.000 0.782
937.000 0.782
938.000 0.783
939.000 0.783
940.000 0.782
941.000 0.782
942.000 0.783
943.000 0.783
944.000 0.780
945.000 0.780
946.000 0.781
947.000 0.779
948.000 0.779
949.000 0.778
950.000 0.777
951.000 0.778
952.000 0.777
953.000 0.775
954.000 0.774
955.000 0.775
956.000 0.776
957.000 0.776
958.000 0.775
959.000 0.774
960.000 0.774
961.000 0.774
962.000 0.777
963.000 0.779
964.000 0.776
965.000 0.774
966.000 0.776
967.000 0.778
968.000 0.776
969.000 0.777
970.000 0.778
971.000 0.777
972.000 0.775
973.000 0.776
974.000 0.776
975.000 0.775
976.000 0.776
977.000 0.777
978.000 0.777
979.000 0.777
980.000 0.778
981.000 0.778
982.000 0.778
983.000 0.778
984.000 0.779
985.000 0.779
986.000 0.779
987.000 0.781
988.000 0.782
989.000 0.783
990.000 0.781
991.000 0.781
992.000 0.785
993.000 0.783
994.000 0.783
995.000 0.785
996.000 0.783
997.000 0.783
998.000 0.785
999.000 0.786
1000.000 0.784
1001.000 0.784
1002.000 0.785
1003.000 0.787
1004.000 0.788
1005.000 0.780
1006.000 0.781
1007.000 0.780
1008.000 0.790
1009.000 0.790
1010.000 0.789
1011.000 0.790
1012.000 0.790
1013.000 0.790
1014.000 0.790
1015.000 0.791
1016.000 0.791
1017.000 0.792
1018.000 0.784
1019.000 0.785
1020.000 0.785
1021.000 0.786
1022.000 0.786
1023.000 0.785
1024.000 0.787
1025.000 0.788
1026.000 0.789
1027.000 0.789
1028.000 0.790
1029.000 0.788
1030.000 0.789
1031.000 0.790
1032.000 0.792
1033.000 0.793
1034.000 0.793
1035.000 0.793
1036.000 0.793
1037.000 0.793
1038.000 0.793
1039.000 0.793
1040.000 0.793
1041.000 0.794
1042.000 0.794
1043.000 0.795
1044.000 0.796
1045.000 0.796
1046.000 0.796
1047.000 0.796
1048.000 0.795
1049.000 0.796
1050.000 0.796
1051.000 0.797
1052.000 0.797
1053.000 0.797
1054.000 0.798
1055.000 0.798
1056.000 0.798
1057.000 0.799
1058.000 0.799
1059.000 0.799
1060.000 0.799
1061.000 0.799
1062.000 0.798
1063.000 0.798
1064.000 0.798
1065.000 0.798
1066.000 0.798
1067.000 0.798
1068.000 0.798
1069.000 0.799
1070.000 0.799
1071.000 0.799
1072.000 0.799
1073.000 0.799
1074.000 0.799
1075.000 0.799
1076.000 0.799
1077.000 0.798
1078.000 0.798
1079.000 0.798
1080.000 0.798
1081.000 0.798
1082.000 0.798
1083.000 0.797
1084.000 0.798
1085.000 0.798
1086.000 0.797
1087.000 0.796
1088.000 0.796
1089.000 0.795
1090.000 0.796
1091.000 0.803
1092.000 0.803
1093.000 0.803
1094.000 0.802
1095.000 0.802
1096.000 0.802
1097.000 0.802
1098.000 0.803
1099.000 0.803
1100.000 0.803
1101.000 0.795
1102.000 0.796
1103.000 0.803
1104.000 0.802
1105.000 0.801
1106.000 0.800
1107.000 0.799
1108.000 0.798
1109.000 0.798
1110.000 0.797
1111.000 0.797
1112.000 0.797
1113.000 0.796
1114.000 0.796
1115.000 0.795
1116.000 0.793
1117.000 0.792
1118.000 0.792
1119.000 0.793
1120.000 0.791
1121.000 0.790
1122.000 0.787
1123.000 0.785
1124.000 0.781
1125.000 0.781
1126.000 0.782
1127.000 0.782
1128.000 0.783
1129.000 0.781
1130.000 0.780
1131.000 0.778
1132.000 0.778
1133.000 0.778
1134.000 0.777
1135.000 0.776
1136.000 0.777
1137.000 0.777
1138.000 0.778
1139.000 0.779
1140.000 0.778
1141.000 0.775
1142.000 0.774
1143.000 0.772
1144.000 0.770
1145.000 0.770
1146.000 0.768
1147.000 0.766
1148.000 0.765
1149.000 0.766
1150.000 0.764
1151.000 0.765
1152.000 0.766
1153.000 0.765
1154.000 0.764
1155.000 0.762
1156.000 0.761
1157.000 0.760
1158.000 0.760
1159.000 0.760
1160.000 0.761
1161.000 0.761
1162.000 0.762
1163.000 0.762
1164.000 0.762
1165.000 0.762
1166.000 0.761
1167.000 0.761
1168.000 0.761
1169.000 0.761
1170.000 0.761
1171.000 0.761
1172.000 0.761
1173.000 0.761
1174.000 0.762
1175.000 0.762
1176.000 0.763
1177.000 0.762
1178.000 0.763
1179.000 0.764
1180.000 0.764
1181.000 0.764
1182.000 0.764
1183.000 0.764
1184.000 0.764
1185.000 0.764
1186.000 0.764
1187.000 0.764
1188.000 0.765
1189.000 0.764
1190.000 0.765
1191.000 0.764
1192.000 0.765
1193.000 0.765
1194.000 0.764
1195.000 0.764
1196.000 0.764
1197.000 0.764
1198.000 0.765
1199.000 0.765
1200.000 0.765
1201.000 0.765
1202.000 0.765
1203.000 0.765
1204.000 0.765
1205.000 0.765
1206.000 0.766
1207.000 0.765
1208.000 0.765
1209.000 0.766
1210.000 0.766
1211.000 0.767
1212.000 0.766
1213.000 0.766
1214.000 0.766
1215.000 0.766
1216.000 0.766
1217.000 0.765
1218.000 0.765
1219.000 0.765
1220.000 0.765
1221.000 0.767
1222.000 0.767
1223.000 0.767
1224.000 0.767
1225.000 0.766
1226.000 0.765
1227.000 0.766
1228.000 0.765
1229.000 0.766
1230.000 0.767
1231.000 0.767
1232.000 0.767
1233.000 0.767
1234.000 0.767
1235.000 0.767
1236.000 0.766
1237.000 0.766
1238.000 0.767
1239.000 0.767
1240.000 0.768
1241.000 0.768
1242.000 0.768
1243.000 0.768
1244.000 0.768
1245.000 0.768
1246.000 0.767
1247.000 0.767
1248.000 0.768
1249.000 0.768
1250.000 0.768
1251.000 0.768
1252.000 0.768
1253.000 0.767
1254.000 0.767
1255.000 0.767
1256.000 0.768
1257.000 0.768
1258.000 0.768
1259.000 0.768
1260.000 0.768
1261.000 0.769
1262.000 0.769
1263.000 0.770
1264.000 0.770
1265.000 0.769
1266.000 0.769
1267.000 0.767
1268.000 0.767
1269.000 0.767
1270.000 0.767
1271.000 0.767
1272.000 0.768
1273.000 0.768
1274.000 0.767
1275.000 0.768
1276.000 0.769
1277.000 0.769
1278.000 0.769
1279.000 0.769
1280.000 0.769
1281.000 0.769
1282.000 0.770
1283.000 0.770
1284.000 0.769
1285.000 0.769
1286.000 0.767
1287.000 0.767
1288.000 0.767
1289.000 0.766
1290.000 0.766
1291.000 0.766
1292.000 0.765
1293.000 0.764
1294.000 0.764
1295.000 0.763
1296.000 0.762
1297.000 0.761
1298.000 0.760
1299.000 0.760
1300.000 0.759
1301.000 0.758
1302.000 0.758
1303.000 0.756
1304.000 0.756
1305.000 0.754
1306.000 0.753
1307.000 0.751
1308.000 0.749
1309.000 0.747
1310.000 0.746
1311.000 0.745
1312.000 0.743
1313.000 0.742
1314.000 0.741
1315.000 0.740
1316.000 0.739
1317.000 0.737
1318.000 0.735
1319.000 0.733
1320.000 0.731
1321.000 0.730
1322.000 0.730
1323.000 0.729
1324.000 0.728
1325.000 0.727
1326.000 0.723
1327.000 0.721
1328.000 0.717
1329.000 0.715
1330.000 0.715
1331.000 0.714
1332.000 0.714
1333.000 0.712
1334.000 0.710
1335.000 0.708
1336.000 0.706
1337.000 0.703
1338.000 0.702
1339.000 0.700
1340.000 0.699
1341.000 0.697
1342.000 0.695
1343.000 0.693
1344.000 0.692
1345.000 0.691
1346.000 0.688
1347.000 0.686
1348.000 0.685
1349.000 0.681
1350.000 0.680
1351.000 0.686
1352.000 0.687
1353.000 0.688
1354.000 0.690
1355.000 0.676
1356.000 0.674
1357.000 0.701
1358.000 0.674
1359.000 0.642
1360.000 0.657
1361.000 0.510
1362.000 0.489
1363.000 0.385
1364.000 0.337
1365.000 0.291
1366.000 0.358
1367.000 0.379
1368.000 0.379
1369.000 0.390
1370.000 0.355
1371.000 0.437
1372.000 0.439
1373.000 0.377
1374.000 0.401
1375.000 0.421
1376.000 0.615
1377.000 0.537
1378.000 0.577
1379.000 0.590
1380.000 0.510
1381.000 0.224
1382.000 0.540
1383.000 0.422
1384.000 0.275
1385.000 0.089
1386.000 0.372
1387.000 0.339
1388.000 0.302
1389.000 0.355
1390.000 0.223
1391.000 0.246
1392.000 0.514
1393.000 0.471
1394.000 0.370
1395.000 0.524
1396.000 0.654
1397.000 0.547
1398.000 0.550
1399.000 0.521
1400.000 0.787
1401.000 0.866
1402.000 0.960
1403.000 0.668
1404.000 0.396
1405.000 0.331
1406.000 0.360
1407.000 0.217
1408.000 0.349
1409.000 0.372
1410.000 0.397
1411.000 0.338
1412.000 0.342
1413.000 0.368
1414.000 0.400
1415.000 0.443
1416.000 0.462
1417.000 0.566
1418.000 0.530
1419.000 0.435
1420.000 0.427
1421.000 0.390
1422.000 0.395
1423.000 0.466
1424.000 0.458
1425.000 0.432
1426.000 0.421
1427.000 0.394
1428.000 0.379
1429.000 0.379
1430.000 0.373
1431.000 0.348
1432.000 0.348
1433.000 0.365
1434.000 0.364
1435.000 0.363
1436.000 0.364
1437.000 0.349
1438.000 0.347
1439.000 0.352
1440.000 0.353
1441.000 0.354
1442.000 0.355
1443.000 0.355
1444.000 0.355
1445.000 0.355
1446.000 0.351
1447.000 0.336
1448.000 0.333
1449.000 0.337
1450.000 0.338
1451.000 0.342
1452.000 0.351
1453.000 0.352
1454.000 0.349
1455.000 0.352
1456.000 0.358
1457.000 0.360
1458.000 0.365
1459.000 0.369
1460.000 0.368
1461.000 0.366
1462.000 0.362
1463.000 0.359
1464.000 0.352
1465.000 0.350
1466.000 0.353
1467.000 0.358
1468.000 0.373
1469.000 0.383
1470.000 0.398
1471.000 0.405
1472.000 0.404
1473.000 0.404
1474.000 0.398
1475.000 0.398
1476.000 0.406
1477.000 0.402
1478.000 0.391
1479.000 0.385
1480.000 0.374
1481.000 0.374
1482.000 0.384
1483.000 0.389
1484.000 0.395
1485.000 0.399
1486.000 0.398
1487.000 0.400
1488.000 0.403
1489.000 0.406
1490.000 0.410
1491.000 0.411
1492.000 0.410
1493.000 0.410
1494.000 0.409
1495.000 0.411
1496.000 0.415
1497.000 0.419
1498.000 0.427
1499.000 0.432
1500.000 0.440
1501.000 0.441
1502.000 0.438
1503.000 0.439
1504.000 0.436
1505.000 0.437
1506.000 0.437
1507.000 0.439
1508.000 0.441
1509.000 0.443
1510.000 0.446
1511.000 0.449
1512.000 0.450
1513.000 0.449
1514.000 0.452
1515.000 0.455
1516.000 0.456
1517.000 0.460
1518.000 0.462
1519.000 0.462
1520.000 0.464
1521.000 0.468
1522.000 0.471
1523.000 0.473
1524.000 0.474
1525.000 0.473
1526.000 0.473
1527.000 0.475
1528.000 0.476
1529.000 0.478
1530.000 0.480
1531.000 0.484
1532.000 0.486
1533.000 0.488
1534.000 0.490
1535.000 0.490
1536.000 0.492
1537.000 0.495
1538.000 0.497
1539.000 0.500
1540.000 0.503
1541.000 0.503
1542.000 0.505
1543.000 0.506
1544.000 0.508
1545.000 0.512
1546.000 0.514
1547.000 0.515
1548.000 0.515
1549.000 0.514
1550.000 0.514
1551.000 0.515
1552.000 0.516
1553.000 0.516
1554.000 0.518
1555.000 0.519
1556.000 0.521
1557.000 0.524
1558.000 0.526
1559.000 0.526
1560.000 0.527
1561.000 0.527
1562.000 0.527
1563.000 0.529
1564.000 0.531
1565.000 0.533
1566.000 0.534
1567.000 0.535
1568.000 0.536
1569.000 0.535
1570.000 0.537
1571.000 0.540
1572.000 0.542
1573.000 0.545
1574.000 0.547
1575.000 0.549
1576.000 0.550
1577.000 0.550
1578.000 0.551
1579.000 0.551
1580.000 0.551
1581.000 0.553
1582.000 0.555
1583.000 0.557
1584.000 0.558
1585.000 0.556
1586.000 0.556
1587.000 0.559
1588.000 0.561
1589.000 0.565
1590.000 0.568
1591.000 0.568
1592.000 0.569
1593.000 0.569
1594.000 0.569
1595.000 0.567
1596.000 0.568
1597.000 0.569
1598.000 0.571
1599.000 0.575
1600.000 0.578
1601.000 0.580
1602.000 0.581
1603.000 0.581
1604.000 0.582
1605.000 0.580
1606.000 0.580
1607.000 0.582
1608.000 0.583
1609.000 0.584
1610.000 0.585
1611.000 0.584
1612.000 0.585
1613.000 0.586
1614.000 0.587
1615.000 0.588
1616.000 0.589
1617.000 0.587
1618.000 0.588
1619.000 0.589
1620.000 0.590
1621.000 0.592
1622.000 0.594
1623.000 0.593
1624.000 0.593
1625.000 0.593
1626.000 0.594
1627.000 0.597
1628.000 0.598
1629.000 0.599
1630.000 0.600
1631.000 0.598
1632.000 0.597
1633.000 0.595
1634.000 0.596
1635.000 0.600
1636.000 0.602
1637.000 0.606
1638.000 0.607
1639.000 0.604
1640.000 0.604
1641.000 0.603
1642.000 0.602
1643.000 0.602
1644.000 0.602
1645.000 0.604
1646.000 0.605
1647.000 0.606
1648.000 0.607
1649.000 0.605
1650.000 0.605
1651.000 0.606
1652.000 0.607
1653.000 0.609
1654.000 0.610
1655.000 0.608
1656.000 0.607
1657.000 0.604
1658.000 0.603
1659.000 0.606
1660.000 0.607
1661.000 0.609
1662.000 0.611
1663.000 0.611
1664.000 0.612
1665.000 0.613
1666.000 0.613
1667.000 0.612
1668.000 0.612
1669.000 0.612
1670.000 0.614
1671.000 0.616
1672.000 0.617
1673.000 0.619
1674.000 0.620
1675.000 0.619
1676.000 0.620
1677.000 0.619
1678.000 0.619
1679.000 0.620
1680.000 0.620
1681.000 0.620
1682.000 0.620
1683.000 0.622
1684.000 0.622
1685.000 0.623
1686.000 0.624
1687.000 0.622
1688.000 0.623
1689.000 0.626
1690.000 0.628
1691.000 0.631
1692.000 0.631
1693.000 0.627
1694.000 0.625
1695.000 0.622
1696.000 0.621
1697.000 0.621
1698.000 0.620
1699.000 0.622
1700.000 0.622
1701.000 0.620
1702.000 0.619
1703.000 0.618
1704.000 0.619
1705.000 0.623
1706.000 0.624
1707.000 0.626
1708.000 0.627
1709.000 0.626
1710.000 0.625
1711.000 0.624
1712.000 0.623
1713.000 0.622
1714.000 0.621
1715.000 0.622
1716.000 0.622
1717.000 0.623
1718.000 0.623
1719.000 0.622
1720.000 0.621
1721.000 0.619
1722.000 0.614
1723.000 0.613
1724.000 0.611
1725.000 0.609
1726.000 0.609
1727.000 0.612
1728.000 0.615
1729.000 0.615
1730.000 0.613
1731.000 0.613
1732.000 0.609
1733.000 0.611
1734.000 0.613
1735.000 0.611
1736.000 0.608
1737.000 0.605
1738.000 0.601
1739.000 0.598
1740.000 0.593
1741.000 0.591
1742.000 0.593
1743.000 0.593
1744.000 0.595
1745.000 0.595
1746.000 0.588
1747.000 0.587
1748.000 0.590
1749.000 0.590
1750.000 0.591
1751.000 0.593
1752.000 0.591
1753.000 0.591
1754.000 0.593
1755.000 0.593
1756.000 0.590
1757.000 0.589
1758.000 0.588
1759.000 0.589
1760.000 0.588
1761.000 0.586
1762.000 0.587
1763.000 0.585
1764.000 0.581
1765.000 0.581
1766.000 0.581
1767.000 0.580
1768.000 0.581
1769.000 0.574
1770.000 0.569
1771.000 0.565
1772.000 0.557
1773.000 0.556
1774.000 0.558
1775.000 0.559
1776.000 0.564
1777.000 0.567
1778.000 0.565
1779.000 0.566
1780.000 0.566
1781.000 0.564
1782.000 0.565
1783.000 0.570
1784.000 0.577
1785.000 0.580
1786.000 0.583
1787.000 0.574
1788.000 0.569
1789.000 0.569
1790.000 0.566
1791.000 0.562
1792.000 0.567
1793.000 0.564
1794.000 0.554
1795.000 0.536
1796.000 0.519
1797.000 0.524
1798.000 0.533
1799.000 0.537
1800.000 0.563
1801.000 0.689
1802.000 0.725
1803.000 0.735
1804.000 0.701
1805.000 0.693
1806.000 0.669
1807.000 0.648
1808.000 0.633
1809.000 0.616
1810.000 0.597
1811.000 0.596
1812.000 0.587
1813.000 0.616
1814.000 0.674
1815.000 0.675
1816.000 0.679
1817.000 0.753
1818.000 0.801
1819.000 0.815
1820.000 0.748
1821.000 0.861
1822.000 0.825
1823.000 0.696
1824.000 0.737
1825.000 0.720
1826.000 0.698
1827.000 0.569
1828.000 0.687
1829.000 0.689
1830.000 0.697
1831.000 0.738
1832.000 0.412
1833.000 0.416
1834.000 0.493
1835.000 0.486
1836.000 0.572
1837.000 0.540
1838.000 0.575
1839.000 0.584
1840.000 0.476
1841.000 0.479
1842.000 0.569
1843.000 0.427
1844.000 0.281
1845.000 0.395
1846.000 0.371
1847.000 0.748
1848.000 0.559
1849.000 0.649
1850.000 0.509
1851.000 0.361
1852.000 0.438
1853.000 0.581
1854.000 0.666
1855.000 0.756
1856.000 0.612
1857.000 0.669
1858.000 0.733
1859.000 0.400
1860.000 0.418
1861.000 0.463
1862.000 0.441
1863.000 0.456
1864.000 0.427
1865.000 0.427
1866.000 0.572
1867.000 0.676
1868.000 0.564
1869.000 0.601
1870.000 0.568
1871.000 0.520
1872.000 0.470
1873.000 0.402
1874.000 0.597
1875.000 0.581
1876.000 0.581
1877.000 0.548
1878.000 0.518
1879.000 0.492
1880.000 0.491
1881.000 0.451
1882.000 0.442
1883.000 0.355
1884.000 0.650
1885.000 0.549
1886.000 0.458
1887.000 0.603
1888.000 0.410
1889.000 0.404
1890.000 0.609
1891.000 0.673
1892.000 0.685
1893.000 0.747
1894.000 0.569
1895.000 0.478
1896.000 0.427
1897.000 0.462
1898.000 0.498
1899.000 0.454
1900.000 0.585
1901.000 0.619
1902.000 0.117
1903.000 0.124
1904.000 0.266
1905.000 0.331
1906.000 0.503
1907.000 0.659
1908.000 0.777
1909.000 0.739
1910.000 0.520
1911.000 0.251
1912.000 0.212
1913.000 0.279
1914.000 0.263
1915.000 0.320
1916.000 0.341
1917.000 0.348
1918.000 0.436
1919.000 0.306
1920.000 0.257
1921.000 0.401
1922.000 0.305
1923.000 0.534
1924.000 0.324
1925.000 0.254
1926.000 0.474
1927.000 0.425
1928.000 0.312
1929.000 0.487
1930.000 0.472
1931.000 0.494
1932.000 0.513
1933.000 0.508
1934.000 0.568
1935.000 0.576
1936.000 0.590
1937.000 0.545
1938.000 0.490
1939.000 0.273
1940.000 0.477
1941.000 0.498
1942.000 0.561
1943.000 0.553
1944.000 0.609
1945.000 0.522
1946.000 0.577
1947.000 0.527
1948.000 0.573
1949.000 0.572
1950.000 0.592
1951.000 0.589
1952.000 0.766
1953.000 0.683
1954.000 0.623
1955.000 0.607
1956.000 0.584
1957.000 0.490
1958.000 0.469
1959.000 0.444
1960.000 0.468
1961.000 0.492
1962.000 0.455
1963.000 0.481
1964.000 0.453
1965.000 0.371
1966.000 0.361
1967.000 0.373
1968.000 0.373
1969.000 0.433
1970.000 0.419
1971.000 0.395
1972.000 0.395
1973.000 0.402
1974.000 0.377
1975.000 0.373
1976.000 0.365
1977.000 0.374
1978.000 0.400
1979.000 0.453
1980.000 0.429
1981.000 0.378
1982.000 0.335
1983.000 0.325
1984.000 0.334
1985.000 0.364
1986.000 0.366
1987.000 0.363
1988.000 0.356
1989.000 0.351
1990.000 0.342
1991.000 0.321
1992.000 0.311
1993.000 0.300
1994.000 0.292
1995.000 0.327
1996.000 0.374
1997.000 0.386
1998.000 0.396
1999.000 0.396
2000.000 0.333
2001.000 0.319
2002.000 0.297
2003.000 0.300
2004.000 0.393
2005.000 0.455
2006.000 0.599
2007.000 0.715
2008.000 0.623
2009.000 0.512
2010.000 0.491
2011.000 0.545
2012.000 0.517
2013.000 0.509
2014.000 0.484
2015.000 0.416
2016.000 0.418
2017.000 0.479
2018.000 0.489
2019.000 0.491
2020.000 0.558
2021.000 0.593
2022.000 0.553
2023.000 0.510
2024.000 0.444
2025.000 0.399
2026.000 0.358
2027.000 0.342
2028.000 0.344
2029.000 0.347
2030.000 0.358
2031.000 0.356
2032.000 0.345
2033.000 0.344
2034.000 0.332
2035.000 0.340
2036.000 0.373
2037.000 0.397
2038.000 0.415
2039.000 0.422
2040.000 0.388
2041.000 0.357
2042.000 0.346
2043.000 0.332
2044.000 0.336
2045.000 0.377
2046.000 0.391
2047.000 0.397
2048.000 0.409
2049.000 0.415
2050.000 0.407
2051.000 0.419
2052.000 0.469
2053.000 0.452
2054.000 0.425
2055.000 0.390
2056.000 0.364
2057.000 0.364
2058.000 0.390
2059.000 0.386
2060.000 0.376
2061.000 0.383
2062.000 0.382
2063.000 0.389
2064.000 0.431
2065.000 0.453
2066.000 0.469
2067.000 0.453
2068.000 0.440
2069.000 0.422
2070.000 0.399
2071.000 0.386
2072.000 0.389
2073.000 0.412
2074.000 0.420
2075.000 0.439
2076.000 0.441
2077.000 0.428
2078.000 0.422
2079.000 0.408
2080.000 0.406
2081.000 0.411
2082.000 0.416
2083.000 0.429
2084.000 0.438
2085.000 0.437
2086.000 0.438
2087.000 0.440
2088.000 0.448
2089.000 0.437
2090.000 0.417
2091.000 0.407
2092.000 0.380
2093.000 0.378
2094.000 0.404
2095.000 0.410
2096.000 0.410
2097.000 0.413
2098.000 0.410
2099.000 0.410
2100.000 0.414
2101.000 0.432
2102.000 0.442
2103.000 0.442
2104.000 0.443
2105.000 0.439
2106.000 0.443
2107.000 0.445
2108.000 0.452
2109.000 0.474
2110.000 0.479
2111.000 0.477
2112.000 0.470
2113.000 0.446
2114.000 0.437
2115.000 0.437
2116.000 0.435
2117.000 0.438
2118.000 0.434
2119.000 0.430
2120.000 0.434
2121.000 0.449
2122.000 0.467
2123.000 0.476
2124.000 0.488
2125.000 0.489
2126.000 0.472
2127.000 0.469
2128.000 0.471
2129.000 0.466
2130.000 0.461
2131.000 0.457
2132.000 0.443
2133.000 0.436
2134.000 0.433
2135.000 0.431
2136.000 0.431
2137.000 0.432
2138.000 0.435
2139.000 0.433
2140.000 0.434
2141.000 0.439
2142.000 0.442
2143.000 0.446
2144.000 0.454
2145.000 0.466
2146.000 0.471
2147.000 0.475
2148.000 0.478
2149.000 0.475
2150.000 0.476
2151.000 0.480
2152.000 0.484
2153.000 0.486
2154.000 0.490
2155.000 0.506
2156.000 0.505
2157.000 0.490
2158.000 0.483
2159.000 0.469
2160.000 0.459
2161.000 0.457
2162.000 0.464
2163.000 0.464
2164.000 0.466
2165.000 0.474
2166.000 0.484
2167.000 0.482
2168.000 0.480
2169.000 0.478
2170.000 0.465
2171.000 0.466
2172.000 0.481
2173.000 0.486
2174.000 0.497
2175.000 0.503
2176.000 0.504
2177.000 0.502
2178.000 0.493
2179.000 0.495
2180.000 0.490
2181.000 0.482
2182.000 0.489
2183.000 0.482
2184.000 0.484
2185.000 0.490
2186.000 0.489
2187.000 0.488
2188.000 0.496
2189.000 0.506
2190.000 0.509
2191.000 0.528
2192.000 0.522
2193.000 0.492
2194.000 0.477
2195.000 0.455
2196.000 0.445
2197.000 0.447
2198.000 0.446
2199.000 0.447
2200.000 0.452
2201.000 0.464
2202.000 0.463
2203.000 0.462
2204.000 0.472
2205.000 0.458
2206.000 0.446
2207.000 0.457
2208.000 0.457
2209.000 0.463
2210.000 0.486
2211.000 0.492
2212.000 0.489
2213.000 0.485
2214.000 0.475
2215.000 0.466
2216.000 0.451
2217.000 0.447
2218.000 0.449
2219.000 0.452
2220.000 0.458
2221.000 0.465
2222.000 0.472
2223.000 0.476
2224.000 0.482
2225.000 0.484
2226.000 0.478
2227.000 0.485
2228.000 0.483
2229.000 0.495
2230.000 0.504
2231.000 0.503
2232.000 0.503
2233.000 0.500
2234.000 0.484
2235.000 0.469
2236.000 0.465
2237.000 0.454
2238.000 0.454
2239.000 0.472
2240.000 0.476
2241.000 0.478
2242.000 0.483
2243.000 0.484
2244.000 0.488
2245.000 0.501
2246.000 0.497
2247.000 0.475
2248.000 0.474
2249.000 0.477
2250.000 0.476
2251.000 0.491
2252.000 0.498
2253.000 0.494
2254.000 0.491
2255.000 0.486
2256.000 0.485
2257.000 0.478
2258.000 0.480
2259.000 0.484
2260.000 0.489
2261.000 0.500
2262.000 0.492
2263.000 0.473
2264.000 0.462
2265.000 0.433
2266.000 0.404
2267.000 0.406
2268.000 0.406
2269.000 0.420
2270.000 0.448
2271.000 0.455
2272.000 0.478
2273.000 0.481
2274.000 0.464
2275.000 0.460
2276.000 0.448
2277.000 0.445
2278.000 0.460
2279.000 0.465
2280.000 0.474
2281.000 0.475
2282.000 0.462
2283.000 0.461
2284.000 0.464
2285.000 0.457
2286.000 0.454
2287.000 0.448
2288.000 0.429
2289.000 0.425
2290.000 0.419
2291.000 0.431
2292.000 0.483
2293.000 0.491
2294.000 0.476
2295.000 0.478
2296.000 0.451
2297.000 0.454
2298.000 0.456
2299.000 0.476
2300.000 0.484
2301.000 0.457
2302.000 0.458
2303.000 0.436
2304.000 0.406
2305.000 0.381
2306.000 0.370
2307.000 0.375
2308.000 0.382
2309.000 0.414
2310.000 0.474
2311.000 0.505
2312.000 0.500
2313.000 0.502
2314.000 0.484
2315.000 0.468
2316.000 0.457
2317.000 0.454
2318.000 0.420
2319.000 0.377
2320.000 0.388
2321.000 0.377
2322.000 0.390
2323.000 0.445
2324.000 0.427
2325.000 0.433
2326.000 0.437
2327.000 0.415
2328.000 0.411
2329.000 0.420
2330.000 0.433
2331.000 0.477
2332.000 0.508
2333.000 0.529
2334.000 0.537
2335.000 0.503
2336.000 0.513
2337.000 0.471
2338.000 0.479
2339.000 0.538
2340.000 0.514
2341.000 0.479
2342.000 0.495
2343.000 0.411
2344.000 0.397
2345.000 0.433
2346.000 0.453
2347.000 0.514
2348.000 0.513
2349.000 0.402
2350.000 0.382
2351.000 0.379
2352.000 0.368
2353.000 0.384
2354.000 0.402
2355.000 0.394
2356.000 0.417
2357.000 0.444
2358.000 0.440
2359.000 0.427
2360.000 0.395
2361.000 0.396
2362.000 0.413
2363.000 0.413
2364.000 0.380
2365.000 0.368
2366.000 0.380
2367.000 0.385
2368.000 0.415
2369.000 0.447
2370.000 0.514
2371.000 0.575
2372.000 0.474
2373.000 0.405
2374.000 0.198
2375.000 0.343
2376.000 0.374
2377.000 0.450
2378.000 0.539
2379.000 0.567
2380.000 0.607
2381.000 0.549
2382.000 0.409
2383.000 0.467
2384.000 0.519
2385.000 0.504
2386.000 0.464
2387.000 0.399
2388.000 0.383
2389.000 0.394
2390.000 0.371
2391.000 0.385
2392.000 0.413
2393.000 0.414
2394.000 0.418
2395.000 0.367
2396.000 0.540
2397.000 0.544
2398.000 0.509
2399.000 0.496
2400.000 0.283
2401.000 0.492
2402.000 0.768
2403.000 0.484
2404.000 0.375
2405.000 0.403
2406.000 0.473
2407.000 0.478
2408.000 0.525
2409.000 0.476
2410.000 0.526
2411.000 0.550
2412.000 0.495
2413.000 0.466
2414.000 0.515
2415.000 0.568
2416.000 0.570
2417.000 0.475
2418.000 0.646
2419.000 0.207
2420.000 0.399
2421.000 0.550
2422.000 0.642
2423.000 0.452
2424.000 0.295
2425.000 0.718
2426.000 0.658
2427.000 0.758
2428.000 0.531
2429.000 0.320
2430.000 0.508
2431.000 0.599
2432.000 0.574
2433.000 0.673
2434.000 0.581
2435.000 0.468
2436.000 0.361
2437.000 0.560
2438.000 0.447
2439.000 0.440
2440.000 0.646
2441.000 0.758
2442.000 0.371
2443.000 0.208
2444.000 0.194
2445.000 0.144
2446.000 0.287
2447.000 0.357
2448.000 0.523
2449.000 0.514
2450.000 0.439
2451.000 0.484
2452.000 0.239
2453.000 0.191
2454.000 0.172
2455.000 0.293
2456.000 0.390
2457.000 0.443
2458.000 0.336
2459.000 0.361
2460.000 0.373
2461.000 0.399
2462.000 0.424
2463.000 0.352
2464.000 0.431
2465.000 0.290
2466.000 0.288
2467.000 0.310
2468.000 0.285
2469.000 0.377
2470.000 0.456
2471.000 0.597
2472.000 0.707
2473.000 0.688
2474.000 0.718
2475.000 0.382
2476.000 0.324
2477.000 0.275
2478.000 0.457
2479.000 0.402
2480.000 0.276
2481.000 0.328
2482.000 0.562
2483.000 0.328
2484.000 0.417
2485.000 0.440
2486.000 0.372
2487.000 0.331
2488.000 0.338
2489.000 0.424
2490.000 0.445
2491.000 0.356
2492.000 0.425
2493.000 0.563
2494.000 0.487
2495.000 0.517
2496.000 0.426
2497.000 0.294
2498.000 0.373
2499.000 0.335
2500.000 0.325
