391.000 0.040
392.000 0.040
393.000 0.039
394.000 0.039
395.000 0.033
396.000 0.032
397.000 0.038
398.000 0.041
399.000 0.035
400.000 0.032
401.000 0.040
402.000 0.038
403.000 0.035
404.000 0.035
405.000 0.037
406.000 0.035
407.000 0.036
408.000 0.037
409.000 0.035
410.000 0.036
411.000 0.038
412.000 0.037
413.000 0.036
414.000 0.036
415.000 0.035
416.000 0.034
417.000 0.037
418.000 0.039
419.000 0.037
420.000 0.037
421.000 0.039
422.000 0.040
423.000 0.038
424.000 0.039
425.000 0.037
426.000 0.036
427.000 0.036
428.000 0.038
429.000 0.038
430.000 0.036
431.000 0.037
432.000 0.037
433.000 0.037
434.000 0.038
435.000 0.039
436.000 0.038
437.000 0.037
438.000 0.039
439.000 0.038
440.000 0.036
441.000 0.036
442.000 0.037
443.000 0.037
444.000 0.037
445.000 0.036
446.000 0.037
447.000 0.038
448.000 0.039
449.000 0.039
450.000 0.038
451.000 0.038
452.000 0.038
453.000 0.037
454.000 0.038
455.000 0.038
456.000 0.038
457.000 0.039
458.000 0.038
459.000 0.038
460.000 0.038
461.000 0.039
462.000 0.039
463.000 0.038
464.000 0.038
465.000 0.038
466.000 0.037
467.000 0.038
468.000 0.039
469.000 0.040
470.000 0.039
471.000 0.037
472.000 0.038
473.000 0.039
474.000 0.040
475.000 0.039
476.000 0.039
477.000 0.039
478.000 0.038
479.000 0.038
480.000 0.039
481.000 0.040
482.000 0.040
483.000 0.039
484.000 0.037
485.000 0.037
486.000 0.041
487.000 0.042
488.000 0.041
489.000 0.040
490.000 0.039
491.000 0.041
492.000 0.041
493.000 0.039
494.000 0.039
495.000 0.040
496.000 0.040
497.000 0.043
498.000 0.044
499.000 0.044
500.000 0.044
501.000 0.043
502.000 0.043
503.000 0.044
504.000 0.045
505.000 0.045
506.000 0.044
507.000 0.045
508.000 0.045
509.000 0.047
510.000 0.050
511.000 0.052
512.000 0.052
513.000 0.052
514.000 0.055
515.000 0.057
516.000 0.058
517.000 0.060
518.000 0.061
519.000 0.064
520.000 0.067
521.000 0.070
522.000 0.072
523.000 0.074
524.000 0.076
525.000 0.077
526.000 0.081
527.000 0.085
528.000 0.087
529.000 0.088
530.000 0.089
531.000 0.091
532.000 0.095
533.000 0.095
534.000 0.096
535.000 0.098
536.000 0.099
537.000 0.100
538.000 0.100
539.000 0.100
540.000 0.101
541.000 0.102
542.000 0.102
543.000 0.103
544.000 0.103
545.000 0.104
546.000 0.104
547.000 0.104
548.000 0.104
549.000 0.104
550.000 0.104
551.000 0.105
552.000 0.105
553.000 0.104
554.000 0.105
555.000 0.105
556.000 0.105
557.000 0.104
558.000 0.103
559.000 0.102
560.000 0.101
561.000 0.100
562.000 0.099
563.000 0.097
564.000 0.096
565.000 0.094
566.000 0.093
567.000 0.091
568.000 0.089
569.000 0.089
570.000 0.087
571.000 0.086
572.000 0.082
573.000 0.081
574.000 0.080
575.000 0.080
576.000 0.079
577.000 0.077
578.000 0.076
579.000 0.075
580.000 0.074
581.000 0.073
582.000 0.071
583.000 0.071
584.000 0.071
585.000 0.071
586.000 0.070
587.000 0.069
588.000 0.069
589.000 0.069
590.000 0.067
591.000 0.065
592.000 0.065
593.000 0.065
594.000 0.066
595.000 0.065
596.000 0.064
597.000 0.064
598.000 0.064
599.000 0.064
600.000 0.064
601.000 0.061
602.000 0.063
603.000 0.063
604.000 0.062
605.000 0.062
606.000 0.062
607.000 0.062
608.000 0.062
609.000 0.061
610.000 0.060
611.000 0.060
612.000 0.061
613.000 0.059
614.000 0.058
615.000 0.058
616.000 0.058
617.000 0.058
618.000 0.058
619.000 0.057
620.000 0.056
621.000 0.055
622.000 0.056
623.000 0.057
624.000 0.056
625.000 0.055
626.000 0.056
627.000 0.054
628.000 0.054
629.000 0.054
630.000 0.053
631.000 0.054
632.000 0.055
633.000 0.055
634.000 0.055
635.000 0.055
636.000 0.055
637.000 0.056
638.000 0.054
639.000 0.052
640.000 0.051
641.000 0.052
642.000 0.051
643.000 0.050
644.000 0.051
645.000 0.051
646.000 0.051
647.000 0.049
648.000 0.048
649.000 0.048
650.000 0.048
651.000 0.049
652.000 0.048
653.000 0.047
654.000 0.047
655.000 0.049
656.000 0.049
657.000 0.048
658.000 0.048
659.000 0.048
660.000 0.048
661.000 0.048
662.000 0.047
663.000 0.045
664.000 0.045
665.000 0.046
666.000 0.049
667.000 0.051
668.000 0.050
669.000 0.049
670.000 0.049
671.000 0.048
672.000 0.048
673.000 0.050
674.000 0.052
675.000 0.052
676.000 0.053
677.000 0.054
678.000 0.054
679.000 0.054
680.000 0.052
681.000 0.054
682.000 0.054
683.000 0.055
684.000 0.056
685.000 0.060
686.000 0.062
687.000 0.062
688.000 0.063
689.000 0.064
690.000 0.066
691.000 0.069
692.000 0.071
693.000 0.076
694.000 0.081
695.000 0.086
696.000 0.089
697.000 0.095
698.000 0.103
699.000 0.112
700.000 0.119
701.000 0.127
702.000 0.136
703.000 0.145
704.000 0.154
705.000 0.163
706.000 0.172
707.000 0.180
708.000 0.190
709.000 0.200
710.000 0.209
711.000 0.219
712.000 0.228
713.000 0.239
714.000 0.248
715.000 0.258
716.000 0.268
717.000 0.277
718.000 0.287
719.000 0.298
720.000 0.310
721.000 0.321
722.000 0.330
723.000 0.339
724.000 0.350
725.000 0.360
726.000 0.370
727.000 0.379
728.000 0.389
729.000 0.397
730.000 0.407
731.000 0.415
732.000 0.424
733.000 0.433
734.000 0.440
735.000 0.447
736.000 0.454
737.000 0.460
738.000 0.466
739.000 0.473
740.000 0.478
741.000 0.483
742.000 0.488
743.000 0.493
744.000 0.497
745.000 0.500
746.000 0.504
747.000 0.508
748.000 0.510
749.000 0.513
750.000 0.516
751.000 0.519
752.000 0.521
753.000 0.523
754.000 0.524
755.000 0.526
756.000 0.527
757.000 0.529
758.000 0.530
759.000 0.530
760.000 0.530
761.000 0.529
762.000 0.530
763.000 0.531
764.000 0.532
765.000 0.534
766.000 0.535
767.000 0.537
768.000 0.538
769.000 0.539
770.000 0.539
771.000 0.539
772.000 0.540
773.000 0.540
774.000 0.541
775.000 0.541
776.000 0.542
777.000 0.542
778.000 0.542
779.000 0.543
780.000 0.543
781.000 0.544
782.000 0.544
783.000 0.545
784.000 0.545
785.000 0.545
786.000 0.545
787.000 0.546
788.000 0.545
789.000 0.546
790.000 0.546
791.000 0.547
792.000 0.547
793.000 0.547
794.000 0.548
795.000 0.548
796.000 0.549
797.000 0.549
798.000 0.549
799.000 0.550
800.000 0.550
801.000 0.551
802.000 0.551
803.000 0.551
804.000 0.552
805.000 0.552
806.000 0.553
807.000 0.553
808.000 0.554
809.000 0.554
810.000 0.554
811.000 0.554
812.000 0.554
813.000 0.553
814.000 0.553
815.000 0.552
816.000 0.552
817.000 0.552
818.000 0.553
819.000 0.554
820.000 0.555
821.000 0.556
822.000 0.556
823.000 0.556
824.000 0.557
825.000 0.558
826.000 0.559
827.000 0.559
828.000 0.559
829.000 0.559
830.000 0.560
831.000 0.561
832.000 0.561
833.000 0.561
834.000 0.562
835.000 0.562
836.000 0.563
837.000 0.564
838.000 0.564
839.000 0.565
840.000 0.565
841.000 0.566
842.000 0.566
843.000 0.567
844.000 0.567
845.000 0.568
846.000 0.568
847.000 0.569
848.000 0.569
849.000 0.569
850.000 0.570
851.000 0.570
852.000 0.570
853.000 0.570
854.000 0.571
855.000 0.571
856.000 0.572
857.000 0.572
858.000 0.572
859.000 0.573
860.000 0.573
861.000 0.573
862.000 0.573
863.000 0.574
864.000 0.574
865.000 0.575
866.000 0.575
867.000 0.575
868.000 0.575
869.000 0.576
870.000 0.576
871.000 0.577
872.000 0.577
873.000 0.577
874.000 0.577
875.000 0.577
876.000 0.578
877.000 0.578
878.000 0.579
879.000 0.579
880.000 0.579
881.000 0.579
882.000 0.580
883.000 0.581
884.000 0.581
885.000 0.581
886.000 0.581
887.000 0.582
888.000 0.582
889.000 0.583
890.000 0.582
891.000 0.583
892.000 0.583
893.000 0.583
894.000 0.582
895.000 0.582
896.000 0.581
897.000 0.581
898.000 0.580
899.000 0.581
900.000 0.581
901.000 0.581
902.000 0.582
903.000 0.583
904.000 0.584
905.000 0.584
906.000 0.584
907.000 0.584
908.000 0.584
909.000 0.584
910.000 0.583
911.000 0.584
912.000 0.584
913.000 0.584
914.000 0.584
915.000 0.584
916.000 0.585
917.000 0.585
918.000 0.585
919.000 0.587
920.000 0.588
921.000 0.588
922.000 0.588
923.000 0.589
924.000 0.588
925.000 0.588
926.000 0.587
927.000 0.586
928.000 0.586
929.000 0.584
930.000 0.581
931.000 0.578
932.000 0.575
933.000 0.572
934.000 0.570
935.000 0.570
936.000 0.570
937.000 0.571
938.000 0.572
939.000 0.573
940.000 0.573
941.000 0.572
942.000 0.572
943.000 0.572
944.000 0.571
945.000 0.570
946.000 0.571
947.000 0.570
948.000 0.568
949.000 0.569
950.000 0.569
951.000 0.570
952.000 0.569
953.000 0.569
954.000 0.569
955.000 0.569
956.000 0.569
957.000 0.570
958.000 0.570
959.000 0.569
960.000 0.569
961.000 0.571
962.000 0.573
963.000 0.576
964.000 0.574
965.000 0.574
966.000 0.575
967.000 0.577
968.000 0.576
969.000 0.577
970.000 0.579
971.000 0.579
972.000 0.579
973.000 0.578
974.000 0.578
975.000 0.578
976.000 0.579
977.000 0.580
978.000 0.580
979.000 0.580
980.000 0.581
981.000 0.582
982.000 0.583
983.000 0.584
984.000 0.584
985.000 0.584
986.000 0.584
987.000 0.586
988.000 0.587
989.000 0.588
990.000 0.588
991.000 0.589
992.000 0.592
993.000 0.591
994.000 0.590
995.000 0.592
996.000 0.591
997.000 0.591
998.000 0.592
999.000 0.594
1000.000 0.593
1001.000 0.591
1002.000 0.592
1003.000 0.593
1004.000 0.594
1005.000 0.595
1006.000 0.596
1007.000 0.596
1008.000 0.595
1009.000 0.596
1010.000 0.596
1011.000 0.596
1012.000 0.595
1013.000 0.596
1014.000 0.598
1015.000 0.598
1016.000 0.599
1017.000 0.600
1018.000 0.601
1019.000 0.601
1020.000 0.602
1021.000 0.603
1022.000 0.603
1023.000 0.603
1024.000 0.604
1025.000 0.604
1026.000 0.604
1027.000 0.604
1028.000 0.605
1029.000 0.603
1030.000 0.604
1031.000 0.606
1032.000 0.607
1033.000 0.609
1034.000 0.610
1035.000 0.609
1036.000 0.610
1037.000 0.610
1038.000 0.610
1039.000 0.610
1040.000 0.610
1041.000 0.610
1042.000 0.611
1043.000 0.611
1044.000 0.612
1045.000 0.612
1046.000 0.612
1047.000 0.612
1048.000 0.612
1049.000 0.613
1050.000 0.613
1051.000 0.614
1052.000 0.614
1053.000 0.615
1054.000 0.615
1055.000 0.615
1056.000 0.615
1057.000 0.615
1058.000 0.616
1059.000 0.616
1060.000 0.616
1061.000 0.616
1062.000 0.616
1063.000 0.615
1064.000 0.615
1065.000 0.615
1066.000 0.615
1067.000 0.616
1068.000 0.616
1069.000 0.617
1070.000 0.617
1071.000 0.617
1072.000 0.617
1073.000 0.617
1074.000 0.616
1075.000 0.616
1076.000 0.616
1077.000 0.616
1078.000 0.615
1079.000 0.615
1080.000 0.615
1081.000 0.616
1082.000 0.616
1083.000 0.615
1084.000 0.616
1085.000 0.615
1086.000 0.614
1087.000 0.614
1088.000 0.613
1089.000 0.612
1090.000 0.612
1091.000 0.612
1092.000 0.612
1093.000 0.611
1094.000 0.611
1095.000 0.611
1096.000 0.611
1097.000 0.611
1098.000 0.610
1099.000 0.610
1100.000 0.610
1101.000 0.611
1102.000 0.611
1103.000 0.610
1104.000 0.610
1105.000 0.609
1106.000 0.607
1107.000 0.607
1108.000 0.606
1109.000 0.604
1110.000 0.603
1111.000 0.602
1112.000 0.601
1113.000 0.600
1114.000 0.599
1115.000 0.599
1116.000 0.597
1117.000 0.595
1118.000 0.593
1119.000 0.592
1120.000 0.589
1121.000 0.588
1122.000 0.587
1123.000 0.586
1124.000 0.587
1125.000 0.587
1126.000 0.587
1127.000 0.585
1128.000 0.583
1129.000 0.581
1130.000 0.580
1131.000 0.579
1132.000 0.579
1133.000 0.578
1134.000 0.579
1135.000 0.579
1136.000 0.581
1137.000 0.582
1138.000 0.582
1139.000 0.582
1140.000 0.581
1141.000 0.579
1142.000 0.578
1143.000 0.577
1144.000 0.576
1145.000 0.574
1146.000 0.573
1147.000 0.571
1148.000 0.569
1149.000 0.569
1150.000 0.568
1151.000 0.568
1152.000 0.569
1153.000 0.570
1154.000 0.571
1155.000 0.571
1156.000 0.571
1157.000 0.571
1158.000 0.572
1159.000 0.571
1160.000 0.571
1161.000 0.572
1162.000 0.573
1163.000 0.573
1164.000 0.574
1165.000 0.574
1166.000 0.574
1167.000 0.574
1168.000 0.573
1169.000 0.574
1170.000 0.573
1171.000 0.573
1172.000 0.573
1173.000 0.573
1174.000 0.573
1175.000 0.574
1176.000 0.575
1177.000 0.576
1178.000 0.577
1179.000 0.577
1180.000 0.577
1181.000 0.577
1182.000 0.577
1183.000 0.577
1184.000 0.577
1185.000 0.577
1186.000 0.577
1187.000 0.578
1188.000 0.578
1189.000 0.578
1190.000 0.578
1191.000 0.578
1192.000 0.578
1193.000 0.577
1194.000 0.576
1195.000 0.576
1196.000 0.577
1197.000 0.578
1198.000 0.579
1199.000 0.580
1200.000 0.579
1201.000 0.580
1202.000 0.580
1203.000 0.581
1204.000 0.581
1205.000 0.581
1206.000 0.582
1207.000 0.581
1208.000 0.582
1209.000 0.582
1210.000 0.582
1211.000 0.583
1212.000 0.583
1213.000 0.583
1214.000 0.583
1215.000 0.583
1216.000 0.583
1217.000 0.584
1218.000 0.584
1219.000 0.584
1220.000 0.584
1221.000 0.585
1222.000 0.586
1223.000 0.586
1224.000 0.586
1225.000 0.586
1226.000 0.585
1227.000 0.586
1228.000 0.587
1229.000 0.587
1230.000 0.588
1231.000 0.588
1232.000 0.588
1233.000 0.588
1234.000 0.588
1235.000 0.588
1236.000 0.589
1237.000 0.589
1238.000 0.589
1239.000 0.590
1240.000 0.590
1241.000 0.591
1242.000 0.591
1243.000 0.591
1244.000 0.592
1245.000 0.592
1246.000 0.591
1247.000 0.591
1248.000 0.592
1249.000 0.592
1250.000 0.593
1251.000 0.593
1252.000 0.593
1253.000 0.592
1254.000 0.593
1255.000 0.593
1256.000 0.594
1257.000 0.594
1258.000 0.594
1259.000 0.594
1260.000 0.594
1261.000 0.595
1262.000 0.595
1263.000 0.594
1264.000 0.595
1265.000 0.594
1266.000 0.594
1267.000 0.594
1268.000 0.594
1269.000 0.594
1270.000 0.594
1271.000 0.595
1272.000 0.596
1273.000 0.596
1274.000 0.596
1275.000 0.597
1276.000 0.597
1277.000 0.597
1278.000 0.598
1279.000 0.599
1280.000 0.598
1281.000 0.598
1282.000 0.599
1283.000 0.598
1284.000 0.597
1285.000 0.597
1286.000 0.596
1287.000 0.595
1288.000 0.595
1289.000 0.594
1290.000 0.593
1291.000 0.593
1292.000 0.592
1293.000 0.591
1294.000 0.590
1295.000 0.590
1296.000 0.589
1297.000 0.589
1298.000 0.588
1299.000 0.587
1300.000 0.586
1301.000 0.586
1302.000 0.585
1303.000 0.584
1304.000 0.582
1305.000 0.581
1306.000 0.579
1307.000 0.578
1308.000 0.577
1309.000 0.576
1310.000 0.575
1311.000 0.574
1312.000 0.573
1313.000 0.572
1314.000 0.570
1315.000 0.569
1316.000 0.567
1317.000 0.564
1318.000 0.563
1319.000 0.560
1320.000 0.558
1321.000 0.557
1322.000 0.557
1323.000 0.556
1324.000 0.555
1325.000 0.552
1326.000 0.549
1327.000 0.546
1328.000 0.543
1329.000 0.541
1330.000 0.539
1331.000 0.538
1332.000 0.538
1333.000 0.536
1334.000 0.534
1335.000 0.532
1336.000 0.529
1337.000 0.526
1338.000 0.524
1339.000 0.521
1340.000 0.519
1341.000 0.516
1342.000 0.513
1343.000 0.511
1344.000 0.511
1345.000 0.510
1346.000 0.510
1347.000 0.510
1348.000 0.509
1349.000 0.502
1350.000 0.501
1351.000 0.507
1352.000 0.508
1353.000 0.509
1354.000 0.510
1355.000 0.501
1356.000 0.497
1357.000 0.490
1358.000 0.572
1359.000 0.638
1360.000 0.585
1361.000 0.513
1362.000 0.437
1363.000 0.323
1364.000 0.249
1365.000 0.204
1366.000 0.177
1367.000 0.284
1368.000 0.302
1369.000 0.239
1370.000 0.241
1371.000 0.161
1372.000 0.164
1373.000 0.230
1374.000 0.364
1375.000 0.473
1376.000 0.523
1377.000 0.442
1378.000 0.480
1379.000 0.534
1380.000 0.477
1381.000 0.472
1382.000 0.698
1383.000 0.714
1384.000 0.355
1385.000 0.509
1386.000 0.527
1387.000 0.365
1388.000 0.351
1389.000 0.322
1390.000 0.371
1391.000 0.207
1392.000 0.392
1393.000 0.422
1394.000 0.702
1395.000 0.663
1396.000 0.364
1397.000 0.376
1398.000 0.547
1399.000 0.638
1400.000 0.681
1401.000 0.533
1402.000 0.471
1403.000 0.502
1404.000 0.072
1405.000 0.235
1406.000 0.328
1407.000 0.414
1408.000 0.440
1409.000 0.344
1410.000 0.366
1411.000 0.308
1412.000 0.333
1413.000 0.409
1414.000 0.445
1415.000 0.593
1416.000 0.565
1417.000 0.491
1418.000 0.405
1419.000 0.300
1420.000 0.269
1421.000 0.241
1422.000 0.241
1423.000 0.288
1424.000 0.278
1425.000 0.251
1426.000 0.244
1427.000 0.226
1428.000 0.219
1429.000 0.226
1430.000 0.225
1431.000 0.214
1432.000 0.210
1433.000 0.214
1434.000 0.210
1435.000 0.198
1436.000 0.192
1437.000 0.183
1438.000 0.182
1439.000 0.192
1440.000 0.196
1441.000 0.200
1442.000 0.202
1443.000 0.198
1444.000 0.195
1445.000 0.195
1446.000 0.193
1447.000 0.190
1448.000 0.190
1449.000 0.193
1450.000 0.190
1451.000 0.191
1452.000 0.191
1453.000 0.190
1454.000 0.188
1455.000 0.187
1456.000 0.187
1457.000 0.187
1458.000 0.186
1459.000 0.187
1460.000 0.191
1461.000 0.189
1462.000 0.186
1463.000 0.183
1464.000 0.171
1465.000 0.169
1466.000 0.174
1467.000 0.175
1468.000 0.181
1469.000 0.189
1470.000 0.198
1471.000 0.203
1472.000 0.210
1473.000 0.211
1474.000 0.200
1475.000 0.200
1476.000 0.206
1477.000 0.204
1478.000 0.200
1479.000 0.198
1480.000 0.190
1481.000 0.190
1482.000 0.198
1483.000 0.202
1484.000 0.209
1485.000 0.211
1486.000 0.207
1487.000 0.209
1488.000 0.211
1489.000 0.213
1490.000 0.219
1491.000 0.222
1492.000 0.224
1493.000 0.226
1494.000 0.227
1495.000 0.228
1496.000 0.229
1497.000 0.232
1498.000 0.236
1499.000 0.240
1500.000 0.244
1501.000 0.246
1502.000 0.244
1503.000 0.245
1504.000 0.245
1505.000 0.245
1506.000 0.246
1507.000 0.248
1508.000 0.249
1509.000 0.250
1510.000 0.252
1511.000 0.254
1512.000 0.255
1513.000 0.256
1514.000 0.259
1515.000 0.261
1516.000 0.264
1517.000 0.269
1518.000 0.272
1519.000 0.273
1520.000 0.275
1521.000 0.278
1522.000 0.278
1523.000 0.278
1524.000 0.278
1525.000 0.277
1526.000 0.278
1527.000 0.280
1528.000 0.282
1529.000 0.285
1530.000 0.287
1531.000 0.289
1532.000 0.291
1533.000 0.293
1534.000 0.295
1535.000 0.295
1536.000 0.298
1537.000 0.300
1538.000 0.303
1539.000 0.307
1540.000 0.309
1541.000 0.310
1542.000 0.312
1543.000 0.312
1544.000 0.313
1545.000 0.315
1546.000 0.317
1547.000 0.319
1548.000 0.320
1549.000 0.321
1550.000 0.322
1551.000 0.323
1552.000 0.324
1553.000 0.325
1554.000 0.326
1555.000 0.328
1556.000 0.330
1557.000 0.333
1558.000 0.334
1559.000 0.335
1560.000 0.336
1561.000 0.337
1562.000 0.339
1563.000 0.340
1564.000 0.342
1565.000 0.342
1566.000 0.343
1567.000 0.342
1568.000 0.342
1569.000 0.343
1570.000 0.344
1571.000 0.348
1572.000 0.350
1573.000 0.352
1574.000 0.354
1575.000 0.357
1576.000 0.358
1577.000 0.359
1578.000 0.361
1579.000 0.361
1580.000 0.361
1581.000 0.362
1582.000 0.364
1583.000 0.366
1584.000 0.366
1585.000 0.367
1586.000 0.368
1587.000 0.369
1588.000 0.371
1589.000 0.374
1590.000 0.375
1591.000 0.376
1592.000 0.377
1593.000 0.377
1594.000 0.377
1595.000 0.375
1596.000 0.375
1597.000 0.375
1598.000 0.377
1599.000 0.381
1600.000 0.383
1601.000 0.386
1602.000 0.387
1603.000 0.387
1604.000 0.387
1605.000 0.385
1606.000 0.385
1607.000 0.385
1608.000 0.387
1609.000 0.388
1610.000 0.390
1611.000 0.390
1612.000 0.392
1613.000 0.394
1614.000 0.395
1615.000 0.397
1616.000 0.397
1617.000 0.397
1618.000 0.398
1619.000 0.398
1620.000 0.398
1621.000 0.399
1622.000 0.401
1623.000 0.402
1624.000 0.402
1625.000 0.403
1626.000 0.404
1627.000 0.405
1628.000 0.406
1629.000 0.407
1630.000 0.408
1631.000 0.405
1632.000 0.405
1633.000 0.405
1634.000 0.406
1635.000 0.410
1636.000 0.411
1637.000 0.413
1638.000 0.415
1639.000 0.415
1640.000 0.415
1641.000 0.415
1642.000 0.416
1643.000 0.414
1644.000 0.415
1645.000 0.416
1646.000 0.417
1647.000 0.418
1648.000 0.418
1649.000 0.417
1650.000 0.417
1651.000 0.418
1652.000 0.420
1653.000 0.422
1654.000 0.422
1655.000 0.421
1656.000 0.420
1657.000 0.416
1658.000 0.415
1659.000 0.416
1660.000 0.417
1661.000 0.420
1662.000 0.421
1663.000 0.421
1664.000 0.422
1665.000 0.424
1666.000 0.424
1667.000 0.422
1668.000 0.421
1669.000 0.420
1670.000 0.421
1671.000 0.424
1672.000 0.425
1673.000 0.426
1674.000 0.426
1675.000 0.424
1676.000 0.423
1677.000 0.422
1678.000 0.422
1679.000 0.422
1680.000 0.423
1681.000 0.426
1682.000 0.427
1683.000 0.428
1684.000 0.429
1685.000 0.429
1686.000 0.430
1687.000 0.430
1688.000 0.430
1689.000 0.431
1690.000 0.430
1691.000 0.431
1692.000 0.430
1693.000 0.427
1694.000 0.425
1695.000 0.422
1696.000 0.421
1697.000 0.422
1698.000 0.422
1699.000 0.425
1700.000 0.425
1701.000 0.424
1702.000 0.425
1703.000 0.425
1704.000 0.425
1705.000 0.428
1706.000 0.429
1707.000 0.429
1708.000 0.429
1709.000 0.428
1710.000 0.426
1711.000 0.422
1712.000 0.420
1713.000 0.422
1714.000 0.422
1715.000 0.422
1716.000 0.422
1717.000 0.420
1718.000 0.418
1719.000 0.416
1720.000 0.416
1721.000 0.415
1722.000 0.413
1723.000 0.412
1724.000 0.411
1725.000 0.409
1726.000 0.408
1727.000 0.409
1728.000 0.412
1729.000 0.411
1730.000 0.411
1731.000 0.412
1732.000 0.409
1733.000 0.409
1734.000 0.411
1735.000 0.409
1736.000 0.406
1737.000 0.403
1738.000 0.400
1739.000 0.397
1740.000 0.396
1741.000 0.395
1742.000 0.396
1743.000 0.395
1744.000 0.393
1745.000 0.392
1746.000 0.388
1747.000 0.389
1748.000 0.393
1749.000 0.392
1750.000 0.392
1751.000 0.392
1752.000 0.387
1753.000 0.386
1754.000 0.388
1755.000 0.388
1756.000 0.387
1757.000 0.386
1758.000 0.383
1759.000 0.380
1760.000 0.378
1761.000 0.375
1762.000 0.376
1763.000 0.376
1764.000 0.376
1765.000 0.382
1766.000 0.385
1767.000 0.387
1768.000 0.389
1769.000 0.380
1770.000 0.375
1771.000 0.369
1772.000 0.361
1773.000 0.358
1774.000 0.356
1775.000 0.356
1776.000 0.357
1777.000 0.359
1778.000 0.361
1779.000 0.358
1780.000 0.356
1781.000 0.356
1782.000 0.355
1783.000 0.361
1784.000 0.366
1785.000 0.364
1786.000 0.366
1787.000 0.361
1788.000 0.359
1789.000 0.364
1790.000 0.363
1791.000 0.361
1792.000 0.362
1793.000 0.355
1794.000 0.343
1795.000 0.338
1796.000 0.342
1797.000 0.353
1798.000 0.360
1799.000 0.367
1800.000 0.380
1801.000 0.438
1802.000 0.448
1803.000 0.466
1804.000 0.445
1805.000 0.442
1806.000 0.402
1807.000 0.382
1808.000 0.391
1809.000 0.378
1810.000 0.333
1811.000 0.317
1812.000 0.301
1813.000 0.300
1814.000 0.360
1815.000 0.399
1816.000 0.468
1817.000 0.544
1818.000 0.747
1819.000 0.715
1820.000 0.591
1821.000 0.334
1822.000 0.192
1823.000 0.263
1824.000 0.371
1825.000 0.504
1826.000 0.606
1827.000 0.513
1828.000 0.423
1829.000 0.359
1830.000 0.285
1831.000 0.248
1832.000 0.320
1833.000 0.339
1834.000 0.283
1835.000 0.339
1836.000 0.294
1837.000 0.275
1838.000 0.291
1839.000 0.432
1840.000 0.533
1841.000 0.572
1842.000 0.396
1843.000 0.528
1844.000 0.520
1845.000 0.689
1846.000 0.712
1847.000 0.566
1848.000 0.698
1849.000 0.475
1850.000 0.573
1851.000 0.338
1852.000 0.404
1853.000 0.424
1854.000 0.389
1855.000 0.456
1856.000 0.393
1857.000 0.327
1858.000 0.359
1859.000 0.423
1860.000 0.509
1861.000 0.560
1862.000 0.617
1863.000 0.579
1864.000 0.498
1865.000 0.439
1866.000 0.539
1867.000 0.667
1868.000 0.496
1869.000 0.403
1870.000 0.475
1871.000 0.386
1872.000 0.180
1873.000 0.248
1874.000 0.277
1875.000 0.369
1876.000 0.344
1877.000 0.322
1878.000 0.283
1879.000 0.410
1880.000 0.480
1881.000 0.661
1882.000 0.783
1883.000 0.727
1884.000 0.793
1885.000 0.660
1886.000 0.627
1887.000 0.642
1888.000 0.646
1889.000 0.618
1890.000 0.619
1891.000 0.717
1892.000 0.744
1893.000 0.560
1894.000 0.566
1895.000 0.807
1896.000 0.737
1897.000 0.482
1898.000 0.389
1899.000 0.397
1900.000 0.258
1901.000 0.386
1902.000 0.428
1903.000 0.497
1904.000 0.470
1905.000 0.374
1906.000 0.292
1907.000 0.466
1908.000 0.532
1909.000 0.497
1910.000 0.486
1911.000 0.544
1912.000 0.473
1913.000 0.416
1914.000 0.449
1915.000 0.595
1916.000 0.572
1917.000 0.598
1918.000 0.508
1919.000 0.444
1920.000 0.444
1921.000 0.391
1922.000 0.400
1923.000 0.294
1924.000 0.297
1925.000 0.329
1926.000 0.523
1927.000 0.534
1928.000 0.453
1929.000 0.388
1930.000 0.371
1931.000 0.423
1932.000 0.666
1933.000 0.674
1934.000 0.802
1935.000 0.754
1936.000 0.628
1937.000 0.536
1938.000 0.536
1939.000 0.540
1940.000 0.559
1941.000 0.524
1942.000 0.503
1943.000 0.381
1944.000 0.438
1945.000 0.542
1946.000 0.272
1947.000 0.397
1948.000 0.618
1949.000 0.307
1950.000 0.328
1951.000 0.403
1952.000 0.512
1953.000 0.546
1954.000 0.638
1955.000 0.416
1956.000 0.272
1957.000 0.284
1958.000 0.202
1959.000 0.208
1960.000 0.236
1961.000 0.282
1962.000 0.300
1963.000 0.276
1964.000 0.280
1965.000 0.342
1966.000 0.412
1967.000 0.341
1968.000 0.318
1969.000 0.253
1970.000 0.191
1971.000 0.189
1972.000 0.188
1973.000 0.173
1974.000 0.223
1975.000 0.204
1976.000 0.233
1977.000 0.240
1978.000 0.233
1979.000 0.222
1980.000 0.214
1981.000 0.196
1982.000 0.191
1983.000 0.201
1984.000 0.203
1985.000 0.198
1986.000 0.193
1987.000 0.181
1988.000 0.179
1989.000 0.184
1990.000 0.182
1991.000 0.182
1992.000 0.174
1993.000 0.168
1994.000 0.176
1995.000 0.195
1996.000 0.205
1997.000 0.199
1998.000 0.194
1999.000 0.179
2000.000 0.158
2001.000 0.158
2002.000 0.159
2003.000 0.165
2004.000 0.209
2005.000 0.238
2006.000 0.374
2007.000 0.458
2008.000 0.287
2009.000 0.414
2010.000 0.373
2011.000 0.420
2012.000 0.315
2013.000 0.248
2014.000 0.231
2015.000 0.191
2016.000 0.168
2017.000 0.218
2018.000 0.233
2019.000 0.227
2020.000 0.281
2021.000 0.304
2022.000 0.263
2023.000 0.256
2024.000 0.222
2025.000 0.176
2026.000 0.157
2027.000 0.156
2028.000 0.165
2029.000 0.170
2030.000 0.192
2031.000 0.191
2032.000 0.170
2033.000 0.162
2034.000 0.149
2035.000 0.151
2036.000 0.152
2037.000 0.174
2038.000 0.185
2039.000 0.183
2040.000 0.192
2041.000 0.183
2042.000 0.181
2043.000 0.181
2044.000 0.184
2045.000 0.192
2046.000 0.195
2047.000 0.196
2048.000 0.201
2049.000 0.209
2050.000 0.201
2051.000 0.221
2052.000 0.252
2053.000 0.231
2054.000 0.224
2055.000 0.199
2056.000 0.176
2057.000 0.170
2058.000 0.167
2059.000 0.168
2060.000 0.177
2061.000 0.186
2062.000 0.204
2063.000 0.214
2064.000 0.224
2065.000 0.234
2066.000 0.247
2067.000 0.229
2068.000 0.223
2069.000 0.216
2070.000 0.210
2071.000 0.210
2072.000 0.210
2073.000 0.217
2074.000 0.215
2075.000 0.205
2076.000 0.200
2077.000 0.194
2078.000 0.193
2079.000 0.199
2080.000 0.205
2081.000 0.217
2082.000 0.220
2083.000 0.223
2084.000 0.218
2085.000 0.216
2086.000 0.216
2087.000 0.217
2088.000 0.226
2089.000 0.223
2090.000 0.211
2091.000 0.209
2092.000 0.204
2093.000 0.204
2094.000 0.218
2095.000 0.221
2096.000 0.216
2097.000 0.218
2098.000 0.220
2099.000 0.219
2100.000 0.223
2101.000 0.229
2102.000 0.229
2103.000 0.229
2104.000 0.229
2105.000 0.228
2106.000 0.230
2107.000 0.234
2108.000 0.237
2109.000 0.243
2110.000 0.246
2111.000 0.247
2112.000 0.248
2113.000 0.248
2114.000 0.246
2115.000 0.243
2116.000 0.240
2117.000 0.235
2118.000 0.228
2119.000 0.222
2120.000 0.217
2121.000 0.220
2122.000 0.223
2123.000 0.231
2124.000 0.251
2125.000 0.255
2126.000 0.258
2127.000 0.257
2128.000 0.246
2129.000 0.240
2130.000 0.234
2131.000 0.230
2132.000 0.224
2133.000 0.224
2134.000 0.230
2135.000 0.234
2136.000 0.241
2137.000 0.244
2138.000 0.243
2139.000 0.247
2140.000 0.240
2141.000 0.238
2142.000 0.235
2143.000 0.225
2144.000 0.228
2145.000 0.245
2146.000 0.251
2147.000 0.264
2148.000 0.266
2149.000 0.253
2150.000 0.248
2151.000 0.239
2152.000 0.241
2153.000 0.251
2154.000 0.259
2155.000 0.276
2156.000 0.289
2157.000 0.280
2158.000 0.275
2159.000 0.272
2160.000 0.260
2161.000 0.255
2162.000 0.254
2163.000 0.252
2164.000 0.247
2165.000 0.249
2166.000 0.262
2167.000 0.264
2168.000 0.261
2169.000 0.261
2170.000 0.253
2171.000 0.255
2172.000 0.270
2173.000 0.275
2174.000 0.281
2175.000 0.283
2176.000 0.278
2177.000 0.269
2178.000 0.265
2179.000 0.260
2180.000 0.255
2181.000 0.253
2182.000 0.251
2183.000 0.248
2184.000 0.251
2185.000 0.264
2186.000 0.268
2187.000 0.274
2188.000 0.277
2189.000 0.273
2190.000 0.273
2191.000 0.283
2192.000 0.281
2193.000 0.271
2194.000 0.268
2195.000 0.262
2196.000 0.260
2197.000 0.261
2198.000 0.263
2199.000 0.264
2200.000 0.264
2201.000 0.268
2202.000 0.269
2203.000 0.262
2204.000 0.260
2205.000 0.250
2206.000 0.244
2207.000 0.252
2208.000 0.255
2209.000 0.258
2210.000 0.265
2211.000 0.271
2212.000 0.276
2213.000 0.274
2214.000 0.272
2215.000 0.269
2216.000 0.255
2217.000 0.254
2218.000 0.266
2219.000 0.267
2220.000 0.266
2221.000 0.266
2222.000 0.258
2223.000 0.257
2224.000 0.262
2225.000 0.263
2226.000 0.261
2227.000 0.265
2228.000 0.269
2229.000 0.273
2230.000 0.272
2231.000 0.275
2232.000 0.272
2233.000 0.267
2234.000 0.267
2235.000 0.259
2236.000 0.259
2237.000 0.261
2238.000 0.267
2239.000 0.287
2240.000 0.297
2241.000 0.311
2242.000 0.311
2243.000 0.288
2244.000 0.282
2245.000 0.276
2246.000 0.269
2247.000 0.268
2248.000 0.269
2249.000 0.269
2250.000 0.267
2251.000 0.271
2252.000 0.269
2253.000 0.258
2254.000 0.253
2255.000 0.254
2256.000 0.254
2257.000 0.251
2258.000 0.259
2259.000 0.264
2260.000 0.268
2261.000 0.283
2262.000 0.281
2263.000 0.275
2264.000 0.262
2265.000 0.241
2266.000 0.224
2267.000 0.207
2268.000 0.204
2269.000 0.206
2270.000 0.206
2271.000 0.214
2272.000 0.231
2273.000 0.233
2274.000 0.223
2275.000 0.220
2276.000 0.207
2277.000 0.208
2278.000 0.220
2279.000 0.225
2280.000 0.239
2281.000 0.242
2282.000 0.232
2283.000 0.233
2284.000 0.238
2285.000 0.230
2286.000 0.218
2287.000 0.213
2288.000 0.197
2289.000 0.194
2290.000 0.205
2291.000 0.213
2292.000 0.231
2293.000 0.243
2294.000 0.256
2295.000 0.261
2296.000 0.251
2297.000 0.253
2298.000 0.236
2299.000 0.224
2300.000 0.213
2301.000 0.197
2302.000 0.207
2303.000 0.205
2304.000 0.186
2305.000 0.168
2306.000 0.154
2307.000 0.152
2308.000 0.163
2309.000 0.176
2310.000 0.197
2311.000 0.220
2312.000 0.227
2313.000 0.250
2314.000 0.262
2315.000 0.244
2316.000 0.230
2317.000 0.220
2318.000 0.198
2319.000 0.182
2320.000 0.194
2321.000 0.199
2322.000 0.197
2323.000 0.220
2324.000 0.216
2325.000 0.202
2326.000 0.201
2327.000 0.205
2328.000 0.203
2329.000 0.207
2330.000 0.225
2331.000 0.252
2332.000 0.276
2333.000 0.321
2334.000 0.340
2335.000 0.336
2336.000 0.326
2337.000 0.318
2338.000 0.314
2339.000 0.298
2340.000 0.279
2341.000 0.251
2342.000 0.242
2343.000 0.208
2344.000 0.215
2345.000 0.202
2346.000 0.232
2347.000 0.348
2348.000 0.311
2349.000 0.183
2350.000 0.166
2351.000 0.147
2352.000 0.163
2353.000 0.218
2354.000 0.248
2355.000 0.222
2356.000 0.223
2357.000 0.254
2358.000 0.205
2359.000 0.185
2360.000 0.164
2361.000 0.145
2362.000 0.152
2363.000 0.160
2364.000 0.206
2365.000 0.241
2366.000 0.224
2367.000 0.207
2368.000 0.212
2369.000 0.184
2370.000 0.306
2371.000 0.302
2372.000 0.292
2373.000 0.256
2374.000 0.512
2375.000 0.293
2376.000 0.367
2377.000 0.269
2378.000 0.289
2379.000 0.491
2380.000 0.473
2381.000 0.435
2382.000 0.262
2383.000 0.243
2384.000 0.160
2385.000 0.168
2386.000 0.221
2387.000 0.218
2388.000 0.232
2389.000 0.292
2390.000 0.248
2391.000 0.213
2392.000 0.282
2393.000 0.343
2394.000 0.428
2395.000 0.408
2396.000 0.337
2397.000 0.372
2398.000 0.363
2399.000 0.261
2400.000 0.142
2401.000 0.419
2402.000 0.357
2403.000 0.207
2404.000 0.171
2405.000 0.256
2406.000 0.239
2407.000 0.304
2408.000 0.498
2409.000 0.284
2410.000 0.319
2411.000 0.367
2412.000 0.381
2413.000 0.294
2414.000 0.364
2415.000 0.369
2416.000 0.327
2417.000 0.397
2418.000 0.578
2419.000 0.380
2420.000 0.374
2421.000 0.355
2422.000 0.089
2423.000 0.227
2424.000 0.401
2425.000 0.197
2426.000 0.163
2427.000 0.171
2428.000 0.521
2429.000 0.483
2430.000 0.382
2431.000 0.147
2432.000 0.290
2433.000 0.422
2434.000 0.523
2435.000 0.230
2436.000 0.086
2437.000 0.181
2438.000 0.246
2439.000 0.343
2440.000 0.438
2441.000 0.524
2442.000 0.560
2443.000 0.519
2444.000 0.385
2445.000 0.372
2446.000 0.383
2447.000 0.163
2448.000 0.203
2449.000 0.286
2450.000 0.071
2451.000 0.186
2452.000 0.215
2453.000 0.187
2454.000 0.185
2455.000 0.202
2456.000 0.148
2457.000 0.242
2458.000 0.314
2459.000 0.360
2460.000 0.453
2461.000 0.190
2462.000 0.119
2463.000 0.188
2464.000 0.112
2465.000 0.214
2466.000 0.264
2467.000 0.310
2468.000 0.494
2469.000 0.608
2470.000 0.654
2471.000 0.486
2472.000 0.344
2473.000 0.263
2474.000 0.281
2475.000 0.529
2476.000 0.434
2477.000 0.299
2478.000 0.467
2479.000 0.403
2480.000 0.687
2481.000 0.545
2482.000 0.370
2483.000 0.312
2484.000 0.203
2485.000 0.318
2486.000 0.398
2487.000 0.335
2488.000 0.528
2489.000 0.497
2490.000 0.518
2491.000 0.662
2492.000 0.502
2493.000 0.468
2494.000 0.428
2495.000 0.338
2496.000 0.438
2497.000 0.297
2498.000 0.249
2499.000 0.196
2500.000 0.136
