391.000 0.064
392.000 0.061
393.000 0.061
394.000 0.070
395.000 0.067
396.000 0.069
397.000 0.075
398.000 0.065
399.000 0.070
400.000 0.072
401.000 0.064
402.000 0.067
403.000 0.066
404.000 0.064
405.000 0.068
406.000 0.069
407.000 0.067
408.000 0.065
409.000 0.068
410.000 0.063
411.000 0.062
412.000 0.066
413.000 0.066
414.000 0.065
415.000 0.066
416.000 0.067
417.000 0.065
418.000 0.065
419.000 0.068
420.000 0.070
421.000 0.068
422.000 0.067
423.000 0.067
424.000 0.067
425.000 0.069
426.000 0.070
427.000 0.068
428.000 0.067
429.000 0.069
430.000 0.071
431.000 0.071
432.000 0.070
433.000 0.070
434.000 0.070
435.000 0.072
436.000 0.070
437.000 0.068
438.000 0.068
439.000 0.066
440.000 0.068
441.000 0.070
442.000 0.069
443.000 0.066
444.000 0.066
445.000 0.067
446.000 0.068
447.000 0.068
448.000 0.069
449.000 0.073
450.000 0.072
451.000 0.069
452.000 0.067
453.000 0.068
454.000 0.069
455.000 0.071
456.000 0.072
457.000 0.071
458.000 0.069
459.000 0.068
460.000 0.070
461.000 0.071
462.000 0.072
463.000 0.072
464.000 0.069
465.000 0.069
466.000 0.071
467.000 0.072
468.000 0.071
469.000 0.070
470.000 0.071
471.000 0.071
472.000 0.070
473.000 0.070
474.000 0.071
475.000 0.071
476.000 0.072
477.000 0.073
478.000 0.073
479.000 0.073
480.000 0.072
481.000 0.071
482.000 0.073
483.000 0.073
484.000 0.071
485.000 0.071
486.000 0.074
487.000 0.073
488.000 0.071
489.000 0.071
490.000 0.073
491.000 0.073
492.000 0.073
493.000 0.074
494.000 0.073
495.000 0.074
496.000 0.075
497.000 0.075
498.000 0.075
499.000 0.075
500.000 0.074
501.000 0.075
502.000 0.075
503.000 0.074
504.000 0.075
505.000 0.077
506.000 0.077
507.000 0.077
508.000 0.077
509.000 0.079
510.000 0.081
511.000 0.080
512.000 0.082
513.000 0.082
514.000 0.084
515.000 0.087
516.000 0.089
517.000 0.090
518.000 0.092
519.000 0.093
520.000 0.096
521.000 0.099
522.000 0.102
523.000 0.104
524.000 0.106
525.000 0.109
526.000 0.111
527.000 0.113
528.000 0.115
529.000 0.118
530.000 0.119
531.000 0.121
532.000 0.123
533.000 0.125
534.000 0.126
535.000 0.127
536.000 0.128
537.000 0.128
538.000 0.129
539.000 0.130
540.000 0.131
541.000 0.132
542.000 0.133
543.000 0.132
544.000 0.132
545.000 0.132
546.000 0.133
547.000 0.133
548.000 0.133
549.000 0.133
550.000 0.134
551.000 0.134
552.000 0.133
553.000 0.134
554.000 0.134
555.000 0.134
556.000 0.133
557.000 0.132
558.000 0.130
559.000 0.130
560.000 0.129
561.000 0.129
562.000 0.128
563.000 0.127
564.000 0.125
565.000 0.124
566.000 0.123
567.000 0.121
568.000 0.120
569.000 0.117
570.000 0.116
571.000 0.114
572.000 0.112
573.000 0.112
574.000 0.111
575.000 0.110
576.000 0.109
577.000 0.107
578.000 0.106
579.000 0.105
580.000 0.106
581.000 0.104
582.000 0.102
583.000 0.100
584.000 0.100
585.000 0.100
586.000 0.100
587.000 0.099
588.000 0.098
589.000 0.097
590.000 0.097
591.000 0.097
592.000 0.097
593.000 0.097
594.000 0.096
595.000 0.096
596.000 0.096
597.000 0.096
598.000 0.095
599.000 0.094
600.000 0.094
601.000 0.094
602.000 0.094
603.000 0.094
604.000 0.094
605.000 0.094
606.000 0.094
607.000 0.093
608.000 0.092
609.000 0.091
610.000 0.092
611.000 0.092
612.000 0.091
613.000 0.091
614.000 0.090
615.000 0.088
616.000 0.089
617.000 0.090
618.000 0.090
619.000 0.087
620.000 0.088
621.000 0.089
622.000 0.089
623.000 0.088
624.000 0.088
625.000 0.088
626.000 0.088
627.000 0.090
628.000 0.090
629.000 0.089
630.000 0.088
631.000 0.088
632.000 0.088
633.000 0.088
634.000 0.087
635.000 0.087
636.000 0.087
637.000 0.087
638.000 0.088
639.000 0.087
640.000 0.086
641.000 0.086
642.000 0.086
643.000 0.085
644.000 0.084
645.000 0.083
646.000 0.083
647.000 0.083
648.000 0.083
649.000 0.084
650.000 0.083
651.000 0.083
652.000 0.083
653.000 0.084
654.000 0.084
655.000 0.083
656.000 0.084
657.000 0.085
658.000 0.084
659.000 0.083
660.000 0.085
661.000 0.086
662.000 0.087
663.000 0.087
664.000 0.088
665.000 0.089
666.000 0.088
667.000 0.090
668.000 0.089
669.000 0.088
670.000 0.093
671.000 0.092
672.000 0.091
673.000 0.093
674.000 0.095
675.000 0.095
676.000 0.096
677.000 0.096
678.000 0.097
679.000 0.097
680.000 0.097
681.000 0.098
682.000 0.099
683.000 0.101
684.000 0.103
685.000 0.104
686.000 0.104
687.000 0.105
688.000 0.108
689.000 0.107
690.000 0.107
691.000 0.110
692.000 0.110
693.000 0.114
694.000 0.119
695.000 0.124
696.000 0.128
697.000 0.132
698.000 0.138
699.000 0.144
700.000 0.152
701.000 0.160
702.000 0.167
703.000 0.175
704.000 0.182
705.000 0.190
706.000 0.198
707.000 0.206
708.000 0.215
709.000 0.223
710.000 0.232
711.000 0.240
712.000 0.248
713.000 0.256
714.000 0.265
715.000 0.274
716.000 0.282
717.000 0.290
718.000 0.298
719.000 0.308
720.000 0.319
721.000 0.328
722.000 0.336
723.000 0.344
724.000 0.353
725.000 0.362
726.000 0.370
727.000 0.379
728.000 0.387
729.000 0.395
730.000 0.403
731.000 0.410
732.000 0.418
733.000 0.426
734.000 0.433
735.000 0.439
736.000 0.445
737.000 0.451
738.000 0.456
739.000 0.462
740.000 0.467
741.000 0.472
742.000 0.477
743.000 0.481
744.000 0.485
745.000 0.488
746.000 0.492
747.000 0.495
748.000 0.498
749.000 0.501
750.000 0.503
751.000 0.506
752.000 0.508
753.000 0.509
754.000 0.511
755.000 0.513
756.000 0.514
757.000 0.515
758.000 0.517
759.000 0.517
760.000 0.516
761.000 0.516
762.000 0.516
763.000 0.517
764.000 0.518
765.000 0.520
766.000 0.522
767.000 0.524
768.000 0.525
769.000 0.526
770.000 0.527
771.000 0.527
772.000 0.528
773.000 0.529
774.000 0.529
775.000 0.530
776.000 0.530
777.000 0.531
778.000 0.531
779.000 0.531
780.000 0.532
781.000 0.533
782.000 0.533
783.000 0.534
784.000 0.534
785.000 0.534
786.000 0.535
787.000 0.535
788.000 0.534
789.000 0.535
790.000 0.535
791.000 0.536
792.000 0.537
793.000 0.537
794.000 0.538
795.000 0.538
796.000 0.538
797.000 0.538
798.000 0.539
799.000 0.539
800.000 0.540
801.000 0.540
802.000 0.540
803.000 0.541
804.000 0.541
805.000 0.542
806.000 0.543
807.000 0.543
808.000 0.544
809.000 0.544
810.000 0.544
811.000 0.543
812.000 0.543
813.000 0.542
814.000 0.542
815.000 0.542
816.000 0.541
817.000 0.542
818.000 0.542
819.000 0.544
820.000 0.545
821.000 0.545
822.000 0.546
823.000 0.546
824.000 0.547
825.000 0.547
826.000 0.548
827.000 0.548
828.000 0.549
829.000 0.549
830.000 0.550
831.000 0.550
832.000 0.550
833.000 0.551
834.000 0.552
835.000 0.553
836.000 0.554
837.000 0.555
838.000 0.555
839.000 0.555
840.000 0.556
841.000 0.556
842.000 0.557
843.000 0.557
844.000 0.559
845.000 0.559
846.000 0.559
847.000 0.560
848.000 0.560
849.000 0.561
850.000 0.561
851.000 0.561
852.000 0.561
853.000 0.562
854.000 0.562
855.000 0.563
856.000 0.563
857.000 0.563
858.000 0.564
859.000 0.564
860.000 0.564
861.000 0.565
862.000 0.565
863.000 0.565
864.000 0.566
865.000 0.566
866.000 0.567
867.000 0.567
868.000 0.567
869.000 0.568
870.000 0.568
871.000 0.568
872.000 0.568
873.000 0.569
874.000 0.569
875.000 0.569
876.000 0.570
877.000 0.570
878.000 0.570
879.000 0.570
880.000 0.571
881.000 0.571
882.000 0.571
883.000 0.572
884.000 0.572
885.000 0.572
886.000 0.573
887.000 0.573
888.000 0.573
889.000 0.573
890.000 0.574
891.000 0.573
892.000 0.573
893.000 0.573
894.000 0.573
895.000 0.572
896.000 0.571
897.000 0.571
898.000 0.570
899.000 0.570
900.000 0.571
901.000 0.571
902.000 0.572
903.000 0.572
904.000 0.572
905.000 0.573
906.000 0.574
907.000 0.573
908.000 0.573
909.000 0.572
910.000 0.572
911.000 0.572
912.000 0.571
913.000 0.572
914.000 0.573
915.000 0.573
916.000 0.573
917.000 0.573
918.000 0.574
919.000 0.575
920.000 0.576
921.000 0.577
922.000 0.577
923.000 0.577
924.000 0.576
925.000 0.576
926.000 0.575
927.000 0.574
928.000 0.572
929.000 0.571
930.000 0.570
931.000 0.567
932.000 0.563
933.000 0.561
934.000 0.561
935.000 0.559
936.000 0.555
937.000 0.556
938.000 0.558
939.000 0.558
940.000 0.555
941.000 0.556
942.000 0.559
943.000 0.561
944.000 0.556
945.000 0.556
946.000 0.557
947.000 0.557
948.000 0.557
949.000 0.558
950.000 0.557
951.000 0.557
952.000 0.558
953.000 0.558
954.000 0.557
955.000 0.556
956.000 0.555
957.000 0.556
958.000 0.558
959.000 0.558
960.000 0.557
961.000 0.559
962.000 0.561
963.000 0.561
964.000 0.564
965.000 0.564
966.000 0.564
967.000 0.566
968.000 0.566
969.000 0.566
970.000 0.567
971.000 0.568
972.000 0.566
973.000 0.567
974.000 0.569
975.000 0.569
976.000 0.569
977.000 0.567
978.000 0.568
979.000 0.571
980.000 0.570
981.000 0.571
982.000 0.572
983.000 0.574
984.000 0.571
985.000 0.575
986.000 0.576
987.000 0.576
988.000 0.579
989.000 0.577
990.000 0.575
991.000 0.578
992.000 0.579
993.000 0.579
994.000 0.580
995.000 0.583
996.000 0.582
997.000 0.582
998.000 0.582
999.000 0.583
1000.000 0.582
1001.000 0.584
1002.000 0.584
1003.000 0.584
1004.000 0.584
1005.000 0.585
1006.000 0.586
1007.000 0.587
1008.000 0.587
1009.000 0.588
1010.000 0.589
1011.000 0.590
1012.000 0.592
1013.000 0.593
1014.000 0.593
1015.000 0.594
1016.000 0.592
1017.000 0.593
1018.000 0.594
1019.000 0.595
1020.000 0.595
1021.000 0.596
1022.000 0.596
1023.000 0.596
1024.000 0.596
1025.000 0.597
1026.000 0.598
1027.000 0.598
1028.000 0.598
1029.000 0.597
1030.000 0.598
1031.000 0.600
1032.000 0.601
1033.000 0.601
1034.000 0.602
1035.000 0.603
1036.000 0.603
1037.000 0.603
1038.000 0.604
1039.000 0.603
1040.000 0.603
1041.000 0.604
1042.000 0.604
1043.000 0.605
1044.000 0.604
1045.000 0.604
1046.000 0.604
1047.000 0.605
1048.000 0.605
1049.000 0.605
1050.000 0.605
1051.000 0.606
1052.000 0.606
1053.000 0.608
1054.000 0.609
1055.000 0.609
1056.000 0.608
1057.000 0.608
1058.000 0.608
1059.000 0.608
1060.000 0.608
1061.000 0.609
1062.000 0.609
1063.000 0.609
1064.000 0.609
1065.000 0.610
1066.000 0.610
1067.000 0.610
1068.000 0.611
1069.000 0.611
1070.000 0.612
1071.000 0.611
1072.000 0.610
1073.000 0.610
1074.000 0.610
1075.000 0.611
1076.000 0.611
1077.000 0.612
1078.000 0.612
1079.000 0.612
1080.000 0.612
1081.000 0.611
1082.000 0.611
1083.000 0.611
1084.000 0.611
1085.000 0.612
1086.000 0.612
1087.000 0.612
1088.000 0.612
1089.000 0.612
1090.000 0.611
1091.000 0.610
1092.000 0.611
1093.000 0.611
1094.000 0.610
1095.000 0.610
1096.000 0.609
1097.000 0.608
1098.000 0.607
1099.000 0.607
1100.000 0.606
1101.000 0.606
1102.000 0.606
1103.000 0.606
1104.000 0.606
1105.000 0.606
1106.000 0.606
1107.000 0.605
1108.000 0.604
1109.000 0.601
1110.000 0.599
1111.000 0.599
1112.000 0.597
1113.000 0.599
1114.000 0.600
1115.000 0.600
1116.000 0.599
1117.000 0.595
1118.000 0.590
1119.000 0.587
1120.000 0.583
1121.000 0.583
1122.000 0.580
1123.000 0.577
1124.000 0.569
1125.000 0.569
1126.000 0.572
1127.000 0.574
1128.000 0.580
1129.000 0.580
1130.000 0.578
1131.000 0.576
1132.000 0.575
1133.000 0.577
1134.000 0.578
1135.000 0.578
1136.000 0.578
1137.000 0.578
1138.000 0.576
1139.000 0.574
1140.000 0.571
1141.000 0.567
1142.000 0.566
1143.000 0.565
1144.000 0.564
1145.000 0.562
1146.000 0.562
1147.000 0.564
1148.000 0.563
1149.000 0.563
1150.000 0.562
1151.000 0.558
1152.000 0.555
1153.000 0.556
1154.000 0.556
1155.000 0.555
1156.000 0.557
1157.000 0.558
1158.000 0.559
1159.000 0.561
1160.000 0.564
1161.000 0.565
1162.000 0.567
1163.000 0.568
1164.000 0.568
1165.000 0.568
1166.000 0.567
1167.000 0.567
1168.000 0.568
1169.000 0.567
1170.000 0.567
1171.000 0.568
1172.000 0.568
1173.000 0.568
1174.000 0.568
1175.000 0.570
1176.000 0.570
1177.000 0.570
1178.000 0.570
1179.000 0.570
1180.000 0.570
1181.000 0.570
1182.000 0.570
1183.000 0.570
1184.000 0.569
1185.000 0.569
1186.000 0.570
1187.000 0.570
1188.000 0.570
1189.000 0.570
1190.000 0.570
1191.000 0.570
1192.000 0.570
1193.000 0.570
1194.000 0.570
1195.000 0.570
1196.000 0.570
1197.000 0.571
1198.000 0.570
1199.000 0.570
1200.000 0.571
1201.000 0.571
1202.000 0.572
1203.000 0.574
1204.000 0.574
1205.000 0.574
1206.000 0.574
1207.000 0.574
1208.000 0.575
1209.000 0.575
1210.000 0.575
1211.000 0.576
1212.000 0.576
1213.000 0.576
1214.000 0.577
1215.000 0.577
1216.000 0.578
1217.000 0.579
1218.000 0.580
1219.000 0.580
1220.000 0.581
1221.000 0.580
1222.000 0.581
1223.000 0.580
1224.000 0.581
1225.000 0.581
1226.000 0.582
1227.000 0.582
1228.000 0.584
1229.000 0.584
1230.000 0.584
1231.000 0.585
1232.000 0.585
1233.000 0.585
1234.000 0.585
1235.000 0.586
1236.000 0.587
1237.000 0.587
1238.000 0.588
1239.000 0.589
1240.000 0.590
1241.000 0.590
1242.000 0.591
1243.000 0.590
1244.000 0.591
1245.000 0.591
1246.000 0.591
1247.000 0.591
1248.000 0.591
1249.000 0.590
1250.000 0.591
1251.000 0.592
1252.000 0.592
1253.000 0.593
1254.000 0.594
1255.000 0.594
1256.000 0.593
1257.000 0.592
1258.000 0.592
1259.000 0.593
1260.000 0.593
1261.000 0.593
1262.000 0.593
1263.000 0.593
1264.000 0.593
1265.000 0.594
1266.000 0.594
1267.000 0.596
1268.000 0.597
1269.000 0.597
1270.000 0.597
1271.000 0.598
1272.000 0.599
1273.000 0.599
1274.000 0.600
1275.000 0.600
1276.000 0.600
1277.000 0.600
1278.000 0.600
1279.000 0.599
1280.000 0.599
1281.000 0.599
1282.000 0.599
1283.000 0.599
1284.000 0.600
1285.000 0.599
1286.000 0.598
1287.000 0.597
1288.000 0.596
1289.000 0.596
1290.000 0.595
1291.000 0.595
1292.000 0.596
1293.000 0.595
1294.000 0.595
1295.000 0.594
1296.000 0.594
1297.000 0.593
1298.000 0.592
1299.000 0.591
1300.000 0.589
1301.000 0.588
1302.000 0.587
1303.000 0.587
1304.000 0.586
1305.000 0.584
1306.000 0.583
1307.000 0.582
1308.000 0.581
1309.000 0.581
1310.000 0.579
1311.000 0.578
1312.000 0.576
1313.000 0.574
1314.000 0.572
1315.000 0.571
1316.000 0.570
1317.000 0.569
1318.000 0.567
1319.000 0.565
1320.000 0.564
1321.000 0.561
1322.000 0.559
1323.000 0.557
1324.000 0.556
1325.000 0.554
1326.000 0.552
1327.000 0.550
1328.000 0.548
1329.000 0.546
1330.000 0.542
1331.000 0.539
1332.000 0.537
1333.000 0.534
1334.000 0.532
1335.000 0.531
1336.000 0.528
1337.000 0.527
1338.000 0.525
1339.000 0.523
1340.000 0.522
1341.000 0.521
1342.000 0.521
1343.000 0.521
1344.000 0.521
1345.000 0.519
1346.000 0.516
1347.000 0.513
1348.000 0.509
1349.000 0.503
1350.000 0.497
1351.000 0.495
1352.000 0.481
1353.000 0.444
1354.000 0.461
1355.000 0.514
1356.000 0.436
1357.000 0.378
1358.000 0.444
1359.000 0.451
1360.000 0.488
1361.000 0.633
1362.000 0.741
1363.000 0.553
1364.000 0.429
1365.000 0.343
1366.000 0.348
1367.000 0.414
1368.000 0.510
1369.000 0.645
1370.000 0.716
1371.000 0.477
1372.000 0.555
1373.000 0.435
1374.000 0.387
1375.000 0.563
1376.000 0.653
1377.000 0.481
1378.000 0.348
1379.000 0.384
1380.000 0.195
1381.000 0.448
1382.000 0.455
1383.000 0.559
1384.000 0.502
1385.000 0.328
1386.000 0.401
1387.000 0.512
1388.000 0.388
1389.000 0.330
1390.000 0.367
1391.000 0.474
1392.000 0.577
1393.000 0.395
1394.000 0.486
1395.000 0.497
1396.000 0.416
1397.000 0.509
1398.000 0.417
1399.000 0.413
1400.000 0.416
1401.000 0.152
1402.000 0.388
1403.000 0.363
1404.000 0.376
1405.000 0.406
1406.000 0.340
1407.000 0.396
1408.000 0.303
1409.000 0.349
1410.000 0.403
1411.000 0.405
1412.000 0.324
1413.000 0.299
1414.000 0.301
1415.000 0.383
1416.000 0.385
1417.000 0.361
1418.000 0.382
1419.000 0.195
1420.000 0.352
1421.000 0.389
1422.000 0.290
1423.000 0.236
1424.000 0.187
1425.000 0.380
1426.000 0.371
1427.000 0.321
1428.000 0.170
1429.000 0.220
1430.000 0.244
1431.000 0.357
1432.000 0.227
1433.000 0.187
1434.000 0.164
1435.000 0.287
1436.000 0.243
1437.000 0.300
1438.000 0.299
1439.000 0.307
1440.000 0.260
1441.000 0.261
1442.000 0.272
1443.000 0.238
1444.000 0.224
1445.000 0.190
1446.000 0.174
1447.000 0.184
1448.000 0.189
1449.000 0.184
1450.000 0.165
1451.000 0.155
1452.000 0.170
1453.000 0.175
1454.000 0.174
1455.000 0.174
1456.000 0.166
1457.000 0.168
1458.000 0.173
1459.000 0.176
1460.000 0.182
1461.000 0.183
1462.000 0.185
1463.000 0.179
1464.000 0.163
1465.000 0.172
1466.000 0.176
1467.000 0.176
1468.000 0.189
1469.000 0.194
1470.000 0.183
1471.000 0.173
1472.000 0.184
1473.000 0.190
1474.000 0.209
1475.000 0.214
1476.000 0.222
1477.000 0.217
1478.000 0.203
1479.000 0.201
1480.000 0.188
1481.000 0.190
1482.000 0.203
1483.000 0.205
1484.000 0.201
1485.000 0.200
1486.000 0.192
1487.000 0.194
1488.000 0.202
1489.000 0.208
1490.000 0.221
1491.000 0.225
1492.000 0.221
1493.000 0.222
1494.000 0.221
1495.000 0.222
1496.000 0.230
1497.000 0.234
1498.000 0.236
1499.000 0.240
1500.000 0.244
1501.000 0.243
1502.000 0.243
1503.000 0.245
1504.000 0.242
1505.000 0.242
1506.000 0.242
1507.000 0.242
1508.000 0.244
1509.000 0.248
1510.000 0.251
1511.000 0.254
1512.000 0.256
1513.000 0.257
1514.000 0.259
1515.000 0.261
1516.000 0.263
1517.000 0.266
1518.000 0.266
1519.000 0.265
1520.000 0.266
1521.000 0.266
1522.000 0.267
1523.000 0.272
1524.000 0.275
1525.000 0.277
1526.000 0.279
1527.000 0.280
1528.000 0.281
1529.000 0.281
1530.000 0.282
1531.000 0.283
1532.000 0.284
1533.000 0.287
1534.000 0.288
1535.000 0.289
1536.000 0.291
1537.000 0.293
1538.000 0.294
1539.000 0.295
1540.000 0.297
1541.000 0.299
1542.000 0.301
1543.000 0.302
1544.000 0.304
1545.000 0.305
1546.000 0.306
1547.000 0.309
1548.000 0.312
1549.000 0.313
1550.000 0.314
1551.000 0.315
1552.000 0.316
1553.000 0.318
1554.000 0.318
1555.000 0.319
1556.000 0.321
1557.000 0.324
1558.000 0.326
1559.000 0.331
1560.000 0.333
1561.000 0.332
1562.000 0.333
1563.000 0.331
1564.000 0.331
1565.000 0.335
1566.000 0.336
1567.000 0.338
1568.000 0.340
1569.000 0.342
1570.000 0.343
1571.000 0.344
1572.000 0.344
1573.000 0.343
1574.000 0.343
1575.000 0.343
1576.000 0.344
1577.000 0.347
1578.000 0.349
1579.000 0.351
1580.000 0.353
1581.000 0.353
1582.000 0.355
1583.000 0.358
1584.000 0.358
1585.000 0.357
1586.000 0.357
1587.000 0.357
1588.000 0.358
1589.000 0.362
1590.000 0.365
1591.000 0.367
1592.000 0.368
1593.000 0.366
1594.000 0.366
1595.000 0.366
1596.000 0.366
1597.000 0.370
1598.000 0.371
1599.000 0.371
1600.000 0.372
1601.000 0.373
1602.000 0.374
1603.000 0.376
1604.000 0.377
1605.000 0.378
1606.000 0.379
1607.000 0.382
1608.000 0.384
1609.000 0.384
1610.000 0.385
1611.000 0.385
1612.000 0.385
1613.000 0.385
1614.000 0.386
1615.000 0.387
1616.000 0.387
1617.000 0.387
1618.000 0.388
1619.000 0.391
1620.000 0.392
1621.000 0.395
1622.000 0.397
1623.000 0.396
1624.000 0.396
1625.000 0.394
1626.000 0.394
1627.000 0.394
1628.000 0.395
1629.000 0.397
1630.000 0.400
1631.000 0.401
1632.000 0.401
1633.000 0.400
1634.000 0.401
1635.000 0.401
1636.000 0.402
1637.000 0.403
1638.000 0.404
1639.000 0.406
1640.000 0.407
1641.000 0.405
1642.000 0.405
1643.000 0.405
1644.000 0.405
1645.000 0.407
1646.000 0.408
1647.000 0.408
1648.000 0.408
1649.000 0.406
1650.000 0.406
1651.000 0.406
1652.000 0.406
1653.000 0.405
1654.000 0.405
1655.000 0.407
1656.000 0.408
1657.000 0.409
1658.000 0.410
1659.000 0.409
1660.000 0.408
1661.000 0.406
1662.000 0.406
1663.000 0.407
1664.000 0.409
1665.000 0.411
1666.000 0.412
1667.000 0.413
1668.000 0.413
1669.000 0.414
1670.000 0.413
1671.000 0.412
1672.000 0.411
1673.000 0.413
1674.000 0.413
1675.000 0.414
1676.000 0.414
1677.000 0.414
1678.000 0.414
1679.000 0.415
1680.000 0.415
1681.000 0.413
1682.000 0.412
1683.000 0.411
1684.000 0.410
1685.000 0.410
1686.000 0.410
1687.000 0.409
1688.000 0.410
1689.000 0.412
1690.000 0.412
1691.000 0.412
1692.000 0.412
1693.000 0.412
1694.000 0.411
1695.000 0.409
1696.000 0.409
1697.000 0.407
1698.000 0.406
1699.000 0.407
1700.000 0.407
1701.000 0.407
1702.000 0.407
1703.000 0.404
1704.000 0.404
1705.000 0.404
1706.000 0.403
1707.000 0.404
1708.000 0.404
1709.000 0.403
1710.000 0.403
1711.000 0.403
1712.000 0.402
1713.000 0.401
1714.000 0.400
1715.000 0.402
1716.000 0.400
1717.000 0.398
1718.000 0.396
1719.000 0.391
1720.000 0.390
1721.000 0.391
1722.000 0.391
1723.000 0.394
1724.000 0.397
1725.000 0.398
1726.000 0.401
1727.000 0.401
1728.000 0.401
1729.000 0.400
1730.000 0.395
1731.000 0.392
1732.000 0.389
1733.000 0.386
1734.000 0.387
1735.000 0.389
1736.000 0.392
1737.000 0.392
1738.000 0.389
1739.000 0.386
1740.000 0.382
1741.000 0.380
1742.000 0.378
1743.000 0.379
1744.000 0.381
1745.000 0.383
1746.000 0.387
1747.000 0.388
1748.000 0.385
1749.000 0.384
1750.000 0.380
1751.000 0.380
1752.000 0.385
1753.000 0.385
1754.000 0.384
1755.000 0.381
1756.000 0.373
1757.000 0.370
1758.000 0.370
1759.000 0.370
1760.000 0.367
1761.000 0.366
1762.000 0.361
1763.000 0.357
1764.000 0.357
1765.000 0.359
1766.000 0.361
1767.000 0.361
1768.000 0.365
1769.000 0.366
1770.000 0.361
1771.000 0.360
1772.000 0.355
1773.000 0.347
1774.000 0.349
1775.000 0.352
1776.000 0.356
1777.000 0.360
1778.000 0.351
1779.000 0.346
1780.000 0.340
1781.000 0.335
1782.000 0.338
1783.000 0.340
1784.000 0.351
1785.000 0.367
1786.000 0.371
1787.000 0.369
1788.000 0.368
1789.000 0.355
1790.000 0.355
1791.000 0.370
1792.000 0.363
1793.000 0.373
1794.000 0.385
1795.000 0.407
1796.000 0.423
1797.000 0.453
1798.000 0.456
1799.000 0.410
1800.000 0.401
1801.000 0.421
1802.000 0.427
1803.000 0.455
1804.000 0.465
1805.000 0.449
1806.000 0.366
1807.000 0.358
1808.000 0.382
1809.000 0.408
1810.000 0.434
1811.000 0.435
1812.000 0.439
1813.000 0.409
1814.000 0.446
1815.000 0.385
1816.000 0.397
1817.000 0.366
1818.000 0.370
1819.000 0.427
1820.000 0.482
1821.000 0.416
1822.000 0.410
1823.000 0.346
1824.000 0.250
1825.000 0.305
1826.000 0.408
1827.000 0.509
1828.000 0.593
1829.000 0.356
1830.000 0.394
1831.000 0.404
1832.000 0.441
1833.000 0.434
1834.000 0.229
1835.000 0.485
1836.000 0.306
1837.000 0.416
1838.000 0.469
1839.000 0.523
1840.000 0.616
1841.000 0.683
1842.000 0.665
1843.000 0.571
1844.000 0.484
1845.000 0.470
1846.000 0.480
1847.000 0.543
1848.000 0.466
1849.000 0.509
1850.000 0.619
1851.000 0.651
1852.000 0.516
1853.000 0.558
1854.000 0.570
1855.000 0.500
1856.000 0.490
1857.000 0.498
1858.000 0.559
1859.000 0.592
1860.000 0.650
1861.000 0.608
1862.000 0.552
1863.000 0.332
1864.000 0.528
1865.000 0.343
1866.000 0.363
1867.000 0.429
1868.000 0.406
1869.000 0.477
1870.000 0.411
1871.000 0.399
1872.000 0.628
1873.000 0.419
1874.000 0.563
1875.000 0.551
1876.000 0.552
1877.000 0.491
1878.000 0.412
1879.000 0.428
1880.000 0.361
1881.000 0.501
1882.000 0.449
1883.000 0.503
1884.000 0.524
1885.000 0.397
1886.000 0.271
1887.000 0.414
1888.000 0.414
1889.000 0.448
1890.000 0.489
1891.000 0.466
1892.000 0.413
1893.000 0.562
1894.000 0.445
1895.000 0.486
1896.000 0.480
1897.000 0.408
1898.000 0.496
1899.000 0.529
1900.000 0.470
1901.000 0.517
1902.000 0.608
1903.000 0.580
1904.000 0.590
1905.000 0.582
1906.000 0.566
1907.000 0.378
1908.000 0.466
1909.000 0.444
1910.000 0.525
1911.000 0.483
1912.000 0.440
1913.000 0.476
1914.000 0.518
1915.000 0.455
1916.000 0.621
1917.000 0.473
1918.000 0.539
1919.000 0.583
1920.000 0.497
1921.000 0.604
1922.000 0.595
1923.000 0.452
1924.000 0.435
1925.000 0.440
1926.000 0.521
1927.000 0.484
1928.000 0.458
1929.000 0.379
1930.000 0.339
1931.000 0.267
1932.000 0.339
1933.000 0.431
1934.000 0.356
1935.000 0.388
1936.000 0.389
1937.000 0.397
1938.000 0.414
1939.000 0.473
1940.000 0.456
1941.000 0.460
1942.000 0.556
1943.000 0.424
1944.000 0.322
1945.000 0.237
1946.000 0.195
1947.000 0.261
1948.000 0.252
1949.000 0.281
1950.000 0.390
1951.000 0.415
1952.000 0.437
1953.000 0.386
1954.000 0.316
1955.000 0.287
1956.000 0.242
1957.000 0.204
1958.000 0.257
1959.000 0.291
1960.000 0.397
1961.000 0.402
1962.000 0.447
1963.000 0.485
1964.000 0.559
1965.000 0.416
1966.000 0.434
1967.000 0.446
1968.000 0.337
1969.000 0.306
1970.000 0.265
1971.000 0.239
1972.000 0.259
1973.000 0.228
1974.000 0.216
1975.000 0.225
1976.000 0.268
1977.000 0.270
1978.000 0.243
1979.000 0.227
1980.000 0.195
1981.000 0.159
1982.000 0.151
1983.000 0.157
1984.000 0.188
1985.000 0.217
1986.000 0.228
1987.000 0.221
1988.000 0.221
1989.000 0.214
1990.000 0.229
1991.000 0.260
1992.000 0.297
1993.000 0.296
1994.000 0.257
1995.000 0.211
1996.000 0.178
1997.000 0.183
1998.000 0.203
1999.000 0.225
2000.000 0.270
2001.000 0.298
2002.000 0.333
2003.000 0.317
2004.000 0.242
2005.000 0.246
2006.000 0.244
2007.000 0.284
2008.000 0.266
2009.000 0.234
2010.000 0.293
2011.000 0.373
2012.000 0.348
2013.000 0.318
2014.000 0.296
2015.000 0.242
2016.000 0.215
2017.000 0.217
2018.000 0.184
2019.000 0.185
2020.000 0.169
2021.000 0.171
2022.000 0.158
2023.000 0.166
2024.000 0.192
2025.000 0.198
2026.000 0.219
2027.000 0.219
2028.000 0.204
2029.000 0.192
2030.000 0.162
2031.000 0.156
2032.000 0.154
2033.000 0.159
2034.000 0.174
2035.000 0.194
2036.000 0.214
2037.000 0.218
2038.000 0.210
2039.000 0.192
2040.000 0.175
2041.000 0.163
2042.000 0.154
2043.000 0.149
2044.000 0.151
2045.000 0.161
2046.000 0.166
2047.000 0.179
2048.000 0.184
2049.000 0.184
2050.000 0.186
2051.000 0.183
2052.000 0.182
2053.000 0.176
2054.000 0.162
2055.000 0.158
2056.000 0.162
2057.000 0.161
2058.000 0.156
2059.000 0.162
2060.000 0.174
2061.000 0.183
2062.000 0.200
2063.000 0.204
2064.000 0.200
2065.000 0.195
2066.000 0.178
2067.000 0.173
2068.000 0.174
2069.000 0.176
2070.000 0.183
2071.000 0.184
2072.000 0.188
2073.000 0.193
2074.000 0.198
2075.000 0.210
2076.000 0.217
2077.000 0.233
2078.000 0.232
2079.000 0.220
2080.000 0.213
2081.000 0.197
2082.000 0.185
2083.000 0.192
2084.000 0.189
2085.000 0.193
2086.000 0.204
2087.000 0.208
2088.000 0.213
2089.000 0.214
2090.000 0.211
2091.000 0.208
2092.000 0.200
2093.000 0.198
2094.000 0.195
2095.000 0.194
2096.000 0.199
2097.000 0.201
2098.000 0.202
2099.000 0.210
2100.000 0.210
2101.000 0.213
2102.000 0.209
2103.000 0.201
2104.000 0.205
2105.000 0.218
2106.000 0.221
2107.000 0.227
2108.000 0.229
2109.000 0.222
2110.000 0.220
2111.000 0.222
2112.000 0.222
2113.000 0.217
2114.000 0.213
2115.000 0.210
2116.000 0.208
2117.000 0.206
2118.000 0.209
2119.000 0.213
2120.000 0.221
2121.000 0.233
2122.000 0.238
2123.000 0.242
2124.000 0.246
2125.000 0.247
2126.000 0.242
2127.000 0.241
2128.000 0.243
2129.000 0.241
2130.000 0.234
2131.000 0.234
2132.000 0.232
2133.000 0.237
2134.000 0.259
2135.000 0.265
2136.000 0.268
2137.000 0.264
2138.000 0.247
2139.000 0.229
2140.000 0.227
2141.000 0.224
2142.000 0.223
2143.000 0.229
2144.000 0.235
2145.000 0.240
2146.000 0.244
2147.000 0.254
2148.000 0.255
2149.000 0.242
2150.000 0.239
2151.000 0.237
2152.000 0.237
2153.000 0.246
2154.000 0.251
2155.000 0.255
2156.000 0.261
2157.000 0.263
2158.000 0.258
2159.000 0.244
2160.000 0.236
2161.000 0.236
2162.000 0.237
2163.000 0.240
2164.000 0.252
2165.000 0.262
2166.000 0.277
2167.000 0.281
2168.000 0.280
2169.000 0.282
2170.000 0.280
2171.000 0.275
2172.000 0.272
2173.000 0.269
2174.000 0.258
2175.000 0.252
2176.000 0.251
2177.000 0.247
2178.000 0.247
2179.000 0.250
2180.000 0.256
2181.000 0.261
2182.000 0.251
2183.000 0.242
2184.000 0.233
2185.000 0.215
2186.000 0.215
2187.000 0.225
2188.000 0.230
2189.000 0.248
2190.000 0.255
2191.000 0.250
2192.000 0.252
2193.000 0.257
2194.000 0.255
2195.000 0.252
2196.000 0.248
2197.000 0.234
2198.000 0.233
2199.000 0.248
2200.000 0.255
2201.000 0.267
2202.000 0.276
2203.000 0.281
2204.000 0.270
2205.000 0.270
2206.000 0.271
2207.000 0.264
2208.000 0.262
2209.000 0.259
2210.000 0.257
2211.000 0.253
2212.000 0.244
2213.000 0.243
2214.000 0.243
2215.000 0.243
2216.000 0.250
2217.000 0.249
2218.000 0.241
2219.000 0.240
2220.000 0.246
2221.000 0.252
2222.000 0.269
2223.000 0.278
2224.000 0.277
2225.000 0.277
2226.000 0.272
2227.000 0.272
2228.000 0.271
2229.000 0.265
2230.000 0.267
2231.000 0.263
2232.000 0.256
2233.000 0.256
2234.000 0.253
2235.000 0.251
2236.000 0.256
2237.000 0.264
2238.000 0.268
2239.000 0.271
2240.000 0.270
2241.000 0.265
2242.000 0.260
2243.000 0.252
2244.000 0.248
2245.000 0.247
2246.000 0.245
2247.000 0.243
2248.000 0.240
2249.000 0.229
2250.000 0.230
2251.000 0.237
2252.000 0.245
2253.000 0.270
2254.000 0.280
2255.000 0.282
2256.000 0.283
2257.000 0.269
2258.000 0.268
2259.000 0.278
2260.000 0.288
2261.000 0.304
2262.000 0.296
2263.000 0.284
2264.000 0.263
2265.000 0.244
2266.000 0.247
2267.000 0.254
2268.000 0.254
2269.000 0.283
2270.000 0.285
2271.000 0.256
2272.000 0.257
2273.000 0.252
2274.000 0.234
2275.000 0.235
2276.000 0.252
2277.000 0.262
2278.000 0.291
2279.000 0.304
2280.000 0.286
2281.000 0.274
2282.000 0.245
2283.000 0.238
2284.000 0.242
2285.000 0.239
2286.000 0.252
2287.000 0.255
2288.000 0.237
2289.000 0.230
2290.000 0.218
2291.000 0.216
2292.000 0.231
2293.000 0.244
2294.000 0.256
2295.000 0.259
2296.000 0.256
2297.000 0.240
2298.000 0.217
2299.000 0.210
2300.000 0.214
2301.000 0.221
2302.000 0.233
2303.000 0.261
2304.000 0.278
2305.000 0.265
2306.000 0.257
2307.000 0.247
2308.000 0.246
2309.000 0.248
2310.000 0.250
2311.000 0.250
2312.000 0.244
2313.000 0.235
2314.000 0.202
2315.000 0.201
2316.000 0.216
2317.000 0.219
2318.000 0.231
2319.000 0.212
2320.000 0.221
2321.000 0.218
2322.000 0.249
2323.000 0.240
2324.000 0.283
2325.000 0.255
2326.000 0.250
2327.000 0.257
2328.000 0.221
2329.000 0.199
2330.000 0.190
2331.000 0.167
2332.000 0.156
2333.000 0.149
2334.000 0.154
2335.000 0.169
2336.000 0.186
2337.000 0.252
2338.000 0.208
2339.000 0.219
2340.000 0.304
2341.000 0.303
2342.000 0.265
2343.000 0.301
2344.000 0.255
2345.000 0.212
2346.000 0.258
2347.000 0.292
2348.000 0.287
2349.000 0.258
2350.000 0.248
2351.000 0.193
2352.000 0.212
2353.000 0.262
2354.000 0.264
2355.000 0.151
2356.000 0.152
2357.000 0.216
2358.000 0.204
2359.000 0.216
2360.000 0.270
2361.000 0.321
2362.000 0.285
2363.000 0.292
2364.000 0.335
2365.000 0.216
2366.000 0.170
2367.000 0.156
2368.000 0.180
2369.000 0.224
2370.000 0.226
2371.000 0.236
2372.000 0.210
2373.000 0.180
2374.000 0.219
2375.000 0.296
2376.000 0.338
2377.000 0.357
2378.000 0.387
2379.000 0.225
2380.000 0.446
2381.000 0.364
2382.000 0.275
2383.000 0.288
2384.000 0.127
2385.000 0.262
2386.000 0.289
2387.000 0.303
2388.000 0.202
2389.000 0.136
2390.000 0.212
2391.000 0.321
2392.000 0.325
2393.000 0.265
2394.000 0.289
2395.000 0.298
2396.000 0.359
2397.000 0.435
2398.000 0.322
2399.000 0.185
2400.000 0.353
2401.000 0.283
2402.000 0.140
2403.000 0.162
2404.000 0.154
2405.000 0.218
2406.000 0.250
2407.000 0.364
2408.000 0.389
2409.000 0.331
2410.000 0.338
2411.000 0.166
2412.000 0.197
2413.000 0.323
2414.000 0.341
2415.000 0.300
2416.000 0.187
2417.000 0.199
2418.000 0.458
2419.000 0.493
2420.000 0.487
2421.000 0.334
2422.000 0.323
2423.000 0.459
2424.000 0.311
2425.000 0.254
2426.000 0.246
2427.000 0.251
2428.000 0.153
2429.000 0.236
2430.000 0.252
2431.000 0.321
2432.000 0.218
2433.000 0.307
2434.000 0.238
2435.000 0.119
2436.000 0.136
2437.000 0.141
2438.000 0.174
2439.000 0.301
2440.000 0.426
2441.000 0.480
2442.000 0.346
2443.000 0.334
2444.000 0.512
2445.000 0.335
2446.000 0.250
2447.000 0.332
2448.000 0.510
2449.000 0.234
2450.000 0.266
2451.000 0.236
2452.000 0.401
2453.000 0.416
2454.000 0.379
2455.000 0.328
2456.000 0.200
2457.000 0.272
2458.000 0.391
2459.000 0.375
2460.000 0.538
2461.000 0.432
2462.000 0.210
2463.000 0.408
2464.000 0.452
2465.000 0.348
2466.000 0.271
2467.000 0.179
2468.000 0.419
2469.000 0.290
2470.000 0.339
2471.000 0.216
2472.000 0.177
2473.000 0.125
2474.000 0.156
2475.000 0.275
2476.000 0.324
2477.000 0.249
2478.000 0.366
2479.000 0.392
2480.000 0.505
2481.000 0.455
2482.000 0.208
2483.000 0.161
2484.000 0.158
2485.000 0.190
2486.000 0.333
2487.000 0.136
2488.000 0.328
2489.000 0.261
2490.000 0.233
2491.000 0.176
2492.000 0.361
2493.000 0.422
2494.000 0.507
2495.000 0.509
2496.000 0.391
2497.000 0.436
2498.000 0.466
2499.000 0.465
2500.000 0.505
