391.000 0.058
392.000 0.060
393.000 0.061
394.000 0.060
395.000 0.056
396.000 0.056
397.000 0.060
398.000 0.063
399.000 0.056
400.000 0.053
401.000 0.059
402.000 0.057
403.000 0.053
404.000 0.053
405.000 0.054
406.000 0.055
407.000 0.056
408.000 0.056
409.000 0.055
410.000 0.055
411.000 0.056
412.000 0.055
413.000 0.056
414.000 0.055
415.000 0.054
416.000 0.053
417.000 0.055
418.000 0.056
419.000 0.055
420.000 0.054
421.000 0.055
422.000 0.057
423.000 0.056
424.000 0.056
425.000 0.055
426.000 0.053
427.000 0.055
428.000 0.056
429.000 0.056
430.000 0.054
431.000 0.054
432.000 0.054
433.000 0.054
434.000 0.055
435.000 0.055
436.000 0.056
437.000 0.055
438.000 0.055
439.000 0.056
440.000 0.056
441.000 0.055
442.000 0.055
443.000 0.054
444.000 0.054
445.000 0.054
446.000 0.055
447.000 0.057
448.000 0.057
449.000 0.057
450.000 0.056
451.000 0.056
452.000 0.056
453.000 0.055
454.000 0.057
455.000 0.058
456.000 0.058
457.000 0.057
458.000 0.057
459.000 0.057
460.000 0.057
461.000 0.058
462.000 0.059
463.000 0.059
464.000 0.057
465.000 0.058
466.000 0.059
467.000 0.058
468.000 0.059
469.000 0.059
470.000 0.058
471.000 0.057
472.000 0.058
473.000 0.059
474.000 0.059
475.000 0.058
476.000 0.059
477.000 0.059
478.000 0.059
479.000 0.059
480.000 0.059
481.000 0.059
482.000 0.060
483.000 0.059
484.000 0.059
485.000 0.059
486.000 0.062
487.000 0.063
488.000 0.062
489.000 0.061
490.000 0.061
491.000 0.062
492.000 0.062
493.000 0.061
494.000 0.061
495.000 0.062
496.000 0.063
497.000 0.064
498.000 0.067
499.000 0.068
500.000 0.068
501.000 0.067
502.000 0.069
503.000 0.070
504.000 0.072
505.000 0.072
506.000 0.073
507.000 0.074
508.000 0.076
509.000 0.079
510.000 0.082
511.000 0.086
512.000 0.087
513.000 0.089
514.000 0.093
515.000 0.096
516.000 0.099
517.000 0.103
518.000 0.108
519.000 0.113
520.000 0.118
521.000 0.123
522.000 0.127
523.000 0.132
524.000 0.136
525.000 0.139
526.000 0.145
527.000 0.150
528.000 0.154
529.000 0.157
530.000 0.160
531.000 0.164
532.000 0.168
533.000 0.170
534.000 0.172
535.000 0.174
536.000 0.176
537.000 0.178
538.000 0.178
539.000 0.180
540.000 0.181
541.000 0.182
542.000 0.183
543.000 0.183
544.000 0.184
545.000 0.185
546.000 0.185
547.000 0.185
548.000 0.186
549.000 0.186
550.000 0.187
551.000 0.187
552.000 0.187
553.000 0.186
554.000 0.186
555.000 0.186
556.000 0.186
557.000 0.185
558.000 0.183
559.000 0.182
560.000 0.180
561.000 0.178
562.000 0.176
563.000 0.174
564.000 0.171
565.000 0.169
566.000 0.166
567.000 0.163
568.000 0.160
569.000 0.157
570.000 0.155
571.000 0.152
572.000 0.148
573.000 0.146
574.000 0.143
575.000 0.141
576.000 0.140
577.000 0.137
578.000 0.135
579.000 0.133
580.000 0.131
581.000 0.129
582.000 0.127
583.000 0.126
584.000 0.125
585.000 0.123
586.000 0.121
587.000 0.121
588.000 0.121
589.000 0.119
590.000 0.117
591.000 0.116
592.000 0.115
593.000 0.115
594.000 0.115
595.000 0.113
596.000 0.112
597.000 0.113
598.000 0.112
599.000 0.112
600.000 0.110
601.000 0.108
602.000 0.110
603.000 0.110
604.000 0.109
605.000 0.107
606.000 0.107
607.000 0.107
608.000 0.106
609.000 0.106
610.000 0.104
611.000 0.102
612.000 0.103
613.000 0.101
614.000 0.099
615.000 0.099
616.000 0.098
617.000 0.098
618.000 0.097
619.000 0.096
620.000 0.094
621.000 0.094
622.000 0.094
623.000 0.095
624.000 0.093
625.000 0.093
626.000 0.093
627.000 0.091
628.000 0.091
629.000 0.092
630.000 0.090
631.000 0.091
632.000 0.092
633.000 0.092
634.000 0.092
635.000 0.091
636.000 0.091
637.000 0.091
638.000 0.089
639.000 0.086
640.000 0.085
641.000 0.085
642.000 0.083
643.000 0.082
644.000 0.083
645.000 0.082
646.000 0.080
647.000 0.079
648.000 0.078
649.000 0.077
650.000 0.077
651.000 0.077
652.000 0.076
653.000 0.075
654.000 0.075
655.000 0.076
656.000 0.076
657.000 0.076
658.000 0.076
659.000 0.075
660.000 0.074
661.000 0.074
662.000 0.074
663.000 0.073
664.000 0.071
665.000 0.072
666.000 0.075
667.000 0.076
668.000 0.075
669.000 0.074
670.000 0.074
671.000 0.073
672.000 0.073
673.000 0.075
674.000 0.077
675.000 0.078
676.000 0.079
677.000 0.080
678.000 0.082
679.000 0.082
680.000 0.081
681.000 0.083
682.000 0.084
683.000 0.086
684.000 0.088
685.000 0.091
686.000 0.095
687.000 0.097
688.000 0.099
689.000 0.101
690.000 0.104
691.000 0.108
692.000 0.112
693.000 0.120
694.000 0.129
695.000 0.138
696.000 0.146
697.000 0.155
698.000 0.167
699.000 0.180
700.000 0.193
701.000 0.206
702.000 0.220
703.000 0.233
704.000 0.246
705.000 0.259
706.000 0.272
707.000 0.285
708.000 0.298
709.000 0.312
710.000 0.326
711.000 0.339
712.000 0.353
713.000 0.367
714.000 0.380
715.000 0.394
716.000 0.407
717.000 0.421
718.000 0.435
719.000 0.450
720.000 0.466
721.000 0.480
722.000 0.492
723.000 0.504
724.000 0.517
725.000 0.531
726.000 0.545
727.000 0.557
728.000 0.568
729.000 0.580
730.000 0.591
731.000 0.602
732.000 0.612
733.000 0.622
734.000 0.631
735.000 0.640
736.000 0.649
737.000 0.656
738.000 0.664
739.000 0.671
740.000 0.678
741.000 0.684
742.000 0.690
743.000 0.695
744.000 0.700
745.000 0.705
746.000 0.709
747.000 0.713
748.000 0.716
749.000 0.719
750.000 0.723
751.000 0.726
752.000 0.728
753.000 0.731
754.000 0.732
755.000 0.734
756.000 0.736
757.000 0.738
758.000 0.739
759.000 0.741
760.000 0.741
761.000 0.743
762.000 0.744
763.000 0.745
764.000 0.746
765.000 0.746
766.000 0.747
767.000 0.749
768.000 0.749
769.000 0.750
770.000 0.750
771.000 0.750
772.000 0.751
773.000 0.752
774.000 0.752
775.000 0.753
776.000 0.753
777.000 0.753
778.000 0.753
779.000 0.754
780.000 0.754
781.000 0.755
782.000 0.755
783.000 0.756
784.000 0.756
785.000 0.757
786.000 0.757
787.000 0.757
788.000 0.758
789.000 0.758
790.000 0.759
791.000 0.759
792.000 0.760
793.000 0.760
794.000 0.760
795.000 0.761
796.000 0.761
797.000 0.761
798.000 0.762
799.000 0.762
800.000 0.763
801.000 0.763
802.000 0.763
803.000 0.764
804.000 0.764
805.000 0.765
806.000 0.766
807.000 0.766
808.000 0.766
809.000 0.767
810.000 0.767
811.000 0.768
812.000 0.768
813.000 0.767
814.000 0.767
815.000 0.768
816.000 0.768
817.000 0.768
818.000 0.769
819.000 0.769
820.000 0.770
821.000 0.771
822.000 0.771
823.000 0.771
824.000 0.772
825.000 0.773
826.000 0.773
827.000 0.773
828.000 0.774
829.000 0.774
830.000 0.775
831.000 0.776
832.000 0.776
833.000 0.776
834.000 0.776
835.000 0.777
836.000 0.777
837.000 0.778
838.000 0.778
839.000 0.779
840.000 0.779
841.000 0.780
842.000 0.780
843.000 0.780
844.000 0.781
845.000 0.781
846.000 0.781
847.000 0.781
848.000 0.782
849.000 0.782
850.000 0.782
851.000 0.783
852.000 0.783
853.000 0.784
854.000 0.784
855.000 0.784
856.000 0.784
857.000 0.785
858.000 0.785
859.000 0.786
860.000 0.786
861.000 0.786
862.000 0.786
863.000 0.787
864.000 0.787
865.000 0.788
866.000 0.788
867.000 0.788
868.000 0.788
869.000 0.789
870.000 0.790
871.000 0.790
872.000 0.790
873.000 0.790
874.000 0.790
875.000 0.791
876.000 0.791
877.000 0.791
878.000 0.792
879.000 0.793
880.000 0.793
881.000 0.793
882.000 0.794
883.000 0.794
884.000 0.795
885.000 0.795
886.000 0.795
887.000 0.796
888.000 0.796
889.000 0.797
890.000 0.797
891.000 0.798
892.000 0.798
893.000 0.798
894.000 0.798
895.000 0.798
896.000 0.798
897.000 0.798
898.000 0.798
899.000 0.799
900.000 0.799
901.000 0.799
902.000 0.800
903.000 0.801
904.000 0.801
905.000 0.802
906.000 0.802
907.000 0.803
908.000 0.802
909.000 0.802
910.000 0.802
911.000 0.803
912.000 0.804
913.000 0.804
914.000 0.804
915.000 0.803
916.000 0.804
917.000 0.804
918.000 0.804
919.000 0.796
920.000 0.798
921.000 0.797
922.000 0.797
923.000 0.798
924.000 0.798
925.000 0.797
926.000 0.806
927.000 0.797
928.000 0.797
929.000 0.805
930.000 0.803
931.000 0.802
932.000 0.801
933.000 0.797
934.000 0.796
935.000 0.798
936.000 0.799
937.000 0.797
938.000 0.798
939.000 0.800
940.000 0.799
941.000 0.798
942.000 0.799
943.000 0.798
944.000 0.794
945.000 0.794
946.000 0.795
947.000 0.795
948.000 0.793
949.000 0.793
950.000 0.792
951.000 0.792
952.000 0.791
953.000 0.789
954.000 0.788
955.000 0.788
956.000 0.788
957.000 0.788
958.000 0.788
959.000 0.786
960.000 0.786
961.000 0.785
962.000 0.788
963.000 0.791
964.000 0.787
965.000 0.786
966.000 0.787
967.000 0.789
968.000 0.787
969.000 0.788
970.000 0.790
971.000 0.789
972.000 0.787
973.000 0.788
974.000 0.788
975.000 0.787
976.000 0.787
977.000 0.789
978.000 0.789
979.000 0.787
980.000 0.789
981.000 0.790
982.000 0.791
983.000 0.791
984.000 0.791
985.000 0.790
986.000 0.791
987.000 0.793
988.000 0.793
989.000 0.795
990.000 0.794
991.000 0.794
992.000 0.799
993.000 0.796
994.000 0.796
995.000 0.798
996.000 0.798
997.000 0.795
998.000 0.796
999.000 0.799
1000.000 0.798
1001.000 0.792
1002.000 0.793
1003.000 0.794
1004.000 0.795
1005.000 0.787
1006.000 0.788
1007.000 0.788
1008.000 0.797
1009.000 0.797
1010.000 0.797
1011.000 0.797
1012.000 0.797
1013.000 0.797
1014.000 0.798
1015.000 0.799
1016.000 0.799
1017.000 0.801
1018.000 0.793
1019.000 0.794
1020.000 0.794
1021.000 0.796
1022.000 0.795
1023.000 0.795
1024.000 0.797
1025.000 0.798
1026.000 0.799
1027.000 0.799
1028.000 0.799
1029.000 0.798
1030.000 0.798
1031.000 0.800
1032.000 0.802
1033.000 0.803
1034.000 0.805
1035.000 0.804
1036.000 0.805
1037.000 0.804
1038.000 0.804
1039.000 0.805
1040.000 0.805
1041.000 0.806
1042.000 0.807
1043.000 0.807
1044.000 0.808
1045.000 0.808
1046.000 0.807
1047.000 0.807
1048.000 0.807
1049.000 0.808
1050.000 0.809
1051.000 0.810
1052.000 0.810
1053.000 0.810
1054.000 0.811
1055.000 0.810
1056.000 0.811
1057.000 0.812
1058.000 0.812
1059.000 0.813
1060.000 0.813
1061.000 0.813
1062.000 0.812
1063.000 0.812
1064.000 0.811
1065.000 0.811
1066.000 0.810
1067.000 0.811
1068.000 0.812
1069.000 0.813
1070.000 0.814
1071.000 0.813
1072.000 0.813
1073.000 0.813
1074.000 0.813
1075.000 0.813
1076.000 0.812
1077.000 0.811
1078.000 0.811
1079.000 0.810
1080.000 0.810
1081.000 0.811
1082.000 0.811
1083.000 0.810
1084.000 0.811
1085.000 0.811
1086.000 0.809
1087.000 0.809
1088.000 0.808
1089.000 0.807
1090.000 0.808
1091.000 0.816
1092.000 0.815
1093.000 0.815
1094.000 0.815
1095.000 0.814
1096.000 0.815
1097.000 0.815
1098.000 0.815
1099.000 0.815
1100.000 0.815
1101.000 0.808
1102.000 0.808
1103.000 0.816
1104.000 0.816
1105.000 0.814
1106.000 0.812
1107.000 0.812
1108.000 0.811
1109.000 0.810
1110.000 0.809
1111.000 0.809
1112.000 0.808
1113.000 0.807
1114.000 0.806
1115.000 0.805
1116.000 0.804
1117.000 0.802
1118.000 0.802
1119.000 0.800
1120.000 0.798
1121.000 0.797
1122.000 0.796
1123.000 0.796
1124.000 0.796
1125.000 0.796
1126.000 0.798
1127.000 0.796
1128.000 0.794
1129.000 0.790
1130.000 0.788
1131.000 0.786
1132.000 0.785
1133.000 0.784
1134.000 0.783
1135.000 0.782
1136.000 0.783
1137.000 0.783
1138.000 0.784
1139.000 0.784
1140.000 0.783
1141.000 0.779
1142.000 0.778
1143.000 0.776
1144.000 0.774
1145.000 0.774
1146.000 0.771
1147.000 0.768
1148.000 0.765
1149.000 0.764
1150.000 0.761
1151.000 0.760
1152.000 0.760
1153.000 0.759
1154.000 0.759
1155.000 0.758
1156.000 0.757
1157.000 0.756
1158.000 0.755
1159.000 0.755
1160.000 0.755
1161.000 0.755
1162.000 0.755
1163.000 0.755
1164.000 0.755
1165.000 0.755
1166.000 0.755
1167.000 0.754
1168.000 0.754
1169.000 0.754
1170.000 0.753
1171.000 0.753
1172.000 0.753
1173.000 0.753
1174.000 0.754
1175.000 0.755
1176.000 0.756
1177.000 0.755
1178.000 0.756
1179.000 0.756
1180.000 0.756
1181.000 0.756
1182.000 0.756
1183.000 0.756
1184.000 0.755
1185.000 0.756
1186.000 0.756
1187.000 0.756
1188.000 0.756
1189.000 0.756
1190.000 0.756
1191.000 0.756
1192.000 0.756
1193.000 0.756
1194.000 0.755
1195.000 0.755
1196.000 0.755
1197.000 0.755
1198.000 0.756
1199.000 0.756
1200.000 0.756
1201.000 0.756
1202.000 0.757
1203.000 0.757
1204.000 0.757
1205.000 0.757
1206.000 0.758
1207.000 0.757
1208.000 0.757
1209.000 0.758
1210.000 0.758
1211.000 0.758
1212.000 0.759
1213.000 0.758
1214.000 0.759
1215.000 0.759
1216.000 0.759
1217.000 0.759
1218.000 0.759
1219.000 0.758
1220.000 0.758
1221.000 0.760
1222.000 0.760
1223.000 0.760
1224.000 0.760
1225.000 0.759
1226.000 0.758
1227.000 0.758
1228.000 0.758
1229.000 0.759
1230.000 0.760
1231.000 0.760
1232.000 0.760
1233.000 0.760
1234.000 0.760
1235.000 0.760
1236.000 0.760
1237.000 0.760
1238.000 0.761
1239.000 0.761
1240.000 0.761
1241.000 0.761
1242.000 0.762
1243.000 0.762
1244.000 0.762
1245.000 0.762
1246.000 0.761
1247.000 0.761
1248.000 0.762
1249.000 0.763
1250.000 0.763
1251.000 0.763
1252.000 0.763
1253.000 0.762
1254.000 0.762
1255.000 0.763
1256.000 0.763
1257.000 0.764
1258.000 0.764
1259.000 0.764
1260.000 0.764
1261.000 0.765
1262.000 0.765
1263.000 0.766
1264.000 0.765
1265.000 0.764
1266.000 0.764
1267.000 0.762
1268.000 0.763
1269.000 0.763
1270.000 0.763
1271.000 0.764
1272.000 0.765
1273.000 0.765
1274.000 0.764
1275.000 0.764
1276.000 0.764
1277.000 0.765
1278.000 0.765
1279.000 0.765
1280.000 0.765
1281.000 0.765
1282.000 0.766
1283.000 0.765
1284.000 0.763
1285.000 0.763
1286.000 0.762
1287.000 0.761
1288.000 0.760
1289.000 0.759
1290.000 0.758
1291.000 0.758
1292.000 0.757
1293.000 0.756
1294.000 0.756
1295.000 0.755
1296.000 0.754
1297.000 0.753
1298.000 0.752
1299.000 0.751
1300.000 0.750
1301.000 0.749
1302.000 0.748
1303.000 0.746
1304.000 0.745
1305.000 0.742
1306.000 0.741
1307.000 0.739
1308.000 0.737
1309.000 0.736
1310.000 0.735
1311.000 0.733
1312.000 0.731
1313.000 0.730
1314.000 0.728
1315.000 0.727
1316.000 0.725
1317.000 0.721
1318.000 0.719
1319.000 0.717
1320.000 0.715
1321.000 0.713
1322.000 0.714
1323.000 0.712
1324.000 0.712
1325.000 0.709
1326.000 0.705
1327.000 0.702
1328.000 0.698
1329.000 0.695
1330.000 0.694
1331.000 0.693
1332.000 0.693
1333.000 0.691
1334.000 0.689
1335.000 0.687
1336.000 0.684
1337.000 0.680
1338.000 0.678
1339.000 0.675
1340.000 0.673
1341.000 0.671
1342.000 0.668
1343.000 0.667
1344.000 0.667
1345.000 0.667
1346.000 0.666
1347.000 0.665
1348.000 0.664
1349.000 0.657
1350.000 0.655
1351.000 0.661
1352.000 0.659
1353.000 0.652
1354.000 0.645
1355.000 0.623
1356.000 0.603
1357.000 0.607
1358.000 0.608
1359.000 0.619
1360.000 0.537
1361.000 0.409
1362.000 0.311
1363.000 0.270
1364.000 0.228
1365.000 0.186
1366.000 0.210
1367.000 0.260
1368.000 0.255
1369.000 0.217
1370.000 0.168
1371.000 0.270
1372.000 0.241
1373.000 0.266
1374.000 0.318
1375.000 0.366
1376.000 0.494
1377.000 0.480
1378.000 0.516
1379.000 0.530
1380.000 0.450
1381.000 0.459
1382.000 0.745
1383.000 0.446
1384.000 0.309
1385.000 0.171
1386.000 0.213
1387.000 0.187
1388.000 0.242
1389.000 0.253
1390.000 0.306
1391.000 0.346
1392.000 0.558
1393.000 0.497
1394.000 0.489
1395.000 0.573
1396.000 0.539
1397.000 0.427
1398.000 0.402
1399.000 0.351
1400.000 0.614
1401.000 0.701
1402.000 0.889
1403.000 0.562
1404.000 0.583
1405.000 0.488
1406.000 0.390
1407.000 0.306
1408.000 0.409
1409.000 0.387
1410.000 0.451
1411.000 0.335
1412.000 0.344
1413.000 0.424
1414.000 0.456
1415.000 0.572
1416.000 0.539
1417.000 0.553
1418.000 0.480
1419.000 0.351
1420.000 0.325
1421.000 0.291
1422.000 0.300
1423.000 0.376
1424.000 0.372
1425.000 0.346
1426.000 0.334
1427.000 0.297
1428.000 0.289
1429.000 0.299
1430.000 0.296
1431.000 0.288
1432.000 0.291
1433.000 0.307
1434.000 0.305
1435.000 0.300
1436.000 0.294
1437.000 0.268
1438.000 0.263
1439.000 0.275
1440.000 0.276
1441.000 0.275
1442.000 0.277
1443.000 0.281
1444.000 0.281
1445.000 0.284
1446.000 0.284
1447.000 0.271
1448.000 0.271
1449.000 0.278
1450.000 0.284
1451.000 0.287
1452.000 0.293
1453.000 0.294
1454.000 0.289
1455.000 0.292
1456.000 0.300
1457.000 0.301
1458.000 0.302
1459.000 0.303
1460.000 0.303
1461.000 0.302
1462.000 0.303
1463.000 0.301
1464.000 0.291
1465.000 0.290
1466.000 0.290
1467.000 0.294
1468.000 0.309
1469.000 0.319
1470.000 0.336
1471.000 0.343
1472.000 0.342
1473.000 0.342
1474.000 0.333
1475.000 0.333
1476.000 0.341
1477.000 0.337
1478.000 0.329
1479.000 0.324
1480.000 0.313
1481.000 0.312
1482.000 0.320
1483.000 0.326
1484.000 0.335
1485.000 0.339
1486.000 0.338
1487.000 0.340
1488.000 0.341
1489.000 0.343
1490.000 0.348
1491.000 0.351
1492.000 0.354
1493.000 0.356
1494.000 0.355
1495.000 0.357
1496.000 0.360
1497.000 0.364
1498.000 0.373
1499.000 0.378
1500.000 0.384
1501.000 0.385
1502.000 0.381
1503.000 0.381
1504.000 0.379
1505.000 0.380
1506.000 0.381
1507.000 0.384
1508.000 0.385
1509.000 0.388
1510.000 0.391
1511.000 0.394
1512.000 0.394
1513.000 0.394
1514.000 0.396
1515.000 0.398
1516.000 0.399
1517.000 0.403
1518.000 0.405
1519.000 0.405
1520.000 0.408
1521.000 0.412
1522.000 0.414
1523.000 0.416
1524.000 0.417
1525.000 0.416
1526.000 0.416
1527.000 0.418
1528.000 0.420
1529.000 0.422
1530.000 0.425
1531.000 0.428
1532.000 0.430
1533.000 0.432
1534.000 0.434
1535.000 0.434
1536.000 0.436
1537.000 0.438
1538.000 0.441
1539.000 0.445
1540.000 0.448
1541.000 0.450
1542.000 0.453
1543.000 0.454
1544.000 0.455
1545.000 0.458
1546.000 0.460
1547.000 0.461
1548.000 0.461
1549.000 0.460
1550.000 0.461
1551.000 0.462
1552.000 0.462
1553.000 0.463
1554.000 0.465
1555.000 0.467
1556.000 0.468
1557.000 0.470
1558.000 0.472
1559.000 0.472
1560.000 0.473
1561.000 0.474
1562.000 0.476
1563.000 0.478
1564.000 0.479
1565.000 0.481
1566.000 0.481
1567.000 0.480
1568.000 0.481
1569.000 0.480
1570.000 0.481
1571.000 0.486
1572.000 0.489
1573.000 0.491
1574.000 0.494
1575.000 0.495
1576.000 0.496
1577.000 0.497
1578.000 0.498
1579.000 0.497
1580.000 0.498
1581.000 0.501
1582.000 0.503
1583.000 0.505
1584.000 0.506
1585.000 0.504
1586.000 0.504
1587.000 0.506
1588.000 0.508
1589.000 0.513
1590.000 0.516
1591.000 0.516
1592.000 0.517
1593.000 0.517
1594.000 0.517
1595.000 0.514
1596.000 0.515
1597.000 0.515
1598.000 0.516
1599.000 0.522
1600.000 0.525
1601.000 0.528
1602.000 0.530
1603.000 0.529
1604.000 0.529
1605.000 0.527
1606.000 0.527
1607.000 0.528
1608.000 0.529
1609.000 0.531
1610.000 0.532
1611.000 0.532
1612.000 0.534
1613.000 0.537
1614.000 0.538
1615.000 0.539
1616.000 0.540
1617.000 0.538
1618.000 0.538
1619.000 0.538
1620.000 0.539
1621.000 0.540
1622.000 0.541
1623.000 0.542
1624.000 0.542
1625.000 0.541
1626.000 0.542
1627.000 0.546
1628.000 0.548
1629.000 0.549
1630.000 0.550
1631.000 0.547
1632.000 0.546
1633.000 0.544
1634.000 0.545
1635.000 0.549
1636.000 0.552
1637.000 0.556
1638.000 0.558
1639.000 0.556
1640.000 0.556
1641.000 0.556
1642.000 0.555
1643.000 0.554
1644.000 0.554
1645.000 0.557
1646.000 0.557
1647.000 0.558
1648.000 0.558
1649.000 0.555
1650.000 0.555
1651.000 0.557
1652.000 0.558
1653.000 0.562
1654.000 0.563
1655.000 0.561
1656.000 0.560
1657.000 0.555
1658.000 0.554
1659.000 0.556
1660.000 0.556
1661.000 0.559
1662.000 0.561
1663.000 0.561
1664.000 0.561
1665.000 0.563
1666.000 0.563
1667.000 0.562
1668.000 0.563
1669.000 0.563
1670.000 0.565
1671.000 0.568
1672.000 0.570
1673.000 0.570
1674.000 0.570
1675.000 0.568
1676.000 0.568
1677.000 0.569
1678.000 0.569
1679.000 0.570
1680.000 0.570
1681.000 0.570
1682.000 0.570
1683.000 0.572
1684.000 0.573
1685.000 0.575
1686.000 0.576
1687.000 0.574
1688.000 0.576
1689.000 0.579
1690.000 0.579
1691.000 0.581
1692.000 0.580
1693.000 0.576
1694.000 0.573
1695.000 0.570
1696.000 0.569
1697.000 0.568
1698.000 0.568
1699.000 0.571
1700.000 0.570
1701.000 0.568
1702.000 0.568
1703.000 0.567
1704.000 0.569
1705.000 0.574
1706.000 0.575
1707.000 0.575
1708.000 0.576
1709.000 0.575
1710.000 0.573
1711.000 0.573
1712.000 0.571
1713.000 0.572
1714.000 0.571
1715.000 0.572
1716.000 0.572
1717.000 0.571
1718.000 0.569
1719.000 0.567
1720.000 0.567
1721.000 0.564
1722.000 0.561
1723.000 0.560
1724.000 0.557
1725.000 0.555
1726.000 0.555
1727.000 0.557
1728.000 0.561
1729.000 0.561
1730.000 0.559
1731.000 0.559
1732.000 0.555
1733.000 0.555
1734.000 0.559
1735.000 0.557
1736.000 0.553
1737.000 0.550
1738.000 0.546
1739.000 0.543
1740.000 0.538
1741.000 0.536
1742.000 0.537
1743.000 0.536
1744.000 0.537
1745.000 0.536
1746.000 0.529
1747.000 0.529
1748.000 0.534
1749.000 0.534
1750.000 0.538
1751.000 0.539
1752.000 0.536
1753.000 0.536
1754.000 0.538
1755.000 0.537
1756.000 0.534
1757.000 0.532
1758.000 0.530
1759.000 0.529
1760.000 0.526
1761.000 0.522
1762.000 0.523
1763.000 0.522
1764.000 0.519
1765.000 0.525
1766.000 0.527
1767.000 0.526
1768.000 0.527
1769.000 0.516
1770.000 0.508
1771.000 0.503
1772.000 0.495
1773.000 0.493
1774.000 0.495
1775.000 0.497
1776.000 0.502
1777.000 0.504
1778.000 0.505
1779.000 0.505
1780.000 0.502
1781.000 0.502
1782.000 0.501
1783.000 0.505
1784.000 0.511
1785.000 0.512
1786.000 0.515
1787.000 0.509
1788.000 0.507
1789.000 0.506
1790.000 0.506
1791.000 0.504
1792.000 0.504
1793.000 0.502
1794.000 0.489
1795.000 0.471
1796.000 0.461
1797.000 0.470
1798.000 0.476
1799.000 0.476
1800.000 0.495
1801.000 0.600
1802.000 0.622
1803.000 0.635
1804.000 0.607
1805.000 0.589
1806.000 0.545
1807.000 0.510
1808.000 0.470
1809.000 0.443
1810.000 0.448
1811.000 0.446
1812.000 0.430
1813.000 0.459
1814.000 0.529
1815.000 0.559
1816.000 0.580
1817.000 0.699
1818.000 0.654
1819.000 0.654
1820.000 0.674
1821.000 0.699
1822.000 0.757
1823.000 0.715
1824.000 0.655
1825.000 0.691
1826.000 0.708
1827.000 0.606
1828.000 0.760
1829.000 0.778
1830.000 0.709
1831.000 0.736
1832.000 0.376
1833.000 0.383
1834.000 0.508
1835.000 0.382
1836.000 0.585
1837.000 0.391
1838.000 0.432
1839.000 0.435
1840.000 0.417
1841.000 0.389
1842.000 0.464
1843.000 0.542
1844.000 0.389
1845.000 0.622
1846.000 0.446
1847.000 0.776
1848.000 0.513
1849.000 0.642
1850.000 0.502
1851.000 0.381
1852.000 0.542
1853.000 0.605
1854.000 0.622
1855.000 0.560
1856.000 0.385
1857.000 0.430
1858.000 0.499
1859.000 0.394
1860.000 0.488
1861.000 0.538
1862.000 0.603
1863.000 0.670
1864.000 0.482
1865.000 0.394
1866.000 0.475
1867.000 0.511
1868.000 0.522
1869.000 0.580
1870.000 0.592
1871.000 0.602
1872.000 0.604
1873.000 0.540
1874.000 0.621
1875.000 0.494
1876.000 0.516
1877.000 0.428
1878.000 0.407
1879.000 0.431
1880.000 0.501
1881.000 0.414
1882.000 0.465
1883.000 0.396
1884.000 0.623
1885.000 0.632
1886.000 0.427
1887.000 0.706
1888.000 0.477
1889.000 0.445
1890.000 0.620
1891.000 0.639
1892.000 0.612
1893.000 0.641
1894.000 0.653
1895.000 0.705
1896.000 0.518
1897.000 0.568
1898.000 0.613
1899.000 0.492
1900.000 0.798
1901.000 0.780
1902.000 0.291
1903.000 0.256
1904.000 0.576
1905.000 0.485
1906.000 0.590
1907.000 0.523
1908.000 0.703
1909.000 0.717
1910.000 0.586
1911.000 0.327
1912.000 0.285
1913.000 0.337
1914.000 0.318
1915.000 0.519
1916.000 0.556
1917.000 0.510
1918.000 0.627
1919.000 0.460
1920.000 0.391
1921.000 0.448
1922.000 0.327
1923.000 0.514
1924.000 0.359
1925.000 0.304
1926.000 0.398
1927.000 0.357
1928.000 0.329
1929.000 0.367
1930.000 0.292
1931.000 0.373
1932.000 0.467
1933.000 0.408
1934.000 0.565
1935.000 0.493
1936.000 0.485
1937.000 0.447
1938.000 0.357
1939.000 0.324
1940.000 0.348
1941.000 0.346
1942.000 0.431
1943.000 0.384
1944.000 0.459
1945.000 0.437
1946.000 0.590
1947.000 0.598
1948.000 0.713
1949.000 0.705
1950.000 0.630
1951.000 0.607
1952.000 0.595
1953.000 0.502
1954.000 0.459
1955.000 0.424
1956.000 0.444
1957.000 0.368
1958.000 0.283
1959.000 0.297
1960.000 0.355
1961.000 0.383
1962.000 0.380
1963.000 0.438
1964.000 0.423
1965.000 0.333
1966.000 0.334
1967.000 0.400
1968.000 0.349
1969.000 0.381
1970.000 0.353
1971.000 0.296
1972.000 0.303
1973.000 0.349
1974.000 0.351
1975.000 0.359
1976.000 0.362
1977.000 0.376
1978.000 0.404
1979.000 0.422
1980.000 0.413
1981.000 0.360
1982.000 0.317
1983.000 0.312
1984.000 0.315
1985.000 0.346
1986.000 0.346
1987.000 0.333
1988.000 0.310
1989.000 0.303
1990.000 0.290
1991.000 0.272
1992.000 0.269
1993.000 0.255
1994.000 0.246
1995.000 0.277
1996.000 0.298
1997.000 0.310
1998.000 0.350
1999.000 0.362
2000.000 0.298
2001.000 0.291
2002.000 0.276
2003.000 0.285
2004.000 0.353
2005.000 0.411
2006.000 0.549
2007.000 0.635
2008.000 0.580
2009.000 0.409
2010.000 0.391
2011.000 0.424
2012.000 0.379
2013.000 0.400
2014.000 0.384
2015.000 0.320
2016.000 0.325
2017.000 0.406
2018.000 0.415
2019.000 0.430
2020.000 0.516
2021.000 0.557
2022.000 0.507
2023.000 0.463
2024.000 0.391
2025.000 0.343
2026.000 0.305
2027.000 0.289
2028.000 0.284
2029.000 0.289
2030.000 0.309
2031.000 0.309
2032.000 0.302
2033.000 0.298
2034.000 0.279
2035.000 0.279
2036.000 0.300
2037.000 0.326
2038.000 0.346
2039.000 0.353
2040.000 0.325
2041.000 0.299
2042.000 0.291
2043.000 0.281
2044.000 0.287
2045.000 0.328
2046.000 0.341
2047.000 0.343
2048.000 0.355
2049.000 0.360
2050.000 0.355
2051.000 0.373
2052.000 0.429
2053.000 0.407
2054.000 0.377
2055.000 0.337
2056.000 0.305
2057.000 0.302
2058.000 0.323
2059.000 0.322
2060.000 0.321
2061.000 0.329
2062.000 0.329
2063.000 0.335
2064.000 0.370
2065.000 0.388
2066.000 0.401
2067.000 0.384
2068.000 0.369
2069.000 0.351
2070.000 0.332
2071.000 0.321
2072.000 0.326
2073.000 0.353
2074.000 0.362
2075.000 0.379
2076.000 0.379
2077.000 0.358
2078.000 0.349
2079.000 0.335
2080.000 0.334
2081.000 0.343
2082.000 0.352
2083.000 0.367
2084.000 0.376
2085.000 0.374
2086.000 0.371
2087.000 0.373
2088.000 0.384
2089.000 0.374
2090.000 0.356
2091.000 0.348
2092.000 0.323
2093.000 0.322
2094.000 0.350
2095.000 0.357
2096.000 0.357
2097.000 0.359
2098.000 0.352
2099.000 0.350
2100.000 0.353
2101.000 0.369
2102.000 0.384
2103.000 0.388
2104.000 0.389
2105.000 0.384
2106.000 0.386
2107.000 0.384
2108.000 0.387
2109.000 0.401
2110.000 0.405
2111.000 0.406
2112.000 0.398
2113.000 0.376
2114.000 0.367
2115.000 0.363
2116.000 0.359
2117.000 0.360
2118.000 0.359
2119.000 0.353
2120.000 0.353
2121.000 0.370
2122.000 0.386
2123.000 0.394
2124.000 0.406
2125.000 0.408
2126.000 0.392
2127.000 0.393
2128.000 0.404
2129.000 0.403
2130.000 0.397
2131.000 0.393
2132.000 0.376
2133.000 0.369
2134.000 0.370
2135.000 0.371
2136.000 0.379
2137.000 0.379
2138.000 0.379
2139.000 0.373
2140.000 0.363
2141.000 0.360
2142.000 0.361
2143.000 0.367
2144.000 0.375
2145.000 0.393
2146.000 0.397
2147.000 0.394
2148.000 0.395
2149.000 0.388
2150.000 0.387
2151.000 0.389
2152.000 0.396
2153.000 0.405
2154.000 0.414
2155.000 0.437
2156.000 0.446
2157.000 0.434
2158.000 0.428
2159.000 0.416
2160.000 0.402
2161.000 0.397
2162.000 0.402
2163.000 0.400
2164.000 0.396
2165.000 0.399
2166.000 0.407
2167.000 0.405
2168.000 0.401
2169.000 0.400
2170.000 0.389
2171.000 0.391
2172.000 0.413
2173.000 0.422
2174.000 0.429
2175.000 0.436
2176.000 0.441
2177.000 0.437
2178.000 0.426
2179.000 0.421
2180.000 0.414
2181.000 0.406
2182.000 0.416
2183.000 0.411
2184.000 0.411
2185.000 0.410
2186.000 0.410
2187.000 0.411
2188.000 0.420
2189.000 0.437
2190.000 0.443
2191.000 0.463
2192.000 0.459
2193.000 0.431
2194.000 0.416
2195.000 0.391
2196.000 0.379
2197.000 0.379
2198.000 0.377
2199.000 0.381
2200.000 0.386
2201.000 0.397
2202.000 0.396
2203.000 0.394
2204.000 0.400
2205.000 0.385
2206.000 0.376
2207.000 0.382
2208.000 0.378
2209.000 0.381
2210.000 0.397
2211.000 0.404
2212.000 0.409
2213.000 0.405
2214.000 0.395
2215.000 0.387
2216.000 0.368
2217.000 0.367
2218.000 0.382
2219.000 0.389
2220.000 0.402
2221.000 0.409
2222.000 0.405
2223.000 0.405
2224.000 0.406
2225.000 0.406
2226.000 0.400
2227.000 0.407
2228.000 0.410
2229.000 0.419
2230.000 0.427
2231.000 0.426
2232.000 0.428
2233.000 0.424
2234.000 0.411
2235.000 0.400
2236.000 0.394
2237.000 0.386
2238.000 0.385
2239.000 0.398
2240.000 0.403
2241.000 0.408
2242.000 0.414
2243.000 0.419
2244.000 0.426
2245.000 0.440
2246.000 0.438
2247.000 0.424
2248.000 0.423
2249.000 0.423
2250.000 0.420
2251.000 0.425
2252.000 0.426
2253.000 0.421
2254.000 0.415
2255.000 0.407
2256.000 0.408
2257.000 0.406
2258.000 0.411
2259.000 0.419
2260.000 0.421
2261.000 0.429
2262.000 0.413
2263.000 0.387
2264.000 0.371
2265.000 0.339
2266.000 0.310
2267.000 0.312
2268.000 0.316
2269.000 0.328
2270.000 0.355
2271.000 0.371
2272.000 0.398
2273.000 0.404
2274.000 0.392
2275.000 0.386
2276.000 0.360
2277.000 0.357
2278.000 0.370
2279.000 0.378
2280.000 0.402
2281.000 0.407
2282.000 0.392
2283.000 0.392
2284.000 0.398
2285.000 0.391
2286.000 0.381
2287.000 0.377
2288.000 0.360
2289.000 0.356
2290.000 0.360
2291.000 0.374
2292.000 0.423
2293.000 0.427
2294.000 0.406
2295.000 0.402
2296.000 0.366
2297.000 0.363
2298.000 0.360
2299.000 0.386
2300.000 0.401
2301.000 0.373
2302.000 0.383
2303.000 0.360
2304.000 0.326
2305.000 0.301
2306.000 0.285
2307.000 0.288
2308.000 0.295
2309.000 0.323
2310.000 0.383
2311.000 0.425
2312.000 0.433
2313.000 0.447
2314.000 0.434
2315.000 0.412
2316.000 0.389
2317.000 0.376
2318.000 0.326
2319.000 0.272
2320.000 0.273
2321.000 0.258
2322.000 0.261
2323.000 0.313
2324.000 0.310
2325.000 0.316
2326.000 0.320
2327.000 0.299
2328.000 0.294
2329.000 0.299
2330.000 0.320
2331.000 0.371
2332.000 0.403
2333.000 0.439
2334.000 0.460
2335.000 0.440
2336.000 0.454
2337.000 0.410
2338.000 0.411
2339.000 0.443
2340.000 0.422
2341.000 0.393
2342.000 0.429
2343.000 0.374
2344.000 0.369
2345.000 0.419
2346.000 0.444
2347.000 0.488
2348.000 0.477
2349.000 0.310
2350.000 0.290
2351.000 0.287
2352.000 0.295
2353.000 0.305
2354.000 0.346
2355.000 0.340
2356.000 0.334
2357.000 0.338
2358.000 0.294
2359.000 0.259
2360.000 0.230
2361.000 0.246
2362.000 0.271
2363.000 0.246
2364.000 0.274
2365.000 0.277
2366.000 0.241
2367.000 0.294
2368.000 0.337
2369.000 0.379
2370.000 0.467
2371.000 0.536
2372.000 0.455
2373.000 0.442
2374.000 0.169
2375.000 0.352
2376.000 0.351
2377.000 0.363
2378.000 0.516
2379.000 0.586
2380.000 0.691
2381.000 0.572
2382.000 0.412
2383.000 0.432
2384.000 0.445
2385.000 0.438
2386.000 0.396
2387.000 0.360
2388.000 0.276
2389.000 0.249
2390.000 0.243
2391.000 0.318
2392.000 0.463
2393.000 0.460
2394.000 0.422
2395.000 0.324
2396.000 0.481
2397.000 0.478
2398.000 0.430
2399.000 0.452
2400.000 0.220
2401.000 0.408
2402.000 0.495
2403.000 0.269
2404.000 0.239
2405.000 0.376
2406.000 0.377
2407.000 0.370
2408.000 0.403
2409.000 0.441
2410.000 0.492
2411.000 0.565
2412.000 0.579
2413.000 0.530
2414.000 0.678
2415.000 0.665
2416.000 0.521
2417.000 0.416
2418.000 0.401
2419.000 0.287
2420.000 0.464
2421.000 0.481
2422.000 0.496
2423.000 0.353
2424.000 0.186
2425.000 0.450
2426.000 0.374
2427.000 0.523
2428.000 0.292
2429.000 0.068
2430.000 0.256
2431.000 0.308
2432.000 0.272
2433.000 0.474
2434.000 0.468
2435.000 0.184
2436.000 0.329
2437.000 0.459
2438.000 0.275
2439.000 0.315
2440.000 0.459
2441.000 0.776
2442.000 0.433
2443.000 0.242
2444.000 0.342
2445.000 0.299
2446.000 0.412
2447.000 0.355
2448.000 0.390
2449.000 0.588
2450.000 0.291
2451.000 0.201
2452.000 0.074
2453.000 0.241
2454.000 0.171
2455.000 0.295
2456.000 0.352
2457.000 0.384
2458.000 0.372
2459.000 0.407
2460.000 0.461
2461.000 0.450
2462.000 0.472
2463.000 0.406
2464.000 0.356
2465.000 0.403
2466.000 0.392
2467.000 0.353
2468.000 0.319
2469.000 0.357
2470.000 0.423
2471.000 0.492
2472.000 0.470
2473.000 0.405
2474.000 0.510
2475.000 0.389
2476.000 0.306
2477.000 0.292
2478.000 0.439
2479.000 0.332
2480.000 0.388
2481.000 0.389
2482.000 0.350
2483.000 0.463
2484.000 0.255
2485.000 0.259
2486.000 0.422
2487.000 0.432
2488.000 0.415
2489.000 0.519
2490.000 0.484
2491.000 0.458
2492.000 0.491
2493.000 0.476
2494.000 0.379
2495.000 0.433
2496.000 0.449
2497.000 0.323
2498.000 0.270
2499.000 0.402
2500.000 0.359
