391.000 0.070
392.000 0.072
393.000 0.073
394.000 0.072
395.000 0.067
396.000 0.068
397.000 0.074
398.000 0.075
399.000 0.070
400.000 0.068
401.000 0.070
402.000 0.066
403.000 0.066
404.000 0.068
405.000 0.068
406.000 0.069
407.000 0.068
408.000 0.067
409.000 0.067
410.000 0.067
411.000 0.066
412.000 0.065
413.000 0.068
414.000 0.068
415.000 0.066
416.000 0.067
417.000 0.069
418.000 0.068
419.000 0.067
420.000 0.066
421.000 0.067
422.000 0.068
423.000 0.068
424.000 0.068
425.000 0.067
426.000 0.066
427.000 0.067
428.000 0.068
429.000 0.067
430.000 0.065
431.000 0.068
432.000 0.066
433.000 0.066
434.000 0.066
435.000 0.066
436.000 0.067
437.000 0.067
438.000 0.066
439.000 0.068
440.000 0.068
441.000 0.068
442.000 0.068
443.000 0.067
444.000 0.067
445.000 0.067
446.000 0.067
447.000 0.069
448.000 0.070
449.000 0.070
450.000 0.069
451.000 0.067
452.000 0.067
453.000 0.067
454.000 0.069
455.000 0.070
456.000 0.072
457.000 0.070
458.000 0.070
459.000 0.070
460.000 0.069
461.000 0.070
462.000 0.072
463.000 0.071
464.000 0.070
465.000 0.072
466.000 0.072
467.000 0.071
468.000 0.072
469.000 0.072
470.000 0.071
471.000 0.069
472.000 0.070
473.000 0.071
474.000 0.072
475.000 0.071
476.000 0.072
477.000 0.071
478.000 0.071
479.000 0.072
480.000 0.073
481.000 0.073
482.000 0.073
483.000 0.073
484.000 0.072
485.000 0.073
486.000 0.074
487.000 0.075
488.000 0.074
489.000 0.074
490.000 0.074
491.000 0.075
492.000 0.075
493.000 0.075
494.000 0.075
495.000 0.076
496.000 0.077
497.000 0.078
498.000 0.079
499.000 0.080
500.000 0.080
501.000 0.081
502.000 0.082
503.000 0.083
504.000 0.086
505.000 0.087
506.000 0.087
507.000 0.089
508.000 0.091
509.000 0.093
510.000 0.096
511.000 0.100
512.000 0.102
513.000 0.105
514.000 0.110
515.000 0.114
516.000 0.117
517.000 0.121
518.000 0.126
519.000 0.132
520.000 0.137
521.000 0.143
522.000 0.147
523.000 0.152
524.000 0.156
525.000 0.161
526.000 0.167
527.000 0.172
528.000 0.176
529.000 0.180
530.000 0.183
531.000 0.187
532.000 0.191
533.000 0.194
534.000 0.196
535.000 0.198
536.000 0.200
537.000 0.202
538.000 0.203
539.000 0.205
540.000 0.206
541.000 0.207
542.000 0.208
543.000 0.208
544.000 0.210
545.000 0.210
546.000 0.211
547.000 0.211
548.000 0.211
549.000 0.212
550.000 0.213
551.000 0.213
552.000 0.213
553.000 0.212
554.000 0.212
555.000 0.211
556.000 0.211
557.000 0.210
558.000 0.208
559.000 0.207
560.000 0.205
561.000 0.203
562.000 0.201
563.000 0.198
564.000 0.195
565.000 0.193
566.000 0.190
567.000 0.187
568.000 0.183
569.000 0.180
570.000 0.177
571.000 0.174
572.000 0.171
573.000 0.167
574.000 0.165
575.000 0.163
576.000 0.161
577.000 0.158
578.000 0.156
579.000 0.154
580.000 0.151
581.000 0.148
582.000 0.146
583.000 0.145
584.000 0.144
585.000 0.142
586.000 0.141
587.000 0.140
588.000 0.140
589.000 0.139
590.000 0.136
591.000 0.134
592.000 0.134
593.000 0.134
594.000 0.133
595.000 0.132
596.000 0.131
597.000 0.132
598.000 0.131
599.000 0.130
600.000 0.129
601.000 0.127
602.000 0.128
603.000 0.128
604.000 0.127
605.000 0.125
606.000 0.125
607.000 0.125
608.000 0.124
609.000 0.124
610.000 0.122
611.000 0.121
612.000 0.120
613.000 0.118
614.000 0.117
615.000 0.116
616.000 0.116
617.000 0.114
618.000 0.114
619.000 0.113
620.000 0.111
621.000 0.111
622.000 0.111
623.000 0.111
624.000 0.110
625.000 0.110
626.000 0.109
627.000 0.108
628.000 0.109
629.000 0.109
630.000 0.107
631.000 0.109
632.000 0.109
633.000 0.109
634.000 0.108
635.000 0.107
636.000 0.107
637.000 0.107
638.000 0.104
639.000 0.102
640.000 0.102
641.000 0.102
642.000 0.100
643.000 0.098
644.000 0.098
645.000 0.097
646.000 0.096
647.000 0.094
648.000 0.094
649.000 0.093
650.000 0.094
651.000 0.093
652.000 0.093
653.000 0.091
654.000 0.091
655.000 0.093
656.000 0.092
657.000 0.092
658.000 0.092
659.000 0.092
660.000 0.090
661.000 0.089
662.000 0.090
663.000 0.088
664.000 0.088
665.000 0.088
666.000 0.089
667.000 0.091
668.000 0.091
669.000 0.090
670.000 0.090
671.000 0.090
672.000 0.091
673.000 0.091
674.000 0.093
675.000 0.094
676.000 0.097
677.000 0.097
678.000 0.098
679.000 0.100
680.000 0.100
681.000 0.100
682.000 0.101
683.000 0.103
684.000 0.106
685.000 0.108
686.000 0.113
687.000 0.116
688.000 0.118
689.000 0.121
690.000 0.124
691.000 0.127
692.000 0.131
693.000 0.139
694.000 0.148
695.000 0.158
696.000 0.167
697.000 0.177
698.000 0.190
699.000 0.204
700.000 0.217
701.000 0.231
702.000 0.246
703.000 0.260
704.000 0.274
705.000 0.287
706.000 0.302
707.000 0.315
708.000 0.330
709.000 0.345
710.000 0.358
711.000 0.373
712.000 0.387
713.000 0.402
714.000 0.415
715.000 0.430
716.000 0.444
717.000 0.458
718.000 0.473
719.000 0.489
720.000 0.504
721.000 0.518
722.000 0.530
723.000 0.542
724.000 0.554
725.000 0.567
726.000 0.579
727.000 0.591
728.000 0.601
729.000 0.612
730.000 0.622
731.000 0.631
732.000 0.640
733.000 0.649
734.000 0.657
735.000 0.664
736.000 0.671
737.000 0.677
738.000 0.683
739.000 0.689
740.000 0.694
741.000 0.700
742.000 0.704
743.000 0.708
744.000 0.712
745.000 0.715
746.000 0.719
747.000 0.722
748.000 0.725
749.000 0.727
750.000 0.730
751.000 0.732
752.000 0.734
753.000 0.735
754.000 0.736
755.000 0.738
756.000 0.739
757.000 0.740
758.000 0.741
759.000 0.742
760.000 0.741
761.000 0.742
762.000 0.741
763.000 0.742
764.000 0.743
765.000 0.744
766.000 0.746
767.000 0.747
768.000 0.748
769.000 0.748
770.000 0.748
771.000 0.749
772.000 0.749
773.000 0.750
774.000 0.750
775.000 0.751
776.000 0.751
777.000 0.751
778.000 0.751
779.000 0.751
780.000 0.752
781.000 0.752
782.000 0.752
783.000 0.753
784.000 0.753
785.000 0.753
786.000 0.753
787.000 0.753
788.000 0.754
789.000 0.754
790.000 0.754
791.000 0.754
792.000 0.755
793.000 0.755
794.000 0.755
795.000 0.756
796.000 0.756
797.000 0.756
798.000 0.756
799.000 0.757
800.000 0.757
801.000 0.757
802.000 0.757
803.000 0.758
804.000 0.758
805.000 0.758
806.000 0.759
807.000 0.759
808.000 0.759
809.000 0.760
810.000 0.760
811.000 0.760
812.000 0.760
813.000 0.760
814.000 0.760
815.000 0.760
816.000 0.760
817.000 0.760
818.000 0.760
819.000 0.761
820.000 0.761
821.000 0.761
822.000 0.762
823.000 0.762
824.000 0.762
825.000 0.763
826.000 0.763
827.000 0.763
828.000 0.764
829.000 0.764
830.000 0.764
831.000 0.765
832.000 0.765
833.000 0.765
834.000 0.766
835.000 0.766
836.000 0.766
837.000 0.767
838.000 0.767
839.000 0.767
840.000 0.768
841.000 0.768
842.000 0.768
843.000 0.768
844.000 0.769
845.000 0.769
846.000 0.769
847.000 0.769
848.000 0.770
849.000 0.770
850.000 0.770
851.000 0.770
852.000 0.770
853.000 0.771
854.000 0.771
855.000 0.771
856.000 0.771
857.000 0.771
858.000 0.771
859.000 0.772
860.000 0.772
861.000 0.772
862.000 0.772
863.000 0.772
864.000 0.773
865.000 0.773
866.000 0.773
867.000 0.773
868.000 0.773
869.000 0.774
870.000 0.775
871.000 0.775
872.000 0.775
873.000 0.775
874.000 0.775
875.000 0.775
876.000 0.775
877.000 0.775
878.000 0.776
879.000 0.776
880.000 0.776
881.000 0.777
882.000 0.777
883.000 0.777
884.000 0.778
885.000 0.778
886.000 0.778
887.000 0.778
888.000 0.778
889.000 0.779
890.000 0.779
891.000 0.779
892.000 0.779
893.000 0.779
894.000 0.779
895.000 0.779
896.000 0.779
897.000 0.778
898.000 0.778
899.000 0.779
900.000 0.779
901.000 0.779
902.000 0.780
903.000 0.781
904.000 0.780
905.000 0.781
906.000 0.781
907.000 0.781
908.000 0.781
909.000 0.781
910.000 0.781
911.000 0.781
912.000 0.781
913.000 0.782
914.000 0.782
915.000 0.781
916.000 0.782
917.000 0.782
918.000 0.782
919.000 0.775
920.000 0.775
921.000 0.775
922.000 0.775
923.000 0.776
924.000 0.775
925.000 0.774
926.000 0.783
927.000 0.774
928.000 0.773
929.000 0.780
930.000 0.780
931.000 0.779
932.000 0.779
933.000 0.775
934.000 0.773
935.000 0.773
936.000 0.773
937.000 0.773
938.000 0.774
939.000 0.774
940.000 0.773
941.000 0.773
942.000 0.774
943.000 0.774
944.000 0.771
945.000 0.772
946.000 0.772
947.000 0.770
948.000 0.770
949.000 0.769
950.000 0.768
951.000 0.768
952.000 0.768
953.000 0.766
954.000 0.765
955.000 0.766
956.000 0.767
957.000 0.767
958.000 0.766
959.000 0.766
960.000 0.765
961.000 0.765
962.000 0.768
963.000 0.770
964.000 0.767
965.000 0.765
966.000 0.767
967.000 0.769
968.000 0.767
969.000 0.769
970.000 0.769
971.000 0.768
972.000 0.766
973.000 0.767
974.000 0.767
975.000 0.766
976.000 0.768
977.000 0.768
978.000 0.768
979.000 0.768
980.000 0.769
981.000 0.770
982.000 0.769
983.000 0.770
984.000 0.770
985.000 0.770
986.000 0.771
987.000 0.772
988.000 0.773
989.000 0.774
990.000 0.773
991.000 0.772
992.000 0.776
993.000 0.774
994.000 0.774
995.000 0.776
996.000 0.774
997.000 0.774
998.000 0.776
999.000 0.777
1000.000 0.775
1001.000 0.776
1002.000 0.777
1003.000 0.779
1004.000 0.780
1005.000 0.772
1006.000 0.773
1007.000 0.773
1008.000 0.782
1009.000 0.782
1010.000 0.782
1011.000 0.782
1012.000 0.782
1013.000 0.782
1014.000 0.782
1015.000 0.783
1016.000 0.783
1017.000 0.784
1018.000 0.776
1019.000 0.777
1020.000 0.777
1021.000 0.778
1022.000 0.777
1023.000 0.777
1024.000 0.779
1025.000 0.780
1026.000 0.780
1027.000 0.781
1028.000 0.782
1029.000 0.780
1030.000 0.781
1031.000 0.782
1032.000 0.784
1033.000 0.785
1034.000 0.785
1035.000 0.785
1036.000 0.785
1037.000 0.785
1038.000 0.785
1039.000 0.785
1040.000 0.785
1041.000 0.785
1042.000 0.786
1043.000 0.787
1044.000 0.787
1045.000 0.788
1046.000 0.788
1047.000 0.787
1048.000 0.787
1049.000 0.788
1050.000 0.788
1051.000 0.789
1052.000 0.789
1053.000 0.789
1054.000 0.790
1055.000 0.789
1056.000 0.789
1057.000 0.790
1058.000 0.790
1059.000 0.791
1060.000 0.791
1061.000 0.790
1062.000 0.790
1063.000 0.790
1064.000 0.789
1065.000 0.789
1066.000 0.789
1067.000 0.789
1068.000 0.790
1069.000 0.790
1070.000 0.790
1071.000 0.790
1072.000 0.790
1073.000 0.790
1074.000 0.791
1075.000 0.791
1076.000 0.790
1077.000 0.790
1078.000 0.790
1079.000 0.789
1080.000 0.789
1081.000 0.790
1082.000 0.789
1083.000 0.789
1084.000 0.789
1085.000 0.789
1086.000 0.788
1087.000 0.788
1088.000 0.787
1089.000 0.786
1090.000 0.787
1091.000 0.794
1092.000 0.794
1093.000 0.794
1094.000 0.793
1095.000 0.793
1096.000 0.793
1097.000 0.793
1098.000 0.794
1099.000 0.794
1100.000 0.794
1101.000 0.787
1102.000 0.787
1103.000 0.794
1104.000 0.793
1105.000 0.792
1106.000 0.791
1107.000 0.790
1108.000 0.789
1109.000 0.788
1110.000 0.787
1111.000 0.788
1112.000 0.788
1113.000 0.787
1114.000 0.787
1115.000 0.786
1116.000 0.784
1117.000 0.783
1118.000 0.783
1119.000 0.783
1120.000 0.782
1121.000 0.780
1122.000 0.777
1123.000 0.775
1124.000 0.771
1125.000 0.770
1126.000 0.771
1127.000 0.772
1128.000 0.772
1129.000 0.771
1130.000 0.771
1131.000 0.769
1132.000 0.768
1133.000 0.769
1134.000 0.767
1135.000 0.767
1136.000 0.767
1137.000 0.767
1138.000 0.768
1139.000 0.769
1140.000 0.769
1141.000 0.766
1142.000 0.764
1143.000 0.762
1144.000 0.760
1145.000 0.760
1146.000 0.759
1147.000 0.756
1148.000 0.756
1149.000 0.757
1150.000 0.756
1151.000 0.757
1152.000 0.757
1153.000 0.756
1154.000 0.755
1155.000 0.754
1156.000 0.752
1157.000 0.751
1158.000 0.751
1159.000 0.751
1160.000 0.752
1161.000 0.752
1162.000 0.754
1163.000 0.754
1164.000 0.754
1165.000 0.754
1166.000 0.753
1167.000 0.753
1168.000 0.753
1169.000 0.753
1170.000 0.753
1171.000 0.753
1172.000 0.753
1173.000 0.753
1174.000 0.754
1175.000 0.754
1176.000 0.755
1177.000 0.754
1178.000 0.755
1179.000 0.756
1180.000 0.756
1181.000 0.756
1182.000 0.756
1183.000 0.756
1184.000 0.756
1185.000 0.756
1186.000 0.756
1187.000 0.756
1188.000 0.757
1189.000 0.756
1190.000 0.757
1191.000 0.756
1192.000 0.757
1193.000 0.757
1194.000 0.756
1195.000 0.756
1196.000 0.756
1197.000 0.756
1198.000 0.757
1199.000 0.757
1200.000 0.757
1201.000 0.757
1202.000 0.757
1203.000 0.757
1204.000 0.757
1205.000 0.757
1206.000 0.758
1207.000 0.757
1208.000 0.757
1209.000 0.758
1210.000 0.758
1211.000 0.759
1212.000 0.758
1213.000 0.758
1214.000 0.758
1215.000 0.758
1216.000 0.758
1217.000 0.757
1218.000 0.757
1219.000 0.757
1220.000 0.757
1221.000 0.758
1222.000 0.758
1223.000 0.759
1224.000 0.759
1225.000 0.758
1226.000 0.757
1227.000 0.757
1228.000 0.757
1229.000 0.758
1230.000 0.759
1231.000 0.759
1232.000 0.759
1233.000 0.759
1234.000 0.759
1235.000 0.759
1236.000 0.758
1237.000 0.758
1238.000 0.758
1239.000 0.758
1240.000 0.759
1241.000 0.759
1242.000 0.760
1243.000 0.760
1244.000 0.759
1245.000 0.759
1246.000 0.759
1247.000 0.759
1248.000 0.759
1249.000 0.759
1250.000 0.759
1251.000 0.760
1252.000 0.760
1253.000 0.759
1254.000 0.759
1255.000 0.759
1256.000 0.759
1257.000 0.759
1258.000 0.759
1259.000 0.759
1260.000 0.759
1261.000 0.760
1262.000 0.760
1263.000 0.761
1264.000 0.761
1265.000 0.760
1266.000 0.760
1267.000 0.758
1268.000 0.758
1269.000 0.758
1270.000 0.758
1271.000 0.758
1272.000 0.759
1273.000 0.759
1274.000 0.758
1275.000 0.759
1276.000 0.760
1277.000 0.760
1278.000 0.760
1279.000 0.760
1280.000 0.760
1281.000 0.760
1282.000 0.761
1283.000 0.761
1284.000 0.760
1285.000 0.760
1286.000 0.759
1287.000 0.758
1288.000 0.758
1289.000 0.757
1290.000 0.758
1291.000 0.757
1292.000 0.756
1293.000 0.756
1294.000 0.756
1295.000 0.755
1296.000 0.753
1297.000 0.753
1298.000 0.752
1299.000 0.751
1300.000 0.750
1301.000 0.750
1302.000 0.749
1303.000 0.748
1304.000 0.747
1305.000 0.746
1306.000 0.745
1307.000 0.743
1308.000 0.741
1309.000 0.739
1310.000 0.738
1311.000 0.736
1312.000 0.735
1313.000 0.734
1314.000 0.732
1315.000 0.732
1316.000 0.730
1317.000 0.728
1318.000 0.727
1319.000 0.725
1320.000 0.723
1321.000 0.722
1322.000 0.722
1323.000 0.721
1324.000 0.720
1325.000 0.718
1326.000 0.715
1327.000 0.713
1328.000 0.709
1329.000 0.707
1330.000 0.707
1331.000 0.706
1332.000 0.706
1333.000 0.704
1334.000 0.703
1335.000 0.701
1336.000 0.698
1337.000 0.696
1338.000 0.694
1339.000 0.693
1340.000 0.691
1341.000 0.690
1342.000 0.688
1343.000 0.686
1344.000 0.685
1345.000 0.683
1346.000 0.680
1347.000 0.678
1348.000 0.677
1349.000 0.673
1350.000 0.673
1351.000 0.678
1352.000 0.679
1353.000 0.679
1354.000 0.680
1355.000 0.670
1356.000 0.671
1357.000 0.705
1358.000 0.675
1359.000 0.639
1360.000 0.660
1361.000 0.512
1362.000 0.493
1363.000 0.377
1364.000 0.342
1365.000 0.286
1366.000 0.364
1367.000 0.392
1368.000 0.393
1369.000 0.419
1370.000 0.388
1371.000 0.454
1372.000 0.464
1373.000 0.377
1374.000 0.399
1375.000 0.426
1376.000 0.640
1377.000 0.542
1378.000 0.585
1379.000 0.582
1380.000 0.488
1381.000 0.167
1382.000 0.512
1383.000 0.427
1384.000 0.275
1385.000 0.077
1386.000 0.394
1387.000 0.359
1388.000 0.299
1389.000 0.364
1390.000 0.203
1391.000 0.230
1392.000 0.500
1393.000 0.458
1394.000 0.350
1395.000 0.507
1396.000 0.647
1397.000 0.559
1398.000 0.554
1399.000 0.529
1400.000 0.797
1401.000 0.876
1402.000 0.960
1403.000 0.672
1404.000 0.360
1405.000 0.290
1406.000 0.343
1407.000 0.200
1408.000 0.334
1409.000 0.354
1410.000 0.372
1411.000 0.321
1412.000 0.325
1413.000 0.341
1414.000 0.373
1415.000 0.413
1416.000 0.444
1417.000 0.562
1418.000 0.529
1419.000 0.434
1420.000 0.424
1421.000 0.390
1422.000 0.395
1423.000 0.466
1424.000 0.457
1425.000 0.427
1426.000 0.416
1427.000 0.390
1428.000 0.376
1429.000 0.376
1430.000 0.370
1431.000 0.345
1432.000 0.343
1433.000 0.360
1434.000 0.359
1435.000 0.359
1436.000 0.360
1437.000 0.347
1438.000 0.345
1439.000 0.349
1440.000 0.351
1441.000 0.352
1442.000 0.353
1443.000 0.354
1444.000 0.354
1445.000 0.354
1446.000 0.350
1447.000 0.335
1448.000 0.332
1449.000 0.334
1450.000 0.335
1451.000 0.340
1452.000 0.348
1453.000 0.350
1454.000 0.347
1455.000 0.350
1456.000 0.356
1457.000 0.359
1458.000 0.364
1459.000 0.367
1460.000 0.367
1461.000 0.365
1462.000 0.361
1463.000 0.357
1464.000 0.350
1465.000 0.348
1466.000 0.352
1467.000 0.357
1468.000 0.372
1469.000 0.382
1470.000 0.396
1471.000 0.402
1472.000 0.402
1473.000 0.402
1474.000 0.396
1475.000 0.397
1476.000 0.405
1477.000 0.401
1478.000 0.389
1479.000 0.384
1480.000 0.372
1481.000 0.371
1482.000 0.382
1483.000 0.387
1484.000 0.393
1485.000 0.397
1486.000 0.396
1487.000 0.397
1488.000 0.401
1489.000 0.404
1490.000 0.408
1491.000 0.409
1492.000 0.408
1493.000 0.407
1494.000 0.407
1495.000 0.409
1496.000 0.413
1497.000 0.417
1498.000 0.425
1499.000 0.430
1500.000 0.438
1501.000 0.440
1502.000 0.436
1503.000 0.437
1504.000 0.435
1505.000 0.435
1506.000 0.435
1507.000 0.438
1508.000 0.439
1509.000 0.442
1510.000 0.444
1511.000 0.448
1512.000 0.449
1513.000 0.447
1514.000 0.450
1515.000 0.453
1516.000 0.455
1517.000 0.459
1518.000 0.461
1519.000 0.460
1520.000 0.462
1521.000 0.466
1522.000 0.468
1523.000 0.470
1524.000 0.472
1525.000 0.471
1526.000 0.471
1527.000 0.472
1528.000 0.474
1529.000 0.476
1530.000 0.478
1531.000 0.481
1532.000 0.483
1533.000 0.486
1534.000 0.488
1535.000 0.488
1536.000 0.490
1537.000 0.492
1538.000 0.494
1539.000 0.498
1540.000 0.500
1541.000 0.500
1542.000 0.502
1543.000 0.503
1544.000 0.505
1545.000 0.509
1546.000 0.511
1547.000 0.512
1548.000 0.512
1549.000 0.511
1550.000 0.511
1551.000 0.512
1552.000 0.512
1553.000 0.513
1554.000 0.515
1555.000 0.516
1556.000 0.519
1557.000 0.521
1558.000 0.523
1559.000 0.523
1560.000 0.524
1561.000 0.523
1562.000 0.524
1563.000 0.526
1564.000 0.528
1565.000 0.530
1566.000 0.531
1567.000 0.532
1568.000 0.533
1569.000 0.532
1570.000 0.534
1571.000 0.537
1572.000 0.539
1573.000 0.541
1574.000 0.543
1575.000 0.546
1576.000 0.547
1577.000 0.547
1578.000 0.548
1579.000 0.547
1580.000 0.547
1581.000 0.549
1582.000 0.551
1583.000 0.552
1584.000 0.554
1585.000 0.552
1586.000 0.552
1587.000 0.555
1588.000 0.557
1589.000 0.561
1590.000 0.564
1591.000 0.564
1592.000 0.565
1593.000 0.565
1594.000 0.566
1595.000 0.564
1596.000 0.564
1597.000 0.566
1598.000 0.567
1599.000 0.571
1600.000 0.574
1601.000 0.576
1602.000 0.577
1603.000 0.577
1604.000 0.578
1605.000 0.577
1606.000 0.577
1607.000 0.578
1608.000 0.579
1609.000 0.581
1610.000 0.581
1611.000 0.580
1612.000 0.581
1613.000 0.582
1614.000 0.583
1615.000 0.584
1616.000 0.585
1617.000 0.583
1618.000 0.584
1619.000 0.585
1620.000 0.586
1621.000 0.588
1622.000 0.590
1623.000 0.590
1624.000 0.589
1625.000 0.590
1626.000 0.591
1627.000 0.594
1628.000 0.595
1629.000 0.595
1630.000 0.596
1631.000 0.594
1632.000 0.593
1633.000 0.591
1634.000 0.592
1635.000 0.596
1636.000 0.598
1637.000 0.602
1638.000 0.603
1639.000 0.600
1640.000 0.599
1641.000 0.599
1642.000 0.598
1643.000 0.597
1644.000 0.598
1645.000 0.600
1646.000 0.601
1647.000 0.602
1648.000 0.603
1649.000 0.601
1650.000 0.601
1651.000 0.602
1652.000 0.603
1653.000 0.604
1654.000 0.605
1655.000 0.604
1656.000 0.603
1657.000 0.599
1658.000 0.599
1659.000 0.602
1660.000 0.603
1661.000 0.605
1662.000 0.607
1663.000 0.607
1664.000 0.608
1665.000 0.609
1666.000 0.609
1667.000 0.608
1668.000 0.608
1669.000 0.609
1670.000 0.610
1671.000 0.612
1672.000 0.613
1673.000 0.614
1674.000 0.615
1675.000 0.616
1676.000 0.616
1677.000 0.615
1678.000 0.615
1679.000 0.616
1680.000 0.616
1681.000 0.616
1682.000 0.616
1683.000 0.618
1684.000 0.618
1685.000 0.619
1686.000 0.619
1687.000 0.617
1688.000 0.618
1689.000 0.622
1690.000 0.624
1691.000 0.627
1692.000 0.627
1693.000 0.624
1694.000 0.622
1695.000 0.618
1696.000 0.617
1697.000 0.617
1698.000 0.617
1699.000 0.618
1700.000 0.618
1701.000 0.616
1702.000 0.615
1703.000 0.614
1704.000 0.615
1705.000 0.619
1706.000 0.620
1707.000 0.622
1708.000 0.623
1709.000 0.623
1710.000 0.621
1711.000 0.620
1712.000 0.619
1713.000 0.618
1714.000 0.617
1715.000 0.618
1716.000 0.619
1717.000 0.619
1718.000 0.619
1719.000 0.619
1720.000 0.618
1721.000 0.615
1722.000 0.611
1723.000 0.609
1724.000 0.607
1725.000 0.605
1726.000 0.605
1727.000 0.608
1728.000 0.611
1729.000 0.610
1730.000 0.609
1731.000 0.609
1732.000 0.605
1733.000 0.607
1734.000 0.610
1735.000 0.607
1736.000 0.605
1737.000 0.602
1738.000 0.597
1739.000 0.594
1740.000 0.589
1741.000 0.587
1742.000 0.590
1743.000 0.590
1744.000 0.592
1745.000 0.592
1746.000 0.585
1747.000 0.584
1748.000 0.586
1749.000 0.586
1750.000 0.588
1751.000 0.589
1752.000 0.588
1753.000 0.587
1754.000 0.590
1755.000 0.589
1756.000 0.587
1757.000 0.586
1758.000 0.585
1759.000 0.586
1760.000 0.585
1761.000 0.584
1762.000 0.585
1763.000 0.583
1764.000 0.578
1765.000 0.578
1766.000 0.577
1767.000 0.576
1768.000 0.578
1769.000 0.571
1770.000 0.567
1771.000 0.562
1772.000 0.554
1773.000 0.553
1774.000 0.555
1775.000 0.556
1776.000 0.562
1777.000 0.564
1778.000 0.562
1779.000 0.563
1780.000 0.563
1781.000 0.561
1782.000 0.562
1783.000 0.568
1784.000 0.575
1785.000 0.578
1786.000 0.581
1787.000 0.570
1788.000 0.565
1789.000 0.566
1790.000 0.563
1791.000 0.559
1792.000 0.564
1793.000 0.560
1794.000 0.550
1795.000 0.531
1796.000 0.515
1797.000 0.521
1798.000 0.530
1799.000 0.536
1800.000 0.562
1801.000 0.690
1802.000 0.727
1803.000 0.736
1804.000 0.700
1805.000 0.691
1806.000 0.668
1807.000 0.646
1808.000 0.637
1809.000 0.619
1810.000 0.591
1811.000 0.587
1812.000 0.578
1813.000 0.612
1814.000 0.669
1815.000 0.675
1816.000 0.684
1817.000 0.753
1818.000 0.825
1819.000 0.831
1820.000 0.748
1821.000 0.872
1822.000 0.808
1823.000 0.680
1824.000 0.741
1825.000 0.715
1826.000 0.687
1827.000 0.547
1828.000 0.655
1829.000 0.657
1830.000 0.688
1831.000 0.736
1832.000 0.400
1833.000 0.416
1834.000 0.473
1835.000 0.487
1836.000 0.547
1837.000 0.550
1838.000 0.585
1839.000 0.605
1840.000 0.493
1841.000 0.506
1842.000 0.594
1843.000 0.414
1844.000 0.287
1845.000 0.366
1846.000 0.367
1847.000 0.750
1848.000 0.578
1849.000 0.661
1850.000 0.510
1851.000 0.369
1852.000 0.414
1853.000 0.578
1854.000 0.673
1855.000 0.772
1856.000 0.635
1857.000 0.697
1858.000 0.759
1859.000 0.393
1860.000 0.393
1861.000 0.446
1862.000 0.426
1863.000 0.425
1864.000 0.424
1865.000 0.433
1866.000 0.591
1867.000 0.711
1868.000 0.578
1869.000 0.597
1870.000 0.546
1871.000 0.485
1872.000 0.424
1873.000 0.356
1874.000 0.569
1875.000 0.565
1876.000 0.554
1877.000 0.527
1878.000 0.500
1879.000 0.476
1880.000 0.464
1881.000 0.434
1882.000 0.419
1883.000 0.353
1884.000 0.642
1885.000 0.537
1886.000 0.464
1887.000 0.577
1888.000 0.394
1889.000 0.397
1890.000 0.604
1891.000 0.669
1892.000 0.683
1893.000 0.724
1894.000 0.530
1895.000 0.426
1896.000 0.413
1897.000 0.444
1898.000 0.475
1899.000 0.465
1900.000 0.545
1901.000 0.577
1902.000 0.090
1903.000 0.107
1904.000 0.204
1905.000 0.317
1906.000 0.488
1907.000 0.687
1908.000 0.787
1909.000 0.764
1910.000 0.512
1911.000 0.243
1912.000 0.199
1913.000 0.268
1914.000 0.255
1915.000 0.273
1916.000 0.300
1917.000 0.331
1918.000 0.403
1919.000 0.278
1920.000 0.236
1921.000 0.395
1922.000 0.314
1923.000 0.533
1924.000 0.325
1925.000 0.260
1926.000 0.483
1927.000 0.428
1928.000 0.300
1929.000 0.502
1930.000 0.483
1931.000 0.502
1932.000 0.518
1933.000 0.527
1934.000 0.549
1935.000 0.588
1936.000 0.595
1937.000 0.543
1938.000 0.475
1939.000 0.239
1940.000 0.460
1941.000 0.506
1942.000 0.581
1943.000 0.564
1944.000 0.618
1945.000 0.535
1946.000 0.560
1947.000 0.498
1948.000 0.525
1949.000 0.525
1950.000 0.571
1951.000 0.572
1952.000 0.768
1953.000 0.690
1954.000 0.623
1955.000 0.609
1956.000 0.589
1957.000 0.503
1958.000 0.476
1959.000 0.444
1960.000 0.465
1961.000 0.483
1962.000 0.441
1963.000 0.469
1964.000 0.443
1965.000 0.371
1966.000 0.366
1967.000 0.377
1968.000 0.373
1969.000 0.434
1970.000 0.419
1971.000 0.400
1972.000 0.397
1973.000 0.398
1974.000 0.368
1975.000 0.364
1976.000 0.356
1977.000 0.365
1978.000 0.394
1979.000 0.452
1980.000 0.424
1981.000 0.375
1982.000 0.332
1983.000 0.321
1984.000 0.330
1985.000 0.360
1986.000 0.363
1987.000 0.360
1988.000 0.356
1989.000 0.350
1990.000 0.341
1991.000 0.320
1992.000 0.309
1993.000 0.298
1994.000 0.290
1995.000 0.324
1996.000 0.375
1997.000 0.386
1998.000 0.394
1999.000 0.393
2000.000 0.328
2001.000 0.315
2002.000 0.292
2003.000 0.298
2004.000 0.392
2005.000 0.454
2006.000 0.597
2007.000 0.719
2008.000 0.627
2009.000 0.523
2010.000 0.503
2011.000 0.547
2012.000 0.523
2013.000 0.512
2014.000 0.488
2015.000 0.421
2016.000 0.422
2017.000 0.482
2018.000 0.495
2019.000 0.496
2020.000 0.560
2021.000 0.593
2022.000 0.552
2023.000 0.509
2024.000 0.443
2025.000 0.399
2026.000 0.358
2027.000 0.342
2028.000 0.345
2029.000 0.346
2030.000 0.354
2031.000 0.352
2032.000 0.342
2033.000 0.341
2034.000 0.330
2035.000 0.339
2036.000 0.372
2037.000 0.396
2038.000 0.414
2039.000 0.421
2040.000 0.386
2041.000 0.356
2042.000 0.345
2043.000 0.332
2044.000 0.336
2045.000 0.378
2046.000 0.393
2047.000 0.398
2048.000 0.410
2049.000 0.416
2050.000 0.407
2051.000 0.421
2052.000 0.471
2053.000 0.453
2054.000 0.427
2055.000 0.390
2056.000 0.363
2057.000 0.363
2058.000 0.390
2059.000 0.385
2060.000 0.375
2061.000 0.382
2062.000 0.380
2063.000 0.388
2064.000 0.430
2065.000 0.452
2066.000 0.470
2067.000 0.453
2068.000 0.440
2069.000 0.422
2070.000 0.399
2071.000 0.386
2072.000 0.389
2073.000 0.413
2074.000 0.422
2075.000 0.440
2076.000 0.442
2077.000 0.430
2078.000 0.423
2079.000 0.409
2080.000 0.408
2081.000 0.411
2082.000 0.414
2083.000 0.427
2084.000 0.436
2085.000 0.435
2086.000 0.437
2087.000 0.440
2088.000 0.448
2089.000 0.438
2090.000 0.418
2091.000 0.407
2092.000 0.380
2093.000 0.378
2094.000 0.404
2095.000 0.409
2096.000 0.409
2097.000 0.412
2098.000 0.409
2099.000 0.409
2100.000 0.413
2101.000 0.430
2102.000 0.440
2103.000 0.440
2104.000 0.441
2105.000 0.437
2106.000 0.442
2107.000 0.445
2108.000 0.453
2109.000 0.476
2110.000 0.481
2111.000 0.478
2112.000 0.471
2113.000 0.447
2114.000 0.438
2115.000 0.438
2116.000 0.436
2117.000 0.438
2118.000 0.434
2119.000 0.431
2120.000 0.436
2121.000 0.451
2122.000 0.469
2123.000 0.478
2124.000 0.489
2125.000 0.489
2126.000 0.472
2127.000 0.469
2128.000 0.471
2129.000 0.466
2130.000 0.462
2131.000 0.458
2132.000 0.444
2133.000 0.436
2134.000 0.434
2135.000 0.432
2136.000 0.431
2137.000 0.430
2138.000 0.434
2139.000 0.431
2140.000 0.433
2141.000 0.439
2142.000 0.443
2143.000 0.447
2144.000 0.455
2145.000 0.465
2146.000 0.471
2147.000 0.477
2148.000 0.480
2149.000 0.479
2150.000 0.479
2151.000 0.482
2152.000 0.485
2153.000 0.487
2154.000 0.490
2155.000 0.506
2156.000 0.504
2157.000 0.489
2158.000 0.482
2159.000 0.468
2160.000 0.457
2161.000 0.455
2162.000 0.463
2163.000 0.463
2164.000 0.465
2165.000 0.472
2166.000 0.481
2167.000 0.481
2168.000 0.479
2169.000 0.478
2170.000 0.464
2171.000 0.465
2172.000 0.479
2173.000 0.484
2174.000 0.495
2175.000 0.501
2176.000 0.502
2177.000 0.500
2178.000 0.492
2179.000 0.495
2180.000 0.489
2181.000 0.482
2182.000 0.490
2183.000 0.482
2184.000 0.485
2185.000 0.492
2186.000 0.492
2187.000 0.490
2188.000 0.497
2189.000 0.505
2190.000 0.508
2191.000 0.526
2192.000 0.520
2193.000 0.490
2194.000 0.475
2195.000 0.454
2196.000 0.444
2197.000 0.446
2198.000 0.446
2199.000 0.447
2200.000 0.451
2201.000 0.464
2202.000 0.464
2203.000 0.462
2204.000 0.472
2205.000 0.458
2206.000 0.445
2207.000 0.456
2208.000 0.457
2209.000 0.463
2210.000 0.487
2211.000 0.493
2212.000 0.491
2213.000 0.486
2214.000 0.477
2215.000 0.469
2216.000 0.454
2217.000 0.449
2218.000 0.450
2219.000 0.452
2220.000 0.458
2221.000 0.465
2222.000 0.472
2223.000 0.477
2224.000 0.482
2225.000 0.484
2226.000 0.478
2227.000 0.484
2228.000 0.483
2229.000 0.494
2230.000 0.504
2231.000 0.503
2232.000 0.502
2233.000 0.500
2234.000 0.484
2235.000 0.469
2236.000 0.466
2237.000 0.455
2238.000 0.456
2239.000 0.475
2240.000 0.479
2241.000 0.481
2242.000 0.487
2243.000 0.486
2244.000 0.490
2245.000 0.502
2246.000 0.497
2247.000 0.474
2248.000 0.473
2249.000 0.476
2250.000 0.476
2251.000 0.494
2252.000 0.502
2253.000 0.498
2254.000 0.495
2255.000 0.488
2256.000 0.487
2257.000 0.478
2258.000 0.479
2259.000 0.484
2260.000 0.488
2261.000 0.501
2262.000 0.494
2263.000 0.476
2264.000 0.465
2265.000 0.435
2266.000 0.405
2267.000 0.406
2268.000 0.406
2269.000 0.421
2270.000 0.450
2271.000 0.458
2272.000 0.482
2273.000 0.485
2274.000 0.468
2275.000 0.464
2276.000 0.451
2277.000 0.447
2278.000 0.460
2279.000 0.464
2280.000 0.473
2281.000 0.474
2282.000 0.461
2283.000 0.460
2284.000 0.462
2285.000 0.455
2286.000 0.454
2287.000 0.448
2288.000 0.428
2289.000 0.424
2290.000 0.417
2291.000 0.429
2292.000 0.483
2293.000 0.492
2294.000 0.478
2295.000 0.480
2296.000 0.451
2297.000 0.454
2298.000 0.457
2299.000 0.477
2300.000 0.485
2301.000 0.458
2302.000 0.460
2303.000 0.440
2304.000 0.407
2305.000 0.381
2306.000 0.368
2307.000 0.373
2308.000 0.383
2309.000 0.418
2310.000 0.483
2311.000 0.513
2312.000 0.505
2313.000 0.505
2314.000 0.486
2315.000 0.470
2316.000 0.461
2317.000 0.459
2318.000 0.427
2319.000 0.386
2320.000 0.397
2321.000 0.387
2322.000 0.400
2323.000 0.454
2324.000 0.433
2325.000 0.438
2326.000 0.441
2327.000 0.416
2328.000 0.413
2329.000 0.426
2330.000 0.440
2331.000 0.484
2332.000 0.516
2333.000 0.534
2334.000 0.542
2335.000 0.506
2336.000 0.515
2337.000 0.474
2338.000 0.484
2339.000 0.546
2340.000 0.524
2341.000 0.487
2342.000 0.500
2343.000 0.412
2344.000 0.397
2345.000 0.431
2346.000 0.450
2347.000 0.510
2348.000 0.511
2349.000 0.401
2350.000 0.380
2351.000 0.377
2352.000 0.365
2353.000 0.384
2354.000 0.402
2355.000 0.395
2356.000 0.413
2357.000 0.446
2358.000 0.452
2359.000 0.439
2360.000 0.406
2361.000 0.407
2362.000 0.424
2363.000 0.428
2364.000 0.388
2365.000 0.378
2366.000 0.394
2367.000 0.393
2368.000 0.423
2369.000 0.457
2370.000 0.524
2371.000 0.589
2372.000 0.482
2373.000 0.416
2374.000 0.197
2375.000 0.351
2376.000 0.381
2377.000 0.451
2378.000 0.534
2379.000 0.562
2380.000 0.605
2381.000 0.538
2382.000 0.409
2383.000 0.464
2384.000 0.513
2385.000 0.492
2386.000 0.459
2387.000 0.396
2388.000 0.371
2389.000 0.392
2390.000 0.372
2391.000 0.371
2392.000 0.379
2393.000 0.388
2394.000 0.405
2395.000 0.368
2396.000 0.546
2397.000 0.551
2398.000 0.519
2399.000 0.507
2400.000 0.292
2401.000 0.499
2402.000 0.801
2403.000 0.510
2404.000 0.389
2405.000 0.396
2406.000 0.465
2407.000 0.482
2408.000 0.540
2409.000 0.485
2410.000 0.521
2411.000 0.529
2412.000 0.470
2413.000 0.444
2414.000 0.486
2415.000 0.528
2416.000 0.556
2417.000 0.479
2418.000 0.670
2419.000 0.204
2420.000 0.392
2421.000 0.552
2422.000 0.659
2423.000 0.457
2424.000 0.308
2425.000 0.766
2426.000 0.693
2427.000 0.784
2428.000 0.564
2429.000 0.355
2430.000 0.539
2431.000 0.631
2432.000 0.620
2433.000 0.698
2434.000 0.594
2435.000 0.489
2436.000 0.370
2437.000 0.574
2438.000 0.459
2439.000 0.441
2440.000 0.665
2441.000 0.749
2442.000 0.369
2443.000 0.228
2444.000 0.157
2445.000 0.120
2446.000 0.275
2447.000 0.351
2448.000 0.529
2449.000 0.488
2450.000 0.445
2451.000 0.528
2452.000 0.267
2453.000 0.190
2454.000 0.164
2455.000 0.275
2456.000 0.375
2457.000 0.433
2458.000 0.330
2459.000 0.342
2460.000 0.337
2461.000 0.372
2462.000 0.401
2463.000 0.329
2464.000 0.412
2465.000 0.260
2466.000 0.272
2467.000 0.299
2468.000 0.284
2469.000 0.375
2470.000 0.454
2471.000 0.610
2472.000 0.749
2473.000 0.738
2474.000 0.751
2475.000 0.392
2476.000 0.328
2477.000 0.268
2478.000 0.455
2479.000 0.421
2480.000 0.278
2481.000 0.335
2482.000 0.598
2483.000 0.310
2484.000 0.433
2485.000 0.470
2486.000 0.359
2487.000 0.317
2488.000 0.339
2489.000 0.416
2490.000 0.437
2491.000 0.346
2492.000 0.419
2493.000 0.573
2494.000 0.486
2495.000 0.519
2496.000 0.410
2497.000 0.271
2498.000 0.374
2499.000 0.307
2500.000 0.294
