391.000 0.021
392.000 0.024
393.000 0.026
394.000 0.023
395.000 0.024
396.000 0.024
397.000 0.025
398.000 0.032
399.000 0.031
400.000 0.031
401.000 0.031
402.000 0.028
403.000 0.028
404.000 0.028
405.000 0.026
406.000 0.027
407.000 0.030
408.000 0.031
409.000 0.032
410.000 0.032
411.000 0.032
412.000 0.031
413.000 0.030
414.000 0.032
415.000 0.032
416.000 0.032
417.000 0.033
418.000 0.032
419.000 0.031
420.000 0.033
421.000 0.034
422.000 0.034
423.000 0.032
424.000 0.031
425.000 0.031
426.000 0.031
427.000 0.034
428.000 0.034
429.000 0.033
430.000 0.033
431.000 0.035
432.000 0.034
433.000 0.034
434.000 0.034
435.000 0.031
436.000 0.034
437.000 0.036
438.000 0.034
439.000 0.034
440.000 0.035
441.000 0.035
442.000 0.036
443.000 0.036
444.000 0.036
445.000 0.036
446.000 0.035
447.000 0.036
448.000 0.036
449.000 0.035
450.000 0.034
451.000 0.036
452.000 0.037
453.000 0.035
454.000 0.036
455.000 0.038
456.000 0.038
457.000 0.036
458.000 0.037
459.000 0.038
460.000 0.039
461.000 0.037
462.000 0.037
463.000 0.038
464.000 0.037
465.000 0.036
466.000 0.036
467.000 0.037
468.000 0.039
469.000 0.038
470.000 0.037
471.000 0.036
472.000 0.037
473.000 0.037
474.000 0.037
475.000 0.037
476.000 0.038
477.000 0.038
478.000 0.037
479.000 0.037
480.000 0.038
481.000 0.040
482.000 0.039
483.000 0.038
484.000 0.038
485.000 0.038
486.000 0.038
487.000 0.038
488.000 0.038
489.000 0.038
490.000 0.038
491.000 0.037
492.000 0.037
493.000 0.040
494.000 0.039
495.000 0.040
496.000 0.042
497.000 0.041
498.000 0.041
499.000 0.042
500.000 0.041
501.000 0.041
502.000 0.041
503.000 0.041
504.000 0.043
505.000 0.042
506.000 0.044
507.000 0.045
508.000 0.044
509.000 0.045
510.000 0.047
511.000 0.048
512.000 0.048
513.000 0.049
514.000 0.050
515.000 0.050
516.000 0.051
517.000 0.054
518.000 0.054
519.000 0.056
520.000 0.057
521.000 0.059
522.000 0.061
523.000 0.062
524.000 0.063
525.000 0.064
526.000 0.066
527.000 0.068
528.000 0.069
529.000 0.069
530.000 0.070
531.000 0.072
532.000 0.073
533.000 0.074
534.000 0.074
535.000 0.074
536.000 0.076
537.000 0.076
538.000 0.076
539.000 0.076
540.000 0.076
541.000 0.077
542.000 0.078
543.000 0.077
544.000 0.077
545.000 0.078
546.000 0.078
547.000 0.079
548.000 0.079
549.000 0.079
550.000 0.079
551.000 0.079
552.000 0.079
553.000 0.079
554.000 0.079
555.000 0.079
556.000 0.079
557.000 0.078
558.000 0.078
559.000 0.078
560.000 0.078
561.000 0.077
562.000 0.076
563.000 0.075
564.000 0.074
565.000 0.074
566.000 0.073
567.000 0.072
568.000 0.071
569.000 0.072
570.000 0.071
571.000 0.069
572.000 0.067
573.000 0.068
574.000 0.067
575.000 0.067
576.000 0.066
577.000 0.065
578.000 0.064
579.000 0.064
580.000 0.064
581.000 0.064
582.000 0.062
583.000 0.062
584.000 0.062
585.000 0.062
586.000 0.062
587.000 0.061
588.000 0.060
589.000 0.059
590.000 0.059
591.000 0.059
592.000 0.059
593.000 0.059
594.000 0.059
595.000 0.059
596.000 0.059
597.000 0.059
598.000 0.059
599.000 0.059
600.000 0.059
601.000 0.058
602.000 0.059
603.000 0.059
604.000 0.058
605.000 0.060
606.000 0.059
607.000 0.058
608.000 0.060
609.000 0.059
610.000 0.059
611.000 0.058
612.000 0.058
613.000 0.056
614.000 0.056
615.000 0.057
616.000 0.055
617.000 0.055
618.000 0.056
619.000 0.055
620.000 0.056
621.000 0.055
622.000 0.054
623.000 0.055
624.000 0.056
625.000 0.056
626.000 0.055
627.000 0.055
628.000 0.056
629.000 0.056
630.000 0.055
631.000 0.055
632.000 0.057
633.000 0.058
634.000 0.056
635.000 0.054
636.000 0.054
637.000 0.055
638.000 0.057
639.000 0.055
640.000 0.054
641.000 0.056
642.000 0.054
643.000 0.054
644.000 0.054
645.000 0.055
646.000 0.052
647.000 0.051
648.000 0.052
649.000 0.052
650.000 0.052
651.000 0.052
652.000 0.052
653.000 0.052
654.000 0.052
655.000 0.052
656.000 0.053
657.000 0.053
658.000 0.053
659.000 0.054
660.000 0.056
661.000 0.057
662.000 0.056
663.000 0.053
664.000 0.054
665.000 0.055
666.000 0.054
667.000 0.054
668.000 0.054
669.000 0.056
670.000 0.059
671.000 0.059
672.000 0.058
673.000 0.057
674.000 0.062
675.000 0.059
676.000 0.057
677.000 0.059
678.000 0.062
679.000 0.063
680.000 0.062
681.000 0.064
682.000 0.063
683.000 0.062
684.000 0.064
685.000 0.065
686.000 0.066
687.000 0.067
688.000 0.067
689.000 0.068
690.000 0.069
691.000 0.068
692.000 0.068
693.000 0.072
694.000 0.076
695.000 0.079
696.000 0.080
697.000 0.084
698.000 0.087
699.000 0.090
700.000 0.094
701.000 0.098
702.000 0.103
703.000 0.106
704.000 0.110
705.000 0.115
706.000 0.119
707.000 0.123
708.000 0.127
709.000 0.130
710.000 0.135
711.000 0.139
712.000 0.143
713.000 0.147
714.000 0.151
715.000 0.155
716.000 0.158
717.000 0.161
718.000 0.164
719.000 0.167
720.000 0.172
721.000 0.178
722.000 0.183
723.000 0.186
724.000 0.188
725.000 0.192
726.000 0.196
727.000 0.200
728.000 0.204
729.000 0.207
730.000 0.211
731.000 0.215
732.000 0.220
733.000 0.225
734.000 0.228
735.000 0.232
736.000 0.235
737.000 0.238
738.000 0.241
739.000 0.244
740.000 0.248
741.000 0.251
742.000 0.254
743.000 0.256
744.000 0.259
745.000 0.261
746.000 0.263
747.000 0.264
748.000 0.266
749.000 0.268
750.000 0.269
751.000 0.270
752.000 0.272
753.000 0.273
754.000 0.274
755.000 0.275
756.000 0.276
757.000 0.277
758.000 0.276
759.000 0.274
760.000 0.270
761.000 0.264
762.000 0.262
763.000 0.263
764.000 0.265
765.000 0.270
766.000 0.274
767.000 0.277
768.000 0.281
769.000 0.283
770.000 0.284
771.000 0.285
772.000 0.285
773.000 0.286
774.000 0.287
775.000 0.287
776.000 0.288
777.000 0.288
778.000 0.288
779.000 0.289
780.000 0.289
781.000 0.289
782.000 0.290
783.000 0.290
784.000 0.291
785.000 0.290
786.000 0.290
787.000 0.289
788.000 0.289
789.000 0.288
790.000 0.288
791.000 0.289
792.000 0.289
793.000 0.290
794.000 0.291
795.000 0.291
796.000 0.291
797.000 0.291
798.000 0.291
799.000 0.291
800.000 0.291
801.000 0.290
802.000 0.291
803.000 0.291
804.000 0.293
805.000 0.293
806.000 0.294
807.000 0.294
808.000 0.294
809.000 0.294
810.000 0.292
811.000 0.291
812.000 0.289
813.000 0.287
814.000 0.284
815.000 0.282
816.000 0.282
817.000 0.281
818.000 0.283
819.000 0.285
820.000 0.286
821.000 0.287
822.000 0.288
823.000 0.288
824.000 0.289
825.000 0.290
826.000 0.291
827.000 0.291
828.000 0.291
829.000 0.292
830.000 0.292
831.000 0.293
832.000 0.294
833.000 0.294
834.000 0.296
835.000 0.297
836.000 0.299
837.000 0.300
838.000 0.300
839.000 0.302
840.000 0.302
841.000 0.303
842.000 0.304
843.000 0.305
844.000 0.305
845.000 0.306
846.000 0.307
847.000 0.307
848.000 0.308
849.000 0.308
850.000 0.308
851.000 0.309
852.000 0.309
853.000 0.309
854.000 0.310
855.000 0.310
856.000 0.311
857.000 0.311
858.000 0.311
859.000 0.312
860.000 0.312
861.000 0.312
862.000 0.312
863.000 0.313
864.000 0.313
865.000 0.313
866.000 0.314
867.000 0.314
868.000 0.314
869.000 0.314
870.000 0.314
871.000 0.315
872.000 0.314
873.000 0.315
874.000 0.315
875.000 0.315
876.000 0.315
877.000 0.316
878.000 0.316
879.000 0.316
880.000 0.316
881.000 0.316
882.000 0.316
883.000 0.316
884.000 0.316
885.000 0.316
886.000 0.317
887.000 0.316
888.000 0.316
889.000 0.316
890.000 0.316
891.000 0.314
892.000 0.313
893.000 0.311
894.000 0.309
895.000 0.307
896.000 0.304
897.000 0.302
898.000 0.300
899.000 0.299
900.000 0.298
901.000 0.300
902.000 0.301
903.000 0.301
904.000 0.301
905.000 0.302
906.000 0.301
907.000 0.301
908.000 0.299
909.000 0.299
910.000 0.298
911.000 0.296
912.000 0.295
913.000 0.295
914.000 0.295
915.000 0.295
916.000 0.296
917.000 0.298
918.000 0.299
919.000 0.300
920.000 0.301
921.000 0.302
922.000 0.303
923.000 0.302
924.000 0.301
925.000 0.299
926.000 0.297
927.000 0.295
928.000 0.291
929.000 0.288
930.000 0.284
931.000 0.277
932.000 0.270
933.000 0.266
934.000 0.262
935.000 0.257
936.000 0.255
937.000 0.257
938.000 0.258
939.000 0.257
940.000 0.258
941.000 0.259
942.000 0.258
943.000 0.258
944.000 0.259
945.000 0.258
946.000 0.257
947.000 0.257
948.000 0.258
949.000 0.258
950.000 0.259
951.000 0.259
952.000 0.260
953.000 0.259
954.000 0.260
955.000 0.263
956.000 0.261
957.000 0.263
958.000 0.267
959.000 0.269
960.000 0.269
961.000 0.268
962.000 0.269
963.000 0.273
964.000 0.280
965.000 0.282
966.000 0.283
967.000 0.286
968.000 0.288
969.000 0.288
970.000 0.289
971.000 0.291
972.000 0.292
973.000 0.292
974.000 0.292
975.000 0.293
976.000 0.293
977.000 0.293
978.000 0.294
979.000 0.297
980.000 0.298
981.000 0.299
982.000 0.301
983.000 0.303
984.000 0.304
985.000 0.306
986.000 0.308
987.000 0.308
988.000 0.310
989.000 0.311
990.000 0.312
991.000 0.313
992.000 0.315
993.000 0.314
994.000 0.314
995.000 0.316
996.000 0.317
997.000 0.317
998.000 0.317
999.000 0.318
1000.000 0.318
1001.000 0.328
1002.000 0.328
1003.000 0.329
1004.000 0.330
1005.000 0.330
1006.000 0.331
1007.000 0.331
1008.000 0.331
1009.000 0.331
1010.000 0.331
1011.000 0.332
1012.000 0.332
1013.000 0.333
1014.000 0.333
1015.000 0.334
1016.000 0.335
1017.000 0.335
1018.000 0.336
1019.000 0.336
1020.000 0.336
1021.000 0.336
1022.000 0.336
1023.000 0.336
1024.000 0.337
1025.000 0.337
1026.000 0.338
1027.000 0.338
1028.000 0.339
1029.000 0.339
1030.000 0.340
1031.000 0.340
1032.000 0.340
1033.000 0.340
1034.000 0.341
1035.000 0.342
1036.000 0.343
1037.000 0.344
1038.000 0.343
1039.000 0.344
1040.000 0.344
1041.000 0.343
1042.000 0.343
1043.000 0.344
1044.000 0.344
1045.000 0.344
1046.000 0.345
1047.000 0.345
1048.000 0.346
1049.000 0.346
1050.000 0.347
1051.000 0.347
1052.000 0.348
1053.000 0.348
1054.000 0.348
1055.000 0.348
1056.000 0.348
1057.000 0.348
1058.000 0.347
1059.000 0.347
1060.000 0.348
1061.000 0.349
1062.000 0.349
1063.000 0.349
1064.000 0.348
1065.000 0.348
1066.000 0.348
1067.000 0.348
1068.000 0.348
1069.000 0.348
1070.000 0.348
1071.000 0.348
1072.000 0.348
1073.000 0.348
1074.000 0.348
1075.000 0.348
1076.000 0.348
1077.000 0.348
1078.000 0.348
1079.000 0.348
1080.000 0.348
1081.000 0.348
1082.000 0.348
1083.000 0.348
1084.000 0.348
1085.000 0.348
1086.000 0.347
1087.000 0.346
1088.000 0.345
1089.000 0.344
1090.000 0.343
1091.000 0.342
1092.000 0.341
1093.000 0.341
1094.000 0.340
1095.000 0.339
1096.000 0.338
1097.000 0.336
1098.000 0.335
1099.000 0.334
1100.000 0.332
1101.000 0.330
1102.000 0.328
1103.000 0.327
1104.000 0.325
1105.000 0.323
1106.000 0.322
1107.000 0.321
1108.000 0.319
1109.000 0.318
1110.000 0.316
1111.000 0.314
1112.000 0.310
1113.000 0.308
1114.000 0.306
1115.000 0.302
1116.000 0.300
1117.000 0.296
1118.000 0.293
1119.000 0.288
1120.000 0.283
1121.000 0.280
1122.000 0.277
1123.000 0.273
1124.000 0.271
1125.000 0.268
1126.000 0.265
1127.000 0.264
1128.000 0.266
1129.000 0.268
1130.000 0.270
1131.000 0.271
1132.000 0.272
1133.000 0.272
1134.000 0.272
1135.000 0.273
1136.000 0.275
1137.000 0.276
1138.000 0.277
1139.000 0.277
1140.000 0.276
1141.000 0.273
1142.000 0.272
1143.000 0.273
1144.000 0.273
1145.000 0.273
1146.000 0.272
1147.000 0.271
1148.000 0.269
1149.000 0.268
1150.000 0.269
1151.000 0.270
1152.000 0.273
1153.000 0.274
1154.000 0.277
1155.000 0.279
1156.000 0.281
1157.000 0.282
1158.000 0.284
1159.000 0.286
1160.000 0.288
1161.000 0.290
1162.000 0.291
1163.000 0.293
1164.000 0.295
1165.000 0.296
1166.000 0.297
1167.000 0.298
1168.000 0.299
1169.000 0.300
1170.000 0.301
1171.000 0.301
1172.000 0.301
1173.000 0.302
1174.000 0.302
1175.000 0.302
1176.000 0.302
1177.000 0.303
1178.000 0.303
1179.000 0.303
1180.000 0.303
1181.000 0.303
1182.000 0.303
1183.000 0.302
1184.000 0.302
1185.000 0.302
1186.000 0.302
1187.000 0.303
1188.000 0.303
1189.000 0.304
1190.000 0.304
1191.000 0.304
1192.000 0.305
1193.000 0.305
1194.000 0.306
1195.000 0.306
1196.000 0.307
1197.000 0.307
1198.000 0.307
1199.000 0.307
1200.000 0.307
1201.000 0.308
1202.000 0.308
1203.000 0.308
1204.000 0.308
1205.000 0.309
1206.000 0.309
1207.000 0.310
1208.000 0.311
1209.000 0.311
1210.000 0.312
1211.000 0.312
1212.000 0.313
1213.000 0.313
1214.000 0.314
1215.000 0.314
1216.000 0.314
1217.000 0.315
1218.000 0.315
1219.000 0.316
1220.000 0.317
1221.000 0.317
1222.000 0.318
1223.000 0.319
1224.000 0.319
1225.000 0.320
1226.000 0.320
1227.000 0.321
1228.000 0.322
1229.000 0.322
1230.000 0.323
1231.000 0.323
1232.000 0.324
1233.000 0.325
1234.000 0.325
1235.000 0.326
1236.000 0.326
1237.000 0.327
1238.000 0.327
1239.000 0.328
1240.000 0.329
1241.000 0.329
1242.000 0.329
1243.000 0.329
1244.000 0.330
1245.000 0.330
1246.000 0.331
1247.000 0.331
1248.000 0.331
1249.000 0.331
1250.000 0.330
1251.000 0.331
1252.000 0.331
1253.000 0.330
1254.000 0.330
1255.000 0.330
1256.000 0.330
1257.000 0.329
1258.000 0.329
1259.000 0.328
1260.000 0.328
1261.000 0.328
1262.000 0.327
1263.000 0.327
1264.000 0.327
1265.000 0.327
1266.000 0.327
1267.000 0.327
1268.000 0.327
1269.000 0.327
1270.000 0.327
1271.000 0.328
1272.000 0.328
1273.000 0.328
1274.000 0.329
1275.000 0.330
1276.000 0.331
1277.000 0.331
1278.000 0.332
1279.000 0.332
1280.000 0.332
1281.000 0.332
1282.000 0.333
1283.000 0.333
1284.000 0.333
1285.000 0.333
1286.000 0.332
1287.000 0.332
1288.000 0.332
1289.000 0.331
1290.000 0.331
1291.000 0.330
1292.000 0.329
1293.000 0.328
1294.000 0.327
1295.000 0.326
1296.000 0.325
1297.000 0.324
1298.000 0.324
1299.000 0.322
1300.000 0.322
1301.000 0.321
1302.000 0.320
1303.000 0.319
1304.000 0.318
1305.000 0.317
1306.000 0.315
1307.000 0.314
1308.000 0.313
1309.000 0.311
1310.000 0.309
1311.000 0.309
1312.000 0.307
1313.000 0.306
1314.000 0.305
1315.000 0.303
1316.000 0.302
1317.000 0.300
1318.000 0.300
1319.000 0.298
1320.000 0.298
1321.000 0.296
1322.000 0.294
1323.000 0.293
1324.000 0.291
1325.000 0.289
1326.000 0.286
1327.000 0.284
1328.000 0.281
1329.000 0.278
1330.000 0.276
1331.000 0.274
1332.000 0.274
1333.000 0.273
1334.000 0.269
1335.000 0.268
1336.000 0.266
1337.000 0.264
1338.000 0.264
1339.000 0.263
1340.000 0.263
1341.000 0.262
1342.000 0.261
1343.000 0.260
1344.000 0.260
1345.000 0.259
1346.000 0.258
1347.000 0.257
1348.000 0.257
1349.000 0.254
1350.000 0.254
1351.000 0.256
1352.000 0.262
1353.000 0.290
1354.000 0.323
1355.000 0.319
1356.000 0.284
1357.000 0.311
1358.000 0.414
1359.000 0.479
1360.000 0.538
1361.000 0.378
1362.000 0.260
1363.000 0.280
1364.000 0.271
1365.000 0.311
1366.000 0.331
1367.000 0.463
1368.000 0.491
1369.000 0.314
1370.000 0.326
1371.000 0.266
1372.000 0.303
1373.000 0.276
1374.000 0.383
1375.000 0.375
1376.000 0.432
1377.000 0.580
1378.000 0.561
1379.000 0.623
1380.000 0.686
1381.000 0.753
1382.000 0.296
1383.000 0.276
1384.000 0.319
1385.000 0.346
1386.000 0.286
1387.000 0.271
1388.000 0.249
1389.000 0.402
1390.000 0.454
1391.000 0.729
1392.000 0.234
1393.000 0.662
1394.000 0.241
1395.000 0.311
1396.000 0.433
1397.000 0.537
1398.000 0.493
1399.000 0.826
1400.000 0.648
1401.000 0.500
1402.000 0.358
1403.000 0.299
1404.000 0.382
1405.000 0.356
1406.000 0.437
1407.000 0.152
1408.000 0.264
1409.000 0.327
1410.000 0.645
1411.000 0.739
1412.000 0.456
1413.000 0.372
1414.000 0.194
1415.000 0.155
1416.000 0.170
1417.000 0.341
1418.000 0.375
1419.000 0.316
1420.000 0.224
1421.000 0.190
1422.000 0.199
1423.000 0.191
1424.000 0.200
1425.000 0.276
1426.000 0.232
1427.000 0.262
1428.000 0.267
1429.000 0.271
1430.000 0.220
1431.000 0.238
1432.000 0.205
1433.000 0.178
1434.000 0.169
1435.000 0.136
1436.000 0.126
1437.000 0.159
1438.000 0.164
1439.000 0.233
1440.000 0.267
1441.000 0.253
1442.000 0.220
1443.000 0.165
1444.000 0.121
1445.000 0.117
1446.000 0.119
1447.000 0.111
1448.000 0.107
1449.000 0.098
1450.000 0.098
1451.000 0.103
1452.000 0.106
1453.000 0.109
1454.000 0.115
1455.000 0.115
1456.000 0.120
1457.000 0.114
1458.000 0.118
1459.000 0.119
1460.000 0.122
1461.000 0.126
1462.000 0.127
1463.000 0.133
1464.000 0.147
1465.000 0.156
1466.000 0.168
1467.000 0.172
1468.000 0.163
1469.000 0.160
1470.000 0.152
1471.000 0.145
1472.000 0.131
1473.000 0.128
1474.000 0.134
1475.000 0.134
1476.000 0.137
1477.000 0.137
1478.000 0.135
1479.000 0.134
1480.000 0.132
1481.000 0.133
1482.000 0.136
1483.000 0.135
1484.000 0.134
1485.000 0.133
1486.000 0.128
1487.000 0.127
1488.000 0.129
1489.000 0.132
1490.000 0.138
1491.000 0.141
1492.000 0.144
1493.000 0.145
1494.000 0.141
1495.000 0.141
1496.000 0.141
1497.000 0.142
1498.000 0.145
1499.000 0.149
1500.000 0.151
1501.000 0.152
1502.000 0.151
1503.000 0.150
1504.000 0.149
1505.000 0.150
1506.000 0.151
1507.000 0.154
1508.000 0.155
1509.000 0.157
1510.000 0.158
1511.000 0.160
1512.000 0.162
1513.000 0.165
1514.000 0.167
1515.000 0.168
1516.000 0.168
1517.000 0.167
1518.000 0.167
1519.000 0.164
1520.000 0.165
1521.000 0.166
1522.000 0.168
1523.000 0.171
1524.000 0.173
1525.000 0.175
1526.000 0.177
1527.000 0.179
1528.000 0.179
1529.000 0.179
1530.000 0.180
1531.000 0.181
1532.000 0.181
1533.000 0.181
1534.000 0.181
1535.000 0.181
1536.000 0.181
1537.000 0.182
1538.000 0.184
1539.000 0.187
1540.000 0.188
1541.000 0.189
1542.000 0.190
1543.000 0.190
1544.000 0.191
1545.000 0.191
1546.000 0.192
1547.000 0.194
1548.000 0.194
1549.000 0.196
1550.000 0.196
1551.000 0.197
1552.000 0.198
1553.000 0.199
1554.000 0.200
1555.000 0.201
1556.000 0.203
1557.000 0.203
1558.000 0.203
1559.000 0.203
1560.000 0.203
1561.000 0.203
1562.000 0.203
1563.000 0.203
1564.000 0.203
1565.000 0.202
1566.000 0.203
1567.000 0.205
1568.000 0.206
1569.000 0.207
1570.000 0.208
1571.000 0.207
1572.000 0.207
1573.000 0.208
1574.000 0.209
1575.000 0.211
1576.000 0.212
1577.000 0.214
1578.000 0.216
1579.000 0.218
1580.000 0.219
1581.000 0.219
1582.000 0.218
1583.000 0.218
1584.000 0.218
1585.000 0.218
1586.000 0.219
1587.000 0.220
1588.000 0.221
1589.000 0.223
1590.000 0.224
1591.000 0.224
1592.000 0.225
1593.000 0.224
1594.000 0.224
1595.000 0.223
1596.000 0.224
1597.000 0.224
1598.000 0.225
1599.000 0.227
1600.000 0.228
1601.000 0.230
1602.000 0.230
1603.000 0.229
1604.000 0.228
1605.000 0.227
1606.000 0.227
1607.000 0.228
1608.000 0.228
1609.000 0.229
1610.000 0.230
1611.000 0.230
1612.000 0.231
1613.000 0.231
1614.000 0.232
1615.000 0.233
1616.000 0.233
1617.000 0.232
1618.000 0.233
1619.000 0.234
1620.000 0.235
1621.000 0.236
1622.000 0.238
1623.000 0.238
1624.000 0.239
1625.000 0.239
1626.000 0.239
1627.000 0.239
1628.000 0.239
1629.000 0.238
1630.000 0.238
1631.000 0.238
1632.000 0.238
1633.000 0.238
1634.000 0.239
1635.000 0.239
1636.000 0.239
1637.000 0.239
1638.000 0.240
1639.000 0.240
1640.000 0.240
1641.000 0.241
1642.000 0.241
1643.000 0.241
1644.000 0.241
1645.000 0.241
1646.000 0.241
1647.000 0.241
1648.000 0.241
1649.000 0.243
1650.000 0.244
1651.000 0.245
1652.000 0.246
1653.000 0.245
1654.000 0.244
1655.000 0.244
1656.000 0.244
1657.000 0.244
1658.000 0.244
1659.000 0.243
1660.000 0.242
1661.000 0.243
1662.000 0.244
1663.000 0.244
1664.000 0.245
1665.000 0.246
1666.000 0.247
1667.000 0.246
1668.000 0.246
1669.000 0.244
1670.000 0.244
1671.000 0.244
1672.000 0.245
1673.000 0.246
1674.000 0.247
1675.000 0.246
1676.000 0.247
1677.000 0.247
1678.000 0.246
1679.000 0.246
1680.000 0.246
1681.000 0.244
1682.000 0.243
1683.000 0.242
1684.000 0.243
1685.000 0.245
1686.000 0.245
1687.000 0.246
1688.000 0.246
1689.000 0.243
1690.000 0.242
1691.000 0.244
1692.000 0.243
1693.000 0.244
1694.000 0.244
1695.000 0.244
1696.000 0.244
1697.000 0.245
1698.000 0.245
1699.000 0.244
1700.000 0.243
1701.000 0.243
1702.000 0.242
1703.000 0.241
1704.000 0.241
1705.000 0.243
1706.000 0.243
1707.000 0.242
1708.000 0.241
1709.000 0.238
1710.000 0.238
1711.000 0.237
1712.000 0.239
1713.000 0.241
1714.000 0.242
1715.000 0.243
1716.000 0.243
1717.000 0.241
1718.000 0.238
1719.000 0.237
1720.000 0.235
1721.000 0.233
1722.000 0.234
1723.000 0.234
1724.000 0.232
1725.000 0.232
1726.000 0.231
1727.000 0.229
1728.000 0.229
1729.000 0.228
1730.000 0.228
1731.000 0.230
1732.000 0.229
1733.000 0.231
1734.000 0.232
1735.000 0.230
1736.000 0.231
1737.000 0.231
1738.000 0.230
1739.000 0.230
1740.000 0.228
1741.000 0.227
1742.000 0.227
1743.000 0.227
1744.000 0.229
1745.000 0.228
1746.000 0.227
1747.000 0.227
1748.000 0.226
1749.000 0.226
1750.000 0.225
1751.000 0.225
1752.000 0.224
1753.000 0.222
1754.000 0.221
1755.000 0.221
1756.000 0.221
1757.000 0.221
1758.000 0.221
1759.000 0.220
1760.000 0.217
1761.000 0.213
1762.000 0.213
1763.000 0.212
1764.000 0.210
1765.000 0.209
1766.000 0.209
1767.000 0.208
1768.000 0.211
1769.000 0.213
1770.000 0.214
1771.000 0.218
1772.000 0.218
1773.000 0.216
1774.000 0.215
1775.000 0.211
1776.000 0.208
1777.000 0.209
1778.000 0.206
1779.000 0.203
1780.000 0.205
1781.000 0.205
1782.000 0.207
1783.000 0.209
1784.000 0.210
1785.000 0.208
1786.000 0.210
1787.000 0.215
1788.000 0.215
1789.000 0.214
1790.000 0.213
1791.000 0.209
1792.000 0.211
1793.000 0.209
1794.000 0.212
1795.000 0.212
1796.000 0.205
1797.000 0.208
1798.000 0.206
1799.000 0.227
1800.000 0.235
1801.000 0.304
1802.000 0.320
1803.000 0.341
1804.000 0.352
1805.000 0.370
1806.000 0.424
1807.000 0.411
1808.000 0.396
1809.000 0.379
1810.000 0.400
1811.000 0.357
1812.000 0.425
1813.000 0.367
1814.000 0.419
1815.000 0.370
1816.000 0.323
1817.000 0.395
1818.000 0.427
1819.000 0.504
1820.000 0.712
1821.000 0.740
1822.000 0.691
1823.000 0.620
1824.000 0.613
1825.000 0.642
1826.000 0.703
1827.000 0.730
1828.000 0.693
1829.000 0.668
1830.000 0.675
1831.000 0.693
1832.000 0.390
1833.000 0.731
1834.000 0.612
1835.000 0.681
1836.000 0.668
1837.000 0.548
1838.000 0.526
1839.000 0.587
1840.000 0.533
1841.000 0.387
1842.000 0.351
1843.000 0.450
1844.000 0.500
1845.000 0.249
1846.000 0.347
1847.000 0.366
1848.000 0.409
1849.000 0.452
1850.000 0.516
1851.000 0.504
1852.000 0.514
1853.000 0.500
1854.000 0.358
1855.000 0.356
1856.000 0.339
1857.000 0.372
1858.000 0.437
1859.000 0.540
1860.000 0.537
1861.000 0.438
1862.000 0.341
1863.000 0.271
1864.000 0.200
1865.000 0.119
1866.000 0.323
1867.000 0.686
1868.000 0.791
1869.000 0.411
1870.000 0.520
1871.000 0.629
1872.000 0.694
1873.000 0.812
1874.000 0.691
1875.000 0.694
1876.000 0.691
1877.000 0.208
1878.000 0.237
1879.000 0.496
1880.000 0.601
1881.000 0.679
1882.000 0.593
1883.000 0.532
1884.000 0.412
1885.000 0.553
1886.000 0.741
1887.000 0.654
1888.000 0.637
1889.000 0.591
1890.000 0.559
1891.000 0.559
1892.000 0.465
1893.000 0.295
1894.000 0.468
1895.000 0.384
1896.000 0.629
1897.000 0.645
1898.000 0.659
1899.000 0.693
1900.000 0.759
1901.000 0.825
1902.000 0.406
1903.000 0.562
1904.000 0.604
1905.000 0.585
1906.000 0.354
1907.000 0.456
1908.000 0.531
1909.000 0.355
1910.000 0.329
1911.000 0.471
1912.000 0.521
1913.000 0.463
1914.000 0.464
1915.000 0.458
1916.000 0.396
1917.000 0.382
1918.000 0.496
1919.000 0.516
1920.000 0.534
1921.000 0.624
1922.000 0.678
1923.000 0.721
1924.000 0.645
1925.000 0.607
1926.000 0.592
1927.000 0.527
1928.000 0.435
1929.000 0.613
1930.000 0.166
1931.000 0.163
1932.000 0.663
1933.000 0.591
1934.000 0.599
1935.000 0.598
1936.000 0.572
1937.000 0.564
1938.000 0.651
1939.000 0.603
1940.000 0.471
1941.000 0.438
1942.000 0.496
1943.000 0.450
1944.000 0.500
1945.000 0.371
1946.000 0.468
1947.000 0.390
1948.000 0.452
1949.000 0.557
1950.000 0.464
1951.000 0.227
1952.000 0.238
1953.000 0.288
1954.000 0.343
1955.000 0.405
1956.000 0.550
1957.000 0.827
1958.000 0.627
1959.000 0.408
1960.000 0.291
1961.000 0.356
1962.000 0.339
1963.000 0.443
1964.000 0.443
1965.000 0.409
1966.000 0.333
1967.000 0.322
1968.000 0.314
1969.000 0.254
1970.000 0.252
1971.000 0.210
1972.000 0.188
1973.000 0.226
1974.000 0.211
1975.000 0.209
1976.000 0.242
1977.000 0.250
1978.000 0.234
1979.000 0.227
1980.000 0.227
1981.000 0.205
1982.000 0.206
1983.000 0.172
1984.000 0.176
1985.000 0.163
1986.000 0.186
1987.000 0.186
1988.000 0.167
1989.000 0.177
1990.000 0.175
1991.000 0.189
1992.000 0.186
1993.000 0.184
1994.000 0.211
1995.000 0.211
1996.000 0.210
1997.000 0.191
1998.000 0.186
1999.000 0.174
2000.000 0.210
2001.000 0.227
2002.000 0.240
2003.000 0.247
2004.000 0.229
2005.000 0.225
2006.000 0.217
2007.000 0.224
2008.000 0.237
2009.000 0.263
2010.000 0.303
2011.000 0.270
2012.000 0.340
2013.000 0.249
2014.000 0.220
2015.000 0.182
2016.000 0.144
2017.000 0.188
2018.000 0.198
2019.000 0.195
2020.000 0.199
2021.000 0.171
2022.000 0.155
2023.000 0.144
2024.000 0.135
2025.000 0.120
2026.000 0.127
2027.000 0.135
2028.000 0.148
2029.000 0.149
2030.000 0.150
2031.000 0.149
2032.000 0.141
2033.000 0.134
2034.000 0.133
2035.000 0.124
2036.000 0.113
2037.000 0.109
2038.000 0.110
2039.000 0.110
2040.000 0.115
2041.000 0.118
2042.000 0.121
2043.000 0.126
2044.000 0.130
2045.000 0.134
2046.000 0.139
2047.000 0.148
2048.000 0.149
2049.000 0.144
2050.000 0.142
2051.000 0.128
2052.000 0.116
2053.000 0.128
2054.000 0.136
2055.000 0.143
2056.000 0.147
2057.000 0.145
2058.000 0.125
2059.000 0.121
2060.000 0.123
2061.000 0.124
2062.000 0.130
2063.000 0.133
2064.000 0.138
2065.000 0.154
2066.000 0.135
2067.000 0.142
2068.000 0.147
2069.000 0.155
2070.000 0.166
2071.000 0.167
2072.000 0.167
2073.000 0.164
2074.000 0.159
2075.000 0.150
2076.000 0.145
2077.000 0.135
2078.000 0.134
2079.000 0.142
2080.000 0.146
2081.000 0.151
2082.000 0.158
2083.000 0.162
2084.000 0.157
2085.000 0.158
2086.000 0.159
2087.000 0.158
2088.000 0.159
2089.000 0.157
2090.000 0.150
2091.000 0.149
2092.000 0.149
2093.000 0.149
2094.000 0.152
2095.000 0.152
2096.000 0.153
2097.000 0.155
2098.000 0.156
2099.000 0.158
2100.000 0.164
2101.000 0.164
2102.000 0.160
2103.000 0.162
2104.000 0.160
2105.000 0.154
2106.000 0.154
2107.000 0.155
2108.000 0.154
2109.000 0.155
2110.000 0.154
2111.000 0.146
2112.000 0.146
2113.000 0.151
2114.000 0.151
2115.000 0.154
2116.000 0.155
2117.000 0.153
2118.000 0.146
2119.000 0.143
2120.000 0.137
2121.000 0.133
2122.000 0.133
2123.000 0.133
2124.000 0.133
2125.000 0.137
2126.000 0.143
2127.000 0.147
2128.000 0.154
2129.000 0.157
2130.000 0.156
2131.000 0.156
2132.000 0.158
2133.000 0.161
2134.000 0.167
2135.000 0.169
2136.000 0.169
2137.000 0.173
2138.000 0.174
2139.000 0.169
2140.000 0.167
2141.000 0.165
2142.000 0.165
2143.000 0.165
2144.000 0.161
2145.000 0.155
2146.000 0.153
2147.000 0.148
2148.000 0.148
2149.000 0.159
2150.000 0.163
2151.000 0.168
2152.000 0.169
2153.000 0.165
2154.000 0.165
2155.000 0.162
2156.000 0.161
2157.000 0.167
2158.000 0.175
2159.000 0.179
2160.000 0.175
2161.000 0.172
2162.000 0.160
2163.000 0.159
2164.000 0.158
2165.000 0.159
2166.000 0.167
2167.000 0.171
2168.000 0.177
2169.000 0.178
2170.000 0.175
2171.000 0.173
2172.000 0.167
2173.000 0.164
2174.000 0.158
2175.000 0.155
2176.000 0.151
2177.000 0.156
2178.000 0.158
2179.000 0.160
2180.000 0.155
2181.000 0.151
2182.000 0.150
2183.000 0.148
2184.000 0.150
2185.000 0.163
2186.000 0.164
2187.000 0.156
2188.000 0.157
2189.000 0.158
2190.000 0.161
2191.000 0.171
2192.000 0.174
2193.000 0.168
2194.000 0.170
2195.000 0.171
2196.000 0.172
2197.000 0.179
2198.000 0.181
2199.000 0.177
2200.000 0.173
2201.000 0.166
2202.000 0.162
2203.000 0.157
2204.000 0.152
2205.000 0.152
2206.000 0.160
2207.000 0.167
2208.000 0.173
2209.000 0.173
2210.000 0.166
2211.000 0.163
2212.000 0.154
2213.000 0.154
2214.000 0.162
2215.000 0.162
2216.000 0.159
2217.000 0.157
2218.000 0.149
2219.000 0.145
2220.000 0.144
2221.000 0.145
2222.000 0.148
2223.000 0.154
2224.000 0.166
2225.000 0.175
2226.000 0.187
2227.000 0.194
2228.000 0.195
2229.000 0.195
2230.000 0.191
2231.000 0.182
2232.000 0.174
2233.000 0.167
2234.000 0.167
2235.000 0.168
2236.000 0.170
2237.000 0.175
2238.000 0.174
2239.000 0.164
2240.000 0.162
2241.000 0.158
2242.000 0.157
2243.000 0.161
2244.000 0.160
2245.000 0.158
2246.000 0.157
2247.000 0.155
2248.000 0.153
2249.000 0.152
2250.000 0.150
2251.000 0.144
2252.000 0.141
2253.000 0.137
2254.000 0.138
2255.000 0.149
2256.000 0.152
2257.000 0.154
2258.000 0.161
2259.000 0.159
2260.000 0.158
2261.000 0.171
2262.000 0.174
2263.000 0.175
2264.000 0.177
2265.000 0.171
2266.000 0.159
2267.000 0.158
2268.000 0.159
2269.000 0.155
2270.000 0.167
2271.000 0.167
2272.000 0.156
2273.000 0.156
2274.000 0.159
2275.000 0.156
2276.000 0.159
2277.000 0.155
2278.000 0.142
2279.000 0.137
2280.000 0.141
2281.000 0.141
2282.000 0.148
2283.000 0.169
2284.000 0.145
2285.000 0.145
2286.000 0.141
2287.000 0.138
2288.000 0.133
2289.000 0.132
2290.000 0.114
2291.000 0.113
2292.000 0.138
2293.000 0.149
2294.000 0.176
2295.000 0.195
2296.000 0.202
2297.000 0.199
2298.000 0.200
2299.000 0.182
2300.000 0.158
2301.000 0.176
2302.000 0.155
2303.000 0.157
2304.000 0.159
2305.000 0.189
2306.000 0.204
2307.000 0.208
2308.000 0.155
2309.000 0.169
2310.000 0.127
2311.000 0.124
2312.000 0.130
2313.000 0.133
2314.000 0.119
2315.000 0.132
2316.000 0.134
2317.000 0.126
2318.000 0.133
2319.000 0.142
2320.000 0.150
2321.000 0.146
2322.000 0.156
2323.000 0.134
2324.000 0.119
2325.000 0.102
2326.000 0.082
2327.000 0.059
2328.000 0.072
2329.000 0.108
2330.000 0.126
2331.000 0.144
2332.000 0.160
2333.000 0.163
2334.000 0.176
2335.000 0.217
2336.000 0.232
2337.000 0.195
2338.000 0.187
2339.000 0.151
2340.000 0.137
2341.000 0.150
2342.000 0.143
2343.000 0.119
2344.000 0.115
2345.000 0.081
2346.000 0.087
2347.000 0.134
2348.000 0.159
2349.000 0.217
2350.000 0.250
2351.000 0.268
2352.000 0.241
2353.000 0.148
2354.000 0.166
2355.000 0.113
2356.000 0.107
2357.000 0.122
2358.000 0.155
2359.000 0.197
2360.000 0.285
2361.000 0.423
2362.000 0.350
2363.000 0.207
2364.000 0.127
2365.000 0.112
2366.000 0.098
2367.000 0.162
2368.000 0.178
2369.000 0.172
2370.000 0.180
2371.000 0.109
2372.000 0.073
2373.000 0.058
2374.000 0.139
2375.000 0.174
2376.000 0.269
2377.000 0.235
2378.000 0.340
2379.000 0.572
2380.000 0.360
2381.000 0.383
2382.000 0.358
2383.000 0.393
2384.000 0.364
2385.000 0.266
2386.000 0.230
2387.000 0.228
2388.000 0.142
2389.000 0.192
2390.000 0.255
2391.000 0.168
2392.000 0.129
2393.000 0.076
2394.000 0.134
2395.000 0.153
2396.000 0.199
2397.000 0.172
2398.000 0.261
2399.000 0.225
2400.000 0.220
2401.000 0.240
2402.000 0.513
2403.000 0.434
2404.000 0.445
2405.000 0.450
2406.000 0.292
2407.000 0.225
2408.000 0.271
2409.000 0.321
2410.000 0.202
2411.000 0.102
2412.000 0.148
2413.000 0.106
2414.000 0.147
2415.000 0.163
2416.000 0.231
2417.000 0.274
2418.000 0.120
2419.000 0.198
2420.000 0.405
2421.000 0.437
2422.000 0.544
2423.000 0.374
2424.000 0.311
2425.000 0.372
2426.000 0.383
2427.000 0.344
2428.000 0.289
2429.000 0.255
2430.000 0.197
2431.000 0.435
2432.000 0.267
2433.000 0.355
2434.000 0.299
2435.000 0.207
2436.000 0.237
2437.000 0.283
2438.000 0.301
2439.000 0.333
2440.000 0.142
2441.000 0.288
2442.000 0.696
2443.000 0.503
2444.000 0.597
2445.000 0.390
2446.000 0.166
2447.000 0.344
2448.000 0.353
2449.000 0.116
2450.000 0.286
2451.000 0.255
2452.000 0.189
2453.000 0.423
2454.000 0.422
2455.000 0.484
2456.000 0.429
2457.000 0.714
2458.000 0.575
2459.000 0.499
2460.000 0.436
2461.000 0.169
2462.000 0.372
2463.000 0.448
2464.000 0.603
2465.000 0.671
2466.000 0.503
2467.000 0.330
2468.000 0.158
2469.000 0.229
2470.000 0.300
2471.000 0.322
2472.000 0.126
2473.000 0.229
2474.000 0.295
2475.000 0.387
2476.000 0.482
2477.000 0.526
2478.000 0.448
2479.000 0.366
2480.000 0.408
2481.000 0.305
2482.000 0.338
2483.000 0.191
2484.000 0.080
2485.000 0.165
2486.000 0.237
2487.000 0.177
2488.000 0.186
2489.000 0.306
2490.000 0.236
2491.000 0.346
2492.000 0.641
2493.000 0.690
2494.000 0.850
2495.000 0.357
2496.000 0.390
2497.000 0.423
2498.000 0.457
2499.000 0.667
2500.000 0.719
