391.000 0.029
392.000 0.026
393.000 0.022
394.000 0.023
395.000 0.028
396.000 0.029
397.000 0.026
398.000 0.029
399.000 0.029
400.000 0.027
401.000 0.026
402.000 0.027
403.000 0.026
404.000 0.025
405.000 0.027
406.000 0.029
407.000 0.028
408.000 0.026
409.000 0.028
410.000 0.027
411.000 0.027
412.000 0.029
413.000 0.029
414.000 0.029
415.000 0.029
416.000 0.030
417.000 0.028
418.000 0.029
419.000 0.030
420.000 0.029
421.000 0.028
422.000 0.029
423.000 0.028
424.000 0.028
425.000 0.028
426.000 0.027
427.000 0.029
428.000 0.028
429.000 0.029
430.000 0.028
431.000 0.029
432.000 0.029
433.000 0.028
434.000 0.028
435.000 0.029
436.000 0.030
437.000 0.030
438.000 0.031
439.000 0.030
440.000 0.030
441.000 0.030
442.000 0.030
443.000 0.029
444.000 0.030
445.000 0.030
446.000 0.029
447.000 0.029
448.000 0.029
449.000 0.030
450.000 0.030
451.000 0.031
452.000 0.030
453.000 0.030
454.000 0.031
455.000 0.030
456.000 0.029
457.000 0.031
458.000 0.032
459.000 0.030
460.000 0.030
461.000 0.031
462.000 0.032
463.000 0.032
464.000 0.030
465.000 0.030
466.000 0.030
467.000 0.031
468.000 0.031
469.000 0.031
470.000 0.031
471.000 0.032
472.000 0.031
473.000 0.031
474.000 0.031
475.000 0.032
476.000 0.032
477.000 0.031
478.000 0.031
479.000 0.032
480.000 0.032
481.000 0.032
482.000 0.032
483.000 0.031
484.000 0.032
485.000 0.031
486.000 0.031
487.000 0.032
488.000 0.033
489.000 0.032
490.000 0.033
491.000 0.033
492.000 0.033
493.000 0.033
494.000 0.033
495.000 0.033
496.000 0.032
497.000 0.033
498.000 0.034
499.000 0.035
500.000 0.034
501.000 0.034
502.000 0.034
503.000 0.035
504.000 0.035
505.000 0.035
506.000 0.036
507.000 0.036
508.000 0.036
509.000 0.037
510.000 0.037
511.000 0.036
512.000 0.037
513.000 0.037
514.000 0.037
515.000 0.039
516.000 0.040
517.000 0.039
518.000 0.040
519.000 0.041
520.000 0.042
521.000 0.042
522.000 0.042
523.000 0.043
524.000 0.044
525.000 0.045
526.000 0.045
527.000 0.046
528.000 0.047
529.000 0.046
530.000 0.047
531.000 0.048
532.000 0.049
533.000 0.049
534.000 0.048
535.000 0.049
536.000 0.050
537.000 0.050
538.000 0.051
539.000 0.051
540.000 0.051
541.000 0.051
542.000 0.051
543.000 0.051
544.000 0.052
545.000 0.052
546.000 0.052
547.000 0.053
548.000 0.052
549.000 0.052
550.000 0.053
551.000 0.053
552.000 0.053
553.000 0.053
554.000 0.053
555.000 0.053
556.000 0.053
557.000 0.053
558.000 0.053
559.000 0.054
560.000 0.054
561.000 0.053
562.000 0.053
563.000 0.053
564.000 0.053
565.000 0.053
566.000 0.052
567.000 0.052
568.000 0.052
569.000 0.051
570.000 0.051
571.000 0.051
572.000 0.051
573.000 0.051
574.000 0.050
575.000 0.050
576.000 0.050
577.000 0.050
578.000 0.051
579.000 0.050
580.000 0.050
581.000 0.050
582.000 0.050
583.000 0.049
584.000 0.049
585.000 0.049
586.000 0.049
587.000 0.049
588.000 0.049
589.000 0.049
590.000 0.049
591.000 0.049
592.000 0.049
593.000 0.049
594.000 0.049
595.000 0.049
596.000 0.048
597.000 0.048
598.000 0.050
599.000 0.049
600.000 0.049
601.000 0.049
602.000 0.049
603.000 0.049
604.000 0.049
605.000 0.049
606.000 0.048
607.000 0.049
608.000 0.049
609.000 0.050
610.000 0.050
611.000 0.050
612.000 0.049
613.000 0.050
614.000 0.049
615.000 0.048
616.000 0.049
617.000 0.050
618.000 0.050
619.000 0.050
620.000 0.050
621.000 0.050
622.000 0.049
623.000 0.049
624.000 0.049
625.000 0.049
626.000 0.051
627.000 0.051
628.000 0.050
629.000 0.050
630.000 0.050
631.000 0.051
632.000 0.051
633.000 0.051
634.000 0.051
635.000 0.051
636.000 0.051
637.000 0.050
638.000 0.051
639.000 0.050
640.000 0.050
641.000 0.050
642.000 0.051
643.000 0.050
644.000 0.051
645.000 0.051
646.000 0.051
647.000 0.050
648.000 0.050
649.000 0.051
650.000 0.051
651.000 0.051
652.000 0.050
653.000 0.051
654.000 0.051
655.000 0.052
656.000 0.052
657.000 0.052
658.000 0.052
659.000 0.052
660.000 0.052
661.000 0.051
662.000 0.051
663.000 0.052
664.000 0.051
665.000 0.051
666.000 0.052
667.000 0.052
668.000 0.052
669.000 0.053
670.000 0.053
671.000 0.052
672.000 0.052
673.000 0.054
674.000 0.054
675.000 0.054
676.000 0.054
677.000 0.054
678.000 0.054
679.000 0.055
680.000 0.056
681.000 0.056
682.000 0.055
683.000 0.056
684.000 0.057
685.000 0.059
686.000 0.059
687.000 0.060
688.000 0.061
689.000 0.062
690.000 0.063
691.000 0.064
692.000 0.066
693.000 0.068
694.000 0.070
695.000 0.070
696.000 0.072
697.000 0.075
698.000 0.078
699.000 0.080
700.000 0.082
701.000 0.085
702.000 0.087
703.000 0.091
704.000 0.093
705.000 0.096
706.000 0.100
707.000 0.102
708.000 0.104
709.000 0.107
710.000 0.110
711.000 0.113
712.000 0.116
713.000 0.119
714.000 0.122
715.000 0.125
716.000 0.128
717.000 0.131
718.000 0.134
719.000 0.138
720.000 0.141
721.000 0.144
722.000 0.146
723.000 0.149
724.000 0.153
725.000 0.156
726.000 0.158
727.000 0.161
728.000 0.164
729.000 0.166
730.000 0.169
731.000 0.171
732.000 0.174
733.000 0.175
734.000 0.177
735.000 0.180
736.000 0.182
737.000 0.183
738.000 0.185
739.000 0.187
740.000 0.189
741.000 0.190
742.000 0.192
743.000 0.193
744.000 0.194
745.000 0.196
746.000 0.196
747.000 0.198
748.000 0.199
749.000 0.200
750.000 0.201
751.000 0.202
752.000 0.203
753.000 0.204
754.000 0.205
755.000 0.206
756.000 0.206
757.000 0.207
758.000 0.209
759.000 0.209
760.000 0.211
761.000 0.213
762.000 0.215
763.000 0.215
764.000 0.216
765.000 0.215
766.000 0.215
767.000 0.216
768.000 0.216
769.000 0.216
770.000 0.217
771.000 0.217
772.000 0.218
773.000 0.218
774.000 0.219
775.000 0.219
776.000 0.220
777.000 0.220
778.000 0.221
779.000 0.222
780.000 0.222
781.000 0.223
782.000 0.223
783.000 0.224
784.000 0.225
785.000 0.225
786.000 0.226
787.000 0.227
788.000 0.227
789.000 0.228
790.000 0.229
791.000 0.229
792.000 0.230
793.000 0.230
794.000 0.231
795.000 0.232
796.000 0.232
797.000 0.233
798.000 0.234
799.000 0.234
800.000 0.235
801.000 0.235
802.000 0.236
803.000 0.237
804.000 0.237
805.000 0.237
806.000 0.238
807.000 0.239
808.000 0.239
809.000 0.240
810.000 0.241
811.000 0.241
812.000 0.243
813.000 0.244
814.000 0.245
815.000 0.246
816.000 0.247
817.000 0.247
818.000 0.248
819.000 0.248
820.000 0.248
821.000 0.248
822.000 0.249
823.000 0.250
824.000 0.250
825.000 0.251
826.000 0.251
827.000 0.251
828.000 0.252
829.000 0.253
830.000 0.253
831.000 0.253
832.000 0.254
833.000 0.255
834.000 0.255
835.000 0.256
836.000 0.256
837.000 0.257
838.000 0.257
839.000 0.257
840.000 0.257
841.000 0.258
842.000 0.258
843.000 0.258
844.000 0.259
845.000 0.259
846.000 0.259
847.000 0.260
848.000 0.261
849.000 0.261
850.000 0.261
851.000 0.262
852.000 0.263
853.000 0.263
854.000 0.264
855.000 0.264
856.000 0.265
857.000 0.265
858.000 0.266
859.000 0.266
860.000 0.267
861.000 0.267
862.000 0.268
863.000 0.268
864.000 0.269
865.000 0.269
866.000 0.270
867.000 0.271
868.000 0.271
869.000 0.271
870.000 0.272
871.000 0.272
872.000 0.272
873.000 0.273
874.000 0.273
875.000 0.274
876.000 0.275
877.000 0.275
878.000 0.276
879.000 0.276
880.000 0.276
881.000 0.277
882.000 0.278
883.000 0.278
884.000 0.279
885.000 0.279
886.000 0.280
887.000 0.281
888.000 0.281
889.000 0.282
890.000 0.282
891.000 0.283
892.000 0.284
893.000 0.285
894.000 0.286
895.000 0.287
896.000 0.289
897.000 0.290
898.000 0.290
899.000 0.290
900.000 0.292
901.000 0.293
902.000 0.293
903.000 0.293
904.000 0.293
905.000 0.294
906.000 0.295
907.000 0.296
908.000 0.296
909.000 0.296
910.000 0.298
911.000 0.299
912.000 0.299
913.000 0.300
914.000 0.300
915.000 0.301
916.000 0.301
917.000 0.302
918.000 0.302
919.000 0.301
920.000 0.301
921.000 0.301
922.000 0.302
923.000 0.304
924.000 0.304
925.000 0.305
926.000 0.306
927.000 0.306
928.000 0.305
929.000 0.307
930.000 0.309
931.000 0.310
932.000 0.309
933.000 0.311
934.000 0.313
935.000 0.312
936.000 0.312
937.000 0.313
938.000 0.313
939.000 0.313
940.000 0.315
941.000 0.314
942.000 0.314
943.000 0.316
944.000 0.321
945.000 0.321
946.000 0.316
947.000 0.313
948.000 0.316
949.000 0.319
950.000 0.321
951.000 0.323
952.000 0.320
953.000 0.318
954.000 0.320
955.000 0.323
956.000 0.321
957.000 0.319
958.000 0.319
959.000 0.321
960.000 0.319
961.000 0.319
962.000 0.320
963.000 0.318
964.000 0.321
965.000 0.319
966.000 0.318
967.000 0.318
968.000 0.319
969.000 0.319
970.000 0.320
971.000 0.320
972.000 0.322
973.000 0.320
974.000 0.319
975.000 0.321
976.000 0.322
977.000 0.322
978.000 0.324
979.000 0.326
980.000 0.324
981.000 0.323
982.000 0.323
983.000 0.324
984.000 0.323
985.000 0.324
986.000 0.323
987.000 0.323
988.000 0.325
989.000 0.325
990.000 0.324
991.000 0.324
992.000 0.325
993.000 0.324
994.000 0.324
995.000 0.325
996.000 0.327
997.000 0.328
998.000 0.327
999.000 0.328
1000.000 0.327
1001.000 0.336
1002.000 0.336
1003.000 0.337
1004.000 0.337
1005.000 0.336
1006.000 0.336
1007.000 0.337
1008.000 0.337
1009.000 0.337
1010.000 0.338
1011.000 0.339
1012.000 0.339
1013.000 0.340
1014.000 0.341
1015.000 0.341
1016.000 0.341
1017.000 0.341
1018.000 0.341
1019.000 0.341
1020.000 0.341
1021.000 0.342
1022.000 0.342
1023.000 0.343
1024.000 0.344
1025.000 0.344
1026.000 0.345
1027.000 0.345
1028.000 0.346
1029.000 0.345
1030.000 0.345
1031.000 0.346
1032.000 0.347
1033.000 0.348
1034.000 0.349
1035.000 0.350
1036.000 0.350
1037.000 0.349
1038.000 0.349
1039.000 0.350
1040.000 0.349
1041.000 0.349
1042.000 0.349
1043.000 0.350
1044.000 0.350
1045.000 0.350
1046.000 0.351
1047.000 0.352
1048.000 0.353
1049.000 0.353
1050.000 0.354
1051.000 0.354
1052.000 0.354
1053.000 0.354
1054.000 0.354
1055.000 0.355
1056.000 0.355
1057.000 0.356
1058.000 0.356
1059.000 0.356
1060.000 0.356
1061.000 0.357
1062.000 0.357
1063.000 0.358
1064.000 0.359
1065.000 0.360
1066.000 0.360
1067.000 0.361
1068.000 0.361
1069.000 0.361
1070.000 0.361
1071.000 0.361
1072.000 0.361
1073.000 0.361
1074.000 0.361
1075.000 0.361
1076.000 0.362
1077.000 0.362
1078.000 0.363
1079.000 0.363
1080.000 0.363
1081.000 0.364
1082.000 0.364
1083.000 0.365
1084.000 0.366
1085.000 0.367
1086.000 0.367
1087.000 0.368
1088.000 0.369
1089.000 0.369
1090.000 0.370
1091.000 0.370
1092.000 0.371
1093.000 0.371
1094.000 0.372
1095.000 0.372
1096.000 0.373
1097.000 0.374
1098.000 0.376
1099.000 0.376
1100.000 0.378
1101.000 0.379
1102.000 0.380
1103.000 0.381
1104.000 0.381
1105.000 0.382
1106.000 0.383
1107.000 0.383
1108.000 0.384
1109.000 0.384
1110.000 0.385
1111.000 0.386
1112.000 0.388
1113.000 0.388
1114.000 0.390
1115.000 0.391
1116.000 0.394
1117.000 0.398
1118.000 0.400
1119.000 0.399
1120.000 0.399
1121.000 0.399
1122.000 0.399
1123.000 0.401
1124.000 0.409
1125.000 0.410
1126.000 0.411
1127.000 0.413
1128.000 0.415
1129.000 0.414
1130.000 0.414
1131.000 0.412
1132.000 0.409
1133.000 0.408
1134.000 0.406
1135.000 0.405
1136.000 0.403
1137.000 0.404
1138.000 0.406
1139.000 0.406
1140.000 0.407
1141.000 0.407
1142.000 0.407
1143.000 0.407
1144.000 0.408
1145.000 0.406
1146.000 0.406
1147.000 0.405
1148.000 0.404
1149.000 0.404
1150.000 0.403
1151.000 0.402
1152.000 0.399
1153.000 0.397
1154.000 0.397
1155.000 0.397
1156.000 0.397
1157.000 0.396
1158.000 0.396
1159.000 0.395
1160.000 0.392
1161.000 0.392
1162.000 0.391
1163.000 0.391
1164.000 0.391
1165.000 0.391
1166.000 0.390
1167.000 0.389
1168.000 0.388
1169.000 0.388
1170.000 0.388
1171.000 0.389
1172.000 0.389
1173.000 0.388
1174.000 0.387
1175.000 0.387
1176.000 0.387
1177.000 0.387
1178.000 0.387
1179.000 0.388
1180.000 0.388
1181.000 0.389
1182.000 0.389
1183.000 0.390
1184.000 0.390
1185.000 0.390
1186.000 0.390
1187.000 0.390
1188.000 0.390
1189.000 0.390
1190.000 0.391
1191.000 0.391
1192.000 0.390
1193.000 0.390
1194.000 0.391
1195.000 0.391
1196.000 0.392
1197.000 0.392
1198.000 0.393
1199.000 0.394
1200.000 0.393
1201.000 0.393
1202.000 0.394
1203.000 0.394
1204.000 0.394
1205.000 0.394
1206.000 0.395
1207.000 0.395
1208.000 0.395
1209.000 0.395
1210.000 0.395
1211.000 0.395
1212.000 0.395
1213.000 0.395
1214.000 0.396
1215.000 0.396
1216.000 0.396
1217.000 0.397
1218.000 0.397
1219.000 0.397
1220.000 0.398
1221.000 0.398
1222.000 0.398
1223.000 0.399
1224.000 0.399
1225.000 0.399
1226.000 0.399
1227.000 0.399
1228.000 0.399
1229.000 0.399
1230.000 0.400
1231.000 0.401
1232.000 0.402
1233.000 0.402
1234.000 0.401
1235.000 0.401
1236.000 0.401
1237.000 0.401
1238.000 0.401
1239.000 0.401
1240.000 0.402
1241.000 0.403
1242.000 0.403
1243.000 0.404
1244.000 0.404
1245.000 0.404
1246.000 0.405
1247.000 0.405
1248.000 0.406
1249.000 0.406
1250.000 0.406
1251.000 0.407
1252.000 0.408
1253.000 0.408
1254.000 0.408
1255.000 0.408
1256.000 0.409
1257.000 0.409
1258.000 0.410
1259.000 0.411
1260.000 0.411
1261.000 0.411
1262.000 0.412
1263.000 0.413
1264.000 0.413
1265.000 0.414
1266.000 0.414
1267.000 0.414
1268.000 0.414
1269.000 0.415
1270.000 0.415
1271.000 0.415
1272.000 0.415
1273.000 0.415
1274.000 0.415
1275.000 0.415
1276.000 0.415
1277.000 0.415
1278.000 0.416
1279.000 0.416
1280.000 0.416
1281.000 0.416
1282.000 0.416
1283.000 0.417
1284.000 0.417
1285.000 0.417
1286.000 0.417
1287.000 0.418
1288.000 0.419
1289.000 0.419
1290.000 0.420
1291.000 0.420
1292.000 0.419
1293.000 0.419
1294.000 0.420
1295.000 0.420
1296.000 0.421
1297.000 0.421
1298.000 0.421
1299.000 0.422
1300.000 0.423
1301.000 0.423
1302.000 0.424
1303.000 0.424
1304.000 0.424
1305.000 0.424
1306.000 0.424
1307.000 0.423
1308.000 0.423
1309.000 0.423
1310.000 0.424
1311.000 0.425
1312.000 0.425
1313.000 0.425
1314.000 0.426
1315.000 0.426
1316.000 0.427
1317.000 0.427
1318.000 0.428
1319.000 0.428
1320.000 0.428
1321.000 0.427
1322.000 0.426
1323.000 0.426
1324.000 0.426
1325.000 0.425
1326.000 0.424
1327.000 0.425
1328.000 0.426
1329.000 0.426
1330.000 0.429
1331.000 0.428
1332.000 0.426
1333.000 0.425
1334.000 0.422
1335.000 0.422
1336.000 0.425
1337.000 0.426
1338.000 0.427
1339.000 0.429
1340.000 0.429
1341.000 0.427
1342.000 0.425
1343.000 0.425
1344.000 0.425
1345.000 0.424
1346.000 0.425
1347.000 0.425
1348.000 0.427
1349.000 0.428
1350.000 0.425
1351.000 0.421
1352.000 0.416
1353.000 0.394
1354.000 0.387
1355.000 0.441
1356.000 0.464
1357.000 0.402
1358.000 0.417
1359.000 0.376
1360.000 0.405
1361.000 0.576
1362.000 0.720
1363.000 0.561
1364.000 0.447
1365.000 0.238
1366.000 0.500
1367.000 0.448
1368.000 0.382
1369.000 0.252
1370.000 0.316
1371.000 0.541
1372.000 0.377
1373.000 0.225
1374.000 0.308
1375.000 0.386
1376.000 0.457
1377.000 0.362
1378.000 0.280
1379.000 0.212
1380.000 0.576
1381.000 0.745
1382.000 0.063
1383.000 0.332
1384.000 0.598
1385.000 0.600
1386.000 0.550
1387.000 0.800
1388.000 0.707
1389.000 0.614
1390.000 0.193
1391.000 0.205
1392.000 0.274
1393.000 0.359
1394.000 0.413
1395.000 0.613
1396.000 0.479
1397.000 0.385
1398.000 0.802
1399.000 0.741
1400.000 0.614
1401.000 0.569
1402.000 0.246
1403.000 0.249
1404.000 0.173
1405.000 0.179
1406.000 0.166
1407.000 0.197
1408.000 0.112
1409.000 0.100
1410.000 0.151
1411.000 0.277
1412.000 0.369
1413.000 0.421
1414.000 0.509
1415.000 0.606
1416.000 0.714
1417.000 0.816
1418.000 0.630
1419.000 0.204
1420.000 0.362
1421.000 0.534
1422.000 0.491
1423.000 0.511
1424.000 0.333
1425.000 0.269
1426.000 0.301
1427.000 0.294
1428.000 0.254
1429.000 0.301
1430.000 0.340
1431.000 0.399
1432.000 0.462
1433.000 0.500
1434.000 0.532
1435.000 0.520
1436.000 0.518
1437.000 0.671
1438.000 0.642
1439.000 0.482
1440.000 0.457
1441.000 0.437
1442.000 0.409
1443.000 0.378
1444.000 0.366
1445.000 0.358
1446.000 0.352
1447.000 0.358
1448.000 0.353
1449.000 0.338
1450.000 0.318
1451.000 0.290
1452.000 0.268
1453.000 0.248
1454.000 0.223
1455.000 0.216
1456.000 0.211
1457.000 0.213
1458.000 0.225
1459.000 0.227
1460.000 0.227
1461.000 0.233
1462.000 0.239
1463.000 0.245
1464.000 0.261
1465.000 0.267
1466.000 0.258
1467.000 0.262
1468.000 0.275
1469.000 0.276
1470.000 0.280
1471.000 0.278
1472.000 0.265
1473.000 0.259
1474.000 0.252
1475.000 0.251
1476.000 0.253
1477.000 0.255
1478.000 0.265
1479.000 0.267
1480.000 0.268
1481.000 0.264
1482.000 0.254
1483.000 0.251
1484.000 0.248
1485.000 0.249
1486.000 0.259
1487.000 0.261
1488.000 0.261
1489.000 0.260
1490.000 0.256
1491.000 0.255
1492.000 0.254
1493.000 0.254
1494.000 0.256
1495.000 0.259
1496.000 0.262
1497.000 0.264
1498.000 0.266
1499.000 0.267
1500.000 0.267
1501.000 0.268
1502.000 0.267
1503.000 0.266
1504.000 0.267
1505.000 0.267
1506.000 0.268
1507.000 0.269
1508.000 0.272
1509.000 0.274
1510.000 0.277
1511.000 0.281
1512.000 0.282
1513.000 0.282
1514.000 0.282
1515.000 0.282
1516.000 0.283
1517.000 0.285
1518.000 0.287
1519.000 0.289
1520.000 0.291
1521.000 0.292
1522.000 0.294
1523.000 0.295
1524.000 0.296
1525.000 0.297
1526.000 0.298
1527.000 0.297
1528.000 0.298
1529.000 0.301
1530.000 0.302
1531.000 0.303
1532.000 0.304
1533.000 0.304
1534.000 0.304
1535.000 0.306
1536.000 0.307
1537.000 0.308
1538.000 0.309
1539.000 0.309
1540.000 0.310
1541.000 0.310
1542.000 0.312
1543.000 0.313
1544.000 0.315
1545.000 0.316
1546.000 0.317
1547.000 0.319
1548.000 0.319
1549.000 0.319
1550.000 0.320
1551.000 0.322
1552.000 0.323
1553.000 0.324
1554.000 0.326
1555.000 0.326
1556.000 0.327
1557.000 0.326
1558.000 0.327
1559.000 0.328
1560.000 0.329
1561.000 0.330
1562.000 0.331
1563.000 0.332
1564.000 0.333
1565.000 0.335
1566.000 0.337
1567.000 0.339
1568.000 0.340
1569.000 0.342
1570.000 0.342
1571.000 0.342
1572.000 0.342
1573.000 0.342
1574.000 0.343
1575.000 0.344
1576.000 0.345
1577.000 0.346
1578.000 0.346
1579.000 0.346
1580.000 0.345
1581.000 0.345
1582.000 0.346
1583.000 0.348
1584.000 0.349
1585.000 0.350
1586.000 0.350
1587.000 0.350
1588.000 0.351
1589.000 0.353
1590.000 0.355
1591.000 0.357
1592.000 0.358
1593.000 0.360
1594.000 0.361
1595.000 0.362
1596.000 0.364
1597.000 0.365
1598.000 0.366
1599.000 0.367
1600.000 0.368
1601.000 0.367
1602.000 0.367
1603.000 0.366
1604.000 0.365
1605.000 0.367
1606.000 0.367
1607.000 0.367
1608.000 0.367
1609.000 0.368
1610.000 0.370
1611.000 0.371
1612.000 0.372
1613.000 0.373
1614.000 0.372
1615.000 0.371
1616.000 0.371
1617.000 0.371
1618.000 0.371
1619.000 0.373
1620.000 0.373
1621.000 0.373
1622.000 0.374
1623.000 0.373
1624.000 0.374
1625.000 0.376
1626.000 0.377
1627.000 0.378
1628.000 0.378
1629.000 0.377
1630.000 0.377
1631.000 0.377
1632.000 0.377
1633.000 0.379
1634.000 0.380
1635.000 0.380
1636.000 0.380
1637.000 0.381
1638.000 0.382
1639.000 0.382
1640.000 0.383
1641.000 0.384
1642.000 0.385
1643.000 0.387
1644.000 0.388
1645.000 0.386
1646.000 0.385
1647.000 0.384
1648.000 0.383
1649.000 0.383
1650.000 0.383
1651.000 0.383
1652.000 0.383
1653.000 0.384
1654.000 0.385
1655.000 0.384
1656.000 0.384
1657.000 0.383
1658.000 0.383
1659.000 0.384
1660.000 0.386
1661.000 0.386
1662.000 0.387
1663.000 0.390
1664.000 0.391
1665.000 0.392
1666.000 0.393
1667.000 0.392
1668.000 0.393
1669.000 0.394
1670.000 0.393
1671.000 0.393
1672.000 0.393
1673.000 0.391
1674.000 0.390
1675.000 0.390
1676.000 0.390
1677.000 0.390
1678.000 0.392
1679.000 0.394
1680.000 0.394
1681.000 0.394
1682.000 0.394
1683.000 0.390
1684.000 0.389
1685.000 0.390
1686.000 0.389
1687.000 0.389
1688.000 0.389
1689.000 0.389
1690.000 0.389
1691.000 0.389
1692.000 0.390
1693.000 0.390
1694.000 0.390
1695.000 0.390
1696.000 0.390
1697.000 0.388
1698.000 0.387
1699.000 0.389
1700.000 0.388
1701.000 0.386
1702.000 0.386
1703.000 0.386
1704.000 0.386
1705.000 0.386
1706.000 0.387
1707.000 0.388
1708.000 0.390
1709.000 0.391
1710.000 0.391
1711.000 0.390
1712.000 0.388
1713.000 0.385
1714.000 0.384
1715.000 0.384
1716.000 0.386
1717.000 0.387
1718.000 0.386
1719.000 0.385
1720.000 0.383
1721.000 0.383
1722.000 0.385
1723.000 0.385
1724.000 0.384
1725.000 0.384
1726.000 0.384
1727.000 0.384
1728.000 0.384
1729.000 0.383
1730.000 0.381
1731.000 0.378
1732.000 0.377
1733.000 0.377
1734.000 0.379
1735.000 0.381
1736.000 0.383
1737.000 0.382
1738.000 0.378
1739.000 0.376
1740.000 0.374
1741.000 0.374
1742.000 0.376
1743.000 0.378
1744.000 0.378
1745.000 0.379
1746.000 0.383
1747.000 0.384
1748.000 0.384
1749.000 0.386
1750.000 0.386
1751.000 0.386
1752.000 0.389
1753.000 0.387
1754.000 0.384
1755.000 0.381
1756.000 0.373
1757.000 0.371
1758.000 0.370
1759.000 0.369
1760.000 0.376
1761.000 0.379
1762.000 0.381
1763.000 0.385
1764.000 0.381
1765.000 0.379
1766.000 0.376
1767.000 0.371
1768.000 0.367
1769.000 0.366
1770.000 0.363
1771.000 0.365
1772.000 0.376
1773.000 0.382
1774.000 0.389
1775.000 0.401
1776.000 0.399
1777.000 0.401
1778.000 0.406
1779.000 0.407
1780.000 0.402
1781.000 0.388
1782.000 0.390
1783.000 0.398
1784.000 0.405
1785.000 0.423
1786.000 0.430
1787.000 0.420
1788.000 0.419
1789.000 0.423
1790.000 0.421
1791.000 0.421
1792.000 0.408
1793.000 0.382
1794.000 0.365
1795.000 0.357
1796.000 0.362
1797.000 0.379
1798.000 0.422
1799.000 0.498
1800.000 0.430
1801.000 0.327
1802.000 0.304
1803.000 0.262
1804.000 0.269
1805.000 0.286
1806.000 0.457
1807.000 0.548
1808.000 0.614
1809.000 0.570
1810.000 0.464
1811.000 0.462
1812.000 0.600
1813.000 0.612
1814.000 0.634
1815.000 0.626
1816.000 0.601
1817.000 0.587
1818.000 0.562
1819.000 0.541
1820.000 0.252
1821.000 0.542
1822.000 0.309
1823.000 0.482
1824.000 0.411
1825.000 0.298
1826.000 0.223
1827.000 0.260
1828.000 0.319
1829.000 0.391
1830.000 0.442
1831.000 0.502
1832.000 0.556
1833.000 0.611
1834.000 0.649
1835.000 0.490
1836.000 0.428
1837.000 0.569
1838.000 0.717
1839.000 0.155
1840.000 0.137
1841.000 0.151
1842.000 0.120
1843.000 0.298
1844.000 0.510
1845.000 0.534
1846.000 0.531
1847.000 0.511
1848.000 0.633
1849.000 0.631
1850.000 0.418
1851.000 0.878
1852.000 0.641
1853.000 0.368
1854.000 0.505
1855.000 0.622
1856.000 0.309
1857.000 0.239
1858.000 0.491
1859.000 0.466
1860.000 0.462
1861.000 0.474
1862.000 0.499
1863.000 0.536
1864.000 0.500
1865.000 0.442
1866.000 0.519
1867.000 0.430
1868.000 0.395
1869.000 0.249
1870.000 0.155
1871.000 0.168
1872.000 0.294
1873.000 0.246
1874.000 0.187
1875.000 0.124
1876.000 0.345
1877.000 0.110
1878.000 0.127
1879.000 0.203
1880.000 0.151
1881.000 0.661
1882.000 0.103
1883.000 0.140
1884.000 0.189
1885.000 0.245
1886.000 0.310
1887.000 0.349
1888.000 0.411
1889.000 0.449
1890.000 0.416
1891.000 0.394
1892.000 0.485
1893.000 0.475
1894.000 0.592
1895.000 0.708
1896.000 0.700
1897.000 0.629
1898.000 0.637
1899.000 0.659
1900.000 0.630
1901.000 0.571
1902.000 0.687
1903.000 0.455
1904.000 0.356
1905.000 0.387
1906.000 0.385
1907.000 0.319
1908.000 0.531
1909.000 0.545
1910.000 0.633
1911.000 0.625
1912.000 0.673
1913.000 0.675
1914.000 0.381
1915.000 0.508
1916.000 0.624
1917.000 0.882
1918.000 0.558
1919.000 0.361
1920.000 0.372
1921.000 0.395
1922.000 0.505
1923.000 0.452
1924.000 0.356
1925.000 0.376
1926.000 0.577
1927.000 0.709
1928.000 0.703
1929.000 0.692
1930.000 0.678
1931.000 0.678
1932.000 0.671
1933.000 0.670
1934.000 0.673
1935.000 0.495
1936.000 0.350
1937.000 0.630
1938.000 0.421
1939.000 0.218
1940.000 0.792
1941.000 0.566
1942.000 0.569
1943.000 0.328
1944.000 0.708
1945.000 0.809
1946.000 0.795
1947.000 0.614
1948.000 0.458
1949.000 0.177
1950.000 0.650
1951.000 0.455
1952.000 0.301
1953.000 0.090
1954.000 0.198
1955.000 0.284
1956.000 0.533
1957.000 0.472
1958.000 0.304
1959.000 0.233
1960.000 0.209
1961.000 0.220
1962.000 0.217
1963.000 0.202
1964.000 0.208
1965.000 0.202
1966.000 0.233
1967.000 0.201
1968.000 0.201
1969.000 0.183
1970.000 0.129
1971.000 0.113
1972.000 0.128
1973.000 0.145
1974.000 0.176
1975.000 0.191
1976.000 0.194
1977.000 0.194
1978.000 0.190
1979.000 0.177
1980.000 0.175
1981.000 0.174
1982.000 0.175
1983.000 0.176
1984.000 0.174
1985.000 0.180
1986.000 0.176
1987.000 0.161
1988.000 0.158
1989.000 0.152
1990.000 0.152
1991.000 0.163
1992.000 0.175
1993.000 0.186
1994.000 0.186
1995.000 0.175
1996.000 0.174
1997.000 0.177
1998.000 0.204
1999.000 0.226
2000.000 0.280
2001.000 0.306
2002.000 0.286
2003.000 0.297
2004.000 0.291
2005.000 0.292
2006.000 0.307
2007.000 0.313
2008.000 0.299
2009.000 0.293
2010.000 0.269
2011.000 0.245
2012.000 0.233
2013.000 0.248
2014.000 0.232
2015.000 0.188
2016.000 0.194
2017.000 0.217
2018.000 0.215
2019.000 0.207
2020.000 0.198
2021.000 0.184
2022.000 0.178
2023.000 0.184
2024.000 0.185
2025.000 0.190
2026.000 0.193
2027.000 0.192
2028.000 0.193
2029.000 0.189
2030.000 0.177
2031.000 0.174
2032.000 0.169
2033.000 0.169
2034.000 0.177
2035.000 0.182
2036.000 0.191
2037.000 0.191
2038.000 0.189
2039.000 0.202
2040.000 0.205
2041.000 0.208
2042.000 0.212
2043.000 0.222
2044.000 0.221
2045.000 0.209
2046.000 0.208
2047.000 0.200
2048.000 0.200
2049.000 0.210
2050.000 0.225
2051.000 0.223
2052.000 0.229
2053.000 0.229
2054.000 0.218
2055.000 0.214
2056.000 0.209
2057.000 0.206
2058.000 0.206
2059.000 0.206
2060.000 0.204
2061.000 0.205
2062.000 0.208
2063.000 0.211
2064.000 0.214
2065.000 0.217
2066.000 0.220
2067.000 0.226
2068.000 0.223
2069.000 0.217
2070.000 0.217
2071.000 0.213
2072.000 0.216
2073.000 0.230
2074.000 0.231
2075.000 0.230
2076.000 0.229
2077.000 0.222
2078.000 0.218
2079.000 0.215
2080.000 0.213
2081.000 0.211
2082.000 0.210
2083.000 0.209
2084.000 0.211
2085.000 0.210
2086.000 0.209
2087.000 0.212
2088.000 0.219
2089.000 0.219
2090.000 0.221
2091.000 0.222
2092.000 0.213
2093.000 0.216
2094.000 0.231
2095.000 0.238
2096.000 0.249
2097.000 0.257
2098.000 0.261
2099.000 0.262
2100.000 0.270
2101.000 0.273
2102.000 0.274
2103.000 0.277
2104.000 0.277
2105.000 0.280
2106.000 0.276
2107.000 0.266
2108.000 0.258
2109.000 0.242
2110.000 0.237
2111.000 0.236
2112.000 0.235
2113.000 0.240
2114.000 0.241
2115.000 0.234
2116.000 0.234
2117.000 0.237
2118.000 0.243
2119.000 0.248
2120.000 0.256
2121.000 0.261
2122.000 0.253
2123.000 0.248
2124.000 0.236
2125.000 0.237
2126.000 0.245
2127.000 0.249
2128.000 0.263
2129.000 0.266
2130.000 0.262
2131.000 0.260
2132.000 0.258
2133.000 0.255
2134.000 0.246
2135.000 0.243
2136.000 0.243
2137.000 0.243
2138.000 0.248
2139.000 0.256
2140.000 0.255
2141.000 0.251
2142.000 0.250
2143.000 0.244
2144.000 0.243
2145.000 0.245
2146.000 0.247
2147.000 0.254
2148.000 0.255
2149.000 0.253
2150.000 0.251
2151.000 0.239
2152.000 0.237
2153.000 0.244
2154.000 0.247
2155.000 0.253
2156.000 0.265
2157.000 0.259
2158.000 0.255
2159.000 0.254
2160.000 0.245
2161.000 0.245
2162.000 0.250
2163.000 0.253
2164.000 0.263
2165.000 0.268
2166.000 0.275
2167.000 0.277
2168.000 0.275
2169.000 0.272
2170.000 0.267
2171.000 0.262
2172.000 0.253
2173.000 0.250
2174.000 0.248
2175.000 0.250
2176.000 0.261
2177.000 0.267
2178.000 0.275
2179.000 0.286
2180.000 0.287
2181.000 0.289
2182.000 0.298
2183.000 0.296
2184.000 0.291
2185.000 0.282
2186.000 0.274
2187.000 0.255
2188.000 0.251
2189.000 0.257
2190.000 0.257
2191.000 0.262
2192.000 0.262
2193.000 0.256
2194.000 0.255
2195.000 0.258
2196.000 0.259
2197.000 0.264
2198.000 0.267
2199.000 0.269
2200.000 0.267
2201.000 0.266
2202.000 0.253
2203.000 0.245
2204.000 0.244
2205.000 0.243
2206.000 0.258
2207.000 0.276
2208.000 0.283
2209.000 0.287
2210.000 0.290
2211.000 0.288
2212.000 0.275
2213.000 0.271
2214.000 0.263
2215.000 0.265
2216.000 0.273
2217.000 0.278
2218.000 0.291
2219.000 0.293
2220.000 0.285
2221.000 0.281
2222.000 0.273
2223.000 0.269
2224.000 0.268
2225.000 0.270
2226.000 0.277
2227.000 0.282
2228.000 0.286
2229.000 0.280
2230.000 0.271
2231.000 0.260
2232.000 0.253
2233.000 0.260
2234.000 0.271
2235.000 0.277
2236.000 0.284
2237.000 0.284
2238.000 0.285
2239.000 0.280
2240.000 0.276
2241.000 0.274
2242.000 0.269
2243.000 0.255
2244.000 0.253
2245.000 0.256
2246.000 0.256
2247.000 0.261
2248.000 0.261
2249.000 0.251
2250.000 0.252
2251.000 0.261
2252.000 0.265
2253.000 0.278
2254.000 0.279
2255.000 0.266
2256.000 0.261
2257.000 0.257
2258.000 0.244
2259.000 0.242
2260.000 0.239
2261.000 0.237
2262.000 0.240
2263.000 0.249
2264.000 0.255
2265.000 0.251
2266.000 0.247
2267.000 0.243
2268.000 0.240
2269.000 0.236
2270.000 0.236
2271.000 0.227
2272.000 0.225
2273.000 0.229
2274.000 0.237
2275.000 0.245
2276.000 0.261
2277.000 0.267
2278.000 0.274
2279.000 0.268
2280.000 0.254
2281.000 0.244
2282.000 0.223
2283.000 0.214
2284.000 0.208
2285.000 0.202
2286.000 0.193
2287.000 0.193
2288.000 0.202
2289.000 0.205
2290.000 0.211
2291.000 0.218
2292.000 0.223
2293.000 0.229
2294.000 0.242
2295.000 0.250
2296.000 0.256
2297.000 0.237
2298.000 0.220
2299.000 0.212
2300.000 0.208
2301.000 0.212
2302.000 0.219
2303.000 0.234
2304.000 0.228
2305.000 0.216
2306.000 0.198
2307.000 0.178
2308.000 0.164
2309.000 0.160
2310.000 0.175
2311.000 0.178
2312.000 0.177
2313.000 0.178
2314.000 0.173
2315.000 0.167
2316.000 0.171
2317.000 0.198
2318.000 0.198
2319.000 0.203
2320.000 0.198
2321.000 0.164
2322.000 0.153
2323.000 0.151
2324.000 0.157
2325.000 0.167
2326.000 0.206
2327.000 0.170
2328.000 0.173
2329.000 0.187
2330.000 0.198
2331.000 0.205
2332.000 0.211
2333.000 0.210
2334.000 0.204
2335.000 0.258
2336.000 0.257
2337.000 0.202
2338.000 0.195
2339.000 0.176
2340.000 0.176
2341.000 0.193
2342.000 0.201
2343.000 0.221
2344.000 0.211
2345.000 0.173
2346.000 0.170
2347.000 0.214
2348.000 0.234
2349.000 0.245
2350.000 0.264
2351.000 0.260
2352.000 0.239
2353.000 0.189
2354.000 0.191
2355.000 0.230
2356.000 0.247
2357.000 0.268
2358.000 0.254
2359.000 0.245
2360.000 0.249
2361.000 0.195
2362.000 0.237
2363.000 0.235
2364.000 0.210
2365.000 0.205
2366.000 0.179
2367.000 0.157
2368.000 0.134
2369.000 0.164
2370.000 0.155
2371.000 0.173
2372.000 0.139
2373.000 0.125
2374.000 0.192
2375.000 0.212
2376.000 0.241
2377.000 0.193
2378.000 0.174
2379.000 0.195
2380.000 0.168
2381.000 0.213
2382.000 0.257
2383.000 0.180
2384.000 0.280
2385.000 0.205
2386.000 0.187
2387.000 0.221
2388.000 0.227
2389.000 0.326
2390.000 0.369
2391.000 0.222
2392.000 0.283
2393.000 0.145
2394.000 0.152
2395.000 0.198
2396.000 0.204
2397.000 0.321
2398.000 0.400
2399.000 0.500
2400.000 0.285
2401.000 0.114
2402.000 0.155
2403.000 0.066
2404.000 0.064
2405.000 0.050
2406.000 0.167
2407.000 0.268
2408.000 0.303
2409.000 0.106
2410.000 0.194
2411.000 0.352
2412.000 0.336
2413.000 0.356
2414.000 0.323
2415.000 0.200
2416.000 0.257
2417.000 0.251
2418.000 0.233
2419.000 0.315
2420.000 0.253
2421.000 0.193
2422.000 0.203
2423.000 0.258
2424.000 0.286
2425.000 0.457
2426.000 0.151
2427.000 0.289
2428.000 0.437
2429.000 0.276
2430.000 0.390
2431.000 0.324
2432.000 0.298
2433.000 0.389
2434.000 0.429
2435.000 0.662
2436.000 0.885
2437.000 0.853
2438.000 0.339
2439.000 0.319
2440.000 0.270
2441.000 0.231
2442.000 0.194
2443.000 0.096
2444.000 0.370
2445.000 0.848
2446.000 0.650
2447.000 0.487
2448.000 0.167
2449.000 0.300
2450.000 0.656
2451.000 0.629
2452.000 0.615
2453.000 0.602
2454.000 0.630
2455.000 0.597
2456.000 0.577
2457.000 0.432
2458.000 0.396
2459.000 0.302
2460.000 0.387
2461.000 0.447
2462.000 0.506
2463.000 0.567
2464.000 0.588
2465.000 0.607
2466.000 0.634
2467.000 0.792
2468.000 0.632
2469.000 0.373
2470.000 0.811
2471.000 0.217
2472.000 0.426
2473.000 0.435
2474.000 0.558
2475.000 0.479
2476.000 0.480
2477.000 0.453
2478.000 0.385
2479.000 0.323
2480.000 0.288
2481.000 0.591
2482.000 0.371
2483.000 0.439
2484.000 0.552
2485.000 0.631
2486.000 0.579
2487.000 0.689
2488.000 0.617
2489.000 0.084
2490.000 0.120
2491.000 0.100
2492.000 0.182
2493.000 0.177
2494.000 0.264
2495.000 0.229
2496.000 0.219
2497.000 0.220
2498.000 0.230
2499.000 0.214
2500.000 0.203
