391.000 0.038
392.000 0.035
393.000 0.033
394.000 0.036
395.000 0.035
396.000 0.033
397.000 0.034
398.000 0.035
399.000 0.035
400.000 0.036
401.000 0.037
402.000 0.036
403.000 0.036
404.000 0.037
405.000 0.035
406.000 0.036
407.000 0.038
408.000 0.038
409.000 0.038
410.000 0.036
411.000 0.035
412.000 0.037
413.000 0.036
414.000 0.037
415.000 0.039
416.000 0.038
417.000 0.036
418.000 0.037
419.000 0.038
420.000 0.038
421.000 0.039
422.000 0.039
423.000 0.037
424.000 0.038
425.000 0.037
426.000 0.037
427.000 0.038
428.000 0.036
429.000 0.036
430.000 0.037
431.000 0.038
432.000 0.037
433.000 0.037
434.000 0.039
435.000 0.038
436.000 0.038
437.000 0.037
438.000 0.037
439.000 0.038
440.000 0.038
441.000 0.037
442.000 0.038
443.000 0.039
444.000 0.038
445.000 0.038
446.000 0.038
447.000 0.039
448.000 0.039
449.000 0.037
450.000 0.039
451.000 0.039
452.000 0.037
453.000 0.037
454.000 0.039
455.000 0.039
456.000 0.039
457.000 0.039
458.000 0.039
459.000 0.039
460.000 0.038
461.000 0.038
462.000 0.038
463.000 0.037
464.000 0.039
465.000 0.038
466.000 0.038
467.000 0.038
468.000 0.038
469.000 0.038
470.000 0.037
471.000 0.039
472.000 0.039
473.000 0.039
474.000 0.040
475.000 0.038
476.000 0.038
477.000 0.039
478.000 0.038
479.000 0.040
480.000 0.040
481.000 0.038
482.000 0.039
483.000 0.039
484.000 0.039
485.000 0.039
486.000 0.040
487.000 0.039
488.000 0.039
489.000 0.039
490.000 0.038
491.000 0.039
492.000 0.040
493.000 0.039
494.000 0.039
495.000 0.040
496.000 0.041
497.000 0.041
498.000 0.040
499.000 0.040
500.000 0.041
501.000 0.041
502.000 0.042
503.000 0.042
504.000 0.043
505.000 0.044
506.000 0.044
507.000 0.045
508.000 0.045
509.000 0.047
510.000 0.048
511.000 0.049
512.000 0.050
513.000 0.051
514.000 0.053
515.000 0.055
516.000 0.057
517.000 0.058
518.000 0.059
519.000 0.063
520.000 0.065
521.000 0.067
522.000 0.070
523.000 0.072
524.000 0.075
525.000 0.076
526.000 0.079
527.000 0.081
528.000 0.084
529.000 0.085
530.000 0.087
531.000 0.089
532.000 0.091
533.000 0.092
534.000 0.093
535.000 0.094
536.000 0.094
537.000 0.096
538.000 0.096
539.000 0.097
540.000 0.098
541.000 0.098
542.000 0.099
543.000 0.099
544.000 0.100
545.000 0.100
546.000 0.100
547.000 0.100
548.000 0.101
549.000 0.101
550.000 0.101
551.000 0.101
552.000 0.101
553.000 0.101
554.000 0.101
555.000 0.101
556.000 0.100
557.000 0.099
558.000 0.099
559.000 0.098
560.000 0.097
561.000 0.097
562.000 0.095
563.000 0.093
564.000 0.092
565.000 0.091
566.000 0.089
567.000 0.088
568.000 0.086
569.000 0.084
570.000 0.083
571.000 0.081
572.000 0.080
573.000 0.078
574.000 0.077
575.000 0.075
576.000 0.075
577.000 0.073
578.000 0.072
579.000 0.072
580.000 0.070
581.000 0.069
582.000 0.069
583.000 0.069
584.000 0.067
585.000 0.066
586.000 0.066
587.000 0.065
588.000 0.065
589.000 0.064
590.000 0.064
591.000 0.063
592.000 0.063
593.000 0.063
594.000 0.062
595.000 0.061
596.000 0.061
597.000 0.061
598.000 0.061
599.000 0.062
600.000 0.061
601.000 0.060
602.000 0.060
603.000 0.060
604.000 0.059
605.000 0.059
606.000 0.058
607.000 0.057
608.000 0.057
609.000 0.057
610.000 0.057
611.000 0.057
612.000 0.057
613.000 0.055
614.000 0.055
615.000 0.054
616.000 0.054
617.000 0.052
618.000 0.052
619.000 0.052
620.000 0.052
621.000 0.051
622.000 0.051
623.000 0.051
624.000 0.052
625.000 0.052
626.000 0.051
627.000 0.051
628.000 0.052
629.000 0.051
630.000 0.051
631.000 0.051
632.000 0.051
633.000 0.051
634.000 0.051
635.000 0.051
636.000 0.051
637.000 0.050
638.000 0.048
639.000 0.048
640.000 0.049
641.000 0.048
642.000 0.046
643.000 0.045
644.000 0.046
645.000 0.046
646.000 0.045
647.000 0.044
648.000 0.045
649.000 0.044
650.000 0.043
651.000 0.044
652.000 0.045
653.000 0.044
654.000 0.043
655.000 0.043
656.000 0.043
657.000 0.044
658.000 0.043
659.000 0.044
660.000 0.043
661.000 0.044
662.000 0.045
663.000 0.044
664.000 0.043
665.000 0.043
666.000 0.043
667.000 0.043
668.000 0.042
669.000 0.042
670.000 0.042
671.000 0.043
672.000 0.043
673.000 0.043
674.000 0.045
675.000 0.046
676.000 0.045
677.000 0.046
678.000 0.049
679.000 0.049
680.000 0.048
681.000 0.049
682.000 0.050
683.000 0.051
684.000 0.052
685.000 0.053
686.000 0.054
687.000 0.056
688.000 0.057
689.000 0.059
690.000 0.061
691.000 0.063
692.000 0.066
693.000 0.070
694.000 0.073
695.000 0.080
696.000 0.084
697.000 0.090
698.000 0.096
699.000 0.104
700.000 0.113
701.000 0.121
702.000 0.130
703.000 0.138
704.000 0.147
705.000 0.156
706.000 0.164
707.000 0.174
708.000 0.184
709.000 0.193
710.000 0.203
711.000 0.213
712.000 0.222
713.000 0.232
714.000 0.242
715.000 0.252
716.000 0.262
717.000 0.273
718.000 0.284
719.000 0.296
720.000 0.307
721.000 0.318
722.000 0.327
723.000 0.336
724.000 0.347
725.000 0.357
726.000 0.368
727.000 0.377
728.000 0.387
729.000 0.397
730.000 0.405
731.000 0.414
732.000 0.422
733.000 0.430
734.000 0.438
735.000 0.445
736.000 0.452
737.000 0.458
738.000 0.464
739.000 0.471
740.000 0.476
741.000 0.481
742.000 0.486
743.000 0.490
744.000 0.495
745.000 0.499
746.000 0.503
747.000 0.506
748.000 0.509
749.000 0.512
750.000 0.515
751.000 0.517
752.000 0.519
753.000 0.522
754.000 0.524
755.000 0.526
756.000 0.527
757.000 0.529
758.000 0.529
759.000 0.530
760.000 0.531
761.000 0.532
762.000 0.532
763.000 0.532
764.000 0.533
765.000 0.535
766.000 0.536
767.000 0.537
768.000 0.539
769.000 0.539
770.000 0.540
771.000 0.541
772.000 0.541
773.000 0.542
774.000 0.542
775.000 0.543
776.000 0.543
777.000 0.544
778.000 0.544
779.000 0.545
780.000 0.546
781.000 0.545
782.000 0.546
783.000 0.546
784.000 0.546
785.000 0.547
786.000 0.547
787.000 0.548
788.000 0.547
789.000 0.547
790.000 0.548
791.000 0.548
792.000 0.548
793.000 0.549
794.000 0.549
795.000 0.550
796.000 0.550
797.000 0.550
798.000 0.550
799.000 0.551
800.000 0.551
801.000 0.551
802.000 0.551
803.000 0.552
804.000 0.552
805.000 0.553
806.000 0.553
807.000 0.553
808.000 0.554
809.000 0.554
810.000 0.554
811.000 0.553
812.000 0.554
813.000 0.553
814.000 0.553
815.000 0.553
816.000 0.553
817.000 0.553
818.000 0.554
819.000 0.555
820.000 0.554
821.000 0.555
822.000 0.555
823.000 0.556
824.000 0.557
825.000 0.556
826.000 0.557
827.000 0.557
828.000 0.557
829.000 0.557
830.000 0.557
831.000 0.558
832.000 0.558
833.000 0.559
834.000 0.559
835.000 0.560
836.000 0.559
837.000 0.560
838.000 0.561
839.000 0.561
840.000 0.561
841.000 0.562
842.000 0.562
843.000 0.562
844.000 0.562
845.000 0.563
846.000 0.563
847.000 0.563
848.000 0.563
849.000 0.563
850.000 0.564
851.000 0.564
852.000 0.564
853.000 0.565
854.000 0.565
855.000 0.566
856.000 0.566
857.000 0.566
858.000 0.566
859.000 0.566
860.000 0.566
861.000 0.566
862.000 0.566
863.000 0.567
864.000 0.567
865.000 0.567
866.000 0.568
867.000 0.568
868.000 0.568
869.000 0.568
870.000 0.568
871.000 0.569
872.000 0.569
873.000 0.569
874.000 0.569
875.000 0.569
876.000 0.569
877.000 0.569
878.000 0.570
879.000 0.570
880.000 0.570
881.000 0.570
882.000 0.570
883.000 0.571
884.000 0.571
885.000 0.571
886.000 0.571
887.000 0.571
888.000 0.572
889.000 0.572
890.000 0.571
891.000 0.571
892.000 0.571
893.000 0.571
894.000 0.571
895.000 0.570
896.000 0.570
897.000 0.570
898.000 0.570
899.000 0.570
900.000 0.570
901.000 0.571
902.000 0.570
903.000 0.570
904.000 0.571
905.000 0.571
906.000 0.571
907.000 0.571
908.000 0.570
909.000 0.571
910.000 0.571
911.000 0.571
912.000 0.570
913.000 0.571
914.000 0.571
915.000 0.571
916.000 0.571
917.000 0.571
918.000 0.571
919.000 0.571
920.000 0.571
921.000 0.572
922.000 0.572
923.000 0.572
924.000 0.572
925.000 0.571
926.000 0.570
927.000 0.569
928.000 0.569
929.000 0.568
930.000 0.567
931.000 0.566
932.000 0.565
933.000 0.564
934.000 0.562
935.000 0.559
936.000 0.561
937.000 0.561
938.000 0.560
939.000 0.557
940.000 0.557
941.000 0.558
942.000 0.559
943.000 0.559
944.000 0.556
945.000 0.555
946.000 0.554
947.000 0.554
948.000 0.553
949.000 0.553
950.000 0.551
951.000 0.550
952.000 0.550
953.000 0.549
954.000 0.548
955.000 0.549
956.000 0.548
957.000 0.546
958.000 0.546
959.000 0.547
960.000 0.545
961.000 0.545
962.000 0.546
963.000 0.546
964.000 0.547
965.000 0.546
966.000 0.546
967.000 0.548
968.000 0.548
969.000 0.548
970.000 0.549
971.000 0.549
972.000 0.550
973.000 0.548
974.000 0.548
975.000 0.550
976.000 0.550
977.000 0.549
978.000 0.550
979.000 0.551
980.000 0.550
981.000 0.551
982.000 0.552
983.000 0.552
984.000 0.553
985.000 0.553
986.000 0.553
987.000 0.553
988.000 0.556
989.000 0.556
990.000 0.555
991.000 0.557
992.000 0.557
993.000 0.557
994.000 0.557
995.000 0.558
996.000 0.559
997.000 0.559
998.000 0.560
999.000 0.561
1000.000 0.562
1001.000 0.566
1002.000 0.566
1003.000 0.567
1004.000 0.568
1005.000 0.568
1006.000 0.569
1007.000 0.569
1008.000 0.570
1009.000 0.571
1010.000 0.571
1011.000 0.572
1012.000 0.572
1013.000 0.573
1014.000 0.574
1015.000 0.575
1016.000 0.576
1017.000 0.576
1018.000 0.577
1019.000 0.578
1020.000 0.579
1021.000 0.580
1022.000 0.580
1023.000 0.581
1024.000 0.582
1025.000 0.581
1026.000 0.582
1027.000 0.583
1028.000 0.583
1029.000 0.584
1030.000 0.585
1031.000 0.585
1032.000 0.586
1033.000 0.587
1034.000 0.588
1035.000 0.588
1036.000 0.588
1037.000 0.589
1038.000 0.589
1039.000 0.590
1040.000 0.590
1041.000 0.591
1042.000 0.592
1043.000 0.592
1044.000 0.591
1045.000 0.591
1046.000 0.592
1047.000 0.592
1048.000 0.593
1049.000 0.594
1050.000 0.594
1051.000 0.595
1052.000 0.595
1053.000 0.595
1054.000 0.595
1055.000 0.595
1056.000 0.596
1057.000 0.596
1058.000 0.597
1059.000 0.597
1060.000 0.598
1061.000 0.598
1062.000 0.599
1063.000 0.599
1064.000 0.599
1065.000 0.599
1066.000 0.598
1067.000 0.598
1068.000 0.599
1069.000 0.599
1070.000 0.599
1071.000 0.600
1072.000 0.600
1073.000 0.600
1074.000 0.601
1075.000 0.601
1076.000 0.601
1077.000 0.601
1078.000 0.601
1079.000 0.601
1080.000 0.601
1081.000 0.601
1082.000 0.602
1083.000 0.602
1084.000 0.603
1085.000 0.602
1086.000 0.603
1087.000 0.602
1088.000 0.602
1089.000 0.602
1090.000 0.602
1091.000 0.602
1092.000 0.601
1093.000 0.601
1094.000 0.601
1095.000 0.601
1096.000 0.601
1097.000 0.600
1098.000 0.599
1099.000 0.598
1100.000 0.598
1101.000 0.597
1102.000 0.597
1103.000 0.597
1104.000 0.596
1105.000 0.595
1106.000 0.593
1107.000 0.593
1108.000 0.593
1109.000 0.592
1110.000 0.592
1111.000 0.592
1112.000 0.590
1113.000 0.589
1114.000 0.589
1115.000 0.588
1116.000 0.587
1117.000 0.586
1118.000 0.585
1119.000 0.583
1120.000 0.583
1121.000 0.583
1122.000 0.583
1123.000 0.582
1124.000 0.581
1125.000 0.580
1126.000 0.576
1127.000 0.574
1128.000 0.574
1129.000 0.574
1130.000 0.574
1131.000 0.575
1132.000 0.575
1133.000 0.574
1134.000 0.572
1135.000 0.571
1136.000 0.570
1137.000 0.569
1138.000 0.568
1139.000 0.566
1140.000 0.564
1141.000 0.560
1142.000 0.558
1143.000 0.557
1144.000 0.555
1145.000 0.553
1146.000 0.550
1147.000 0.547
1148.000 0.543
1149.000 0.540
1150.000 0.538
1151.000 0.538
1152.000 0.538
1153.000 0.536
1154.000 0.535
1155.000 0.533
1156.000 0.531
1157.000 0.531
1158.000 0.529
1159.000 0.528
1160.000 0.528
1161.000 0.528
1162.000 0.528
1163.000 0.528
1164.000 0.528
1165.000 0.528
1166.000 0.527
1167.000 0.527
1168.000 0.527
1169.000 0.527
1170.000 0.528
1171.000 0.528
1172.000 0.529
1173.000 0.528
1174.000 0.527
1175.000 0.527
1176.000 0.527
1177.000 0.527
1178.000 0.526
1179.000 0.527
1180.000 0.526
1181.000 0.526
1182.000 0.526
1183.000 0.526
1184.000 0.526
1185.000 0.527
1186.000 0.527
1187.000 0.526
1188.000 0.525
1189.000 0.525
1190.000 0.525
1191.000 0.525
1192.000 0.525
1193.000 0.525
1194.000 0.526
1195.000 0.526
1196.000 0.527
1197.000 0.526
1198.000 0.527
1199.000 0.527
1200.000 0.527
1201.000 0.527
1202.000 0.527
1203.000 0.527
1204.000 0.528
1205.000 0.528
1206.000 0.528
1207.000 0.528
1208.000 0.528
1209.000 0.528
1210.000 0.529
1211.000 0.529
1212.000 0.530
1213.000 0.530
1214.000 0.531
1215.000 0.531
1216.000 0.532
1217.000 0.533
1218.000 0.533
1219.000 0.533
1220.000 0.534
1221.000 0.534
1222.000 0.534
1223.000 0.535
1224.000 0.536
1225.000 0.536
1226.000 0.536
1227.000 0.536
1228.000 0.538
1229.000 0.538
1230.000 0.538
1231.000 0.539
1232.000 0.539
1233.000 0.540
1234.000 0.540
1235.000 0.541
1236.000 0.541
1237.000 0.541
1238.000 0.542
1239.000 0.542
1240.000 0.542
1241.000 0.543
1242.000 0.543
1243.000 0.544
1244.000 0.545
1245.000 0.545
1246.000 0.545
1247.000 0.546
1248.000 0.546
1249.000 0.547
1250.000 0.547
1251.000 0.547
1252.000 0.547
1253.000 0.547
1254.000 0.547
1255.000 0.548
1256.000 0.548
1257.000 0.548
1258.000 0.548
1259.000 0.549
1260.000 0.549
1261.000 0.549
1262.000 0.549
1263.000 0.549
1264.000 0.549
1265.000 0.549
1266.000 0.549
1267.000 0.550
1268.000 0.550
1269.000 0.550
1270.000 0.550
1271.000 0.550
1272.000 0.550
1273.000 0.551
1274.000 0.552
1275.000 0.551
1276.000 0.552
1277.000 0.552
1278.000 0.551
1279.000 0.551
1280.000 0.551
1281.000 0.551
1282.000 0.551
1283.000 0.550
1284.000 0.550
1285.000 0.550
1286.000 0.549
1287.000 0.549
1288.000 0.549
1289.000 0.549
1290.000 0.549
1291.000 0.548
1292.000 0.547
1293.000 0.546
1294.000 0.545
1295.000 0.544
1296.000 0.543
1297.000 0.543
1298.000 0.542
1299.000 0.540
1300.000 0.539
1301.000 0.539
1302.000 0.538
1303.000 0.537
1304.000 0.536
1305.000 0.534
1306.000 0.532
1307.000 0.531
1308.000 0.530
1309.000 0.529
1310.000 0.527
1311.000 0.526
1312.000 0.524
1313.000 0.522
1314.000 0.520
1315.000 0.518
1316.000 0.516
1317.000 0.514
1318.000 0.512
1319.000 0.511
1320.000 0.510
1321.000 0.509
1322.000 0.507
1323.000 0.505
1324.000 0.502
1325.000 0.500
1326.000 0.498
1327.000 0.496
1328.000 0.495
1329.000 0.493
1330.000 0.490
1331.000 0.487
1332.000 0.484
1333.000 0.481
1334.000 0.478
1335.000 0.475
1336.000 0.473
1337.000 0.471
1338.000 0.469
1339.000 0.468
1340.000 0.465
1341.000 0.464
1342.000 0.464
1343.000 0.463
1344.000 0.464
1345.000 0.463
1346.000 0.459
1347.000 0.455
1348.000 0.451
1349.000 0.444
1350.000 0.438
1351.000 0.434
1352.000 0.428
1353.000 0.424
1354.000 0.416
1355.000 0.387
1356.000 0.356
1357.000 0.363
1358.000 0.246
1359.000 0.276
1360.000 0.275
1361.000 0.261
1362.000 0.231
1363.000 0.337
1364.000 0.407
1365.000 0.355
1366.000 0.409
1367.000 0.424
1368.000 0.571
1369.000 0.380
1370.000 0.366
1371.000 0.283
1372.000 0.303
1373.000 0.568
1374.000 0.488
1375.000 0.590
1376.000 0.327
1377.000 0.417
1378.000 0.413
1379.000 0.553
1380.000 0.419
1381.000 0.456
1382.000 0.616
1383.000 0.608
1384.000 0.390
1385.000 0.406
1386.000 0.584
1387.000 0.711
1388.000 0.731
1389.000 0.728
1390.000 0.704
1391.000 0.611
1392.000 0.569
1393.000 0.705
1394.000 0.276
1395.000 0.307
1396.000 0.472
1397.000 0.521
1398.000 0.593
1399.000 0.249
1400.000 0.476
1401.000 0.506
1402.000 0.321
1403.000 0.316
1404.000 0.315
1405.000 0.282
1406.000 0.376
1407.000 0.645
1408.000 0.638
1409.000 0.505
1410.000 0.450
1411.000 0.358
1412.000 0.341
1413.000 0.252
1414.000 0.354
1415.000 0.220
1416.000 0.233
1417.000 0.356
1418.000 0.375
1419.000 0.365
1420.000 0.323
1421.000 0.385
1422.000 0.405
1423.000 0.217
1424.000 0.346
1425.000 0.243
1426.000 0.199
1427.000 0.191
1428.000 0.182
1429.000 0.154
1430.000 0.158
1431.000 0.145
1432.000 0.141
1433.000 0.139
1434.000 0.138
1435.000 0.132
1436.000 0.135
1437.000 0.151
1438.000 0.162
1439.000 0.153
1440.000 0.157
1441.000 0.152
1442.000 0.149
1443.000 0.143
1444.000 0.143
1445.000 0.146
1446.000 0.149
1447.000 0.157
1448.000 0.159
1449.000 0.141
1450.000 0.145
1451.000 0.152
1452.000 0.158
1453.000 0.156
1454.000 0.153
1455.000 0.151
1456.000 0.144
1457.000 0.142
1458.000 0.143
1459.000 0.143
1460.000 0.146
1461.000 0.146
1462.000 0.143
1463.000 0.145
1464.000 0.150
1465.000 0.152
1466.000 0.162
1467.000 0.163
1468.000 0.153
1469.000 0.151
1470.000 0.149
1471.000 0.150
1472.000 0.153
1473.000 0.156
1474.000 0.166
1475.000 0.166
1476.000 0.160
1477.000 0.160
1478.000 0.157
1479.000 0.158
1480.000 0.164
1481.000 0.167
1482.000 0.168
1483.000 0.169
1484.000 0.168
1485.000 0.169
1486.000 0.168
1487.000 0.169
1488.000 0.171
1489.000 0.172
1490.000 0.173
1491.000 0.175
1492.000 0.176
1493.000 0.178
1494.000 0.178
1495.000 0.178
1496.000 0.180
1497.000 0.181
1498.000 0.183
1499.000 0.185
1500.000 0.185
1501.000 0.187
1502.000 0.189
1503.000 0.190
1504.000 0.191
1505.000 0.192
1506.000 0.193
1507.000 0.193
1508.000 0.195
1509.000 0.198
1510.000 0.200
1511.000 0.203
1512.000 0.205
1513.000 0.205
1514.000 0.207
1515.000 0.208
1516.000 0.210
1517.000 0.211
1518.000 0.213
1519.000 0.216
1520.000 0.218
1521.000 0.220
1522.000 0.221
1523.000 0.222
1524.000 0.223
1525.000 0.224
1526.000 0.224
1527.000 0.227
1528.000 0.228
1529.000 0.229
1530.000 0.231
1531.000 0.233
1532.000 0.234
1533.000 0.235
1534.000 0.237
1535.000 0.238
1536.000 0.239
1537.000 0.241
1538.000 0.242
1539.000 0.244
1540.000 0.246
1541.000 0.247
1542.000 0.249
1543.000 0.250
1544.000 0.251
1545.000 0.254
1546.000 0.255
1547.000 0.258
1548.000 0.258
1549.000 0.258
1550.000 0.259
1551.000 0.260
1552.000 0.262
1553.000 0.264
1554.000 0.266
1555.000 0.267
1556.000 0.268
1557.000 0.269
1558.000 0.270
1559.000 0.272
1560.000 0.274
1561.000 0.275
1562.000 0.277
1563.000 0.277
1564.000 0.279
1565.000 0.280
1566.000 0.281
1567.000 0.282
1568.000 0.283
1569.000 0.283
1570.000 0.285
1571.000 0.285
1572.000 0.286
1573.000 0.288
1574.000 0.290
1575.000 0.292
1576.000 0.294
1577.000 0.294
1578.000 0.295
1579.000 0.297
1580.000 0.298
1581.000 0.300
1582.000 0.302
1583.000 0.302
1584.000 0.303
1585.000 0.305
1586.000 0.306
1587.000 0.307
1588.000 0.308
1589.000 0.308
1590.000 0.309
1591.000 0.311
1592.000 0.312
1593.000 0.314
1594.000 0.315
1595.000 0.314
1596.000 0.315
1597.000 0.315
1598.000 0.315
1599.000 0.317
1600.000 0.318
1601.000 0.319
1602.000 0.320
1603.000 0.322
1604.000 0.322
1605.000 0.324
1606.000 0.324
1607.000 0.325
1608.000 0.326
1609.000 0.327
1610.000 0.328
1611.000 0.329
1612.000 0.331
1613.000 0.331
1614.000 0.332
1615.000 0.333
1616.000 0.333
1617.000 0.334
1618.000 0.335
1619.000 0.336
1620.000 0.338
1621.000 0.339
1622.000 0.340
1623.000 0.341
1624.000 0.342
1625.000 0.342
1626.000 0.342
1627.000 0.342
1628.000 0.342
1629.000 0.343
1630.000 0.343
1631.000 0.344
1632.000 0.345
1633.000 0.345
1634.000 0.345
1635.000 0.346
1636.000 0.346
1637.000 0.346
1638.000 0.346
1639.000 0.348
1640.000 0.348
1641.000 0.348
1642.000 0.348
1643.000 0.348
1644.000 0.348
1645.000 0.349
1646.000 0.349
1647.000 0.351
1648.000 0.352
1649.000 0.352
1650.000 0.353
1651.000 0.354
1652.000 0.354
1653.000 0.355
1654.000 0.355
1655.000 0.355
1656.000 0.355
1657.000 0.356
1658.000 0.356
1659.000 0.355
1660.000 0.355
1661.000 0.355
1662.000 0.355
1663.000 0.354
1664.000 0.354
1665.000 0.355
1666.000 0.356
1667.000 0.357
1668.000 0.357
1669.000 0.357
1670.000 0.357
1671.000 0.355
1672.000 0.355
1673.000 0.355
1674.000 0.355
1675.000 0.356
1676.000 0.356
1677.000 0.356
1678.000 0.356
1679.000 0.356
1680.000 0.355
1681.000 0.356
1682.000 0.356
1683.000 0.356
1684.000 0.357
1685.000 0.357
1686.000 0.357
1687.000 0.356
1688.000 0.357
1689.000 0.356
1690.000 0.356
1691.000 0.356
1692.000 0.356
1693.000 0.357
1694.000 0.356
1695.000 0.355
1696.000 0.353
1697.000 0.353
1698.000 0.352
1699.000 0.351
1700.000 0.351
1701.000 0.350
1702.000 0.350
1703.000 0.350
1704.000 0.351
1705.000 0.351
1706.000 0.351
1707.000 0.351
1708.000 0.350
1709.000 0.350
1710.000 0.349
1711.000 0.348
1712.000 0.348
1713.000 0.348
1714.000 0.347
1715.000 0.349
1716.000 0.347
1717.000 0.347
1718.000 0.345
1719.000 0.342
1720.000 0.341
1721.000 0.340
1722.000 0.341
1723.000 0.341
1724.000 0.339
1725.000 0.339
1726.000 0.340
1727.000 0.341
1728.000 0.343
1729.000 0.344
1730.000 0.343
1731.000 0.341
1732.000 0.338
1733.000 0.337
1734.000 0.338
1735.000 0.337
1736.000 0.335
1737.000 0.334
1738.000 0.334
1739.000 0.334
1740.000 0.333
1741.000 0.332
1742.000 0.328
1743.000 0.328
1744.000 0.331
1745.000 0.332
1746.000 0.335
1747.000 0.335
1748.000 0.332
1749.000 0.331
1750.000 0.329
1751.000 0.328
1752.000 0.327
1753.000 0.326
1754.000 0.324
1755.000 0.323
1756.000 0.322
1757.000 0.321
1758.000 0.320
1759.000 0.319
1760.000 0.318
1761.000 0.316
1762.000 0.314
1763.000 0.312
1764.000 0.310
1765.000 0.308
1766.000 0.307
1767.000 0.308
1768.000 0.307
1769.000 0.306
1770.000 0.307
1771.000 0.307
1772.000 0.308
1773.000 0.310
1774.000 0.311
1775.000 0.307
1776.000 0.306
1777.000 0.308
1778.000 0.304
1779.000 0.302
1780.000 0.301
1781.000 0.298
1782.000 0.300
1783.000 0.303
1784.000 0.306
1785.000 0.305
1786.000 0.304
1787.000 0.301
1788.000 0.299
1789.000 0.298
1790.000 0.298
1791.000 0.302
1792.000 0.309
1793.000 0.307
1794.000 0.304
1795.000 0.293
1796.000 0.283
1797.000 0.289
1798.000 0.297
1799.000 0.316
1800.000 0.343
1801.000 0.486
1802.000 0.492
1803.000 0.515
1804.000 0.514
1805.000 0.513
1806.000 0.534
1807.000 0.518
1808.000 0.488
1809.000 0.488
1810.000 0.480
1811.000 0.548
1812.000 0.616
1813.000 0.526
1814.000 0.505
1815.000 0.567
1816.000 0.644
1817.000 0.615
1818.000 0.483
1819.000 0.472
1820.000 0.505
1821.000 0.503
1822.000 0.514
1823.000 0.444
1824.000 0.415
1825.000 0.429
1826.000 0.504
1827.000 0.559
1828.000 0.503
1829.000 0.459
1830.000 0.625
1831.000 0.643
1832.000 0.549
1833.000 0.496
1834.000 0.487
1835.000 0.436
1836.000 0.463
1837.000 0.492
1838.000 0.579
1839.000 0.572
1840.000 0.583
1841.000 0.562
1842.000 0.575
1843.000 0.608
1844.000 0.599
1845.000 0.643
1846.000 0.686
1847.000 0.764
1848.000 0.760
1849.000 0.585
1850.000 0.426
1851.000 0.375
1852.000 0.292
1853.000 0.362
1854.000 0.605
1855.000 0.618
1856.000 0.591
1857.000 0.496
1858.000 0.510
1859.000 0.289
1860.000 0.475
1861.000 0.476
1862.000 0.638
1863.000 0.460
1864.000 0.461
1865.000 0.419
1866.000 0.658
1867.000 0.539
1868.000 0.521
1869.000 0.486
1870.000 0.452
1871.000 0.521
1872.000 0.535
1873.000 0.594
1874.000 0.425
1875.000 0.482
1876.000 0.520
1877.000 0.546
1878.000 0.613
1879.000 0.787
1880.000 0.759
1881.000 0.652
1882.000 0.649
1883.000 0.533
1884.000 0.467
1885.000 0.582
1886.000 0.581
1887.000 0.499
1888.000 0.550
1889.000 0.461
1890.000 0.403
1891.000 0.477
1892.000 0.445
1893.000 0.378
1894.000 0.453
1895.000 0.480
1896.000 0.519
1897.000 0.436
1898.000 0.467
1899.000 0.520
1900.000 0.447
1901.000 0.566
1902.000 0.432
1903.000 0.476
1904.000 0.344
1905.000 0.514
1906.000 0.431
1907.000 0.491
1908.000 0.370
1909.000 0.443
1910.000 0.567
1911.000 0.573
1912.000 0.577
1913.000 0.478
1914.000 0.473
1915.000 0.437
1916.000 0.369
1917.000 0.433
1918.000 0.426
1919.000 0.569
1920.000 0.553
1921.000 0.471
1922.000 0.426
1923.000 0.479
1924.000 0.692
1925.000 0.621
1926.000 0.584
1927.000 0.365
1928.000 0.247
1929.000 0.297
1930.000 0.376
1931.000 0.234
1932.000 0.427
1933.000 0.418
1934.000 0.377
1935.000 0.244
1936.000 0.217
1937.000 0.244
1938.000 0.239
1939.000 0.375
1940.000 0.490
1941.000 0.497
1942.000 0.569
1943.000 0.462
1944.000 0.442
1945.000 0.382
1946.000 0.399
1947.000 0.393
1948.000 0.425
1949.000 0.477
1950.000 0.457
1951.000 0.505
1952.000 0.362
1953.000 0.433
1954.000 0.549
1955.000 0.589
1956.000 0.565
1957.000 0.528
1958.000 0.427
1959.000 0.426
1960.000 0.404
1961.000 0.392
1962.000 0.406
1963.000 0.396
1964.000 0.333
1965.000 0.321
1966.000 0.283
1967.000 0.251
1968.000 0.213
1969.000 0.177
1970.000 0.168
1971.000 0.183
1972.000 0.183
1973.000 0.202
1974.000 0.198
1975.000 0.185
1976.000 0.161
1977.000 0.145
1978.000 0.131
1979.000 0.138
1980.000 0.152
1981.000 0.142
1982.000 0.139
1983.000 0.134
1984.000 0.123
1985.000 0.133
1986.000 0.132
1987.000 0.137
1988.000 0.142
1989.000 0.152
1990.000 0.132
1991.000 0.126
1992.000 0.132
1993.000 0.142
1994.000 0.159
1995.000 0.171
1996.000 0.191
1997.000 0.205
1998.000 0.210
1999.000 0.217
2000.000 0.207
2001.000 0.199
2002.000 0.193
2003.000 0.200
2004.000 0.216
2005.000 0.228
2006.000 0.250
2007.000 0.279
2008.000 0.278
2009.000 0.286
2010.000 0.308
2011.000 0.302
2012.000 0.282
2013.000 0.266
2014.000 0.261
2015.000 0.248
2016.000 0.234
2017.000 0.226
2018.000 0.210
2019.000 0.199
2020.000 0.180
2021.000 0.167
2022.000 0.164
2023.000 0.170
2024.000 0.169
2025.000 0.167
2026.000 0.157
2027.000 0.153
2028.000 0.149
2029.000 0.146
2030.000 0.140
2031.000 0.139
2032.000 0.139
2033.000 0.137
2034.000 0.137
2035.000 0.139
2036.000 0.136
2037.000 0.130
2038.000 0.127
2039.000 0.125
2040.000 0.125
2041.000 0.128
2042.000 0.129
2043.000 0.125
2044.000 0.126
2045.000 0.127
2046.000 0.129
2047.000 0.141
2048.000 0.148
2049.000 0.152
2050.000 0.162
2051.000 0.164
2052.000 0.160
2053.000 0.163
2054.000 0.166
2055.000 0.167
2056.000 0.165
2057.000 0.163
2058.000 0.153
2059.000 0.148
2060.000 0.145
2061.000 0.145
2062.000 0.147
2063.000 0.149
2064.000 0.153
2065.000 0.155
2066.000 0.156
2067.000 0.150
2068.000 0.148
2069.000 0.152
2070.000 0.150
2071.000 0.148
2072.000 0.148
2073.000 0.147
2074.000 0.150
2075.000 0.158
2076.000 0.163
2077.000 0.170
2078.000 0.171
2079.000 0.163
2080.000 0.163
2081.000 0.164
2082.000 0.165
2083.000 0.167
2084.000 0.171
2085.000 0.173
2086.000 0.167
2087.000 0.165
2088.000 0.163
2089.000 0.165
2090.000 0.169
2091.000 0.168
2092.000 0.166
2093.000 0.164
2094.000 0.154
2095.000 0.151
2096.000 0.155
2097.000 0.155
2098.000 0.155
2099.000 0.155
2100.000 0.154
2101.000 0.158
2102.000 0.167
2103.000 0.174
2104.000 0.176
2105.000 0.175
2106.000 0.173
2107.000 0.166
2108.000 0.165
2109.000 0.167
2110.000 0.168
2111.000 0.170
2112.000 0.171
2113.000 0.172
2114.000 0.174
2115.000 0.177
2116.000 0.181
2117.000 0.184
2118.000 0.191
2119.000 0.192
2120.000 0.194
2121.000 0.196
2122.000 0.194
2123.000 0.192
2124.000 0.188
2125.000 0.188
2126.000 0.186
2127.000 0.185
2128.000 0.189
2129.000 0.190
2130.000 0.188
2131.000 0.188
2132.000 0.189
2133.000 0.189
2134.000 0.191
2135.000 0.190
2136.000 0.190
2137.000 0.186
2138.000 0.182
2139.000 0.181
2140.000 0.181
2141.000 0.182
2142.000 0.183
2143.000 0.186
2144.000 0.186
2145.000 0.187
2146.000 0.187
2147.000 0.183
2148.000 0.182
2149.000 0.184
2150.000 0.184
2151.000 0.183
2152.000 0.187
2153.000 0.195
2154.000 0.200
2155.000 0.209
2156.000 0.219
2157.000 0.219
2158.000 0.220
2159.000 0.225
2160.000 0.225
2161.000 0.221
2162.000 0.216
2163.000 0.210
2164.000 0.199
2165.000 0.194
2166.000 0.190
2167.000 0.189
2168.000 0.188
2169.000 0.190
2170.000 0.197
2171.000 0.201
2172.000 0.208
2173.000 0.212
2174.000 0.214
2175.000 0.216
2176.000 0.219
2177.000 0.215
2178.000 0.213
2179.000 0.216
2180.000 0.211
2181.000 0.208
2182.000 0.208
2183.000 0.203
2184.000 0.203
2185.000 0.208
2186.000 0.210
2187.000 0.206
2188.000 0.210
2189.000 0.216
2190.000 0.220
2191.000 0.229
2192.000 0.233
2193.000 0.231
2194.000 0.230
2195.000 0.226
2196.000 0.223
2197.000 0.224
2198.000 0.221
2199.000 0.213
2200.000 0.209
2201.000 0.203
2202.000 0.201
2203.000 0.201
2204.000 0.204
2205.000 0.210
2206.000 0.210
2207.000 0.212
2208.000 0.216
2209.000 0.216
2210.000 0.212
2211.000 0.213
2212.000 0.213
2213.000 0.213
2214.000 0.217
2215.000 0.214
2216.000 0.207
2217.000 0.205
2218.000 0.202
2219.000 0.200
2220.000 0.202
2221.000 0.203
2222.000 0.207
2223.000 0.208
2224.000 0.207
2225.000 0.208
2226.000 0.207
2227.000 0.205
2228.000 0.212
2229.000 0.222
2230.000 0.226
2231.000 0.231
2232.000 0.228
2233.000 0.223
2234.000 0.223
2235.000 0.220
2236.000 0.217
2237.000 0.210
2238.000 0.207
2239.000 0.207
2240.000 0.205
2241.000 0.209
2242.000 0.207
2243.000 0.201
2244.000 0.197
2245.000 0.191
2246.000 0.187
2247.000 0.186
2248.000 0.185
2249.000 0.182
2250.000 0.182
2251.000 0.184
2252.000 0.185
2253.000 0.189
2254.000 0.191
2255.000 0.190
2256.000 0.192
2257.000 0.196
2258.000 0.198
2259.000 0.193
2260.000 0.193
2261.000 0.186
2262.000 0.176
2263.000 0.178
2264.000 0.180
2265.000 0.181
2266.000 0.192
2267.000 0.194
2268.000 0.191
2269.000 0.198
2270.000 0.205
2271.000 0.209
2272.000 0.211
2273.000 0.209
2274.000 0.196
2275.000 0.193
2276.000 0.190
2277.000 0.190
2278.000 0.195
2279.000 0.198
2280.000 0.203
2281.000 0.204
2282.000 0.197
2283.000 0.193
2284.000 0.188
2285.000 0.184
2286.000 0.183
2287.000 0.182
2288.000 0.179
2289.000 0.178
2290.000 0.181
2291.000 0.185
2292.000 0.190
2293.000 0.196
2294.000 0.202
2295.000 0.202
2296.000 0.204
2297.000 0.196
2298.000 0.190
2299.000 0.192
2300.000 0.192
2301.000 0.194
2302.000 0.191
2303.000 0.191
2304.000 0.188
2305.000 0.182
2306.000 0.183
2307.000 0.191
2308.000 0.194
2309.000 0.198
2310.000 0.192
2311.000 0.184
2312.000 0.176
2313.000 0.175
2314.000 0.170
2315.000 0.176
2316.000 0.176
2317.000 0.185
2318.000 0.177
2319.000 0.164
2320.000 0.158
2321.000 0.142
2322.000 0.135
2323.000 0.144
2324.000 0.138
2325.000 0.125
2326.000 0.130
2327.000 0.131
2328.000 0.142
2329.000 0.176
2330.000 0.187
2331.000 0.165
2332.000 0.183
2333.000 0.196
2334.000 0.195
2335.000 0.207
2336.000 0.192
2337.000 0.150
2338.000 0.145
2339.000 0.151
2340.000 0.157
2341.000 0.165
2342.000 0.172
2343.000 0.188
2344.000 0.180
2345.000 0.187
2346.000 0.195
2347.000 0.177
2348.000 0.190
2349.000 0.212
2350.000 0.218
2351.000 0.258
2352.000 0.252
2353.000 0.240
2354.000 0.199
2355.000 0.168
2356.000 0.166
2357.000 0.188
2358.000 0.216
2359.000 0.229
2360.000 0.193
2361.000 0.169
2362.000 0.171
2363.000 0.160
2364.000 0.174
2365.000 0.177
2366.000 0.153
2367.000 0.140
2368.000 0.139
2369.000 0.169
2370.000 0.150
2371.000 0.151
2372.000 0.194
2373.000 0.188
2374.000 0.260
2375.000 0.384
2376.000 0.354
2377.000 0.333
2378.000 0.266
2379.000 0.202
2380.000 0.217
2381.000 0.201
2382.000 0.246
2383.000 0.292
2384.000 0.269
2385.000 0.209
2386.000 0.205
2387.000 0.216
2388.000 0.172
2389.000 0.186
2390.000 0.218
2391.000 0.150
2392.000 0.153
2393.000 0.122
2394.000 0.176
2395.000 0.231
2396.000 0.301
2397.000 0.245
2398.000 0.224
2399.000 0.194
2400.000 0.212
2401.000 0.179
2402.000 0.223
2403.000 0.232
2404.000 0.518
2405.000 0.779
2406.000 0.388
2407.000 0.605
2408.000 0.439
2409.000 0.395
2410.000 0.377
2411.000 0.377
2412.000 0.409
2413.000 0.338
2414.000 0.267
2415.000 0.220
2416.000 0.276
2417.000 0.303
2418.000 0.403
2419.000 0.323
2420.000 0.224
2421.000 0.250
2422.000 0.255
2423.000 0.182
2424.000 0.111
2425.000 0.113
2426.000 0.151
2427.000 0.174
2428.000 0.213
2429.000 0.259
2430.000 0.319
2431.000 0.597
2432.000 0.326
2433.000 0.250
2434.000 0.358
2435.000 0.415
2436.000 0.321
2437.000 0.460
2438.000 0.327
2439.000 0.273
2440.000 0.379
2441.000 0.423
2442.000 0.517
2443.000 0.449
2444.000 0.405
2445.000 0.393
2446.000 0.426
2447.000 0.391
2448.000 0.343
2449.000 0.296
2450.000 0.283
2451.000 0.308
2452.000 0.325
2453.000 0.362
2454.000 0.529
2455.000 0.569
2456.000 0.586
2457.000 0.536
2458.000 0.567
2459.000 0.578
2460.000 0.463
2461.000 0.440
2462.000 0.509
2463.000 0.505
2464.000 0.444
2465.000 0.387
2466.000 0.465
2467.000 0.503
2468.000 0.493
2469.000 0.569
2470.000 0.730
2471.000 0.407
2472.000 0.506
2473.000 0.479
2474.000 0.350
2475.000 0.349
2476.000 0.410
2477.000 0.354
2478.000 0.244
2479.000 0.304
2480.000 0.488
2481.000 0.499
2482.000 0.479
2483.000 0.329
2484.000 0.195
2485.000 0.306
2486.000 0.539
2487.000 0.207
2488.000 0.256
2489.000 0.115
2490.000 0.254
2491.000 0.259
2492.000 0.309
2493.000 0.439
2494.000 0.373
2495.000 0.357
2496.000 0.507
2497.000 0.482
2498.000 0.404
2499.000 0.507
2500.000 0.625
