391.000 0.059
392.000 0.059
393.000 0.042
394.000 0.041
395.000 0.053
396.000 0.055
397.000 0.045
398.000 0.048
399.000 0.050
400.000 0.050
401.000 0.048
402.000 0.050
403.000 0.050
404.000 0.047
405.000 0.044
406.000 0.052
407.000 0.050
408.000 0.040
409.000 0.044
410.000 0.048
411.000 0.049
412.000 0.048
413.000 0.049
414.000 0.048
415.000 0.046
416.000 0.048
417.000 0.045
418.000 0.044
419.000 0.047
420.000 0.048
421.000 0.046
422.000 0.044
423.000 0.045
424.000 0.046
425.000 0.044
426.000 0.044
427.000 0.050
428.000 0.048
429.000 0.043
430.000 0.042
431.000 0.046
432.000 0.046
433.000 0.046
434.000 0.044
435.000 0.045
436.000 0.044
437.000 0.045
438.000 0.047
439.000 0.045
440.000 0.045
441.000 0.046
442.000 0.045
443.000 0.043
444.000 0.043
445.000 0.045
446.000 0.042
447.000 0.043
448.000 0.045
449.000 0.043
450.000 0.044
451.000 0.045
452.000 0.044
453.000 0.042
454.000 0.043
455.000 0.044
456.000 0.043
457.000 0.045
458.000 0.044
459.000 0.042
460.000 0.042
461.000 0.044
462.000 0.046
463.000 0.046
464.000 0.042
465.000 0.041
466.000 0.043
467.000 0.046
468.000 0.044
469.000 0.044
470.000 0.045
471.000 0.046
472.000 0.044
473.000 0.043
474.000 0.043
475.000 0.043
476.000 0.044
477.000 0.044
478.000 0.041
479.000 0.043
480.000 0.044
481.000 0.045
482.000 0.044
483.000 0.043
484.000 0.042
485.000 0.043
486.000 0.044
487.000 0.044
488.000 0.044
489.000 0.046
490.000 0.047
491.000 0.046
492.000 0.043
493.000 0.041
494.000 0.042
495.000 0.044
496.000 0.044
497.000 0.044
498.000 0.044
499.000 0.047
500.000 0.050
501.000 0.046
502.000 0.047
503.000 0.052
504.000 0.053
505.000 0.052
506.000 0.052
507.000 0.055
508.000 0.055
509.000 0.055
510.000 0.055
511.000 0.059
512.000 0.061
513.000 0.062
514.000 0.062
515.000 0.067
516.000 0.069
517.000 0.070
518.000 0.072
519.000 0.076
520.000 0.080
521.000 0.083
522.000 0.085
523.000 0.087
524.000 0.090
525.000 0.094
526.000 0.097
527.000 0.098
528.000 0.100
529.000 0.103
530.000 0.106
531.000 0.108
532.000 0.109
533.000 0.111
534.000 0.113
535.000 0.114
536.000 0.117
537.000 0.118
538.000 0.118
539.000 0.119
540.000 0.120
541.000 0.121
542.000 0.121
543.000 0.121
544.000 0.122
545.000 0.122
546.000 0.122
547.000 0.122
548.000 0.122
549.000 0.123
550.000 0.123
551.000 0.123
552.000 0.122
553.000 0.122
554.000 0.123
555.000 0.122
556.000 0.122
557.000 0.122
558.000 0.122
559.000 0.120
560.000 0.118
561.000 0.118
562.000 0.115
563.000 0.115
564.000 0.114
565.000 0.111
566.000 0.109
567.000 0.107
568.000 0.105
569.000 0.102
570.000 0.101
571.000 0.100
572.000 0.097
573.000 0.097
574.000 0.095
575.000 0.093
576.000 0.091
577.000 0.091
578.000 0.090
579.000 0.087
580.000 0.086
581.000 0.085
582.000 0.084
583.000 0.084
584.000 0.083
585.000 0.082
586.000 0.080
587.000 0.079
588.000 0.078
589.000 0.079
590.000 0.079
591.000 0.077
592.000 0.077
593.000 0.077
594.000 0.076
595.000 0.074
596.000 0.074
597.000 0.074
598.000 0.075
599.000 0.075
600.000 0.074
601.000 0.073
602.000 0.074
603.000 0.074
604.000 0.072
605.000 0.069
606.000 0.070
607.000 0.070
608.000 0.070
609.000 0.070
610.000 0.070
611.000 0.070
612.000 0.070
613.000 0.069
614.000 0.067
615.000 0.066
616.000 0.066
617.000 0.066
618.000 0.066
619.000 0.065
620.000 0.064
621.000 0.064
622.000 0.064
623.000 0.064
624.000 0.064
625.000 0.063
626.000 0.063
627.000 0.064
628.000 0.064
629.000 0.064
630.000 0.063
631.000 0.063
632.000 0.063
633.000 0.063
634.000 0.063
635.000 0.063
636.000 0.063
637.000 0.062
638.000 0.062
639.000 0.061
640.000 0.058
641.000 0.055
642.000 0.055
643.000 0.054
644.000 0.053
645.000 0.056
646.000 0.057
647.000 0.056
648.000 0.053
649.000 0.054
650.000 0.055
651.000 0.053
652.000 0.050
653.000 0.051
654.000 0.054
655.000 0.056
656.000 0.055
657.000 0.054
658.000 0.053
659.000 0.054
660.000 0.053
661.000 0.052
662.000 0.052
663.000 0.051
664.000 0.052
665.000 0.051
666.000 0.050
667.000 0.051
668.000 0.053
669.000 0.053
670.000 0.055
671.000 0.053
672.000 0.052
673.000 0.053
674.000 0.055
675.000 0.056
676.000 0.056
677.000 0.057
678.000 0.059
679.000 0.060
680.000 0.061
681.000 0.059
682.000 0.061
683.000 0.064
684.000 0.065
685.000 0.067
686.000 0.069
687.000 0.071
688.000 0.074
689.000 0.078
690.000 0.079
691.000 0.081
692.000 0.084
693.000 0.089
694.000 0.096
695.000 0.101
696.000 0.109
697.000 0.117
698.000 0.124
699.000 0.134
700.000 0.144
701.000 0.155
702.000 0.166
703.000 0.176
704.000 0.187
705.000 0.198
706.000 0.208
707.000 0.220
708.000 0.230
709.000 0.240
710.000 0.251
711.000 0.262
712.000 0.273
713.000 0.284
714.000 0.295
715.000 0.307
716.000 0.318
717.000 0.329
718.000 0.342
719.000 0.355
720.000 0.368
721.000 0.378
722.000 0.388
723.000 0.398
724.000 0.410
725.000 0.421
726.000 0.432
727.000 0.442
728.000 0.451
729.000 0.461
730.000 0.470
731.000 0.479
732.000 0.487
733.000 0.494
734.000 0.502
735.000 0.509
736.000 0.516
737.000 0.522
738.000 0.528
739.000 0.533
740.000 0.539
741.000 0.544
742.000 0.548
743.000 0.553
744.000 0.557
745.000 0.561
746.000 0.564
747.000 0.568
748.000 0.571
749.000 0.574
750.000 0.576
751.000 0.579
752.000 0.581
753.000 0.584
754.000 0.586
755.000 0.588
756.000 0.589
757.000 0.590
758.000 0.592
759.000 0.594
760.000 0.596
761.000 0.598
762.000 0.601
763.000 0.602
764.000 0.602
765.000 0.603
766.000 0.603
767.000 0.604
768.000 0.604
769.000 0.604
770.000 0.604
771.000 0.605
772.000 0.606
773.000 0.606
774.000 0.607
775.000 0.607
776.000 0.608
777.000 0.608
778.000 0.609
779.000 0.610
780.000 0.610
781.000 0.611
782.000 0.612
783.000 0.612
784.000 0.613
785.000 0.613
786.000 0.614
787.000 0.615
788.000 0.615
789.000 0.616
790.000 0.617
791.000 0.617
792.000 0.618
793.000 0.618
794.000 0.618
795.000 0.619
796.000 0.619
797.000 0.620
798.000 0.621
799.000 0.622
800.000 0.622
801.000 0.622
802.000 0.623
803.000 0.624
804.000 0.624
805.000 0.624
806.000 0.624
807.000 0.625
808.000 0.626
809.000 0.627
810.000 0.627
811.000 0.628
812.000 0.629
813.000 0.630
814.000 0.631
815.000 0.632
816.000 0.633
817.000 0.633
818.000 0.634
819.000 0.634
820.000 0.634
821.000 0.634
822.000 0.634
823.000 0.635
824.000 0.635
825.000 0.635
826.000 0.636
827.000 0.636
828.000 0.637
829.000 0.637
830.000 0.637
831.000 0.638
832.000 0.638
833.000 0.638
834.000 0.638
835.000 0.639
836.000 0.638
837.000 0.639
838.000 0.639
839.000 0.639
840.000 0.640
841.000 0.640
842.000 0.640
843.000 0.640
844.000 0.641
845.000 0.641
846.000 0.642
847.000 0.642
848.000 0.643
849.000 0.643
850.000 0.643
851.000 0.643
852.000 0.643
853.000 0.644
854.000 0.644
855.000 0.644
856.000 0.645
857.000 0.645
858.000 0.646
859.000 0.646
860.000 0.647
861.000 0.647
862.000 0.647
863.000 0.647
864.000 0.647
865.000 0.648
866.000 0.648
867.000 0.648
868.000 0.649
869.000 0.649
870.000 0.649
871.000 0.649
872.000 0.650
873.000 0.650
874.000 0.651
875.000 0.652
876.000 0.652
877.000 0.652
878.000 0.652
879.000 0.653
880.000 0.653
881.000 0.653
882.000 0.654
883.000 0.655
884.000 0.655
885.000 0.656
886.000 0.656
887.000 0.656
888.000 0.657
889.000 0.658
890.000 0.658
891.000 0.659
892.000 0.659
893.000 0.660
894.000 0.661
895.000 0.662
896.000 0.663
897.000 0.664
898.000 0.665
899.000 0.665
900.000 0.665
901.000 0.666
902.000 0.666
903.000 0.667
904.000 0.667
905.000 0.668
906.000 0.668
907.000 0.668
908.000 0.669
909.000 0.669
910.000 0.670
911.000 0.671
912.000 0.671
913.000 0.671
914.000 0.671
915.000 0.671
916.000 0.672
917.000 0.673
918.000 0.672
919.000 0.672
920.000 0.673
921.000 0.673
922.000 0.674
923.000 0.674
924.000 0.674
925.000 0.674
926.000 0.675
927.000 0.675
928.000 0.676
929.000 0.677
930.000 0.677
931.000 0.678
932.000 0.678
933.000 0.678
934.000 0.678
935.000 0.679
936.000 0.677
937.000 0.680
938.000 0.681
939.000 0.681
940.000 0.682
941.000 0.680
942.000 0.679
943.000 0.682
944.000 0.684
945.000 0.682
946.000 0.679
947.000 0.680
948.000 0.682
949.000 0.681
950.000 0.678
951.000 0.678
952.000 0.679
953.000 0.679
954.000 0.676
955.000 0.673
956.000 0.673
957.000 0.671
958.000 0.671
959.000 0.674
960.000 0.672
961.000 0.672
962.000 0.673
963.000 0.671
964.000 0.666
965.000 0.670
966.000 0.671
967.000 0.667
968.000 0.670
969.000 0.669
970.000 0.669
971.000 0.670
972.000 0.670
973.000 0.670
974.000 0.670
975.000 0.669
976.000 0.668
977.000 0.669
978.000 0.670
979.000 0.671
980.000 0.669
981.000 0.668
982.000 0.669
983.000 0.670
984.000 0.668
985.000 0.669
986.000 0.670
987.000 0.671
988.000 0.672
989.000 0.672
990.000 0.672
991.000 0.671
992.000 0.671
993.000 0.672
994.000 0.673
995.000 0.673
996.000 0.674
997.000 0.673
998.000 0.674
999.000 0.675
1000.000 0.674
1001.000 0.680
1002.000 0.680
1003.000 0.682
1004.000 0.682
1005.000 0.681
1006.000 0.681
1007.000 0.682
1008.000 0.684
1009.000 0.684
1010.000 0.683
1011.000 0.684
1012.000 0.684
1013.000 0.683
1014.000 0.683
1015.000 0.683
1016.000 0.684
1017.000 0.685
1018.000 0.686
1019.000 0.687
1020.000 0.689
1021.000 0.690
1022.000 0.690
1023.000 0.692
1024.000 0.693
1025.000 0.694
1026.000 0.695
1027.000 0.695
1028.000 0.696
1029.000 0.694
1030.000 0.694
1031.000 0.694
1032.000 0.694
1033.000 0.695
1034.000 0.695
1035.000 0.695
1036.000 0.695
1037.000 0.694
1038.000 0.695
1039.000 0.696
1040.000 0.697
1041.000 0.698
1042.000 0.699
1043.000 0.699
1044.000 0.699
1045.000 0.699
1046.000 0.699
1047.000 0.699
1048.000 0.700
1049.000 0.700
1050.000 0.700
1051.000 0.701
1052.000 0.701
1053.000 0.703
1054.000 0.704
1055.000 0.704
1056.000 0.705
1057.000 0.705
1058.000 0.705
1059.000 0.705
1060.000 0.705
1061.000 0.705
1062.000 0.705
1063.000 0.706
1064.000 0.706
1065.000 0.706
1066.000 0.706
1067.000 0.706
1068.000 0.706
1069.000 0.707
1070.000 0.706
1071.000 0.706
1072.000 0.706
1073.000 0.705
1074.000 0.706
1075.000 0.706
1076.000 0.706
1077.000 0.707
1078.000 0.707
1079.000 0.708
1080.000 0.708
1081.000 0.708
1082.000 0.708
1083.000 0.709
1084.000 0.708
1085.000 0.708
1086.000 0.708
1087.000 0.708
1088.000 0.708
1089.000 0.709
1090.000 0.708
1091.000 0.709
1092.000 0.709
1093.000 0.710
1094.000 0.711
1095.000 0.713
1096.000 0.713
1097.000 0.713
1098.000 0.713
1099.000 0.713
1100.000 0.714
1101.000 0.715
1102.000 0.715
1103.000 0.715
1104.000 0.715
1105.000 0.715
1106.000 0.713
1107.000 0.713
1108.000 0.713
1109.000 0.712
1110.000 0.712
1111.000 0.714
1112.000 0.715
1113.000 0.716
1114.000 0.718
1115.000 0.718
1116.000 0.717
1117.000 0.719
1118.000 0.719
1119.000 0.717
1120.000 0.718
1121.000 0.718
1122.000 0.718
1123.000 0.717
1124.000 0.720
1125.000 0.721
1126.000 0.719
1127.000 0.716
1128.000 0.713
1129.000 0.711
1130.000 0.709
1131.000 0.707
1132.000 0.707
1133.000 0.707
1134.000 0.706
1135.000 0.704
1136.000 0.704
1137.000 0.704
1138.000 0.704
1139.000 0.704
1140.000 0.703
1141.000 0.702
1142.000 0.700
1143.000 0.697
1144.000 0.695
1145.000 0.691
1146.000 0.688
1147.000 0.689
1148.000 0.687
1149.000 0.684
1150.000 0.684
1151.000 0.682
1152.000 0.679
1153.000 0.677
1154.000 0.675
1155.000 0.674
1156.000 0.673
1157.000 0.672
1158.000 0.672
1159.000 0.671
1160.000 0.669
1161.000 0.668
1162.000 0.667
1163.000 0.667
1164.000 0.666
1165.000 0.666
1166.000 0.666
1167.000 0.665
1168.000 0.665
1169.000 0.665
1170.000 0.664
1171.000 0.664
1172.000 0.663
1173.000 0.662
1174.000 0.662
1175.000 0.663
1176.000 0.663
1177.000 0.663
1178.000 0.663
1179.000 0.663
1180.000 0.663
1181.000 0.662
1182.000 0.661
1183.000 0.661
1184.000 0.661
1185.000 0.661
1186.000 0.661
1187.000 0.661
1188.000 0.661
1189.000 0.661
1190.000 0.661
1191.000 0.661
1192.000 0.660
1193.000 0.660
1194.000 0.660
1195.000 0.660
1196.000 0.660
1197.000 0.660
1198.000 0.660
1199.000 0.660
1200.000 0.661
1201.000 0.660
1202.000 0.660
1203.000 0.661
1204.000 0.661
1205.000 0.661
1206.000 0.662
1207.000 0.662
1208.000 0.662
1209.000 0.662
1210.000 0.662
1211.000 0.663
1212.000 0.664
1213.000 0.665
1214.000 0.666
1215.000 0.665
1216.000 0.665
1217.000 0.665
1218.000 0.666
1219.000 0.667
1220.000 0.667
1221.000 0.667
1222.000 0.668
1223.000 0.667
1224.000 0.667
1225.000 0.667
1226.000 0.667
1227.000 0.667
1228.000 0.668
1229.000 0.669
1230.000 0.669
1231.000 0.670
1232.000 0.670
1233.000 0.670
1234.000 0.670
1235.000 0.670
1236.000 0.670
1237.000 0.670
1238.000 0.670
1239.000 0.671
1240.000 0.671
1241.000 0.672
1242.000 0.672
1243.000 0.673
1244.000 0.673
1245.000 0.673
1246.000 0.674
1247.000 0.674
1248.000 0.675
1249.000 0.675
1250.000 0.676
1251.000 0.676
1252.000 0.676
1253.000 0.677
1254.000 0.677
1255.000 0.677
1256.000 0.678
1257.000 0.678
1258.000 0.678
1259.000 0.679
1260.000 0.679
1261.000 0.679
1262.000 0.679
1263.000 0.680
1264.000 0.680
1265.000 0.681
1266.000 0.681
1267.000 0.680
1268.000 0.680
1269.000 0.680
1270.000 0.680
1271.000 0.680
1272.000 0.680
1273.000 0.681
1274.000 0.682
1275.000 0.682
1276.000 0.682
1277.000 0.683
1278.000 0.683
1279.000 0.682
1280.000 0.680
1281.000 0.679
1282.000 0.678
1283.000 0.678
1284.000 0.678
1285.000 0.678
1286.000 0.679
1287.000 0.679
1288.000 0.680
1289.000 0.679
1290.000 0.678
1291.000 0.678
1292.000 0.676
1293.000 0.675
1294.000 0.675
1295.000 0.675
1296.000 0.675
1297.000 0.675
1298.000 0.675
1299.000 0.674
1300.000 0.673
1301.000 0.673
1302.000 0.672
1303.000 0.672
1304.000 0.671
1305.000 0.670
1306.000 0.669
1307.000 0.668
1308.000 0.667
1309.000 0.667
1310.000 0.666
1311.000 0.666
1312.000 0.665
1313.000 0.662
1314.000 0.661
1315.000 0.658
1316.000 0.657
1317.000 0.656
1318.000 0.655
1319.000 0.654
1320.000 0.653
1321.000 0.651
1322.000 0.649
1323.000 0.647
1324.000 0.645
1325.000 0.643
1326.000 0.641
1327.000 0.640
1328.000 0.637
1329.000 0.636
1330.000 0.635
1331.000 0.634
1332.000 0.635
1333.000 0.633
1334.000 0.630
1335.000 0.628
1336.000 0.622
1337.000 0.620
1338.000 0.622
1339.000 0.621
1340.000 0.620
1341.000 0.620
1342.000 0.616
1343.000 0.613
1344.000 0.615
1345.000 0.614
1346.000 0.611
1347.000 0.610
1348.000 0.609
1349.000 0.607
1350.000 0.605
1351.000 0.617
1352.000 0.612
1353.000 0.573
1354.000 0.553
1355.000 0.526
1356.000 0.511
1357.000 0.561
1358.000 0.655
1359.000 0.630
1360.000 0.636
1361.000 0.617
1362.000 0.632
1363.000 0.627
1364.000 0.691
1365.000 0.670
1366.000 0.663
1367.000 0.687
1368.000 0.710
1369.000 0.344
1370.000 0.227
1371.000 0.581
1372.000 0.242
1373.000 0.195
1374.000 0.152
1375.000 0.105
1376.000 0.161
1377.000 0.260
1378.000 0.316
1379.000 0.315
1380.000 0.250
1381.000 0.252
1382.000 0.379
1383.000 0.453
1384.000 0.540
1385.000 0.405
1386.000 0.349
1387.000 0.426
1388.000 0.633
1389.000 0.530
1390.000 0.399
1391.000 0.336
1392.000 0.256
1393.000 0.328
1394.000 0.514
1395.000 0.667
1396.000 0.612
1397.000 0.683
1398.000 0.576
1399.000 0.598
1400.000 0.639
1401.000 0.565
1402.000 0.394
1403.000 0.445
1404.000 0.490
1405.000 0.551
1406.000 0.650
1407.000 0.613
1408.000 0.339
1409.000 0.317
1410.000 0.405
1411.000 0.452
1412.000 0.443
1413.000 0.379
1414.000 0.304
1415.000 0.250
1416.000 0.356
1417.000 0.422
1418.000 0.529
1419.000 0.660
1420.000 0.548
1421.000 0.393
1422.000 0.300
1423.000 0.559
1424.000 0.430
1425.000 0.534
1426.000 0.439
1427.000 0.408
1428.000 0.383
1429.000 0.322
1430.000 0.321
1431.000 0.385
1432.000 0.436
1433.000 0.477
1434.000 0.385
1435.000 0.563
1436.000 0.459
1437.000 0.339
1438.000 0.339
1439.000 0.335
1440.000 0.330
1441.000 0.459
1442.000 0.443
1443.000 0.370
1444.000 0.354
1445.000 0.354
1446.000 0.349
1447.000 0.332
1448.000 0.336
1449.000 0.333
1450.000 0.329
1451.000 0.326
1452.000 0.308
1453.000 0.290
1454.000 0.262
1455.000 0.253
1456.000 0.251
1457.000 0.252
1458.000 0.264
1459.000 0.258
1460.000 0.241
1461.000 0.241
1462.000 0.236
1463.000 0.233
1464.000 0.238
1465.000 0.242
1466.000 0.243
1467.000 0.241
1468.000 0.244
1469.000 0.241
1470.000 0.222
1471.000 0.218
1472.000 0.225
1473.000 0.229
1474.000 0.233
1475.000 0.240
1476.000 0.251
1477.000 0.255
1478.000 0.259
1479.000 0.263
1480.000 0.260
1481.000 0.262
1482.000 0.267
1483.000 0.271
1484.000 0.279
1485.000 0.278
1486.000 0.269
1487.000 0.267
1488.000 0.261
1489.000 0.260
1490.000 0.265
1491.000 0.265
1492.000 0.264
1493.000 0.266
1494.000 0.269
1495.000 0.271
1496.000 0.277
1497.000 0.280
1498.000 0.281
1499.000 0.282
1500.000 0.283
1501.000 0.285
1502.000 0.286
1503.000 0.288
1504.000 0.290
1505.000 0.292
1506.000 0.294
1507.000 0.297
1508.000 0.300
1509.000 0.304
1510.000 0.306
1511.000 0.308
1512.000 0.310
1513.000 0.311
1514.000 0.313
1515.000 0.317
1516.000 0.319
1517.000 0.319
1518.000 0.320
1519.000 0.323
1520.000 0.325
1521.000 0.327
1522.000 0.329
1523.000 0.331
1524.000 0.333
1525.000 0.335
1526.000 0.336
1527.000 0.337
1528.000 0.338
1529.000 0.340
1530.000 0.342
1531.000 0.344
1532.000 0.346
1533.000 0.348
1534.000 0.349
1535.000 0.352
1536.000 0.353
1537.000 0.352
1538.000 0.353
1539.000 0.354
1540.000 0.356
1541.000 0.358
1542.000 0.360
1543.000 0.361
1544.000 0.363
1545.000 0.364
1546.000 0.366
1547.000 0.371
1548.000 0.374
1549.000 0.376
1550.000 0.379
1551.000 0.378
1552.000 0.379
1553.000 0.381
1554.000 0.383
1555.000 0.388
1556.000 0.390
1557.000 0.392
1558.000 0.393
1559.000 0.394
1560.000 0.395
1561.000 0.396
1562.000 0.398
1563.000 0.400
1564.000 0.402
1565.000 0.404
1566.000 0.406
1567.000 0.410
1568.000 0.411
1569.000 0.409
1570.000 0.410
1571.000 0.410
1572.000 0.411
1573.000 0.414
1574.000 0.415
1575.000 0.415
1576.000 0.416
1577.000 0.417
1578.000 0.418
1579.000 0.419
1580.000 0.420
1581.000 0.424
1582.000 0.426
1583.000 0.427
1584.000 0.428
1585.000 0.427
1586.000 0.427
1587.000 0.428
1588.000 0.428
1589.000 0.427
1590.000 0.428
1591.000 0.430
1592.000 0.433
1593.000 0.436
1594.000 0.439
1595.000 0.441
1596.000 0.443
1597.000 0.446
1598.000 0.447
1599.000 0.447
1600.000 0.448
1601.000 0.448
1602.000 0.448
1603.000 0.448
1604.000 0.449
1605.000 0.451
1606.000 0.452
1607.000 0.454
1608.000 0.455
1609.000 0.453
1610.000 0.453
1611.000 0.454
1612.000 0.455
1613.000 0.457
1614.000 0.458
1615.000 0.460
1616.000 0.460
1617.000 0.460
1618.000 0.461
1619.000 0.463
1620.000 0.464
1621.000 0.466
1622.000 0.467
1623.000 0.465
1624.000 0.465
1625.000 0.466
1626.000 0.466
1627.000 0.467
1628.000 0.468
1629.000 0.467
1630.000 0.468
1631.000 0.470
1632.000 0.471
1633.000 0.472
1634.000 0.474
1635.000 0.474
1636.000 0.474
1637.000 0.476
1638.000 0.477
1639.000 0.479
1640.000 0.481
1641.000 0.481
1642.000 0.483
1643.000 0.484
1644.000 0.485
1645.000 0.485
1646.000 0.486
1647.000 0.486
1648.000 0.485
1649.000 0.483
1650.000 0.483
1651.000 0.484
1652.000 0.485
1653.000 0.488
1654.000 0.489
1655.000 0.487
1656.000 0.487
1657.000 0.487
1658.000 0.487
1659.000 0.489
1660.000 0.490
1661.000 0.490
1662.000 0.491
1663.000 0.494
1664.000 0.495
1665.000 0.495
1666.000 0.495
1667.000 0.494
1668.000 0.494
1669.000 0.495
1670.000 0.495
1671.000 0.496
1672.000 0.495
1673.000 0.490
1674.000 0.489
1675.000 0.487
1676.000 0.486
1677.000 0.489
1678.000 0.492
1679.000 0.496
1680.000 0.496
1681.000 0.495
1682.000 0.495
1683.000 0.490
1684.000 0.489
1685.000 0.493
1686.000 0.492
1687.000 0.493
1688.000 0.493
1689.000 0.491
1690.000 0.490
1691.000 0.490
1692.000 0.490
1693.000 0.492
1694.000 0.491
1695.000 0.488
1696.000 0.487
1697.000 0.485
1698.000 0.485
1699.000 0.490
1700.000 0.490
1701.000 0.489
1702.000 0.489
1703.000 0.487
1704.000 0.487
1705.000 0.488
1706.000 0.488
1707.000 0.486
1708.000 0.485
1709.000 0.481
1710.000 0.479
1711.000 0.479
1712.000 0.478
1713.000 0.480
1714.000 0.476
1715.000 0.474
1716.000 0.475
1717.000 0.475
1718.000 0.477
1719.000 0.480
1720.000 0.478
1721.000 0.476
1722.000 0.477
1723.000 0.477
1724.000 0.474
1725.000 0.474
1726.000 0.473
1727.000 0.471
1728.000 0.470
1729.000 0.469
1730.000 0.466
1731.000 0.465
1732.000 0.463
1733.000 0.463
1734.000 0.465
1735.000 0.466
1736.000 0.468
1737.000 0.467
1738.000 0.459
1739.000 0.457
1740.000 0.458
1741.000 0.458
1742.000 0.462
1743.000 0.464
1744.000 0.462
1745.000 0.460
1746.000 0.461
1747.000 0.457
1748.000 0.448
1749.000 0.446
1750.000 0.444
1751.000 0.444
1752.000 0.453
1753.000 0.454
1754.000 0.453
1755.000 0.452
1756.000 0.447
1757.000 0.447
1758.000 0.450
1759.000 0.454
1760.000 0.459
1761.000 0.459
1762.000 0.457
1763.000 0.452
1764.000 0.450
1765.000 0.449
1766.000 0.448
1767.000 0.448
1768.000 0.444
1769.000 0.439
1770.000 0.436
1771.000 0.439
1772.000 0.442
1773.000 0.445
1774.000 0.445
1775.000 0.444
1776.000 0.441
1777.000 0.439
1778.000 0.439
1779.000 0.436
1780.000 0.441
1781.000 0.452
1782.000 0.458
1783.000 0.467
1784.000 0.468
1785.000 0.451
1786.000 0.447
1787.000 0.439
1788.000 0.435
1789.000 0.442
1790.000 0.447
1791.000 0.454
1792.000 0.445
1793.000 0.430
1794.000 0.416
1795.000 0.417
1796.000 0.455
1797.000 0.486
1798.000 0.509
1799.000 0.555
1800.000 0.508
1801.000 0.421
1802.000 0.400
1803.000 0.390
1804.000 0.406
1805.000 0.437
1806.000 0.661
1807.000 0.682
1808.000 0.553
1809.000 0.503
1810.000 0.528
1811.000 0.503
1812.000 0.465
1813.000 0.439
1814.000 0.511
1815.000 0.502
1816.000 0.508
1817.000 0.616
1818.000 0.624
1819.000 0.553
1820.000 0.537
1821.000 0.537
1822.000 0.508
1823.000 0.536
1824.000 0.656
1825.000 0.549
1826.000 0.479
1827.000 0.418
1828.000 0.392
1829.000 0.474
1830.000 0.522
1831.000 0.543
1832.000 0.506
1833.000 0.552
1834.000 0.551
1835.000 0.550
1836.000 0.403
1837.000 0.500
1838.000 0.475
1839.000 0.444
1840.000 0.372
1841.000 0.513
1842.000 0.541
1843.000 0.704
1844.000 0.593
1845.000 0.656
1846.000 0.672
1847.000 0.693
1848.000 0.715
1849.000 0.609
1850.000 0.575
1851.000 0.593
1852.000 0.405
1853.000 0.492
1854.000 0.618
1855.000 0.581
1856.000 0.560
1857.000 0.497
1858.000 0.568
1859.000 0.521
1860.000 0.475
1861.000 0.468
1862.000 0.538
1863.000 0.490
1864.000 0.444
1865.000 0.473
1866.000 0.551
1867.000 0.530
1868.000 0.595
1869.000 0.626
1870.000 0.260
1871.000 0.400
1872.000 0.604
1873.000 0.547
1874.000 0.504
1875.000 0.455
1876.000 0.398
1877.000 0.281
1878.000 0.261
1879.000 0.834
1880.000 0.556
1881.000 0.515
1882.000 0.452
1883.000 0.330
1884.000 0.292
1885.000 0.331
1886.000 0.395
1887.000 0.393
1888.000 0.377
1889.000 0.429
1890.000 0.462
1891.000 0.458
1892.000 0.466
1893.000 0.418
1894.000 0.382
1895.000 0.348
1896.000 0.346
1897.000 0.525
1898.000 0.441
1899.000 0.475
1900.000 0.552
1901.000 0.520
1902.000 0.481
1903.000 0.407
1904.000 0.434
1905.000 0.311
1906.000 0.368
1907.000 0.452
1908.000 0.484
1909.000 0.609
1910.000 0.499
1911.000 0.763
1912.000 0.674
1913.000 0.568
1914.000 0.640
1915.000 0.566
1916.000 0.760
1917.000 0.744
1918.000 0.667
1919.000 0.607
1920.000 0.644
1921.000 0.587
1922.000 0.581
1923.000 0.501
1924.000 0.397
1925.000 0.397
1926.000 0.403
1927.000 0.512
1928.000 0.780
1929.000 0.762
1930.000 0.701
1931.000 0.701
1932.000 0.654
1933.000 0.651
1934.000 0.637
1935.000 0.611
1936.000 0.486
1937.000 0.332
1938.000 0.263
1939.000 0.284
1940.000 0.369
1941.000 0.446
1942.000 0.466
1943.000 0.514
1944.000 0.577
1945.000 0.652
1946.000 0.700
1947.000 0.684
1948.000 0.602
1949.000 0.525
1950.000 0.475
1951.000 0.512
1952.000 0.443
1953.000 0.403
1954.000 0.368
1955.000 0.299
1956.000 0.347
1957.000 0.303
1958.000 0.314
1959.000 0.272
1960.000 0.275
1961.000 0.291
1962.000 0.278
1963.000 0.208
1964.000 0.203
1965.000 0.213
1966.000 0.222
1967.000 0.242
1968.000 0.268
1969.000 0.254
1970.000 0.225
1971.000 0.223
1972.000 0.238
1973.000 0.266
1974.000 0.313
1975.000 0.333
1976.000 0.323
1977.000 0.289
1978.000 0.238
1979.000 0.210
1980.000 0.185
1981.000 0.168
1982.000 0.168
1983.000 0.173
1984.000 0.163
1985.000 0.161
1986.000 0.158
1987.000 0.151
1988.000 0.146
1989.000 0.142
1990.000 0.135
1991.000 0.124
1992.000 0.119
1993.000 0.123
1994.000 0.130
1995.000 0.137
1996.000 0.151
1997.000 0.171
1998.000 0.186
1999.000 0.202
2000.000 0.231
2001.000 0.261
2002.000 0.284
2003.000 0.305
2004.000 0.283
2005.000 0.282
2006.000 0.262
2007.000 0.271
2008.000 0.236
2009.000 0.275
2010.000 0.256
2011.000 0.217
2012.000 0.211
2013.000 0.203
2014.000 0.189
2015.000 0.171
2016.000 0.176
2017.000 0.217
2018.000 0.228
2019.000 0.237
2020.000 0.245
2021.000 0.220
2022.000 0.199
2023.000 0.194
2024.000 0.181
2025.000 0.171
2026.000 0.168
2027.000 0.170
2028.000 0.175
2029.000 0.181
2030.000 0.194
2031.000 0.200
2032.000 0.208
2033.000 0.208
2034.000 0.196
2035.000 0.200
2036.000 0.202
2037.000 0.195
2038.000 0.191
2039.000 0.191
2040.000 0.191
2041.000 0.193
2042.000 0.198
2043.000 0.218
2044.000 0.224
2045.000 0.225
2046.000 0.224
2047.000 0.215
2048.000 0.210
2049.000 0.203
2050.000 0.198
2051.000 0.200
2052.000 0.211
2053.000 0.222
2054.000 0.232
2055.000 0.230
2056.000 0.218
2057.000 0.219
2058.000 0.220
2059.000 0.226
2060.000 0.245
2061.000 0.255
2062.000 0.268
2063.000 0.272
2064.000 0.270
2065.000 0.263
2066.000 0.244
2067.000 0.239
2068.000 0.221
2069.000 0.222
2070.000 0.234
2071.000 0.232
2072.000 0.240
2073.000 0.258
2074.000 0.263
2075.000 0.264
2076.000 0.264
2077.000 0.262
2078.000 0.254
2079.000 0.244
2080.000 0.238
2081.000 0.229
2082.000 0.223
2083.000 0.230
2084.000 0.229
2085.000 0.228
2086.000 0.224
2087.000 0.227
2088.000 0.231
2089.000 0.232
2090.000 0.240
2091.000 0.240
2092.000 0.229
2093.000 0.225
2094.000 0.221
2095.000 0.220
2096.000 0.227
2097.000 0.228
2098.000 0.228
2099.000 0.232
2100.000 0.230
2101.000 0.227
2102.000 0.227
2103.000 0.232
2104.000 0.243
2105.000 0.269
2106.000 0.274
2107.000 0.280
2108.000 0.274
2109.000 0.241
2110.000 0.238
2111.000 0.251
2112.000 0.252
2113.000 0.263
2114.000 0.262
2115.000 0.239
2116.000 0.236
2117.000 0.241
2118.000 0.247
2119.000 0.252
2120.000 0.262
2121.000 0.262
2122.000 0.256
2123.000 0.257
2124.000 0.261
2125.000 0.267
2126.000 0.281
2127.000 0.288
2128.000 0.300
2129.000 0.301
2130.000 0.294
2131.000 0.288
2132.000 0.276
2133.000 0.268
2134.000 0.257
2135.000 0.252
2136.000 0.250
2137.000 0.247
2138.000 0.252
2139.000 0.260
2140.000 0.269
2141.000 0.284
2142.000 0.291
2143.000 0.292
2144.000 0.292
2145.000 0.284
2146.000 0.283
2147.000 0.285
2148.000 0.284
2149.000 0.279
2150.000 0.280
2151.000 0.282
2152.000 0.284
2153.000 0.295
2154.000 0.299
2155.000 0.300
2156.000 0.296
2157.000 0.292
2158.000 0.288
2159.000 0.290
2160.000 0.293
2161.000 0.292
2162.000 0.292
2163.000 0.290
2164.000 0.280
2165.000 0.278
2166.000 0.284
2167.000 0.283
2168.000 0.282
2169.000 0.281
2170.000 0.274
2171.000 0.272
2172.000 0.272
2173.000 0.274
2174.000 0.280
2175.000 0.283
2176.000 0.289
2177.000 0.291
2178.000 0.279
2179.000 0.279
2180.000 0.275
2181.000 0.265
2182.000 0.271
2183.000 0.270
2184.000 0.275
2185.000 0.290
2186.000 0.294
2187.000 0.297
2188.000 0.299
2189.000 0.290
2190.000 0.290
2191.000 0.296
2192.000 0.297
2193.000 0.299
2194.000 0.301
2195.000 0.300
2196.000 0.302
2197.000 0.305
2198.000 0.307
2199.000 0.308
2200.000 0.308
2201.000 0.316
2202.000 0.307
2203.000 0.296
2204.000 0.294
2205.000 0.283
2206.000 0.288
2207.000 0.307
2208.000 0.312
2209.000 0.313
2210.000 0.312
2211.000 0.307
2212.000 0.289
2213.000 0.286
2214.000 0.288
2215.000 0.290
2216.000 0.299
2217.000 0.304
2218.000 0.309
2219.000 0.313
2220.000 0.318
2221.000 0.319
2222.000 0.324
2223.000 0.320
2224.000 0.302
2225.000 0.297
2226.000 0.294
2227.000 0.285
2228.000 0.290
2229.000 0.287
2230.000 0.273
2231.000 0.269
2232.000 0.262
2233.000 0.260
2234.000 0.263
2235.000 0.256
2236.000 0.253
2237.000 0.263
2238.000 0.264
2239.000 0.262
2240.000 0.266
2241.000 0.267
2242.000 0.269
2243.000 0.281
2244.000 0.286
2245.000 0.278
2246.000 0.280
2247.000 0.290
2248.000 0.290
2249.000 0.285
2250.000 0.287
2251.000 0.286
2252.000 0.288
2253.000 0.307
2254.000 0.307
2255.000 0.295
2256.000 0.286
2257.000 0.264
2258.000 0.259
2259.000 0.264
2260.000 0.262
2261.000 0.280
2262.000 0.293
2263.000 0.297
2264.000 0.298
2265.000 0.283
2266.000 0.269
2267.000 0.267
2268.000 0.271
2269.000 0.276
2270.000 0.285
2271.000 0.281
2272.000 0.269
2273.000 0.263
2274.000 0.248
2275.000 0.244
2276.000 0.252
2277.000 0.252
2278.000 0.245
2279.000 0.244
2280.000 0.248
2281.000 0.242
2282.000 0.234
2283.000 0.234
2284.000 0.227
2285.000 0.227
2286.000 0.238
2287.000 0.236
2288.000 0.224
2289.000 0.222
2290.000 0.224
2291.000 0.231
2292.000 0.263
2293.000 0.264
2294.000 0.256
2295.000 0.255
2296.000 0.241
2297.000 0.229
2298.000 0.253
2299.000 0.259
2300.000 0.259
2301.000 0.257
2302.000 0.227
2303.000 0.208
2304.000 0.183
2305.000 0.182
2306.000 0.184
2307.000 0.193
2308.000 0.209
2309.000 0.224
2310.000 0.238
2311.000 0.247
2312.000 0.233
2313.000 0.219
2314.000 0.207
2315.000 0.205
2316.000 0.231
2317.000 0.275
2318.000 0.269
2319.000 0.278
2320.000 0.264
2321.000 0.249
2322.000 0.242
2323.000 0.231
2324.000 0.217
2325.000 0.201
2326.000 0.196
2327.000 0.194
2328.000 0.226
2329.000 0.245
2330.000 0.225
2331.000 0.240
2332.000 0.250
2333.000 0.253
2334.000 0.245
2335.000 0.247
2336.000 0.247
2337.000 0.224
2338.000 0.242
2339.000 0.273
2340.000 0.294
2341.000 0.414
2342.000 0.387
2343.000 0.417
2344.000 0.375
2345.000 0.217
2346.000 0.207
2347.000 0.270
2348.000 0.267
2349.000 0.245
2350.000 0.228
2351.000 0.179
2352.000 0.155
2353.000 0.157
2354.000 0.167
2355.000 0.211
2356.000 0.267
2357.000 0.367
2358.000 0.553
2359.000 0.562
2360.000 0.507
2361.000 0.363
2362.000 0.307
2363.000 0.219
2364.000 0.190
2365.000 0.251
2366.000 0.432
2367.000 0.382
2368.000 0.421
2369.000 0.423
2370.000 0.389
2371.000 0.254
2372.000 0.230
2373.000 0.214
2374.000 0.192
2375.000 0.264
2376.000 0.260
2377.000 0.271
2378.000 0.275
2379.000 0.289
2380.000 0.240
2381.000 0.239
2382.000 0.224
2383.000 0.166
2384.000 0.277
2385.000 0.198
2386.000 0.122
2387.000 0.183
2388.000 0.271
2389.000 0.246
2390.000 0.421
2391.000 0.369
2392.000 0.310
2393.000 0.206
2394.000 0.291
2395.000 0.367
2396.000 0.303
2397.000 0.237
2398.000 0.162
2399.000 0.559
2400.000 0.239
2401.000 0.226
2402.000 0.277
2403.000 0.274
2404.000 0.256
2405.000 0.197
2406.000 0.186
2407.000 0.226
2408.000 0.188
2409.000 0.232
2410.000 0.252
2411.000 0.394
2412.000 0.605
2413.000 0.326
2414.000 0.512
2415.000 0.332
2416.000 0.348
2417.000 0.239
2418.000 0.290
2419.000 0.350
2420.000 0.265
2421.000 0.222
2422.000 0.167
2423.000 0.497
2424.000 0.492
2425.000 0.509
2426.000 0.475
2427.000 0.443
2428.000 0.453
2429.000 0.491
2430.000 0.403
2431.000 0.368
2432.000 0.421
2433.000 0.361
2434.000 0.380
2435.000 0.546
2436.000 0.793
2437.000 0.422
2438.000 0.471
2439.000 0.640
2440.000 0.399
2441.000 0.419
2442.000 0.333
2443.000 0.219
2444.000 0.359
2445.000 0.447
2446.000 0.361
2447.000 0.303
2448.000 0.177
2449.000 0.171
2450.000 0.341
2451.000 0.451
2452.000 0.340
2453.000 0.478
2454.000 0.584
2455.000 0.402
2456.000 0.475
2457.000 0.561
2458.000 0.534
2459.000 0.533
2460.000 0.606
2461.000 0.639
2462.000 0.713
2463.000 0.737
2464.000 0.718
2465.000 0.546
2466.000 0.498
2467.000 0.414
2468.000 0.526
2469.000 0.393
2470.000 0.389
2471.000 0.243
2472.000 0.187
2473.000 0.427
2474.000 0.355
2475.000 0.357
2476.000 0.520
2477.000 0.657
2478.000 0.641
2479.000 0.679
2480.000 0.590
2481.000 0.387
2482.000 0.209
2483.000 0.399
2484.000 0.464
2485.000 0.509
2486.000 0.535
2487.000 0.600
2488.000 0.537
2489.000 0.447
2490.000 0.493
2491.000 0.318
2492.000 0.334
2493.000 0.307
2494.000 0.343
2495.000 0.435
2496.000 0.424
2497.000 0.310
2498.000 0.482
2499.000 0.157
2500.000 0.567
