391.000 0.024
392.000 0.025
393.000 0.021
394.000 0.020
395.000 0.023
396.000 0.024
397.000 0.024
398.000 0.025
399.000 0.024
400.000 0.023
401.000 0.025
402.000 0.026
403.000 0.026
404.000 0.025
405.000 0.023
406.000 0.024
407.000 0.026
408.000 0.026
409.000 0.027
410.000 0.026
411.000 0.024
412.000 0.024
413.000 0.024
414.000 0.025
415.000 0.025
416.000 0.025
417.000 0.025
418.000 0.025
419.000 0.026
420.000 0.027
421.000 0.026
422.000 0.026
423.000 0.025
424.000 0.025
425.000 0.024
426.000 0.024
427.000 0.026
428.000 0.027
429.000 0.026
430.000 0.026
431.000 0.027
432.000 0.027
433.000 0.026
434.000 0.027
435.000 0.027
436.000 0.026
437.000 0.026
438.000 0.026
439.000 0.026
440.000 0.027
441.000 0.028
442.000 0.026
443.000 0.027
444.000 0.027
445.000 0.027
446.000 0.027
447.000 0.027
448.000 0.027
449.000 0.028
450.000 0.026
451.000 0.026
452.000 0.028
453.000 0.027
454.000 0.026
455.000 0.027
456.000 0.028
457.000 0.028
458.000 0.028
459.000 0.029
460.000 0.029
461.000 0.028
462.000 0.027
463.000 0.027
464.000 0.029
465.000 0.028
466.000 0.027
467.000 0.029
468.000 0.027
469.000 0.028
470.000 0.029
471.000 0.028
472.000 0.028
473.000 0.028
474.000 0.028
475.000 0.028
476.000 0.028
477.000 0.028
478.000 0.029
479.000 0.028
480.000 0.029
481.000 0.029
482.000 0.029
483.000 0.029
484.000 0.028
485.000 0.029
486.000 0.029
487.000 0.031
488.000 0.031
489.000 0.031
490.000 0.030
491.000 0.030
492.000 0.031
493.000 0.030
494.000 0.031
495.000 0.031
496.000 0.029
497.000 0.031
498.000 0.033
499.000 0.033
500.000 0.031
501.000 0.032
502.000 0.033
503.000 0.033
504.000 0.034
505.000 0.034
506.000 0.035
507.000 0.034
508.000 0.035
509.000 0.036
510.000 0.037
511.000 0.038
512.000 0.037
513.000 0.038
514.000 0.040
515.000 0.040
516.000 0.042
517.000 0.042
518.000 0.043
519.000 0.044
520.000 0.046
521.000 0.048
522.000 0.050
523.000 0.050
524.000 0.052
525.000 0.052
526.000 0.054
527.000 0.055
528.000 0.056
529.000 0.057
530.000 0.058
531.000 0.059
532.000 0.061
533.000 0.060
534.000 0.061
535.000 0.062
536.000 0.063
537.000 0.063
538.000 0.064
539.000 0.065
540.000 0.065
541.000 0.065
542.000 0.065
543.000 0.066
544.000 0.066
545.000 0.066
546.000 0.066
547.000 0.066
548.000 0.066
549.000 0.066
550.000 0.067
551.000 0.067
552.000 0.067
553.000 0.067
554.000 0.067
555.000 0.066
556.000 0.066
557.000 0.066
558.000 0.066
559.000 0.065
560.000 0.065
561.000 0.065
562.000 0.065
563.000 0.064
564.000 0.063
565.000 0.063
566.000 0.062
567.000 0.061
568.000 0.060
569.000 0.060
570.000 0.059
571.000 0.058
572.000 0.057
573.000 0.057
574.000 0.056
575.000 0.056
576.000 0.055
577.000 0.055
578.000 0.054
579.000 0.054
580.000 0.053
581.000 0.053
582.000 0.052
583.000 0.052
584.000 0.051
585.000 0.051
586.000 0.051
587.000 0.051
588.000 0.050
589.000 0.050
590.000 0.050
591.000 0.050
592.000 0.049
593.000 0.049
594.000 0.049
595.000 0.050
596.000 0.050
597.000 0.049
598.000 0.049
599.000 0.049
600.000 0.049
601.000 0.050
602.000 0.049
603.000 0.048
604.000 0.048
605.000 0.049
606.000 0.048
607.000 0.048
608.000 0.048
609.000 0.048
610.000 0.048
611.000 0.047
612.000 0.048
613.000 0.048
614.000 0.047
615.000 0.048
616.000 0.049
617.000 0.047
618.000 0.047
619.000 0.048
620.000 0.047
621.000 0.047
622.000 0.047
623.000 0.047
624.000 0.047
625.000 0.048
626.000 0.048
627.000 0.048
628.000 0.047
629.000 0.047
630.000 0.048
631.000 0.049
632.000 0.048
633.000 0.048
634.000 0.048
635.000 0.047
636.000 0.047
637.000 0.048
638.000 0.048
639.000 0.047
640.000 0.047
641.000 0.047
642.000 0.047
643.000 0.046
644.000 0.045
645.000 0.045
646.000 0.046
647.000 0.046
648.000 0.045
649.000 0.045
650.000 0.045
651.000 0.045
652.000 0.045
653.000 0.045
654.000 0.046
655.000 0.047
656.000 0.047
657.000 0.046
658.000 0.047
659.000 0.048
660.000 0.046
661.000 0.045
662.000 0.046
663.000 0.047
664.000 0.047
665.000 0.047
666.000 0.046
667.000 0.048
668.000 0.049
669.000 0.048
670.000 0.049
671.000 0.049
672.000 0.049
673.000 0.048
674.000 0.049
675.000 0.049
676.000 0.049
677.000 0.049
678.000 0.051
679.000 0.052
680.000 0.051
681.000 0.054
682.000 0.054
683.000 0.054
684.000 0.055
685.000 0.055
686.000 0.055
687.000 0.058
688.000 0.060
689.000 0.060
690.000 0.059
691.000 0.060
692.000 0.062
693.000 0.064
694.000 0.066
695.000 0.069
696.000 0.072
697.000 0.075
698.000 0.078
699.000 0.081
700.000 0.085
701.000 0.090
702.000 0.094
703.000 0.097
704.000 0.101
705.000 0.105
706.000 0.109
707.000 0.112
708.000 0.117
709.000 0.121
710.000 0.125
711.000 0.128
712.000 0.133
713.000 0.137
714.000 0.141
715.000 0.145
716.000 0.149
717.000 0.154
718.000 0.159
719.000 0.164
720.000 0.169
721.000 0.173
722.000 0.177
723.000 0.181
724.000 0.185
725.000 0.190
726.000 0.194
727.000 0.199
728.000 0.203
729.000 0.207
730.000 0.211
731.000 0.214
732.000 0.218
733.000 0.221
734.000 0.224
735.000 0.228
736.000 0.231
737.000 0.234
738.000 0.237
739.000 0.240
740.000 0.242
741.000 0.245
742.000 0.247
743.000 0.250
744.000 0.252
745.000 0.254
746.000 0.256
747.000 0.258
748.000 0.259
749.000 0.261
750.000 0.263
751.000 0.264
752.000 0.266
753.000 0.267
754.000 0.268
755.000 0.270
756.000 0.271
757.000 0.271
758.000 0.272
759.000 0.273
760.000 0.274
761.000 0.278
762.000 0.279
763.000 0.280
764.000 0.281
765.000 0.280
766.000 0.280
767.000 0.280
768.000 0.280
769.000 0.281
770.000 0.281
771.000 0.281
772.000 0.282
773.000 0.283
774.000 0.283
775.000 0.283
776.000 0.284
777.000 0.284
778.000 0.284
779.000 0.285
780.000 0.286
781.000 0.286
782.000 0.287
783.000 0.287
784.000 0.288
785.000 0.288
786.000 0.288
787.000 0.289
788.000 0.289
789.000 0.290
790.000 0.291
791.000 0.291
792.000 0.291
793.000 0.291
794.000 0.292
795.000 0.292
796.000 0.293
797.000 0.293
798.000 0.294
799.000 0.294
800.000 0.295
801.000 0.295
802.000 0.295
803.000 0.296
804.000 0.296
805.000 0.297
806.000 0.297
807.000 0.297
808.000 0.297
809.000 0.298
810.000 0.299
811.000 0.299
812.000 0.300
813.000 0.300
814.000 0.301
815.000 0.301
816.000 0.302
817.000 0.302
818.000 0.302
819.000 0.303
820.000 0.303
821.000 0.303
822.000 0.303
823.000 0.304
824.000 0.304
825.000 0.305
826.000 0.305
827.000 0.305
828.000 0.306
829.000 0.306
830.000 0.306
831.000 0.306
832.000 0.307
833.000 0.307
834.000 0.308
835.000 0.308
836.000 0.308
837.000 0.308
838.000 0.309
839.000 0.309
840.000 0.309
841.000 0.310
842.000 0.310
843.000 0.310
844.000 0.311
845.000 0.311
846.000 0.310
847.000 0.311
848.000 0.312
849.000 0.312
850.000 0.312
851.000 0.312
852.000 0.313
853.000 0.313
854.000 0.313
855.000 0.314
856.000 0.314
857.000 0.314
858.000 0.314
859.000 0.315
860.000 0.315
861.000 0.315
862.000 0.316
863.000 0.316
864.000 0.316
865.000 0.316
866.000 0.316
867.000 0.317
868.000 0.317
869.000 0.317
870.000 0.318
871.000 0.318
872.000 0.318
873.000 0.318
874.000 0.319
875.000 0.319
876.000 0.319
877.000 0.320
878.000 0.320
879.000 0.320
880.000 0.321
881.000 0.321
882.000 0.321
883.000 0.321
884.000 0.321
885.000 0.322
886.000 0.323
887.000 0.323
888.000 0.323
889.000 0.324
890.000 0.323
891.000 0.324
892.000 0.324
893.000 0.325
894.000 0.325
895.000 0.325
896.000 0.326
897.000 0.326
898.000 0.326
899.000 0.327
900.000 0.327
901.000 0.328
902.000 0.328
903.000 0.328
904.000 0.328
905.000 0.328
906.000 0.328
907.000 0.329
908.000 0.329
909.000 0.329
910.000 0.329
911.000 0.330
912.000 0.330
913.000 0.330
914.000 0.331
915.000 0.332
916.000 0.332
917.000 0.332
918.000 0.332
919.000 0.332
920.000 0.332
921.000 0.332
922.000 0.332
923.000 0.333
924.000 0.333
925.000 0.332
926.000 0.332
927.000 0.331
928.000 0.332
929.000 0.330
930.000 0.330
931.000 0.331
932.000 0.329
933.000 0.328
934.000 0.327
935.000 0.328
936.000 0.328
937.000 0.326
938.000 0.325
939.000 0.327
940.000 0.329
941.000 0.327
942.000 0.327
943.000 0.329
944.000 0.327
945.000 0.326
946.000 0.327
947.000 0.328
948.000 0.328
949.000 0.325
950.000 0.323
951.000 0.325
952.000 0.326
953.000 0.329
954.000 0.329
955.000 0.325
956.000 0.328
957.000 0.331
958.000 0.329
959.000 0.324
960.000 0.325
961.000 0.327
962.000 0.327
963.000 0.326
964.000 0.327
965.000 0.329
966.000 0.329
967.000 0.330
968.000 0.330
969.000 0.330
970.000 0.330
971.000 0.330
972.000 0.331
973.000 0.330
974.000 0.329
975.000 0.330
976.000 0.330
977.000 0.331
978.000 0.332
979.000 0.330
980.000 0.331
981.000 0.332
982.000 0.332
983.000 0.332
984.000 0.332
985.000 0.332
986.000 0.332
987.000 0.333
988.000 0.333
989.000 0.332
990.000 0.332
991.000 0.333
992.000 0.333
993.000 0.334
994.000 0.336
995.000 0.335
996.000 0.335
997.000 0.337
998.000 0.337
999.000 0.338
1000.000 0.336
1001.000 0.339
1002.000 0.339
1003.000 0.340
1004.000 0.341
1005.000 0.342
1006.000 0.343
1007.000 0.344
1008.000 0.344
1009.000 0.345
1010.000 0.345
1011.000 0.346
1012.000 0.346
1013.000 0.346
1014.000 0.346
1015.000 0.346
1016.000 0.347
1017.000 0.347
1018.000 0.347
1019.000 0.348
1020.000 0.348
1021.000 0.347
1022.000 0.348
1023.000 0.348
1024.000 0.349
1025.000 0.350
1026.000 0.350
1027.000 0.351
1028.000 0.352
1029.000 0.352
1030.000 0.353
1031.000 0.353
1032.000 0.355
1033.000 0.355
1034.000 0.355
1035.000 0.356
1036.000 0.355
1037.000 0.355
1038.000 0.356
1039.000 0.357
1040.000 0.357
1041.000 0.358
1042.000 0.358
1043.000 0.359
1044.000 0.359
1045.000 0.360
1046.000 0.360
1047.000 0.360
1048.000 0.361
1049.000 0.361
1050.000 0.361
1051.000 0.361
1052.000 0.361
1053.000 0.361
1054.000 0.362
1055.000 0.362
1056.000 0.362
1057.000 0.363
1058.000 0.364
1059.000 0.364
1060.000 0.364
1061.000 0.365
1062.000 0.365
1063.000 0.366
1064.000 0.366
1065.000 0.367
1066.000 0.367
1067.000 0.366
1068.000 0.366
1069.000 0.366
1070.000 0.367
1071.000 0.367
1072.000 0.368
1073.000 0.368
1074.000 0.368
1075.000 0.369
1076.000 0.369
1077.000 0.369
1078.000 0.368
1079.000 0.369
1080.000 0.369
1081.000 0.370
1082.000 0.371
1083.000 0.371
1084.000 0.371
1085.000 0.371
1086.000 0.372
1087.000 0.372
1088.000 0.372
1089.000 0.373
1090.000 0.373
1091.000 0.373
1092.000 0.374
1093.000 0.374
1094.000 0.374
1095.000 0.374
1096.000 0.374
1097.000 0.374
1098.000 0.374
1099.000 0.374
1100.000 0.374
1101.000 0.374
1102.000 0.374
1103.000 0.374
1104.000 0.374
1105.000 0.374
1106.000 0.374
1107.000 0.374
1108.000 0.375
1109.000 0.376
1110.000 0.377
1111.000 0.377
1112.000 0.376
1113.000 0.376
1114.000 0.375
1115.000 0.374
1116.000 0.374
1117.000 0.373
1118.000 0.372
1119.000 0.373
1120.000 0.373
1121.000 0.373
1122.000 0.375
1123.000 0.374
1124.000 0.369
1125.000 0.367
1126.000 0.365
1127.000 0.364
1128.000 0.365
1129.000 0.364
1130.000 0.363
1131.000 0.363
1132.000 0.361
1133.000 0.361
1134.000 0.359
1135.000 0.358
1136.000 0.360
1137.000 0.361
1138.000 0.363
1139.000 0.365
1140.000 0.366
1141.000 0.368
1142.000 0.369
1143.000 0.368
1144.000 0.366
1145.000 0.362
1146.000 0.359
1147.000 0.354
1148.000 0.352
1149.000 0.350
1150.000 0.350
1151.000 0.351
1152.000 0.351
1153.000 0.351
1154.000 0.350
1155.000 0.350
1156.000 0.349
1157.000 0.349
1158.000 0.348
1159.000 0.349
1160.000 0.349
1161.000 0.349
1162.000 0.349
1163.000 0.349
1164.000 0.349
1165.000 0.349
1166.000 0.349
1167.000 0.349
1168.000 0.349
1169.000 0.349
1170.000 0.349
1171.000 0.349
1172.000 0.348
1173.000 0.349
1174.000 0.349
1175.000 0.349
1176.000 0.349
1177.000 0.350
1178.000 0.350
1179.000 0.350
1180.000 0.350
1181.000 0.350
1182.000 0.349
1183.000 0.348
1184.000 0.348
1185.000 0.349
1186.000 0.349
1187.000 0.350
1188.000 0.351
1189.000 0.350
1190.000 0.350
1191.000 0.351
1192.000 0.350
1193.000 0.350
1194.000 0.350
1195.000 0.350
1196.000 0.350
1197.000 0.351
1198.000 0.352
1199.000 0.352
1200.000 0.352
1201.000 0.352
1202.000 0.351
1203.000 0.352
1204.000 0.352
1205.000 0.352
1206.000 0.352
1207.000 0.353
1208.000 0.353
1209.000 0.353
1210.000 0.353
1211.000 0.353
1212.000 0.354
1213.000 0.354
1214.000 0.354
1215.000 0.355
1216.000 0.355
1217.000 0.356
1218.000 0.356
1219.000 0.356
1220.000 0.356
1221.000 0.358
1222.000 0.358
1223.000 0.358
1224.000 0.358
1225.000 0.358
1226.000 0.359
1227.000 0.359
1228.000 0.359
1229.000 0.359
1230.000 0.360
1231.000 0.360
1232.000 0.361
1233.000 0.362
1234.000 0.362
1235.000 0.362
1236.000 0.363
1237.000 0.363
1238.000 0.363
1239.000 0.364
1240.000 0.364
1241.000 0.365
1242.000 0.365
1243.000 0.365
1244.000 0.366
1245.000 0.366
1246.000 0.367
1247.000 0.367
1248.000 0.368
1249.000 0.368
1250.000 0.368
1251.000 0.369
1252.000 0.370
1253.000 0.370
1254.000 0.370
1255.000 0.371
1256.000 0.371
1257.000 0.372
1258.000 0.372
1259.000 0.372
1260.000 0.372
1261.000 0.373
1262.000 0.374
1263.000 0.373
1264.000 0.374
1265.000 0.374
1266.000 0.375
1267.000 0.375
1268.000 0.375
1269.000 0.375
1270.000 0.376
1271.000 0.375
1272.000 0.375
1273.000 0.375
1274.000 0.375
1275.000 0.375
1276.000 0.375
1277.000 0.375
1278.000 0.376
1279.000 0.375
1280.000 0.376
1281.000 0.376
1282.000 0.376
1283.000 0.376
1284.000 0.376
1285.000 0.376
1286.000 0.375
1287.000 0.375
1288.000 0.375
1289.000 0.376
1290.000 0.376
1291.000 0.376
1292.000 0.376
1293.000 0.376
1294.000 0.375
1295.000 0.376
1296.000 0.375
1297.000 0.374
1298.000 0.374
1299.000 0.374
1300.000 0.373
1301.000 0.374
1302.000 0.373
1303.000 0.373
1304.000 0.373
1305.000 0.373
1306.000 0.373
1307.000 0.372
1308.000 0.371
1309.000 0.370
1310.000 0.370
1311.000 0.369
1312.000 0.368
1313.000 0.367
1314.000 0.367
1315.000 0.366
1316.000 0.364
1317.000 0.364
1318.000 0.363
1319.000 0.362
1320.000 0.363
1321.000 0.362
1322.000 0.362
1323.000 0.361
1324.000 0.361
1325.000 0.360
1326.000 0.359
1327.000 0.358
1328.000 0.355
1329.000 0.354
1330.000 0.352
1331.000 0.350
1332.000 0.351
1333.000 0.351
1334.000 0.349
1335.000 0.348
1336.000 0.346
1337.000 0.346
1338.000 0.344
1339.000 0.344
1340.000 0.343
1341.000 0.342
1342.000 0.344
1343.000 0.344
1344.000 0.346
1345.000 0.346
1346.000 0.341
1347.000 0.339
1348.000 0.338
1349.000 0.338
1350.000 0.337
1351.000 0.347
1352.000 0.345
1353.000 0.351
1354.000 0.369
1355.000 0.407
1356.000 0.462
1357.000 0.458
1358.000 0.598
1359.000 0.607
1360.000 0.684
1361.000 0.673
1362.000 0.644
1363.000 0.603
1364.000 0.534
1365.000 0.171
1366.000 0.409
1367.000 0.585
1368.000 0.769
1369.000 0.549
1370.000 0.660
1371.000 0.635
1372.000 0.519
1373.000 0.413
1374.000 0.333
1375.000 0.468
1376.000 0.506
1377.000 0.534
1378.000 0.649
1379.000 0.669
1380.000 0.673
1381.000 0.443
1382.000 0.532
1383.000 0.303
1384.000 0.365
1385.000 0.261
1386.000 0.258
1387.000 0.287
1388.000 0.444
1389.000 0.194
1390.000 0.172
1391.000 0.129
1392.000 0.420
1393.000 0.285
1394.000 0.361
1395.000 0.434
1396.000 0.483
1397.000 0.328
1398.000 0.285
1399.000 0.328
1400.000 0.487
1401.000 0.728
1402.000 0.460
1403.000 0.419
1404.000 0.488
1405.000 0.475
1406.000 0.407
1407.000 0.421
1408.000 0.361
1409.000 0.279
1410.000 0.320
1411.000 0.399
1412.000 0.406
1413.000 0.450
1414.000 0.454
1415.000 0.418
1416.000 0.437
1417.000 0.434
1418.000 0.374
1419.000 0.390
1420.000 0.376
1421.000 0.323
1422.000 0.279
1423.000 0.309
1424.000 0.334
1425.000 0.285
1426.000 0.279
1427.000 0.313
1428.000 0.297
1429.000 0.293
1430.000 0.306
1431.000 0.249
1432.000 0.244
1433.000 0.263
1434.000 0.277
1435.000 0.321
1436.000 0.331
1437.000 0.330
1438.000 0.341
1439.000 0.297
1440.000 0.283
1441.000 0.268
1442.000 0.266
1443.000 0.234
1444.000 0.225
1445.000 0.194
1446.000 0.202
1447.000 0.184
1448.000 0.182
1449.000 0.212
1450.000 0.217
1451.000 0.168
1452.000 0.229
1453.000 0.212
1454.000 0.191
1455.000 0.188
1456.000 0.172
1457.000 0.151
1458.000 0.178
1459.000 0.207
1460.000 0.189
1461.000 0.189
1462.000 0.162
1463.000 0.169
1464.000 0.207
1465.000 0.189
1466.000 0.207
1467.000 0.194
1468.000 0.201
1469.000 0.204
1470.000 0.205
1471.000 0.214
1472.000 0.225
1473.000 0.216
1474.000 0.194
1475.000 0.189
1476.000 0.177
1477.000 0.186
1478.000 0.174
1479.000 0.164
1480.000 0.187
1481.000 0.179
1482.000 0.163
1483.000 0.164
1484.000 0.175
1485.000 0.182
1486.000 0.188
1487.000 0.197
1488.000 0.187
1489.000 0.190
1490.000 0.178
1491.000 0.173
1492.000 0.173
1493.000 0.173
1494.000 0.177
1495.000 0.176
1496.000 0.168
1497.000 0.167
1498.000 0.166
1499.000 0.168
1500.000 0.172
1501.000 0.176
1502.000 0.176
1503.000 0.175
1504.000 0.174
1505.000 0.176
1506.000 0.177
1507.000 0.180
1508.000 0.181
1509.000 0.180
1510.000 0.182
1511.000 0.182
1512.000 0.183
1513.000 0.184
1514.000 0.184
1515.000 0.183
1516.000 0.183
1517.000 0.184
1518.000 0.185
1519.000 0.188
1520.000 0.189
1521.000 0.191
1522.000 0.193
1523.000 0.192
1524.000 0.194
1525.000 0.196
1526.000 0.198
1527.000 0.201
1528.000 0.202
1529.000 0.203
1530.000 0.203
1531.000 0.204
1532.000 0.205
1533.000 0.204
1534.000 0.205
1535.000 0.204
1536.000 0.205
1537.000 0.206
1538.000 0.207
1539.000 0.207
1540.000 0.207
1541.000 0.208
1542.000 0.208
1543.000 0.209
1544.000 0.211
1545.000 0.211
1546.000 0.213
1547.000 0.214
1548.000 0.216
1549.000 0.218
1550.000 0.219
1551.000 0.218
1552.000 0.219
1553.000 0.218
1554.000 0.218
1555.000 0.220
1556.000 0.221
1557.000 0.224
1558.000 0.225
1559.000 0.224
1560.000 0.224
1561.000 0.223
1562.000 0.223
1563.000 0.223
1564.000 0.223
1565.000 0.224
1566.000 0.225
1567.000 0.227
1568.000 0.229
1569.000 0.230
1570.000 0.232
1571.000 0.233
1572.000 0.234
1573.000 0.234
1574.000 0.235
1575.000 0.236
1576.000 0.237
1577.000 0.238
1578.000 0.240
1579.000 0.241
1580.000 0.243
1581.000 0.244
1582.000 0.244
1583.000 0.245
1584.000 0.245
1585.000 0.246
1586.000 0.247
1587.000 0.247
1588.000 0.247
1589.000 0.247
1590.000 0.248
1591.000 0.249
1592.000 0.250
1593.000 0.251
1594.000 0.252
1595.000 0.253
1596.000 0.254
1597.000 0.253
1598.000 0.254
1599.000 0.255
1600.000 0.255
1601.000 0.256
1602.000 0.256
1603.000 0.255
1604.000 0.255
1605.000 0.256
1606.000 0.256
1607.000 0.257
1608.000 0.258
1609.000 0.260
1610.000 0.261
1611.000 0.262
1612.000 0.262
1613.000 0.261
1614.000 0.261
1615.000 0.263
1616.000 0.262
1617.000 0.260
1618.000 0.260
1619.000 0.260
1620.000 0.261
1621.000 0.265
1622.000 0.267
1623.000 0.266
1624.000 0.266
1625.000 0.265
1626.000 0.266
1627.000 0.267
1628.000 0.268
1629.000 0.268
1630.000 0.269
1631.000 0.269
1632.000 0.270
1633.000 0.272
1634.000 0.273
1635.000 0.273
1636.000 0.273
1637.000 0.272
1638.000 0.272
1639.000 0.272
1640.000 0.273
1641.000 0.273
1642.000 0.273
1643.000 0.274
1644.000 0.274
1645.000 0.273
1646.000 0.273
1647.000 0.272
1648.000 0.273
1649.000 0.274
1650.000 0.275
1651.000 0.274
1652.000 0.276
1653.000 0.275
1654.000 0.276
1655.000 0.277
1656.000 0.278
1657.000 0.277
1658.000 0.277
1659.000 0.275
1660.000 0.275
1661.000 0.275
1662.000 0.275
1663.000 0.277
1664.000 0.277
1665.000 0.279
1666.000 0.279
1667.000 0.276
1668.000 0.275
1669.000 0.277
1670.000 0.276
1671.000 0.276
1672.000 0.277
1673.000 0.276
1674.000 0.275
1675.000 0.275
1676.000 0.275
1677.000 0.275
1678.000 0.275
1679.000 0.275
1680.000 0.275
1681.000 0.273
1682.000 0.273
1683.000 0.274
1684.000 0.274
1685.000 0.276
1686.000 0.277
1687.000 0.276
1688.000 0.276
1689.000 0.276
1690.000 0.276
1691.000 0.274
1692.000 0.274
1693.000 0.274
1694.000 0.272
1695.000 0.272
1696.000 0.270
1697.000 0.266
1698.000 0.266
1699.000 0.266
1700.000 0.267
1701.000 0.270
1702.000 0.271
1703.000 0.271
1704.000 0.273
1705.000 0.274
1706.000 0.274
1707.000 0.273
1708.000 0.273
1709.000 0.273
1710.000 0.272
1711.000 0.272
1712.000 0.270
1713.000 0.269
1714.000 0.269
1715.000 0.268
1716.000 0.268
1717.000 0.268
1718.000 0.268
1719.000 0.270
1720.000 0.270
1721.000 0.267
1722.000 0.267
1723.000 0.267
1724.000 0.267
1725.000 0.268
1726.000 0.268
1727.000 0.265
1728.000 0.267
1729.000 0.267
1730.000 0.266
1731.000 0.267
1732.000 0.266
1733.000 0.263
1734.000 0.263
1735.000 0.262
1736.000 0.263
1737.000 0.263
1738.000 0.262
1739.000 0.261
1740.000 0.253
1741.000 0.251
1742.000 0.250
1743.000 0.251
1744.000 0.256
1745.000 0.257
1746.000 0.257
1747.000 0.256
1748.000 0.255
1749.000 0.252
1750.000 0.248
1751.000 0.246
1752.000 0.243
1753.000 0.242
1754.000 0.244
1755.000 0.245
1756.000 0.248
1757.000 0.247
1758.000 0.245
1759.000 0.246
1760.000 0.245
1761.000 0.243
1762.000 0.248
1763.000 0.250
1764.000 0.247
1765.000 0.249
1766.000 0.250
1767.000 0.244
1768.000 0.242
1769.000 0.243
1770.000 0.240
1771.000 0.245
1772.000 0.249
1773.000 0.249
1774.000 0.255
1775.000 0.256
1776.000 0.252
1777.000 0.250
1778.000 0.246
1779.000 0.244
1780.000 0.245
1781.000 0.245
1782.000 0.243
1783.000 0.238
1784.000 0.238
1785.000 0.252
1786.000 0.250
1787.000 0.251
1788.000 0.243
1789.000 0.220
1790.000 0.209
1791.000 0.193
1792.000 0.191
1793.000 0.192
1794.000 0.213
1795.000 0.221
1796.000 0.219
1797.000 0.194
1798.000 0.173
1799.000 0.164
1800.000 0.177
1801.000 0.379
1802.000 0.418
1803.000 0.458
1804.000 0.481
1805.000 0.543
1806.000 0.620
1807.000 0.690
1808.000 0.750
1809.000 0.614
1810.000 0.596
1811.000 0.505
1812.000 0.650
1813.000 0.511
1814.000 0.517
1815.000 0.584
1816.000 0.645
1817.000 0.681
1818.000 0.690
1819.000 0.576
1820.000 0.547
1821.000 0.489
1822.000 0.464
1823.000 0.382
1824.000 0.557
1825.000 0.538
1826.000 0.679
1827.000 0.645
1828.000 0.486
1829.000 0.362
1830.000 0.182
1831.000 0.160
1832.000 0.196
1833.000 0.275
1834.000 0.422
1835.000 0.236
1836.000 0.182
1837.000 0.174
1838.000 0.165
1839.000 0.219
1840.000 0.172
1841.000 0.352
1842.000 0.527
1843.000 0.387
1844.000 0.373
1845.000 0.474
1846.000 0.381
1847.000 0.406
1848.000 0.381
1849.000 0.417
1850.000 0.486
1851.000 0.661
1852.000 0.459
1853.000 0.662
1854.000 0.633
1855.000 0.530
1856.000 0.657
1857.000 0.631
1858.000 0.438
1859.000 0.566
1860.000 0.596
1861.000 0.421
1862.000 0.234
1863.000 0.222
1864.000 0.258
1865.000 0.263
1866.000 0.274
1867.000 0.413
1868.000 0.493
1869.000 0.322
1870.000 0.491
1871.000 0.639
1872.000 0.442
1873.000 0.426
1874.000 0.301
1875.000 0.397
1876.000 0.525
1877.000 0.581
1878.000 0.661
1879.000 0.628
1880.000 0.640
1881.000 0.674
1882.000 0.606
1883.000 0.564
1884.000 0.562
1885.000 0.594
1886.000 0.619
1887.000 0.530
1888.000 0.482
1889.000 0.342
1890.000 0.425
1891.000 0.587
1892.000 0.625
1893.000 0.626
1894.000 0.549
1895.000 0.437
1896.000 0.695
1897.000 0.587
1898.000 0.533
1899.000 0.663
1900.000 0.351
1901.000 0.143
1902.000 0.401
1903.000 0.349
1904.000 0.318
1905.000 0.204
1906.000 0.152
1907.000 0.215
1908.000 0.250
1909.000 0.318
1910.000 0.363
1911.000 0.402
1912.000 0.498
1913.000 0.586
1914.000 0.679
1915.000 0.787
1916.000 0.573
1917.000 0.391
1918.000 0.399
1919.000 0.434
1920.000 0.680
1921.000 0.721
1922.000 0.562
1923.000 0.455
1924.000 0.486
1925.000 0.514
1926.000 0.559
1927.000 0.630
1928.000 0.568
1929.000 0.489
1930.000 0.547
1931.000 0.530
1932.000 0.588
1933.000 0.502
1934.000 0.515
1935.000 0.440
1936.000 0.558
1937.000 0.553
1938.000 0.572
1939.000 0.454
1940.000 0.501
1941.000 0.485
1942.000 0.526
1943.000 0.495
1944.000 0.452
1945.000 0.421
1946.000 0.464
1947.000 0.395
1948.000 0.173
1949.000 0.279
1950.000 0.299
1951.000 0.460
1952.000 0.573
1953.000 0.696
1954.000 0.508
1955.000 0.534
1956.000 0.508
1957.000 0.583
1958.000 0.684
1959.000 0.575
1960.000 0.405
1961.000 0.456
1962.000 0.456
1963.000 0.395
1964.000 0.421
1965.000 0.367
1966.000 0.352
1967.000 0.324
1968.000 0.335
1969.000 0.351
1970.000 0.312
1971.000 0.222
1972.000 0.208
1973.000 0.179
1974.000 0.200
1975.000 0.205
1976.000 0.206
1977.000 0.205
1978.000 0.198
1979.000 0.209
1980.000 0.215
1981.000 0.219
1982.000 0.207
1983.000 0.198
1984.000 0.181
1985.000 0.178
1986.000 0.111
1987.000 0.138
1988.000 0.184
1989.000 0.188
1990.000 0.210
1991.000 0.158
1992.000 0.138
1993.000 0.145
1994.000 0.163
1995.000 0.173
1996.000 0.175
1997.000 0.186
1998.000 0.185
1999.000 0.180
2000.000 0.270
2001.000 0.306
2002.000 0.236
2003.000 0.252
2004.000 0.215
2005.000 0.257
2006.000 0.306
2007.000 0.381
2008.000 0.392
2009.000 0.322
2010.000 0.260
2011.000 0.393
2012.000 0.378
2013.000 0.322
2014.000 0.257
2015.000 0.176
2016.000 0.172
2017.000 0.204
2018.000 0.200
2019.000 0.195
2020.000 0.193
2021.000 0.166
2022.000 0.165
2023.000 0.166
2024.000 0.176
2025.000 0.177
2026.000 0.173
2027.000 0.166
2028.000 0.154
2029.000 0.154
2030.000 0.168
2031.000 0.178
2032.000 0.137
2033.000 0.160
2034.000 0.156
2035.000 0.155
2036.000 0.165
2037.000 0.153
2038.000 0.155
2039.000 0.160
2040.000 0.186
2041.000 0.145
2042.000 0.164
2043.000 0.157
2044.000 0.156
2045.000 0.177
2046.000 0.182
2047.000 0.201
2048.000 0.209
2049.000 0.203
2050.000 0.203
2051.000 0.192
2052.000 0.181
2053.000 0.178
2054.000 0.159
2055.000 0.156
2056.000 0.182
2057.000 0.188
2058.000 0.212
2059.000 0.201
2060.000 0.194
2061.000 0.191
2062.000 0.157
2063.000 0.153
2064.000 0.164
2065.000 0.169
2066.000 0.169
2067.000 0.171
2068.000 0.206
2069.000 0.189
2070.000 0.183
2071.000 0.190
2072.000 0.196
2073.000 0.175
2074.000 0.170
2075.000 0.184
2076.000 0.187
2077.000 0.186
2078.000 0.182
2079.000 0.167
2080.000 0.173
2081.000 0.188
2082.000 0.206
2083.000 0.209
2084.000 0.216
2085.000 0.208
2086.000 0.209
2087.000 0.211
2088.000 0.199
2089.000 0.198
2090.000 0.210
2091.000 0.194
2092.000 0.183
2093.000 0.186
2094.000 0.192
2095.000 0.194
2096.000 0.212
2097.000 0.206
2098.000 0.203
2099.000 0.189
2100.000 0.181
2101.000 0.178
2102.000 0.173
2103.000 0.166
2104.000 0.170
2105.000 0.167
2106.000 0.167
2107.000 0.154
2108.000 0.170
2109.000 0.198
2110.000 0.185
2111.000 0.205
2112.000 0.214
2113.000 0.191
2114.000 0.187
2115.000 0.184
2116.000 0.188
2117.000 0.201
2118.000 0.182
2119.000 0.193
2120.000 0.192
2121.000 0.186
2122.000 0.192
2123.000 0.190
2124.000 0.184
2125.000 0.190
2126.000 0.207
2127.000 0.194
2128.000 0.193
2129.000 0.189
2130.000 0.178
2131.000 0.187
2132.000 0.210
2133.000 0.218
2134.000 0.195
2135.000 0.192
2136.000 0.180
2137.000 0.184
2138.000 0.193
2139.000 0.212
2140.000 0.190
2141.000 0.189
2142.000 0.183
2143.000 0.175
2144.000 0.175
2145.000 0.179
2146.000 0.186
2147.000 0.187
2148.000 0.193
2149.000 0.203
2150.000 0.208
2151.000 0.222
2152.000 0.230
2153.000 0.191
2154.000 0.186
2155.000 0.189
2156.000 0.199
2157.000 0.197
2158.000 0.213
2159.000 0.194
2160.000 0.215
2161.000 0.223
2162.000 0.219
2163.000 0.198
2164.000 0.189
2165.000 0.238
2166.000 0.229
2167.000 0.196
2168.000 0.204
2169.000 0.200
2170.000 0.222
2171.000 0.215
2172.000 0.217
2173.000 0.189
2174.000 0.222
2175.000 0.221
2176.000 0.222
2177.000 0.221
2178.000 0.210
2179.000 0.250
2180.000 0.227
2181.000 0.187
2182.000 0.191
2183.000 0.198
2184.000 0.195
2185.000 0.189
2186.000 0.185
2187.000 0.177
2188.000 0.185
2189.000 0.186
2190.000 0.189
2191.000 0.209
2192.000 0.218
2193.000 0.246
2194.000 0.242
2195.000 0.236
2196.000 0.231
2197.000 0.224
2198.000 0.217
2199.000 0.207
2200.000 0.198
2201.000 0.190
2202.000 0.185
2203.000 0.195
2204.000 0.195
2205.000 0.201
2206.000 0.202
2207.000 0.204
2208.000 0.209
2209.000 0.212
2210.000 0.211
2211.000 0.212
2212.000 0.212
2213.000 0.206
2214.000 0.193
2215.000 0.184
2216.000 0.191
2217.000 0.196
2218.000 0.213
2219.000 0.218
2220.000 0.210
2221.000 0.215
2222.000 0.221
2223.000 0.215
2224.000 0.201
2225.000 0.194
2226.000 0.194
2227.000 0.195
2228.000 0.204
2229.000 0.211
2230.000 0.200
2231.000 0.222
2232.000 0.190
2233.000 0.195
2234.000 0.196
2235.000 0.188
2236.000 0.192
2237.000 0.175
2238.000 0.177
2239.000 0.186
2240.000 0.190
2241.000 0.204
2242.000 0.206
2243.000 0.201
2244.000 0.200
2245.000 0.195
2246.000 0.198
2247.000 0.216
2248.000 0.213
2249.000 0.203
2250.000 0.196
2251.000 0.173
2252.000 0.168
2253.000 0.156
2254.000 0.169
2255.000 0.180
2256.000 0.187
2257.000 0.207
2258.000 0.192
2259.000 0.174
2260.000 0.251
2261.000 0.251
2262.000 0.243
2263.000 0.199
2264.000 0.192
2265.000 0.181
2266.000 0.179
2267.000 0.182
2268.000 0.161
2269.000 0.167
2270.000 0.163
2271.000 0.156
2272.000 0.147
2273.000 0.147
2274.000 0.152
2275.000 0.158
2276.000 0.185
2277.000 0.195
2278.000 0.202
2279.000 0.202
2280.000 0.206
2281.000 0.210
2282.000 0.198
2283.000 0.191
2284.000 0.202
2285.000 0.195
2286.000 0.200
2287.000 0.208
2288.000 0.206
2289.000 0.193
2290.000 0.161
2291.000 0.166
2292.000 0.156
2293.000 0.158
2294.000 0.157
2295.000 0.164
2296.000 0.179
2297.000 0.175
2298.000 0.157
2299.000 0.165
2300.000 0.161
2301.000 0.188
2302.000 0.174
2303.000 0.150
2304.000 0.119
2305.000 0.115
2306.000 0.175
2307.000 0.157
2308.000 0.163
2309.000 0.178
2310.000 0.170
2311.000 0.172
2312.000 0.158
2313.000 0.163
2314.000 0.184
2315.000 0.175
2316.000 0.177
2317.000 0.164
2318.000 0.151
2319.000 0.186
2320.000 0.198
2321.000 0.239
2322.000 0.258
2323.000 0.235
2324.000 0.210
2325.000 0.179
2326.000 0.169
2327.000 0.200
2328.000 0.204
2329.000 0.205
2330.000 0.199
2331.000 0.178
2332.000 0.142
2333.000 0.161
2334.000 0.147
2335.000 0.162
2336.000 0.162
2337.000 0.140
2338.000 0.146
2339.000 0.159
2340.000 0.176
2341.000 0.213
2342.000 0.199
2343.000 0.167
2344.000 0.182
2345.000 0.184
2346.000 0.200
2347.000 0.163
2348.000 0.116
2349.000 0.171
2350.000 0.213
2351.000 0.201
2352.000 0.190
2353.000 0.166
2354.000 0.164
2355.000 0.157
2356.000 0.204
2357.000 0.207
2358.000 0.222
2359.000 0.205
2360.000 0.229
2361.000 0.303
2362.000 0.318
2363.000 0.280
2364.000 0.274
2365.000 0.195
2366.000 0.190
2367.000 0.193
2368.000 0.222
2369.000 0.257
2370.000 0.252
2371.000 0.291
2372.000 0.262
2373.000 0.281
2374.000 0.342
2375.000 0.203
2376.000 0.390
2377.000 0.390
2378.000 0.405
2379.000 0.304
2380.000 0.343
2381.000 0.246
2382.000 0.204
2383.000 0.224
2384.000 0.234
2385.000 0.381
2386.000 0.419
2387.000 0.130
2388.000 0.397
2389.000 0.249
2390.000 0.209
2391.000 0.260
2392.000 0.382
2393.000 0.364
2394.000 0.340
2395.000 0.279
2396.000 0.230
2397.000 0.187
2398.000 0.137
2399.000 0.182
2400.000 0.257
2401.000 0.128
2402.000 0.179
2403.000 0.266
2404.000 0.297
2405.000 0.308
2406.000 0.359
2407.000 0.456
2408.000 0.446
2409.000 0.374
2410.000 0.389
2411.000 0.468
2412.000 0.464
2413.000 0.447
2414.000 0.525
2415.000 0.534
2416.000 0.529
2417.000 0.313
2418.000 0.469
2419.000 0.342
2420.000 0.392
2421.000 0.429
2422.000 0.477
2423.000 0.468
2424.000 0.425
2425.000 0.428
2426.000 0.292
2427.000 0.371
2428.000 0.232
2429.000 0.303
2430.000 0.237
2431.000 0.310
2432.000 0.315
2433.000 0.282
2434.000 0.281
2435.000 0.289
2436.000 0.525
2437.000 0.795
2438.000 0.682
2439.000 0.287
2440.000 0.453
2441.000 0.451
2442.000 0.436
2443.000 0.376
2444.000 0.350
2445.000 0.295
2446.000 0.404
2447.000 0.477
2448.000 0.536
2449.000 0.224
2450.000 0.362
2451.000 0.322
2452.000 0.298
2453.000 0.358
2454.000 0.427
2455.000 0.469
2456.000 0.479
2457.000 0.484
2458.000 0.416
2459.000 0.425
2460.000 0.914
2461.000 0.700
2462.000 0.647
2463.000 0.248
2464.000 0.427
2465.000 0.449
2466.000 0.365
2467.000 0.484
2468.000 0.280
2469.000 0.122
2470.000 0.220
2471.000 0.624
2472.000 0.576
2473.000 0.498
2474.000 0.223
2475.000 0.351
2476.000 0.443
2477.000 0.391
2478.000 0.504
2479.000 0.455
2480.000 0.493
2481.000 0.423
2482.000 0.172
2483.000 0.285
2484.000 0.336
2485.000 0.253
2486.000 0.192
2487.000 0.101
2488.000 0.113
2489.000 0.239
2490.000 0.405
2491.000 0.532
2492.000 0.736
2493.000 0.455
2494.000 0.188
2495.000 0.303
2496.000 0.229
2497.000 0.224
2498.000 0.337
2499.000 0.601
2500.000 0.661
