391.000 0.037
392.000 0.036
393.000 0.034
394.000 0.036
395.000 0.035
396.000 0.034
397.000 0.034
398.000 0.035
399.000 0.036
400.000 0.037
401.000 0.038
402.000 0.037
403.000 0.037
404.000 0.037
405.000 0.036
406.000 0.037
407.000 0.038
408.000 0.039
409.000 0.038
410.000 0.036
411.000 0.036
412.000 0.037
413.000 0.037
414.000 0.038
415.000 0.038
416.000 0.038
417.000 0.036
418.000 0.037
419.000 0.038
420.000 0.038
421.000 0.038
422.000 0.038
423.000 0.037
424.000 0.038
425.000 0.037
426.000 0.036
427.000 0.037
428.000 0.036
429.000 0.036
430.000 0.037
431.000 0.037
432.000 0.037
433.000 0.037
434.000 0.038
435.000 0.037
436.000 0.037
437.000 0.036
438.000 0.037
439.000 0.038
440.000 0.038
441.000 0.037
442.000 0.037
443.000 0.038
444.000 0.037
445.000 0.037
446.000 0.037
447.000 0.038
448.000 0.039
449.000 0.037
450.000 0.039
451.000 0.038
452.000 0.037
453.000 0.037
454.000 0.038
455.000 0.038
456.000 0.038
457.000 0.038
458.000 0.038
459.000 0.038
460.000 0.037
461.000 0.038
462.000 0.037
463.000 0.037
464.000 0.038
465.000 0.038
466.000 0.037
467.000 0.037
468.000 0.037
469.000 0.037
470.000 0.036
471.000 0.038
472.000 0.038
473.000 0.038
474.000 0.039
475.000 0.037
476.000 0.037
477.000 0.038
478.000 0.037
479.000 0.039
480.000 0.039
481.000 0.037
482.000 0.037
483.000 0.038
484.000 0.038
485.000 0.038
486.000 0.039
487.000 0.038
488.000 0.038
489.000 0.038
490.000 0.038
491.000 0.038
492.000 0.039
493.000 0.038
494.000 0.038
495.000 0.039
496.000 0.040
497.000 0.040
498.000 0.040
499.000 0.039
500.000 0.040
501.000 0.041
502.000 0.041
503.000 0.041
504.000 0.042
505.000 0.043
506.000 0.043
507.000 0.044
508.000 0.044
509.000 0.046
510.000 0.048
511.000 0.048
512.000 0.049
513.000 0.051
514.000 0.053
515.000 0.054
516.000 0.057
517.000 0.058
518.000 0.060
519.000 0.063
520.000 0.066
521.000 0.068
522.000 0.070
523.000 0.072
524.000 0.075
525.000 0.077
526.000 0.079
527.000 0.082
528.000 0.084
529.000 0.086
530.000 0.088
531.000 0.090
532.000 0.092
533.000 0.093
534.000 0.094
535.000 0.095
536.000 0.095
537.000 0.097
538.000 0.097
539.000 0.098
540.000 0.099
541.000 0.099
542.000 0.099
543.000 0.100
544.000 0.101
545.000 0.101
546.000 0.101
547.000 0.101
548.000 0.101
549.000 0.102
550.000 0.102
551.000 0.102
552.000 0.102
553.000 0.102
554.000 0.102
555.000 0.101
556.000 0.101
557.000 0.100
558.000 0.100
559.000 0.099
560.000 0.098
561.000 0.097
562.000 0.096
563.000 0.094
564.000 0.093
565.000 0.091
566.000 0.090
567.000 0.089
568.000 0.087
569.000 0.085
570.000 0.083
571.000 0.081
572.000 0.080
573.000 0.078
574.000 0.077
575.000 0.075
576.000 0.075
577.000 0.073
578.000 0.072
579.000 0.071
580.000 0.070
581.000 0.069
582.000 0.069
583.000 0.068
584.000 0.067
585.000 0.066
586.000 0.065
587.000 0.065
588.000 0.065
589.000 0.064
590.000 0.063
591.000 0.063
592.000 0.063
593.000 0.062
594.000 0.062
595.000 0.061
596.000 0.061
597.000 0.061
598.000 0.061
599.000 0.061
600.000 0.060
601.000 0.059
602.000 0.059
603.000 0.059
604.000 0.059
605.000 0.059
606.000 0.058
607.000 0.057
608.000 0.057
609.000 0.056
610.000 0.056
611.000 0.056
612.000 0.056
613.000 0.055
614.000 0.054
615.000 0.053
616.000 0.053
617.000 0.051
618.000 0.051
619.000 0.052
620.000 0.051
621.000 0.050
622.000 0.050
623.000 0.050
624.000 0.051
625.000 0.051
626.000 0.050
627.000 0.050
628.000 0.050
629.000 0.050
630.000 0.050
631.000 0.050
632.000 0.050
633.000 0.050
634.000 0.050
635.000 0.050
636.000 0.049
637.000 0.048
638.000 0.047
639.000 0.047
640.000 0.047
641.000 0.046
642.000 0.045
643.000 0.044
644.000 0.044
645.000 0.045
646.000 0.043
647.000 0.042
648.000 0.043
649.000 0.042
650.000 0.042
651.000 0.042
652.000 0.043
653.000 0.042
654.000 0.041
655.000 0.041
656.000 0.042
657.000 0.041
658.000 0.041
659.000 0.042
660.000 0.041
661.000 0.042
662.000 0.042
663.000 0.041
664.000 0.041
665.000 0.041
666.000 0.041
667.000 0.041
668.000 0.041
669.000 0.040
670.000 0.040
671.000 0.041
672.000 0.041
673.000 0.041
674.000 0.043
675.000 0.044
676.000 0.044
677.000 0.044
678.000 0.046
679.000 0.047
680.000 0.046
681.000 0.047
682.000 0.048
683.000 0.049
684.000 0.050
685.000 0.051
686.000 0.052
687.000 0.054
688.000 0.056
689.000 0.057
690.000 0.059
691.000 0.061
692.000 0.064
693.000 0.068
694.000 0.072
695.000 0.078
696.000 0.083
697.000 0.089
698.000 0.095
699.000 0.103
700.000 0.112
701.000 0.120
702.000 0.129
703.000 0.137
704.000 0.146
705.000 0.155
706.000 0.164
707.000 0.174
708.000 0.183
709.000 0.192
710.000 0.202
711.000 0.212
712.000 0.222
713.000 0.232
714.000 0.242
715.000 0.252
716.000 0.262
717.000 0.273
718.000 0.284
719.000 0.297
720.000 0.308
721.000 0.318
722.000 0.327
723.000 0.337
724.000 0.348
725.000 0.358
726.000 0.369
727.000 0.378
728.000 0.388
729.000 0.398
730.000 0.407
731.000 0.415
732.000 0.423
733.000 0.431
734.000 0.438
735.000 0.445
736.000 0.452
737.000 0.458
738.000 0.464
739.000 0.470
740.000 0.475
741.000 0.481
742.000 0.485
743.000 0.490
744.000 0.494
745.000 0.498
746.000 0.502
747.000 0.504
748.000 0.507
749.000 0.511
750.000 0.513
751.000 0.515
752.000 0.518
753.000 0.520
754.000 0.522
755.000 0.524
756.000 0.525
757.000 0.526
758.000 0.527
759.000 0.529
760.000 0.530
761.000 0.532
762.000 0.533
763.000 0.533
764.000 0.534
765.000 0.535
766.000 0.535
767.000 0.536
768.000 0.536
769.000 0.537
770.000 0.538
771.000 0.538
772.000 0.539
773.000 0.539
774.000 0.540
775.000 0.540
776.000 0.540
777.000 0.541
778.000 0.541
779.000 0.542
780.000 0.542
781.000 0.542
782.000 0.542
783.000 0.543
784.000 0.543
785.000 0.544
786.000 0.544
787.000 0.545
788.000 0.545
789.000 0.545
790.000 0.545
791.000 0.545
792.000 0.546
793.000 0.546
794.000 0.546
795.000 0.547
796.000 0.547
797.000 0.548
798.000 0.548
799.000 0.548
800.000 0.548
801.000 0.548
802.000 0.548
803.000 0.549
804.000 0.549
805.000 0.550
806.000 0.550
807.000 0.550
808.000 0.551
809.000 0.551
810.000 0.551
811.000 0.551
812.000 0.551
813.000 0.552
814.000 0.552
815.000 0.552
816.000 0.552
817.000 0.553
818.000 0.553
819.000 0.553
820.000 0.553
821.000 0.554
822.000 0.554
823.000 0.554
824.000 0.555
825.000 0.555
826.000 0.555
827.000 0.555
828.000 0.555
829.000 0.555
830.000 0.555
831.000 0.555
832.000 0.556
833.000 0.556
834.000 0.556
835.000 0.557
836.000 0.556
837.000 0.557
838.000 0.557
839.000 0.557
840.000 0.557
841.000 0.558
842.000 0.558
843.000 0.558
844.000 0.558
845.000 0.558
846.000 0.559
847.000 0.559
848.000 0.559
849.000 0.559
850.000 0.559
851.000 0.560
852.000 0.560
853.000 0.560
854.000 0.560
855.000 0.561
856.000 0.561
857.000 0.561
858.000 0.561
859.000 0.561
860.000 0.561
861.000 0.561
862.000 0.561
863.000 0.562
864.000 0.562
865.000 0.561
866.000 0.562
867.000 0.562
868.000 0.562
869.000 0.562
870.000 0.563
871.000 0.563
872.000 0.563
873.000 0.563
874.000 0.563
875.000 0.563
876.000 0.564
877.000 0.564
878.000 0.564
879.000 0.564
880.000 0.564
881.000 0.564
882.000 0.564
883.000 0.565
884.000 0.565
885.000 0.565
886.000 0.565
887.000 0.566
888.000 0.566
889.000 0.566
890.000 0.566
891.000 0.566
892.000 0.566
893.000 0.567
894.000 0.566
895.000 0.567
896.000 0.567
897.000 0.567
898.000 0.567
899.000 0.568
900.000 0.567
901.000 0.568
902.000 0.568
903.000 0.567
904.000 0.568
905.000 0.569
906.000 0.568
907.000 0.568
908.000 0.568
909.000 0.569
910.000 0.569
911.000 0.569
912.000 0.569
913.000 0.569
914.000 0.569
915.000 0.569
916.000 0.569
917.000 0.569
918.000 0.570
919.000 0.569
920.000 0.569
921.000 0.570
922.000 0.570
923.000 0.570
924.000 0.570
925.000 0.570
926.000 0.569
927.000 0.568
928.000 0.569
929.000 0.569
930.000 0.568
931.000 0.568
932.000 0.568
933.000 0.568
934.000 0.567
935.000 0.564
936.000 0.566
937.000 0.567
938.000 0.566
939.000 0.563
940.000 0.563
941.000 0.564
942.000 0.565
943.000 0.564
944.000 0.562
945.000 0.560
946.000 0.560
947.000 0.560
948.000 0.559
949.000 0.559
950.000 0.558
951.000 0.556
952.000 0.556
953.000 0.554
954.000 0.554
955.000 0.554
956.000 0.553
957.000 0.550
958.000 0.549
959.000 0.550
960.000 0.550
961.000 0.549
962.000 0.549
963.000 0.549
964.000 0.549
965.000 0.548
966.000 0.548
967.000 0.550
968.000 0.550
969.000 0.549
970.000 0.550
971.000 0.550
972.000 0.550
973.000 0.549
974.000 0.549
975.000 0.550
976.000 0.550
977.000 0.549
978.000 0.549
979.000 0.551
980.000 0.551
981.000 0.550
982.000 0.550
983.000 0.550
984.000 0.551
985.000 0.551
986.000 0.552
987.000 0.552
988.000 0.553
989.000 0.553
990.000 0.553
991.000 0.553
992.000 0.554
993.000 0.554
994.000 0.554
995.000 0.555
996.000 0.555
997.000 0.556
998.000 0.556
999.000 0.557
1000.000 0.558
1001.000 0.562
1002.000 0.562
1003.000 0.563
1004.000 0.563
1005.000 0.563
1006.000 0.564
1007.000 0.564
1008.000 0.565
1009.000 0.565
1010.000 0.565
1011.000 0.567
1012.000 0.567
1013.000 0.568
1014.000 0.569
1015.000 0.570
1016.000 0.570
1017.000 0.570
1018.000 0.571
1019.000 0.572
1020.000 0.573
1021.000 0.574
1022.000 0.574
1023.000 0.575
1024.000 0.575
1025.000 0.575
1026.000 0.576
1027.000 0.576
1028.000 0.577
1029.000 0.578
1030.000 0.579
1031.000 0.579
1032.000 0.580
1033.000 0.580
1034.000 0.580
1035.000 0.581
1036.000 0.581
1037.000 0.581
1038.000 0.582
1039.000 0.583
1040.000 0.583
1041.000 0.583
1042.000 0.584
1043.000 0.584
1044.000 0.584
1045.000 0.584
1046.000 0.584
1047.000 0.584
1048.000 0.585
1049.000 0.586
1050.000 0.586
1051.000 0.587
1052.000 0.587
1053.000 0.587
1054.000 0.587
1055.000 0.587
1056.000 0.588
1057.000 0.588
1058.000 0.589
1059.000 0.589
1060.000 0.590
1061.000 0.590
1062.000 0.591
1063.000 0.590
1064.000 0.590
1065.000 0.590
1066.000 0.590
1067.000 0.590
1068.000 0.591
1069.000 0.591
1070.000 0.591
1071.000 0.592
1072.000 0.592
1073.000 0.592
1074.000 0.592
1075.000 0.592
1076.000 0.593
1077.000 0.593
1078.000 0.593
1079.000 0.593
1080.000 0.593
1081.000 0.593
1082.000 0.594
1083.000 0.594
1084.000 0.595
1085.000 0.594
1086.000 0.595
1087.000 0.594
1088.000 0.594
1089.000 0.594
1090.000 0.594
1091.000 0.594
1092.000 0.594
1093.000 0.593
1094.000 0.594
1095.000 0.594
1096.000 0.594
1097.000 0.594
1098.000 0.593
1099.000 0.593
1100.000 0.592
1101.000 0.592
1102.000 0.592
1103.000 0.592
1104.000 0.592
1105.000 0.591
1106.000 0.590
1107.000 0.590
1108.000 0.590
1109.000 0.590
1110.000 0.590
1111.000 0.590
1112.000 0.590
1113.000 0.589
1114.000 0.590
1115.000 0.590
1116.000 0.589
1117.000 0.589
1118.000 0.589
1119.000 0.588
1120.000 0.589
1121.000 0.589
1122.000 0.589
1123.000 0.589
1124.000 0.588
1125.000 0.587
1126.000 0.585
1127.000 0.584
1128.000 0.584
1129.000 0.583
1130.000 0.582
1131.000 0.583
1132.000 0.583
1133.000 0.582
1134.000 0.580
1135.000 0.578
1136.000 0.576
1137.000 0.575
1138.000 0.573
1139.000 0.572
1140.000 0.570
1141.000 0.567
1142.000 0.565
1143.000 0.564
1144.000 0.563
1145.000 0.561
1146.000 0.558
1147.000 0.555
1148.000 0.552
1149.000 0.549
1150.000 0.547
1151.000 0.546
1152.000 0.544
1153.000 0.543
1154.000 0.541
1155.000 0.539
1156.000 0.537
1157.000 0.536
1158.000 0.534
1159.000 0.533
1160.000 0.533
1161.000 0.533
1162.000 0.533
1163.000 0.532
1164.000 0.531
1165.000 0.531
1166.000 0.530
1167.000 0.530
1168.000 0.530
1169.000 0.530
1170.000 0.530
1171.000 0.531
1172.000 0.531
1173.000 0.530
1174.000 0.530
1175.000 0.529
1176.000 0.529
1177.000 0.528
1178.000 0.528
1179.000 0.528
1180.000 0.528
1181.000 0.528
1182.000 0.528
1183.000 0.528
1184.000 0.528
1185.000 0.528
1186.000 0.528
1187.000 0.527
1188.000 0.527
1189.000 0.526
1190.000 0.526
1191.000 0.527
1192.000 0.527
1193.000 0.527
1194.000 0.528
1195.000 0.528
1196.000 0.528
1197.000 0.528
1198.000 0.528
1199.000 0.528
1200.000 0.528
1201.000 0.528
1202.000 0.528
1203.000 0.528
1204.000 0.529
1205.000 0.529
1206.000 0.529
1207.000 0.528
1208.000 0.528
1209.000 0.529
1210.000 0.529
1211.000 0.529
1212.000 0.530
1213.000 0.531
1214.000 0.531
1215.000 0.532
1216.000 0.532
1217.000 0.533
1218.000 0.533
1219.000 0.533
1220.000 0.534
1221.000 0.534
1222.000 0.534
1223.000 0.534
1224.000 0.535
1225.000 0.535
1226.000 0.536
1227.000 0.536
1228.000 0.537
1229.000 0.537
1230.000 0.537
1231.000 0.538
1232.000 0.538
1233.000 0.539
1234.000 0.539
1235.000 0.539
1236.000 0.539
1237.000 0.540
1238.000 0.540
1239.000 0.541
1240.000 0.541
1241.000 0.542
1242.000 0.541
1243.000 0.542
1244.000 0.542
1245.000 0.543
1246.000 0.543
1247.000 0.544
1248.000 0.544
1249.000 0.545
1250.000 0.545
1251.000 0.545
1252.000 0.546
1253.000 0.545
1254.000 0.546
1255.000 0.547
1256.000 0.547
1257.000 0.547
1258.000 0.547
1259.000 0.548
1260.000 0.548
1261.000 0.548
1262.000 0.548
1263.000 0.548
1264.000 0.548
1265.000 0.548
1266.000 0.548
1267.000 0.549
1268.000 0.549
1269.000 0.549
1270.000 0.549
1271.000 0.549
1272.000 0.549
1273.000 0.549
1274.000 0.550
1275.000 0.550
1276.000 0.550
1277.000 0.550
1278.000 0.549
1279.000 0.549
1280.000 0.549
1281.000 0.549
1282.000 0.548
1283.000 0.548
1284.000 0.547
1285.000 0.547
1286.000 0.547
1287.000 0.547
1288.000 0.547
1289.000 0.547
1290.000 0.547
1291.000 0.546
1292.000 0.545
1293.000 0.544
1294.000 0.544
1295.000 0.543
1296.000 0.542
1297.000 0.542
1298.000 0.541
1299.000 0.540
1300.000 0.539
1301.000 0.539
1302.000 0.538
1303.000 0.537
1304.000 0.536
1305.000 0.534
1306.000 0.533
1307.000 0.532
1308.000 0.530
1309.000 0.530
1310.000 0.529
1311.000 0.527
1312.000 0.526
1313.000 0.525
1314.000 0.523
1315.000 0.521
1316.000 0.519
1317.000 0.518
1318.000 0.516
1319.000 0.515
1320.000 0.514
1321.000 0.513
1322.000 0.511
1323.000 0.510
1324.000 0.507
1325.000 0.506
1326.000 0.504
1327.000 0.503
1328.000 0.502
1329.000 0.500
1330.000 0.498
1331.000 0.495
1332.000 0.492
1333.000 0.490
1334.000 0.487
1335.000 0.485
1336.000 0.482
1337.000 0.480
1338.000 0.479
1339.000 0.478
1340.000 0.476
1341.000 0.476
1342.000 0.475
1343.000 0.474
1344.000 0.475
1345.000 0.474
1346.000 0.470
1347.000 0.467
1348.000 0.464
1349.000 0.461
1350.000 0.458
1351.000 0.459
1352.000 0.457
1353.000 0.449
1354.000 0.442
1355.000 0.412
1356.000 0.380
1357.000 0.353
1358.000 0.288
1359.000 0.331
1360.000 0.356
1361.000 0.371
1362.000 0.339
1363.000 0.488
1364.000 0.496
1365.000 0.373
1366.000 0.476
1367.000 0.410
1368.000 0.508
1369.000 0.385
1370.000 0.406
1371.000 0.284
1372.000 0.354
1373.000 0.562
1374.000 0.485
1375.000 0.660
1376.000 0.327
1377.000 0.424
1378.000 0.426
1379.000 0.583
1380.000 0.376
1381.000 0.500
1382.000 0.695
1383.000 0.619
1384.000 0.470
1385.000 0.397
1386.000 0.554
1387.000 0.650
1388.000 0.703
1389.000 0.724
1390.000 0.643
1391.000 0.607
1392.000 0.623
1393.000 0.675
1394.000 0.310
1395.000 0.326
1396.000 0.476
1397.000 0.550
1398.000 0.488
1399.000 0.233
1400.000 0.447
1401.000 0.511
1402.000 0.369
1403.000 0.278
1404.000 0.309
1405.000 0.309
1406.000 0.380
1407.000 0.572
1408.000 0.580
1409.000 0.487
1410.000 0.427
1411.000 0.335
1412.000 0.356
1413.000 0.246
1414.000 0.402
1415.000 0.282
1416.000 0.260
1417.000 0.353
1418.000 0.381
1419.000 0.367
1420.000 0.337
1421.000 0.350
1422.000 0.361
1423.000 0.226
1424.000 0.311
1425.000 0.226
1426.000 0.186
1427.000 0.182
1428.000 0.171
1429.000 0.157
1430.000 0.161
1431.000 0.143
1432.000 0.141
1433.000 0.152
1434.000 0.151
1435.000 0.146
1436.000 0.150
1437.000 0.155
1438.000 0.171
1439.000 0.153
1440.000 0.157
1441.000 0.158
1442.000 0.156
1443.000 0.151
1444.000 0.152
1445.000 0.160
1446.000 0.163
1447.000 0.168
1448.000 0.170
1449.000 0.161
1450.000 0.167
1451.000 0.178
1452.000 0.183
1453.000 0.181
1454.000 0.176
1455.000 0.173
1456.000 0.165
1457.000 0.163
1458.000 0.164
1459.000 0.165
1460.000 0.167
1461.000 0.166
1462.000 0.164
1463.000 0.166
1464.000 0.171
1465.000 0.173
1466.000 0.179
1467.000 0.180
1468.000 0.173
1469.000 0.173
1470.000 0.176
1471.000 0.178
1472.000 0.182
1473.000 0.183
1474.000 0.188
1475.000 0.185
1476.000 0.176
1477.000 0.176
1478.000 0.177
1479.000 0.177
1480.000 0.181
1481.000 0.183
1482.000 0.182
1483.000 0.182
1484.000 0.183
1485.000 0.185
1486.000 0.185
1487.000 0.186
1488.000 0.188
1489.000 0.189
1490.000 0.191
1491.000 0.192
1492.000 0.193
1493.000 0.194
1494.000 0.194
1495.000 0.195
1496.000 0.195
1497.000 0.196
1498.000 0.197
1499.000 0.198
1500.000 0.199
1501.000 0.200
1502.000 0.202
1503.000 0.203
1504.000 0.205
1505.000 0.206
1506.000 0.207
1507.000 0.206
1508.000 0.208
1509.000 0.211
1510.000 0.214
1511.000 0.217
1512.000 0.219
1513.000 0.220
1514.000 0.221
1515.000 0.222
1516.000 0.224
1517.000 0.225
1518.000 0.227
1519.000 0.229
1520.000 0.231
1521.000 0.233
1522.000 0.234
1523.000 0.234
1524.000 0.235
1525.000 0.236
1526.000 0.237
1527.000 0.240
1528.000 0.241
1529.000 0.242
1530.000 0.244
1531.000 0.245
1532.000 0.246
1533.000 0.247
1534.000 0.249
1535.000 0.250
1536.000 0.252
1537.000 0.253
1538.000 0.255
1539.000 0.257
1540.000 0.258
1541.000 0.259
1542.000 0.260
1543.000 0.261
1544.000 0.262
1545.000 0.265
1546.000 0.267
1547.000 0.269
1548.000 0.270
1549.000 0.270
1550.000 0.271
1551.000 0.272
1552.000 0.273
1553.000 0.275
1554.000 0.277
1555.000 0.278
1556.000 0.279
1557.000 0.281
1558.000 0.282
1559.000 0.284
1560.000 0.285
1561.000 0.286
1562.000 0.288
1563.000 0.289
1564.000 0.291
1565.000 0.292
1566.000 0.293
1567.000 0.294
1568.000 0.295
1569.000 0.295
1570.000 0.297
1571.000 0.297
1572.000 0.298
1573.000 0.300
1574.000 0.301
1575.000 0.303
1576.000 0.305
1577.000 0.305
1578.000 0.306
1579.000 0.308
1580.000 0.309
1581.000 0.311
1582.000 0.313
1583.000 0.313
1584.000 0.314
1585.000 0.316
1586.000 0.317
1587.000 0.317
1588.000 0.318
1589.000 0.318
1590.000 0.319
1591.000 0.321
1592.000 0.322
1593.000 0.324
1594.000 0.325
1595.000 0.324
1596.000 0.325
1597.000 0.325
1598.000 0.325
1599.000 0.327
1600.000 0.328
1601.000 0.329
1602.000 0.331
1603.000 0.332
1604.000 0.333
1605.000 0.334
1606.000 0.334
1607.000 0.335
1608.000 0.336
1609.000 0.337
1610.000 0.337
1611.000 0.339
1612.000 0.340
1613.000 0.341
1614.000 0.342
1615.000 0.343
1616.000 0.344
1617.000 0.344
1618.000 0.345
1619.000 0.345
1620.000 0.346
1621.000 0.347
1622.000 0.348
1623.000 0.349
1624.000 0.350
1625.000 0.351
1626.000 0.352
1627.000 0.351
1628.000 0.352
1629.000 0.352
1630.000 0.353
1631.000 0.354
1632.000 0.354
1633.000 0.354
1634.000 0.354
1635.000 0.355
1636.000 0.355
1637.000 0.355
1638.000 0.356
1639.000 0.356
1640.000 0.357
1641.000 0.357
1642.000 0.357
1643.000 0.357
1644.000 0.357
1645.000 0.358
1646.000 0.359
1647.000 0.360
1648.000 0.361
1649.000 0.361
1650.000 0.361
1651.000 0.362
1652.000 0.362
1653.000 0.363
1654.000 0.364
1655.000 0.364
1656.000 0.365
1657.000 0.365
1658.000 0.366
1659.000 0.365
1660.000 0.365
1661.000 0.365
1662.000 0.365
1663.000 0.364
1664.000 0.364
1665.000 0.365
1666.000 0.365
1667.000 0.366
1668.000 0.366
1669.000 0.367
1670.000 0.366
1671.000 0.365
1672.000 0.365
1673.000 0.365
1674.000 0.364
1675.000 0.365
1676.000 0.365
1677.000 0.365
1678.000 0.365
1679.000 0.364
1680.000 0.364
1681.000 0.365
1682.000 0.365
1683.000 0.365
1684.000 0.366
1685.000 0.366
1686.000 0.366
1687.000 0.366
1688.000 0.367
1689.000 0.366
1690.000 0.366
1691.000 0.367
1692.000 0.367
1693.000 0.367
1694.000 0.366
1695.000 0.364
1696.000 0.363
1697.000 0.363
1698.000 0.363
1699.000 0.362
1700.000 0.362
1701.000 0.360
1702.000 0.360
1703.000 0.360
1704.000 0.360
1705.000 0.360
1706.000 0.359
1707.000 0.359
1708.000 0.358
1709.000 0.358
1710.000 0.357
1711.000 0.357
1712.000 0.357
1713.000 0.357
1714.000 0.357
1715.000 0.358
1716.000 0.357
1717.000 0.356
1718.000 0.354
1719.000 0.351
1720.000 0.351
1721.000 0.350
1722.000 0.351
1723.000 0.352
1724.000 0.350
1725.000 0.351
1726.000 0.351
1727.000 0.352
1728.000 0.354
1729.000 0.355
1730.000 0.354
1731.000 0.353
1732.000 0.350
1733.000 0.348
1734.000 0.349
1735.000 0.348
1736.000 0.347
1737.000 0.346
1738.000 0.344
1739.000 0.343
1740.000 0.343
1741.000 0.342
1742.000 0.340
1743.000 0.340
1744.000 0.342
1745.000 0.343
1746.000 0.346
1747.000 0.345
1748.000 0.341
1749.000 0.340
1750.000 0.339
1751.000 0.338
1752.000 0.338
1753.000 0.337
1754.000 0.334
1755.000 0.333
1756.000 0.331
1757.000 0.330
1758.000 0.329
1759.000 0.328
1760.000 0.327
1761.000 0.325
1762.000 0.323
1763.000 0.322
1764.000 0.320
1765.000 0.318
1766.000 0.318
1767.000 0.321
1768.000 0.321
1769.000 0.321
1770.000 0.321
1771.000 0.319
1772.000 0.319
1773.000 0.319
1774.000 0.319
1775.000 0.316
1776.000 0.316
1777.000 0.319
1778.000 0.316
1779.000 0.313
1780.000 0.312
1781.000 0.311
1782.000 0.312
1783.000 0.316
1784.000 0.319
1785.000 0.317
1786.000 0.317
1787.000 0.316
1788.000 0.314
1789.000 0.311
1790.000 0.309
1791.000 0.310
1792.000 0.315
1793.000 0.316
1794.000 0.318
1795.000 0.311
1796.000 0.303
1797.000 0.309
1798.000 0.313
1799.000 0.321
1800.000 0.344
1801.000 0.498
1802.000 0.507
1803.000 0.530
1804.000 0.530
1805.000 0.526
1806.000 0.551
1807.000 0.563
1808.000 0.530
1809.000 0.524
1810.000 0.522
1811.000 0.551
1812.000 0.605
1813.000 0.507
1814.000 0.484
1815.000 0.543
1816.000 0.605
1817.000 0.590
1818.000 0.517
1819.000 0.512
1820.000 0.477
1821.000 0.454
1822.000 0.468
1823.000 0.420
1824.000 0.372
1825.000 0.358
1826.000 0.428
1827.000 0.537
1828.000 0.479
1829.000 0.449
1830.000 0.626
1831.000 0.558
1832.000 0.453
1833.000 0.417
1834.000 0.443
1835.000 0.383
1836.000 0.388
1837.000 0.485
1838.000 0.595
1839.000 0.586
1840.000 0.607
1841.000 0.601
1842.000 0.604
1843.000 0.607
1844.000 0.541
1845.000 0.575
1846.000 0.615
1847.000 0.676
1848.000 0.692
1849.000 0.513
1850.000 0.356
1851.000 0.295
1852.000 0.225
1853.000 0.296
1854.000 0.561
1855.000 0.649
1856.000 0.660
1857.000 0.507
1858.000 0.491
1859.000 0.376
1860.000 0.493
1861.000 0.499
1862.000 0.633
1863.000 0.476
1864.000 0.471
1865.000 0.406
1866.000 0.579
1867.000 0.502
1868.000 0.483
1869.000 0.482
1870.000 0.494
1871.000 0.579
1872.000 0.608
1873.000 0.524
1874.000 0.402
1875.000 0.435
1876.000 0.472
1877.000 0.529
1878.000 0.585
1879.000 0.700
1880.000 0.678
1881.000 0.542
1882.000 0.522
1883.000 0.488
1884.000 0.462
1885.000 0.613
1886.000 0.594
1887.000 0.492
1888.000 0.515
1889.000 0.396
1890.000 0.358
1891.000 0.428
1892.000 0.378
1893.000 0.360
1894.000 0.405
1895.000 0.422
1896.000 0.438
1897.000 0.362
1898.000 0.464
1899.000 0.585
1900.000 0.481
1901.000 0.593
1902.000 0.430
1903.000 0.459
1904.000 0.281
1905.000 0.495
1906.000 0.359
1907.000 0.439
1908.000 0.371
1909.000 0.427
1910.000 0.539
1911.000 0.643
1912.000 0.636
1913.000 0.535
1914.000 0.494
1915.000 0.443
1916.000 0.411
1917.000 0.428
1918.000 0.430
1919.000 0.651
1920.000 0.566
1921.000 0.467
1922.000 0.361
1923.000 0.440
1924.000 0.678
1925.000 0.606
1926.000 0.531
1927.000 0.351
1928.000 0.267
1929.000 0.328
1930.000 0.399
1931.000 0.289
1932.000 0.419
1933.000 0.457
1934.000 0.405
1935.000 0.254
1936.000 0.261
1937.000 0.294
1938.000 0.230
1939.000 0.388
1940.000 0.467
1941.000 0.506
1942.000 0.468
1943.000 0.341
1944.000 0.422
1945.000 0.393
1946.000 0.463
1947.000 0.457
1948.000 0.420
1949.000 0.496
1950.000 0.506
1951.000 0.525
1952.000 0.455
1953.000 0.449
1954.000 0.544
1955.000 0.566
1956.000 0.515
1957.000 0.480
1958.000 0.365
1959.000 0.375
1960.000 0.368
1961.000 0.332
1962.000 0.351
1963.000 0.350
1964.000 0.295
1965.000 0.280
1966.000 0.262
1967.000 0.229
1968.000 0.186
1969.000 0.169
1970.000 0.156
1971.000 0.167
1972.000 0.173
1973.000 0.173
1974.000 0.155
1975.000 0.148
1976.000 0.145
1977.000 0.132
1978.000 0.131
1979.000 0.142
1980.000 0.146
1981.000 0.130
1982.000 0.128
1983.000 0.127
1984.000 0.117
1985.000 0.128
1986.000 0.129
1987.000 0.131
1988.000 0.137
1989.000 0.152
1990.000 0.141
1991.000 0.141
1992.000 0.159
1993.000 0.159
1994.000 0.167
1995.000 0.183
1996.000 0.192
1997.000 0.205
1998.000 0.209
1999.000 0.210
2000.000 0.189
2001.000 0.181
2002.000 0.183
2003.000 0.188
2004.000 0.206
2005.000 0.220
2006.000 0.240
2007.000 0.252
2008.000 0.255
2009.000 0.259
2010.000 0.270
2011.000 0.278
2012.000 0.275
2013.000 0.256
2014.000 0.261
2015.000 0.242
2016.000 0.228
2017.000 0.222
2018.000 0.199
2019.000 0.195
2020.000 0.182
2021.000 0.172
2022.000 0.169
2023.000 0.172
2024.000 0.170
2025.000 0.167
2026.000 0.159
2027.000 0.156
2028.000 0.154
2029.000 0.153
2030.000 0.153
2031.000 0.153
2032.000 0.148
2033.000 0.145
2034.000 0.142
2035.000 0.145
2036.000 0.145
2037.000 0.142
2038.000 0.139
2039.000 0.139
2040.000 0.138
2041.000 0.140
2042.000 0.140
2043.000 0.136
2044.000 0.137
2045.000 0.140
2046.000 0.142
2047.000 0.150
2048.000 0.155
2049.000 0.155
2050.000 0.162
2051.000 0.163
2052.000 0.161
2053.000 0.166
2054.000 0.171
2055.000 0.178
2056.000 0.179
2057.000 0.180
2058.000 0.173
2059.000 0.170
2060.000 0.168
2061.000 0.169
2062.000 0.174
2063.000 0.176
2064.000 0.177
2065.000 0.178
2066.000 0.177
2067.000 0.169
2068.000 0.168
2069.000 0.169
2070.000 0.163
2071.000 0.158
2072.000 0.157
2073.000 0.154
2074.000 0.156
2075.000 0.165
2076.000 0.170
2077.000 0.178
2078.000 0.180
2079.000 0.174
2080.000 0.175
2081.000 0.176
2082.000 0.179
2083.000 0.183
2084.000 0.186
2085.000 0.187
2086.000 0.182
2087.000 0.179
2088.000 0.178
2089.000 0.178
2090.000 0.181
2091.000 0.179
2092.000 0.176
2093.000 0.174
2094.000 0.166
2095.000 0.164
2096.000 0.168
2097.000 0.169
2098.000 0.169
2099.000 0.169
2100.000 0.170
2101.000 0.172
2102.000 0.178
2103.000 0.183
2104.000 0.184
2105.000 0.182
2106.000 0.182
2107.000 0.179
2108.000 0.179
2109.000 0.181
2110.000 0.182
2111.000 0.184
2112.000 0.185
2113.000 0.186
2114.000 0.188
2115.000 0.190
2116.000 0.193
2117.000 0.198
2118.000 0.204
2119.000 0.206
2120.000 0.209
2121.000 0.208
2122.000 0.204
2123.000 0.202
2124.000 0.197
2125.000 0.197
2126.000 0.195
2127.000 0.194
2128.000 0.199
2129.000 0.200
2130.000 0.197
2131.000 0.198
2132.000 0.199
2133.000 0.200
2134.000 0.203
2135.000 0.203
2136.000 0.204
2137.000 0.200
2138.000 0.197
2139.000 0.196
2140.000 0.194
2141.000 0.193
2142.000 0.194
2143.000 0.197
2144.000 0.199
2145.000 0.202
2146.000 0.203
2147.000 0.200
2148.000 0.199
2149.000 0.199
2150.000 0.200
2151.000 0.200
2152.000 0.204
2153.000 0.212
2154.000 0.217
2155.000 0.224
2156.000 0.230
2157.000 0.226
2158.000 0.226
2159.000 0.230
2160.000 0.232
2161.000 0.230
2162.000 0.228
2163.000 0.225
2164.000 0.215
2165.000 0.208
2166.000 0.203
2167.000 0.201
2168.000 0.197
2169.000 0.199
2170.000 0.207
2171.000 0.212
2172.000 0.220
2173.000 0.225
2174.000 0.228
2175.000 0.231
2176.000 0.235
2177.000 0.233
2178.000 0.232
2179.000 0.233
2180.000 0.228
2181.000 0.225
2182.000 0.224
2183.000 0.219
2184.000 0.217
2185.000 0.219
2186.000 0.220
2187.000 0.219
2188.000 0.222
2189.000 0.227
2190.000 0.230
2191.000 0.236
2192.000 0.239
2193.000 0.240
2194.000 0.240
2195.000 0.236
2196.000 0.233
2197.000 0.230
2198.000 0.226
2199.000 0.219
2200.000 0.217
2201.000 0.213
2202.000 0.213
2203.000 0.214
2204.000 0.218
2205.000 0.225
2206.000 0.226
2207.000 0.225
2208.000 0.228
2209.000 0.227
2210.000 0.222
2211.000 0.222
2212.000 0.224
2213.000 0.223
2214.000 0.225
2215.000 0.223
2216.000 0.217
2217.000 0.216
2218.000 0.214
2219.000 0.213
2220.000 0.214
2221.000 0.215
2222.000 0.221
2223.000 0.223
2224.000 0.225
2225.000 0.226
2226.000 0.224
2227.000 0.220
2228.000 0.227
2229.000 0.232
2230.000 0.235
2231.000 0.242
2232.000 0.239
2233.000 0.235
2234.000 0.235
2235.000 0.230
2236.000 0.226
2237.000 0.220
2238.000 0.218
2239.000 0.215
2240.000 0.215
2241.000 0.220
2242.000 0.221
2243.000 0.220
2244.000 0.217
2245.000 0.211
2246.000 0.208
2247.000 0.208
2248.000 0.207
2249.000 0.204
2250.000 0.203
2251.000 0.203
2252.000 0.203
2253.000 0.209
2254.000 0.211
2255.000 0.211
2256.000 0.211
2257.000 0.213
2258.000 0.213
2259.000 0.208
2260.000 0.207
2261.000 0.202
2262.000 0.192
2263.000 0.193
2264.000 0.192
2265.000 0.191
2266.000 0.200
2267.000 0.203
2268.000 0.201
2269.000 0.206
2270.000 0.209
2271.000 0.212
2272.000 0.216
2273.000 0.215
2274.000 0.205
2275.000 0.203
2276.000 0.202
2277.000 0.203
2278.000 0.210
2279.000 0.212
2280.000 0.211
2281.000 0.210
2282.000 0.202
2283.000 0.199
2284.000 0.200
2285.000 0.199
2286.000 0.202
2287.000 0.204
2288.000 0.201
2289.000 0.201
2290.000 0.206
2291.000 0.210
2292.000 0.217
2293.000 0.219
2294.000 0.214
2295.000 0.211
2296.000 0.208
2297.000 0.198
2298.000 0.193
2299.000 0.198
2300.000 0.194
2301.000 0.194
2302.000 0.194
2303.000 0.193
2304.000 0.196
2305.000 0.192
2306.000 0.189
2307.000 0.197
2308.000 0.199
2309.000 0.204
2310.000 0.203
2311.000 0.199
2312.000 0.193
2313.000 0.187
2314.000 0.184
2315.000 0.188
2316.000 0.185
2317.000 0.188
2318.000 0.177
2319.000 0.164
2320.000 0.160
2321.000 0.152
2322.000 0.146
2323.000 0.159
2324.000 0.154
2325.000 0.141
2326.000 0.144
2327.000 0.147
2328.000 0.153
2329.000 0.177
2330.000 0.184
2331.000 0.164
2332.000 0.184
2333.000 0.204
2334.000 0.203
2335.000 0.203
2336.000 0.189
2337.000 0.151
2338.000 0.144
2339.000 0.141
2340.000 0.150
2341.000 0.156
2342.000 0.158
2343.000 0.183
2344.000 0.187
2345.000 0.207
2346.000 0.223
2347.000 0.191
2348.000 0.208
2349.000 0.242
2350.000 0.250
2351.000 0.312
2352.000 0.301
2353.000 0.255
2354.000 0.211
2355.000 0.155
2356.000 0.148
2357.000 0.154
2358.000 0.178
2359.000 0.201
2360.000 0.172
2361.000 0.168
2362.000 0.169
2363.000 0.161
2364.000 0.166
2365.000 0.147
2366.000 0.136
2367.000 0.138
2368.000 0.153
2369.000 0.175
2370.000 0.157
2371.000 0.159
2372.000 0.174
2373.000 0.184
2374.000 0.254
2375.000 0.343
2376.000 0.304
2377.000 0.270
2378.000 0.218
2379.000 0.172
2380.000 0.187
2381.000 0.191
2382.000 0.242
2383.000 0.309
2384.000 0.246
2385.000 0.216
2386.000 0.176
2387.000 0.162
2388.000 0.159
2389.000 0.160
2390.000 0.178
2391.000 0.116
2392.000 0.117
2393.000 0.098
2394.000 0.158
2395.000 0.219
2396.000 0.236
2397.000 0.228
2398.000 0.224
2399.000 0.192
2400.000 0.192
2401.000 0.165
2402.000 0.219
2403.000 0.239
2404.000 0.467
2405.000 0.689
2406.000 0.416
2407.000 0.555
2408.000 0.398
2409.000 0.347
2410.000 0.324
2411.000 0.329
2412.000 0.351
2413.000 0.314
2414.000 0.269
2415.000 0.244
2416.000 0.262
2417.000 0.233
2418.000 0.408
2419.000 0.347
2420.000 0.237
2421.000 0.283
2422.000 0.287
2423.000 0.184
2424.000 0.143
2425.000 0.115
2426.000 0.141
2427.000 0.157
2428.000 0.229
2429.000 0.265
2430.000 0.373
2431.000 0.542
2432.000 0.260
2433.000 0.230
2434.000 0.369
2435.000 0.397
2436.000 0.315
2437.000 0.402
2438.000 0.278
2439.000 0.266
2440.000 0.372
2441.000 0.441
2442.000 0.525
2443.000 0.485
2444.000 0.414
2445.000 0.441
2446.000 0.370
2447.000 0.318
2448.000 0.308
2449.000 0.268
2450.000 0.256
2451.000 0.296
2452.000 0.342
2453.000 0.445
2454.000 0.534
2455.000 0.524
2456.000 0.457
2457.000 0.427
2458.000 0.415
2459.000 0.459
2460.000 0.395
2461.000 0.435
2462.000 0.473
2463.000 0.454
2464.000 0.432
2465.000 0.381
2466.000 0.486
2467.000 0.503
2468.000 0.453
2469.000 0.543
2470.000 0.641
2471.000 0.408
2472.000 0.544
2473.000 0.582
2474.000 0.480
2475.000 0.397
2476.000 0.424
2477.000 0.350
2478.000 0.273
2479.000 0.315
2480.000 0.461
2481.000 0.419
2482.000 0.465
2483.000 0.325
2484.000 0.221
2485.000 0.288
2486.000 0.521
2487.000 0.214
2488.000 0.304
2489.000 0.181
2490.000 0.302
2491.000 0.249
2492.000 0.278
2493.000 0.344
2494.000 0.395
2495.000 0.389
2496.000 0.501
2497.000 0.464
2498.000 0.426
2499.000 0.581
2500.000 0.639
