391.000 0.040
392.000 0.040
393.000 0.043
394.000 0.042
395.000 0.045
396.000 0.045
397.000 0.043
398.000 0.045
399.000 0.045
400.000 0.043
401.000 0.041
402.000 0.039
403.000 0.041
404.000 0.042
405.000 0.042
406.000 0.041
407.000 0.042
408.000 0.044
409.000 0.043
410.000 0.043
411.000 0.044
412.000 0.044
413.000 0.044
414.000 0.044
415.000 0.043
416.000 0.042
417.000 0.043
418.000 0.043
419.000 0.043
420.000 0.042
421.000 0.043
422.000 0.043
423.000 0.042
424.000 0.044
425.000 0.045
426.000 0.044
427.000 0.043
428.000 0.042
429.000 0.042
430.000 0.042
431.000 0.044
432.000 0.043
433.000 0.043
434.000 0.043
435.000 0.042
436.000 0.043
437.000 0.044
438.000 0.045
439.000 0.044
440.000 0.043
441.000 0.043
442.000 0.045
443.000 0.044
444.000 0.044
445.000 0.045
446.000 0.044
447.000 0.044
448.000 0.045
449.000 0.044
450.000 0.044
451.000 0.045
452.000 0.045
453.000 0.044
454.000 0.044
455.000 0.045
456.000 0.045
457.000 0.045
458.000 0.045
459.000 0.045
460.000 0.046
461.000 0.045
462.000 0.045
463.000 0.046
464.000 0.045
465.000 0.046
466.000 0.046
467.000 0.045
468.000 0.045
469.000 0.045
470.000 0.045
471.000 0.046
472.000 0.047
473.000 0.046
474.000 0.045
475.000 0.045
476.000 0.046
477.000 0.047
478.000 0.045
479.000 0.045
480.000 0.046
481.000 0.047
482.000 0.046
483.000 0.046
484.000 0.046
485.000 0.046
486.000 0.046
487.000 0.047
488.000 0.048
489.000 0.047
490.000 0.046
491.000 0.047
492.000 0.048
493.000 0.049
494.000 0.048
495.000 0.048
496.000 0.049
497.000 0.049
498.000 0.048
499.000 0.048
500.000 0.049
501.000 0.050
502.000 0.050
503.000 0.050
504.000 0.053
505.000 0.052
506.000 0.052
507.000 0.054
508.000 0.055
509.000 0.055
510.000 0.056
511.000 0.057
512.000 0.059
513.000 0.060
514.000 0.062
515.000 0.064
516.000 0.066
517.000 0.068
518.000 0.070
519.000 0.073
520.000 0.075
521.000 0.077
522.000 0.079
523.000 0.081
524.000 0.084
525.000 0.086
526.000 0.089
527.000 0.092
528.000 0.093
529.000 0.095
530.000 0.096
531.000 0.099
532.000 0.101
533.000 0.102
534.000 0.103
535.000 0.104
536.000 0.105
537.000 0.106
538.000 0.107
539.000 0.107
540.000 0.107
541.000 0.108
542.000 0.109
543.000 0.109
544.000 0.109
545.000 0.110
546.000 0.110
547.000 0.110
548.000 0.110
549.000 0.110
550.000 0.111
551.000 0.111
552.000 0.111
553.000 0.111
554.000 0.111
555.000 0.111
556.000 0.110
557.000 0.110
558.000 0.109
559.000 0.108
560.000 0.107
561.000 0.107
562.000 0.105
563.000 0.104
564.000 0.102
565.000 0.100
566.000 0.100
567.000 0.098
568.000 0.096
569.000 0.096
570.000 0.094
571.000 0.091
572.000 0.090
573.000 0.088
574.000 0.087
575.000 0.086
576.000 0.085
577.000 0.084
578.000 0.083
579.000 0.082
580.000 0.082
581.000 0.080
582.000 0.079
583.000 0.078
584.000 0.078
585.000 0.077
586.000 0.076
587.000 0.076
588.000 0.076
589.000 0.075
590.000 0.074
591.000 0.074
592.000 0.073
593.000 0.073
594.000 0.073
595.000 0.073
596.000 0.073
597.000 0.072
598.000 0.072
599.000 0.072
600.000 0.071
601.000 0.071
602.000 0.071
603.000 0.071
604.000 0.070
605.000 0.070
606.000 0.070
607.000 0.070
608.000 0.070
609.000 0.069
610.000 0.068
611.000 0.068
612.000 0.068
613.000 0.066
614.000 0.066
615.000 0.066
616.000 0.065
617.000 0.064
618.000 0.064
619.000 0.064
620.000 0.064
621.000 0.063
622.000 0.063
623.000 0.064
624.000 0.064
625.000 0.063
626.000 0.063
627.000 0.063
628.000 0.064
629.000 0.064
630.000 0.063
631.000 0.063
632.000 0.063
633.000 0.063
634.000 0.063
635.000 0.063
636.000 0.063
637.000 0.062
638.000 0.062
639.000 0.061
640.000 0.060
641.000 0.060
642.000 0.059
643.000 0.059
644.000 0.059
645.000 0.059
646.000 0.058
647.000 0.057
648.000 0.057
649.000 0.058
650.000 0.057
651.000 0.057
652.000 0.057
653.000 0.057
654.000 0.057
655.000 0.057
656.000 0.056
657.000 0.057
658.000 0.057
659.000 0.057
660.000 0.057
661.000 0.058
662.000 0.059
663.000 0.057
664.000 0.057
665.000 0.057
666.000 0.057
667.000 0.058
668.000 0.057
669.000 0.057
670.000 0.059
671.000 0.059
672.000 0.059
673.000 0.060
674.000 0.062
675.000 0.062
676.000 0.061
677.000 0.062
678.000 0.063
679.000 0.064
680.000 0.064
681.000 0.065
682.000 0.065
683.000 0.066
684.000 0.067
685.000 0.068
686.000 0.070
687.000 0.072
688.000 0.074
689.000 0.074
690.000 0.075
691.000 0.076
692.000 0.079
693.000 0.082
694.000 0.087
695.000 0.093
696.000 0.097
697.000 0.101
698.000 0.108
699.000 0.115
700.000 0.122
701.000 0.129
702.000 0.138
703.000 0.145
704.000 0.153
705.000 0.161
706.000 0.168
707.000 0.177
708.000 0.185
709.000 0.192
710.000 0.201
711.000 0.209
712.000 0.217
713.000 0.226
714.000 0.233
715.000 0.242
716.000 0.249
717.000 0.258
718.000 0.266
719.000 0.275
720.000 0.284
721.000 0.293
722.000 0.299
723.000 0.306
724.000 0.313
725.000 0.321
726.000 0.328
727.000 0.334
728.000 0.341
729.000 0.347
730.000 0.353
731.000 0.359
732.000 0.365
733.000 0.370
734.000 0.376
735.000 0.380
736.000 0.385
737.000 0.389
738.000 0.393
739.000 0.397
740.000 0.401
741.000 0.404
742.000 0.407
743.000 0.410
744.000 0.413
745.000 0.415
746.000 0.417
747.000 0.419
748.000 0.421
749.000 0.423
750.000 0.425
751.000 0.426
752.000 0.427
753.000 0.429
754.000 0.430
755.000 0.431
756.000 0.432
757.000 0.433
758.000 0.434
759.000 0.433
760.000 0.432
761.000 0.430
762.000 0.430
763.000 0.430
764.000 0.432
765.000 0.434
766.000 0.436
767.000 0.438
768.000 0.439
769.000 0.441
770.000 0.441
771.000 0.442
772.000 0.442
773.000 0.443
774.000 0.443
775.000 0.444
776.000 0.444
777.000 0.445
778.000 0.445
779.000 0.446
780.000 0.446
781.000 0.446
782.000 0.446
783.000 0.446
784.000 0.447
785.000 0.447
786.000 0.447
787.000 0.447
788.000 0.447
789.000 0.447
790.000 0.447
791.000 0.448
792.000 0.448
793.000 0.449
794.000 0.450
795.000 0.449
796.000 0.450
797.000 0.450
798.000 0.450
799.000 0.450
800.000 0.450
801.000 0.450
802.000 0.451
803.000 0.451
804.000 0.452
805.000 0.453
806.000 0.453
807.000 0.453
808.000 0.453
809.000 0.453
810.000 0.453
811.000 0.453
812.000 0.452
813.000 0.451
814.000 0.450
815.000 0.449
816.000 0.449
817.000 0.449
818.000 0.450
819.000 0.451
820.000 0.452
821.000 0.453
822.000 0.453
823.000 0.453
824.000 0.453
825.000 0.455
826.000 0.455
827.000 0.456
828.000 0.456
829.000 0.455
830.000 0.456
831.000 0.457
832.000 0.457
833.000 0.458
834.000 0.459
835.000 0.459
836.000 0.460
837.000 0.461
838.000 0.461
839.000 0.462
840.000 0.463
841.000 0.463
842.000 0.463
843.000 0.464
844.000 0.464
845.000 0.465
846.000 0.465
847.000 0.466
848.000 0.466
849.000 0.467
850.000 0.467
851.000 0.467
852.000 0.467
853.000 0.468
854.000 0.468
855.000 0.468
856.000 0.468
857.000 0.469
858.000 0.469
859.000 0.469
860.000 0.469
861.000 0.470
862.000 0.470
863.000 0.470
864.000 0.470
865.000 0.471
866.000 0.472
867.000 0.472
868.000 0.472
869.000 0.472
870.000 0.472
871.000 0.472
872.000 0.473
873.000 0.473
874.000 0.473
875.000 0.473
876.000 0.473
877.000 0.474
878.000 0.474
879.000 0.474
880.000 0.474
881.000 0.475
882.000 0.475
883.000 0.475
884.000 0.475
885.000 0.475
886.000 0.476
887.000 0.476
888.000 0.476
889.000 0.476
890.000 0.476
891.000 0.475
892.000 0.474
893.000 0.475
894.000 0.473
895.000 0.472
896.000 0.472
897.000 0.471
898.000 0.470
899.000 0.469
900.000 0.469
901.000 0.469
902.000 0.470
903.000 0.471
904.000 0.472
905.000 0.472
906.000 0.472
907.000 0.472
908.000 0.471
909.000 0.471
910.000 0.470
911.000 0.470
912.000 0.470
913.000 0.470
914.000 0.469
915.000 0.469
916.000 0.469
917.000 0.470
918.000 0.471
919.000 0.473
920.000 0.473
921.000 0.473
922.000 0.474
923.000 0.474
924.000 0.473
925.000 0.472
926.000 0.471
927.000 0.470
928.000 0.470
929.000 0.467
930.000 0.464
931.000 0.459
932.000 0.454
933.000 0.453
934.000 0.451
935.000 0.446
936.000 0.445
937.000 0.448
938.000 0.449
939.000 0.448
940.000 0.451
941.000 0.451
942.000 0.450
943.000 0.450
944.000 0.450
945.000 0.452
946.000 0.452
947.000 0.448
948.000 0.450
949.000 0.449
950.000 0.448
951.000 0.451
952.000 0.452
953.000 0.449
954.000 0.449
955.000 0.452
956.000 0.449
957.000 0.451
958.000 0.454
959.000 0.456
960.000 0.454
961.000 0.453
962.000 0.455
963.000 0.458
964.000 0.463
965.000 0.462
966.000 0.462
967.000 0.465
968.000 0.464
969.000 0.465
970.000 0.466
971.000 0.468
972.000 0.470
973.000 0.468
974.000 0.467
975.000 0.468
976.000 0.469
977.000 0.468
978.000 0.469
979.000 0.472
980.000 0.472
981.000 0.473
982.000 0.473
983.000 0.474
984.000 0.476
985.000 0.476
986.000 0.476
987.000 0.476
988.000 0.479
989.000 0.479
990.000 0.479
991.000 0.480
992.000 0.480
993.000 0.481
994.000 0.481
995.000 0.482
996.000 0.483
997.000 0.482
998.000 0.483
999.000 0.484
1000.000 0.485
1001.000 0.488
1002.000 0.488
1003.000 0.489
1004.000 0.489
1005.000 0.490
1006.000 0.492
1007.000 0.493
1008.000 0.493
1009.000 0.493
1010.000 0.493
1011.000 0.494
1012.000 0.494
1013.000 0.494
1014.000 0.495
1015.000 0.495
1016.000 0.496
1017.000 0.497
1018.000 0.498
1019.000 0.498
1020.000 0.497
1021.000 0.497
1022.000 0.497
1023.000 0.498
1024.000 0.498
1025.000 0.499
1026.000 0.499
1027.000 0.499
1028.000 0.500
1029.000 0.500
1030.000 0.501
1031.000 0.502
1032.000 0.502
1033.000 0.502
1034.000 0.502
1035.000 0.503
1036.000 0.503
1037.000 0.504
1038.000 0.505
1039.000 0.505
1040.000 0.505
1041.000 0.506
1042.000 0.505
1043.000 0.505
1044.000 0.505
1045.000 0.506
1046.000 0.506
1047.000 0.507
1048.000 0.508
1049.000 0.508
1050.000 0.507
1051.000 0.508
1052.000 0.508
1053.000 0.509
1054.000 0.510
1055.000 0.510
1056.000 0.510
1057.000 0.510
1058.000 0.509
1059.000 0.509
1060.000 0.509
1061.000 0.510
1062.000 0.510
1063.000 0.510
1064.000 0.510
1065.000 0.509
1066.000 0.510
1067.000 0.510
1068.000 0.510
1069.000 0.511
1070.000 0.511
1071.000 0.510
1072.000 0.510
1073.000 0.511
1074.000 0.510
1075.000 0.510
1076.000 0.511
1077.000 0.511
1078.000 0.511
1079.000 0.511
1080.000 0.511
1081.000 0.511
1082.000 0.511
1083.000 0.512
1084.000 0.512
1085.000 0.511
1086.000 0.510
1087.000 0.510
1088.000 0.509
1089.000 0.509
1090.000 0.509
1091.000 0.509
1092.000 0.509
1093.000 0.509
1094.000 0.509
1095.000 0.508
1096.000 0.507
1097.000 0.506
1098.000 0.505
1099.000 0.504
1100.000 0.504
1101.000 0.504
1102.000 0.503
1103.000 0.503
1104.000 0.502
1105.000 0.500
1106.000 0.500
1107.000 0.500
1108.000 0.499
1109.000 0.499
1110.000 0.498
1111.000 0.495
1112.000 0.492
1113.000 0.491
1114.000 0.490
1115.000 0.488
1116.000 0.487
1117.000 0.485
1118.000 0.483
1119.000 0.480
1120.000 0.478
1121.000 0.478
1122.000 0.476
1123.000 0.473
1124.000 0.470
1125.000 0.468
1126.000 0.463
1127.000 0.463
1128.000 0.469
1129.000 0.473
1130.000 0.475
1131.000 0.477
1132.000 0.476
1133.000 0.474
1134.000 0.474
1135.000 0.474
1136.000 0.476
1137.000 0.477
1138.000 0.478
1139.000 0.479
1140.000 0.478
1141.000 0.474
1142.000 0.474
1143.000 0.473
1144.000 0.472
1145.000 0.473
1146.000 0.471
1147.000 0.468
1148.000 0.464
1149.000 0.462
1150.000 0.463
1151.000 0.465
1152.000 0.466
1153.000 0.467
1154.000 0.468
1155.000 0.470
1156.000 0.470
1157.000 0.470
1158.000 0.469
1159.000 0.470
1160.000 0.471
1161.000 0.473
1162.000 0.475
1163.000 0.477
1164.000 0.477
1165.000 0.478
1166.000 0.478
1167.000 0.477
1168.000 0.477
1169.000 0.477
1170.000 0.478
1171.000 0.480
1172.000 0.480
1173.000 0.480
1174.000 0.481
1175.000 0.481
1176.000 0.480
1177.000 0.480
1178.000 0.480
1179.000 0.480
1180.000 0.480
1181.000 0.480
1182.000 0.480
1183.000 0.479
1184.000 0.479
1185.000 0.480
1186.000 0.480
1187.000 0.481
1188.000 0.481
1189.000 0.480
1190.000 0.480
1191.000 0.480
1192.000 0.480
1193.000 0.481
1194.000 0.482
1195.000 0.482
1196.000 0.483
1197.000 0.483
1198.000 0.483
1199.000 0.483
1200.000 0.484
1201.000 0.484
1202.000 0.484
1203.000 0.484
1204.000 0.484
1205.000 0.485
1206.000 0.485
1207.000 0.485
1208.000 0.486
1209.000 0.486
1210.000 0.486
1211.000 0.486
1212.000 0.487
1213.000 0.487
1214.000 0.488
1215.000 0.488
1216.000 0.489
1217.000 0.490
1218.000 0.490
1219.000 0.491
1220.000 0.491
1221.000 0.491
1222.000 0.491
1223.000 0.492
1224.000 0.492
1225.000 0.493
1226.000 0.493
1227.000 0.494
1228.000 0.494
1229.000 0.495
1230.000 0.495
1231.000 0.495
1232.000 0.496
1233.000 0.497
1234.000 0.497
1235.000 0.497
1236.000 0.497
1237.000 0.498
1238.000 0.499
1239.000 0.499
1240.000 0.500
1241.000 0.500
1242.000 0.501
1243.000 0.501
1244.000 0.501
1245.000 0.501
1246.000 0.502
1247.000 0.502
1248.000 0.502
1249.000 0.502
1250.000 0.502
1251.000 0.502
1252.000 0.502
1253.000 0.503
1254.000 0.503
1255.000 0.503
1256.000 0.503
1257.000 0.502
1258.000 0.502
1259.000 0.503
1260.000 0.503
1261.000 0.504
1262.000 0.503
1263.000 0.502
1264.000 0.502
1265.000 0.502
1266.000 0.502
1267.000 0.503
1268.000 0.503
1269.000 0.503
1270.000 0.503
1271.000 0.504
1272.000 0.504
1273.000 0.504
1274.000 0.504
1275.000 0.505
1276.000 0.506
1277.000 0.507
1278.000 0.507
1279.000 0.507
1280.000 0.507
1281.000 0.507
1282.000 0.507
1283.000 0.507
1284.000 0.506
1285.000 0.507
1286.000 0.506
1287.000 0.506
1288.000 0.507
1289.000 0.507
1290.000 0.506
1291.000 0.506
1292.000 0.504
1293.000 0.503
1294.000 0.503
1295.000 0.502
1296.000 0.501
1297.000 0.500
1298.000 0.500
1299.000 0.499
1300.000 0.498
1301.000 0.498
1302.000 0.497
1303.000 0.496
1304.000 0.496
1305.000 0.496
1306.000 0.495
1307.000 0.494
1308.000 0.494
1309.000 0.492
1310.000 0.491
1311.000 0.491
1312.000 0.490
1313.000 0.489
1314.000 0.488
1315.000 0.485
1316.000 0.484
1317.000 0.483
1318.000 0.482
1319.000 0.481
1320.000 0.482
1321.000 0.480
1322.000 0.478
1323.000 0.476
1324.000 0.473
1325.000 0.472
1326.000 0.472
1327.000 0.470
1328.000 0.468
1329.000 0.466
1330.000 0.464
1331.000 0.462
1332.000 0.463
1333.000 0.461
1334.000 0.457
1335.000 0.455
1336.000 0.454
1337.000 0.452
1338.000 0.453
1339.000 0.452
1340.000 0.450
1341.000 0.449
1342.000 0.451
1343.000 0.452
1344.000 0.455
1345.000 0.456
1346.000 0.453
1347.000 0.451
1348.000 0.450
1349.000 0.447
1350.000 0.447
1351.000 0.447
1352.000 0.461
1353.000 0.515
1354.000 0.567
1355.000 0.553
1356.000 0.441
1357.000 0.398
1358.000 0.358
1359.000 0.336
1360.000 0.685
1361.000 0.593
1362.000 0.513
1363.000 0.261
1364.000 0.252
1365.000 0.350
1366.000 0.421
1367.000 0.560
1368.000 0.501
1369.000 0.393
1370.000 0.473
1371.000 0.330
1372.000 0.439
1373.000 0.639
1374.000 0.540
1375.000 0.495
1376.000 0.567
1377.000 0.522
1378.000 0.502
1379.000 0.513
1380.000 0.546
1381.000 0.628
1382.000 0.575
1383.000 0.409
1384.000 0.500
1385.000 0.515
1386.000 0.471
1387.000 0.496
1388.000 0.501
1389.000 0.694
1390.000 0.737
1391.000 0.650
1392.000 0.315
1393.000 0.462
1394.000 0.306
1395.000 0.313
1396.000 0.434
1397.000 0.515
1398.000 0.409
1399.000 0.593
1400.000 0.583
1401.000 0.564
1402.000 0.478
1403.000 0.511
1404.000 0.597
1405.000 0.597
1406.000 0.412
1407.000 0.476
1408.000 0.485
1409.000 0.502
1410.000 0.546
1411.000 0.550
1412.000 0.589
1413.000 0.688
1414.000 0.515
1415.000 0.504
1416.000 0.502
1417.000 0.698
1418.000 0.714
1419.000 0.784
1420.000 0.601
1421.000 0.497
1422.000 0.470
1423.000 0.423
1424.000 0.428
1425.000 0.534
1426.000 0.491
1427.000 0.585
1428.000 0.570
1429.000 0.526
1430.000 0.472
1431.000 0.443
1432.000 0.456
1433.000 0.437
1434.000 0.397
1435.000 0.347
1436.000 0.283
1437.000 0.341
1438.000 0.323
1439.000 0.297
1440.000 0.315
1441.000 0.278
1442.000 0.260
1443.000 0.277
1444.000 0.276
1445.000 0.258
1446.000 0.259
1447.000 0.248
1448.000 0.241
1449.000 0.235
1450.000 0.241
1451.000 0.246
1452.000 0.241
1453.000 0.245
1454.000 0.260
1455.000 0.254
1456.000 0.242
1457.000 0.241
1458.000 0.236
1459.000 0.234
1460.000 0.243
1461.000 0.244
1462.000 0.237
1463.000 0.246
1464.000 0.271
1465.000 0.287
1466.000 0.323
1467.000 0.329
1468.000 0.297
1469.000 0.287
1470.000 0.269
1471.000 0.259
1472.000 0.249
1473.000 0.251
1474.000 0.262
1475.000 0.260
1476.000 0.258
1477.000 0.258
1478.000 0.252
1479.000 0.252
1480.000 0.259
1481.000 0.263
1482.000 0.267
1483.000 0.267
1484.000 0.264
1485.000 0.262
1486.000 0.256
1487.000 0.255
1488.000 0.257
1489.000 0.258
1490.000 0.262
1491.000 0.265
1492.000 0.269
1493.000 0.269
1494.000 0.263
1495.000 0.263
1496.000 0.264
1497.000 0.265
1498.000 0.271
1499.000 0.276
1500.000 0.277
1501.000 0.277
1502.000 0.275
1503.000 0.274
1504.000 0.276
1505.000 0.277
1506.000 0.279
1507.000 0.284
1508.000 0.285
1509.000 0.284
1510.000 0.286
1511.000 0.288
1512.000 0.290
1513.000 0.294
1514.000 0.296
1515.000 0.296
1516.000 0.297
1517.000 0.297
1518.000 0.297
1519.000 0.297
1520.000 0.299
1521.000 0.300
1522.000 0.302
1523.000 0.305
1524.000 0.306
1525.000 0.308
1526.000 0.309
1527.000 0.311
1528.000 0.311
1529.000 0.312
1530.000 0.314
1531.000 0.315
1532.000 0.317
1533.000 0.320
1534.000 0.322
1535.000 0.323
1536.000 0.324
1537.000 0.324
1538.000 0.326
1539.000 0.329
1540.000 0.331
1541.000 0.331
1542.000 0.333
1543.000 0.333
1544.000 0.335
1545.000 0.336
1546.000 0.338
1547.000 0.340
1548.000 0.341
1549.000 0.342
1550.000 0.343
1551.000 0.342
1552.000 0.342
1553.000 0.344
1554.000 0.345
1555.000 0.347
1556.000 0.348
1557.000 0.347
1558.000 0.347
1559.000 0.348
1560.000 0.348
1561.000 0.351
1562.000 0.351
1563.000 0.350
1564.000 0.351
1565.000 0.349
1566.000 0.350
1567.000 0.352
1568.000 0.353
1569.000 0.355
1570.000 0.356
1571.000 0.355
1572.000 0.357
1573.000 0.360
1574.000 0.362
1575.000 0.367
1576.000 0.369
1577.000 0.368
1578.000 0.368
1579.000 0.370
1580.000 0.370
1581.000 0.371
1582.000 0.372
1583.000 0.371
1584.000 0.371
1585.000 0.373
1586.000 0.373
1587.000 0.373
1588.000 0.375
1589.000 0.376
1590.000 0.378
1591.000 0.380
1592.000 0.381
1593.000 0.381
1594.000 0.381
1595.000 0.380
1596.000 0.381
1597.000 0.380
1598.000 0.381
1599.000 0.384
1600.000 0.386
1601.000 0.387
1602.000 0.388
1603.000 0.386
1604.000 0.386
1605.000 0.387
1606.000 0.387
1607.000 0.387
1608.000 0.388
1609.000 0.389
1610.000 0.389
1611.000 0.389
1612.000 0.390
1613.000 0.390
1614.000 0.390
1615.000 0.391
1616.000 0.391
1617.000 0.392
1618.000 0.394
1619.000 0.397
1620.000 0.400
1621.000 0.402
1622.000 0.404
1623.000 0.403
1624.000 0.402
1625.000 0.400
1626.000 0.399
1627.000 0.399
1628.000 0.399
1629.000 0.400
1630.000 0.401
1631.000 0.400
1632.000 0.401
1633.000 0.400
1634.000 0.401
1635.000 0.401
1636.000 0.402
1637.000 0.404
1638.000 0.405
1639.000 0.408
1640.000 0.408
1641.000 0.407
1642.000 0.406
1643.000 0.405
1644.000 0.404
1645.000 0.404
1646.000 0.405
1647.000 0.405
1648.000 0.406
1649.000 0.408
1650.000 0.409
1651.000 0.412
1652.000 0.413
1653.000 0.412
1654.000 0.412
1655.000 0.413
1656.000 0.413
1657.000 0.413
1658.000 0.413
1659.000 0.411
1660.000 0.410
1661.000 0.411
1662.000 0.410
1663.000 0.411
1664.000 0.412
1665.000 0.413
1666.000 0.413
1667.000 0.413
1668.000 0.412
1669.000 0.412
1670.000 0.411
1671.000 0.410
1672.000 0.410
1673.000 0.411
1674.000 0.411
1675.000 0.412
1676.000 0.413
1677.000 0.413
1678.000 0.412
1679.000 0.411
1680.000 0.411
1681.000 0.411
1682.000 0.410
1683.000 0.411
1684.000 0.411
1685.000 0.410
1686.000 0.410
1687.000 0.412
1688.000 0.411
1689.000 0.408
1690.000 0.407
1691.000 0.406
1692.000 0.405
1693.000 0.406
1694.000 0.407
1695.000 0.407
1696.000 0.407
1697.000 0.410
1698.000 0.410
1699.000 0.409
1700.000 0.408
1701.000 0.408
1702.000 0.407
1703.000 0.407
1704.000 0.408
1705.000 0.409
1706.000 0.410
1707.000 0.412
1708.000 0.412
1709.000 0.410
1710.000 0.408
1711.000 0.405
1712.000 0.404
1713.000 0.404
1714.000 0.405
1715.000 0.407
1716.000 0.407
1717.000 0.405
1718.000 0.402
1719.000 0.398
1720.000 0.396
1721.000 0.395
1722.000 0.396
1723.000 0.396
1724.000 0.395
1725.000 0.394
1726.000 0.395
1727.000 0.396
1728.000 0.397
1729.000 0.396
1730.000 0.394
1731.000 0.393
1732.000 0.390
1733.000 0.392
1734.000 0.393
1735.000 0.392
1736.000 0.396
1737.000 0.396
1738.000 0.397
1739.000 0.397
1740.000 0.391
1741.000 0.390
1742.000 0.390
1743.000 0.391
1744.000 0.394
1745.000 0.396
1746.000 0.398
1747.000 0.398
1748.000 0.398
1749.000 0.396
1750.000 0.389
1751.000 0.387
1752.000 0.387
1753.000 0.386
1754.000 0.387
1755.000 0.387
1756.000 0.386
1757.000 0.388
1758.000 0.393
1759.000 0.395
1760.000 0.393
1761.000 0.389
1762.000 0.386
1763.000 0.383
1764.000 0.379
1765.000 0.376
1766.000 0.376
1767.000 0.375
1768.000 0.378
1769.000 0.379
1770.000 0.377
1771.000 0.381
1772.000 0.378
1773.000 0.373
1774.000 0.372
1775.000 0.366
1776.000 0.365
1777.000 0.370
1778.000 0.372
1779.000 0.373
1780.000 0.371
1781.000 0.370
1782.000 0.371
1783.000 0.366
1784.000 0.367
1785.000 0.370
1786.000 0.371
1787.000 0.381
1788.000 0.381
1789.000 0.374
1790.000 0.377
1791.000 0.384
1792.000 0.401
1793.000 0.399
1794.000 0.394
1795.000 0.379
1796.000 0.368
1797.000 0.383
1798.000 0.415
1799.000 0.485
1800.000 0.497
1801.000 0.460
1802.000 0.474
1803.000 0.505
1804.000 0.458
1805.000 0.461
1806.000 0.488
1807.000 0.488
1808.000 0.578
1809.000 0.589
1810.000 0.572
1811.000 0.545
1812.000 0.561
1813.000 0.575
1814.000 0.581
1815.000 0.562
1816.000 0.556
1817.000 0.549
1818.000 0.510
1819.000 0.551
1820.000 0.578
1821.000 0.635
1822.000 0.578
1823.000 0.495
1824.000 0.537
1825.000 0.646
1826.000 0.747
1827.000 0.680
1828.000 0.637
1829.000 0.564
1830.000 0.549
1831.000 0.539
1832.000 0.504
1833.000 0.777
1834.000 0.744
1835.000 0.798
1836.000 0.739
1837.000 0.475
1838.000 0.393
1839.000 0.500
1840.000 0.475
1841.000 0.378
1842.000 0.291
1843.000 0.314
1844.000 0.358
1845.000 0.338
1846.000 0.689
1847.000 0.749
1848.000 0.547
1849.000 0.541
1850.000 0.633
1851.000 0.668
1852.000 0.735
1853.000 0.565
1854.000 0.409
1855.000 0.371
1856.000 0.369
1857.000 0.429
1858.000 0.479
1859.000 0.465
1860.000 0.544
1861.000 0.530
1862.000 0.516
1863.000 0.532
1864.000 0.598
1865.000 0.515
1866.000 0.495
1867.000 0.601
1868.000 0.484
1869.000 0.524
1870.000 0.557
1871.000 0.534
1872.000 0.487
1873.000 0.455
1874.000 0.334
1875.000 0.412
1876.000 0.434
1877.000 0.297
1878.000 0.342
1879.000 0.534
1880.000 0.793
1881.000 0.797
1882.000 0.644
1883.000 0.506
1884.000 0.523
1885.000 0.626
1886.000 0.771
1887.000 0.781
1888.000 0.599
1889.000 0.537
1890.000 0.424
1891.000 0.578
1892.000 0.584
1893.000 0.538
1894.000 0.398
1895.000 0.351
1896.000 0.695
1897.000 0.531
1898.000 0.398
1899.000 0.400
1900.000 0.548
1901.000 0.615
1902.000 0.497
1903.000 0.610
1904.000 0.474
1905.000 0.440
1906.000 0.467
1907.000 0.526
1908.000 0.517
1909.000 0.372
1910.000 0.446
1911.000 0.522
1912.000 0.575
1913.000 0.556
1914.000 0.475
1915.000 0.537
1916.000 0.522
1917.000 0.357
1918.000 0.491
1919.000 0.547
1920.000 0.497
1921.000 0.540
1922.000 0.490
1923.000 0.611
1924.000 0.543
1925.000 0.628
1926.000 0.644
1927.000 0.601
1928.000 0.469
1929.000 0.467
1930.000 0.328
1931.000 0.314
1932.000 0.473
1933.000 0.532
1934.000 0.654
1935.000 0.533
1936.000 0.515
1937.000 0.526
1938.000 0.679
1939.000 0.667
1940.000 0.602
1941.000 0.549
1942.000 0.630
1943.000 0.548
1944.000 0.478
1945.000 0.263
1946.000 0.420
1947.000 0.370
1948.000 0.449
1949.000 0.544
1950.000 0.489
1951.000 0.492
1952.000 0.378
1953.000 0.325
1954.000 0.358
1955.000 0.410
1956.000 0.514
1957.000 0.494
1958.000 0.333
1959.000 0.325
1960.000 0.426
1961.000 0.352
1962.000 0.335
1963.000 0.459
1964.000 0.455
1965.000 0.323
1966.000 0.304
1967.000 0.328
1968.000 0.352
1969.000 0.341
1970.000 0.375
1971.000 0.335
1972.000 0.250
1973.000 0.290
1974.000 0.256
1975.000 0.238
1976.000 0.233
1977.000 0.224
1978.000 0.208
1979.000 0.215
1980.000 0.223
1981.000 0.187
1982.000 0.192
1983.000 0.180
1984.000 0.174
1985.000 0.179
1986.000 0.190
1987.000 0.204
1988.000 0.215
1989.000 0.233
1990.000 0.239
1991.000 0.239
1992.000 0.237
1993.000 0.264
1994.000 0.280
1995.000 0.305
1996.000 0.278
1997.000 0.272
1998.000 0.261
1999.000 0.249
2000.000 0.216
2001.000 0.206
2002.000 0.206
2003.000 0.225
2004.000 0.284
2005.000 0.307
2006.000 0.289
2007.000 0.302
2008.000 0.313
2009.000 0.373
2010.000 0.446
2011.000 0.430
2012.000 0.400
2013.000 0.295
2014.000 0.264
2015.000 0.269
2016.000 0.214
2017.000 0.248
2018.000 0.237
2019.000 0.198
2020.000 0.195
2021.000 0.192
2022.000 0.187
2023.000 0.202
2024.000 0.209
2025.000 0.199
2026.000 0.191
2027.000 0.192
2028.000 0.194
2029.000 0.191
2030.000 0.190
2031.000 0.191
2032.000 0.191
2033.000 0.189
2034.000 0.194
2035.000 0.196
2036.000 0.192
2037.000 0.189
2038.000 0.190
2039.000 0.182
2040.000 0.184
2041.000 0.184
2042.000 0.184
2043.000 0.188
2044.000 0.191
2045.000 0.190
2046.000 0.194
2047.000 0.202
2048.000 0.206
2049.000 0.214
2050.000 0.220
2051.000 0.210
2052.000 0.212
2053.000 0.218
2054.000 0.220
2055.000 0.220
2056.000 0.217
2057.000 0.219
2058.000 0.212
2059.000 0.213
2060.000 0.221
2061.000 0.226
2062.000 0.236
2063.000 0.241
2064.000 0.251
2065.000 0.255
2066.000 0.250
2067.000 0.241
2068.000 0.232
2069.000 0.229
2070.000 0.237
2071.000 0.238
2072.000 0.237
2073.000 0.239
2074.000 0.234
2075.000 0.217
2076.000 0.213
2077.000 0.210
2078.000 0.210
2079.000 0.218
2080.000 0.219
2081.000 0.217
2082.000 0.222
2083.000 0.218
2084.000 0.216
2085.000 0.221
2086.000 0.214
2087.000 0.216
2088.000 0.223
2089.000 0.228
2090.000 0.235
2091.000 0.238
2092.000 0.240
2093.000 0.242
2094.000 0.244
2095.000 0.243
2096.000 0.241
2097.000 0.240
2098.000 0.236
2099.000 0.236
2100.000 0.242
2101.000 0.240
2102.000 0.236
2103.000 0.240
2104.000 0.243
2105.000 0.250
2106.000 0.254
2107.000 0.263
2108.000 0.262
2109.000 0.251
2110.000 0.247
2111.000 0.236
2112.000 0.236
2113.000 0.247
2114.000 0.248
2115.000 0.251
2116.000 0.251
2117.000 0.242
2118.000 0.237
2119.000 0.240
2120.000 0.239
2121.000 0.242
2122.000 0.242
2123.000 0.240
2124.000 0.233
2125.000 0.233
2126.000 0.234
2127.000 0.237
2128.000 0.246
2129.000 0.250
2130.000 0.250
2131.000 0.250
2132.000 0.248
2133.000 0.250
2134.000 0.257
2135.000 0.259
2136.000 0.261
2137.000 0.263
2138.000 0.264
2139.000 0.270
2140.000 0.276
2141.000 0.278
2142.000 0.278
2143.000 0.271
2144.000 0.264
2145.000 0.252
2146.000 0.247
2147.000 0.237
2148.000 0.237
2149.000 0.250
2150.000 0.258
2151.000 0.273
2152.000 0.280
2153.000 0.280
2154.000 0.284
2155.000 0.287
2156.000 0.292
2157.000 0.307
2158.000 0.315
2159.000 0.310
2160.000 0.296
2161.000 0.288
2162.000 0.272
2163.000 0.271
2164.000 0.279
2165.000 0.281
2166.000 0.284
2167.000 0.290
2168.000 0.301
2169.000 0.303
2170.000 0.301
2171.000 0.300
2172.000 0.289
2173.000 0.283
2174.000 0.275
2175.000 0.273
2176.000 0.272
2177.000 0.274
2178.000 0.274
2179.000 0.275
2180.000 0.260
2181.000 0.248
2182.000 0.250
2183.000 0.247
2184.000 0.253
2185.000 0.280
2186.000 0.288
2187.000 0.285
2188.000 0.288
2189.000 0.286
2190.000 0.289
2191.000 0.301
2192.000 0.305
2193.000 0.304
2194.000 0.307
2195.000 0.312
2196.000 0.311
2197.000 0.313
2198.000 0.308
2199.000 0.292
2200.000 0.282
2201.000 0.272
2202.000 0.267
2203.000 0.259
2204.000 0.258
2205.000 0.257
2206.000 0.262
2207.000 0.272
2208.000 0.275
2209.000 0.277
2210.000 0.279
2211.000 0.279
2212.000 0.276
2213.000 0.276
2214.000 0.276
2215.000 0.277
2216.000 0.278
2217.000 0.278
2218.000 0.276
2219.000 0.275
2220.000 0.275
2221.000 0.275
2222.000 0.276
2223.000 0.279
2224.000 0.285
2225.000 0.290
2226.000 0.296
2227.000 0.301
2228.000 0.308
2229.000 0.315
2230.000 0.321
2231.000 0.314
2232.000 0.294
2233.000 0.279
2234.000 0.269
2235.000 0.268
2236.000 0.274
2237.000 0.276
2238.000 0.279
2239.000 0.280
2240.000 0.282
2241.000 0.285
2242.000 0.284
2243.000 0.280
2244.000 0.274
2245.000 0.268
2246.000 0.261
2247.000 0.250
2248.000 0.245
2249.000 0.240
2250.000 0.237
2251.000 0.238
2252.000 0.237
2253.000 0.235
2254.000 0.236
2255.000 0.242
2256.000 0.247
2257.000 0.257
2258.000 0.259
2259.000 0.258
2260.000 0.253
2261.000 0.253
2262.000 0.256
2263.000 0.268
2264.000 0.278
2265.000 0.282
2266.000 0.281
2267.000 0.270
2268.000 0.263
2269.000 0.255
2270.000 0.257
2271.000 0.261
2272.000 0.259
2273.000 0.260
2274.000 0.259
2275.000 0.258
2276.000 0.260
2277.000 0.259
2278.000 0.256
2279.000 0.255
2280.000 0.256
2281.000 0.251
2282.000 0.243
2283.000 0.240
2284.000 0.226
2285.000 0.222
2286.000 0.230
2287.000 0.232
2288.000 0.234
2289.000 0.236
2290.000 0.229
2291.000 0.227
2292.000 0.229
2293.000 0.233
2294.000 0.248
2295.000 0.262
2296.000 0.280
2297.000 0.298
2298.000 0.296
2299.000 0.270
2300.000 0.256
2301.000 0.248
2302.000 0.226
2303.000 0.230
2304.000 0.215
2305.000 0.201
2306.000 0.216
2307.000 0.225
2308.000 0.213
2309.000 0.205
2310.000 0.191
2311.000 0.185
2312.000 0.202
2313.000 0.223
2314.000 0.212
2315.000 0.224
2316.000 0.216
2317.000 0.197
2318.000 0.210
2319.000 0.205
2320.000 0.206
2321.000 0.197
2322.000 0.217
2323.000 0.222
2324.000 0.198
2325.000 0.190
2326.000 0.185
2327.000 0.169
2328.000 0.177
2329.000 0.216
2330.000 0.242
2331.000 0.279
2332.000 0.294
2333.000 0.273
2334.000 0.278
2335.000 0.318
2336.000 0.295
2337.000 0.258
2338.000 0.239
2339.000 0.192
2340.000 0.198
2341.000 0.238
2342.000 0.236
2343.000 0.259
2344.000 0.252
2345.000 0.150
2346.000 0.154
2347.000 0.179
2348.000 0.195
2349.000 0.223
2350.000 0.243
2351.000 0.233
2352.000 0.224
2353.000 0.228
2354.000 0.248
2355.000 0.236
2356.000 0.223
2357.000 0.296
2358.000 0.313
2359.000 0.236
2360.000 0.260
2361.000 0.285
2362.000 0.271
2363.000 0.273
2364.000 0.244
2365.000 0.223
2366.000 0.208
2367.000 0.232
2368.000 0.249
2369.000 0.227
2370.000 0.189
2371.000 0.194
2372.000 0.212
2373.000 0.206
2374.000 0.332
2375.000 0.364
2376.000 0.307
2377.000 0.249
2378.000 0.206
2379.000 0.221
2380.000 0.215
2381.000 0.235
2382.000 0.235
2383.000 0.232
2384.000 0.223
2385.000 0.183
2386.000 0.156
2387.000 0.212
2388.000 0.208
2389.000 0.185
2390.000 0.217
2391.000 0.220
2392.000 0.182
2393.000 0.137
2394.000 0.190
2395.000 0.250
2396.000 0.413
2397.000 0.435
2398.000 0.459
2399.000 0.389
2400.000 0.310
2401.000 0.346
2402.000 0.336
2403.000 0.266
2404.000 0.289
2405.000 0.205
2406.000 0.231
2407.000 0.256
2408.000 0.280
2409.000 0.377
2410.000 0.453
2411.000 0.218
2412.000 0.163
2413.000 0.258
2414.000 0.203
2415.000 0.301
2416.000 0.335
2417.000 0.360
2418.000 0.429
2419.000 0.378
2420.000 0.541
2421.000 0.496
2422.000 0.464
2423.000 0.313
2424.000 0.402
2425.000 0.423
2426.000 0.428
2427.000 0.327
2428.000 0.367
2429.000 0.312
2430.000 0.277
2431.000 0.493
2432.000 0.334
2433.000 0.434
2434.000 0.348
2435.000 0.233
2436.000 0.248
2437.000 0.316
2438.000 0.329
2439.000 0.321
2440.000 0.412
2441.000 0.710
2442.000 0.674
2443.000 0.591
2444.000 0.287
2445.000 0.189
2446.000 0.225
2447.000 0.555
2448.000 0.474
2449.000 0.298
2450.000 0.454
2451.000 0.320
2452.000 0.205
2453.000 0.249
2454.000 0.540
2455.000 0.512
2456.000 0.501
2457.000 0.502
2458.000 0.448
2459.000 0.427
2460.000 0.441
2461.000 0.321
2462.000 0.400
2463.000 0.500
2464.000 0.480
2465.000 0.632
2466.000 0.541
2467.000 0.440
2468.000 0.370
2469.000 0.357
2470.000 0.344
2471.000 0.258
2472.000 0.222
2473.000 0.267
2474.000 0.320
2475.000 0.315
2476.000 0.208
2477.000 0.318
2478.000 0.511
2479.000 0.404
2480.000 0.408
2481.000 0.441
2482.000 0.419
2483.000 0.318
2484.000 0.324
2485.000 0.421
2486.000 0.454
2487.000 0.346
2488.000 0.323
2489.000 0.289
2490.000 0.256
2491.000 0.307
2492.000 0.579
2493.000 0.582
2494.000 0.455
2495.000 0.511
2496.000 0.432
2497.000 0.257
2498.000 0.387
2499.000 0.566
2500.000 0.836
