391.000 0.037
392.000 0.033
393.000 0.027
394.000 0.032
395.000 0.029
396.000 0.028
397.000 0.031
398.000 0.031
399.000 0.031
400.000 0.032
401.000 0.035
402.000 0.033
403.000 0.033
404.000 0.033
405.000 0.032
406.000 0.033
407.000 0.035
408.000 0.036
409.000 0.035
410.000 0.033
411.000 0.032
412.000 0.033
413.000 0.033
414.000 0.034
415.000 0.036
416.000 0.035
417.000 0.034
418.000 0.035
419.000 0.035
420.000 0.035
421.000 0.036
422.000 0.036
423.000 0.035
424.000 0.034
425.000 0.034
426.000 0.034
427.000 0.035
428.000 0.033
429.000 0.033
430.000 0.034
431.000 0.036
432.000 0.034
433.000 0.034
434.000 0.036
435.000 0.036
436.000 0.035
437.000 0.034
438.000 0.035
439.000 0.036
440.000 0.036
441.000 0.034
442.000 0.035
443.000 0.037
444.000 0.037
445.000 0.035
446.000 0.036
447.000 0.037
448.000 0.037
449.000 0.034
450.000 0.038
451.000 0.038
452.000 0.036
453.000 0.036
454.000 0.037
455.000 0.037
456.000 0.037
457.000 0.037
458.000 0.037
459.000 0.037
460.000 0.036
461.000 0.036
462.000 0.036
463.000 0.036
464.000 0.038
465.000 0.037
466.000 0.036
467.000 0.038
468.000 0.037
469.000 0.037
470.000 0.036
471.000 0.038
472.000 0.037
473.000 0.038
474.000 0.039
475.000 0.037
476.000 0.037
477.000 0.038
478.000 0.037
479.000 0.039
480.000 0.039
481.000 0.037
482.000 0.039
483.000 0.039
484.000 0.039
485.000 0.039
486.000 0.039
487.000 0.038
488.000 0.039
489.000 0.039
490.000 0.039
491.000 0.039
492.000 0.040
493.000 0.039
494.000 0.039
495.000 0.040
496.000 0.041
497.000 0.041
498.000 0.041
499.000 0.040
500.000 0.041
501.000 0.041
502.000 0.041
503.000 0.041
504.000 0.042
505.000 0.043
506.000 0.044
507.000 0.045
508.000 0.045
509.000 0.047
510.000 0.048
511.000 0.048
512.000 0.049
513.000 0.051
514.000 0.052
515.000 0.054
516.000 0.056
517.000 0.057
518.000 0.058
519.000 0.061
520.000 0.064
521.000 0.065
522.000 0.068
523.000 0.070
524.000 0.072
525.000 0.074
526.000 0.076
527.000 0.078
528.000 0.080
529.000 0.081
530.000 0.083
531.000 0.085
532.000 0.087
533.000 0.088
534.000 0.089
535.000 0.090
536.000 0.090
537.000 0.091
538.000 0.092
539.000 0.093
540.000 0.093
541.000 0.093
542.000 0.094
543.000 0.095
544.000 0.095
545.000 0.096
546.000 0.095
547.000 0.096
548.000 0.096
549.000 0.097
550.000 0.097
551.000 0.097
552.000 0.097
553.000 0.097
554.000 0.097
555.000 0.097
556.000 0.097
557.000 0.096
558.000 0.095
559.000 0.095
560.000 0.094
561.000 0.093
562.000 0.092
563.000 0.090
564.000 0.089
565.000 0.089
566.000 0.088
567.000 0.087
568.000 0.085
569.000 0.083
570.000 0.082
571.000 0.081
572.000 0.079
573.000 0.078
574.000 0.076
575.000 0.076
576.000 0.075
577.000 0.073
578.000 0.073
579.000 0.073
580.000 0.071
581.000 0.070
582.000 0.070
583.000 0.070
584.000 0.069
585.000 0.068
586.000 0.068
587.000 0.067
588.000 0.067
589.000 0.066
590.000 0.066
591.000 0.065
592.000 0.066
593.000 0.066
594.000 0.065
595.000 0.064
596.000 0.064
597.000 0.064
598.000 0.064
599.000 0.064
600.000 0.064
601.000 0.063
602.000 0.063
603.000 0.063
604.000 0.063
605.000 0.063
606.000 0.062
607.000 0.061
608.000 0.061
609.000 0.060
610.000 0.061
611.000 0.061
612.000 0.061
613.000 0.059
614.000 0.059
615.000 0.059
616.000 0.059
617.000 0.057
618.000 0.057
619.000 0.057
620.000 0.057
621.000 0.056
622.000 0.056
623.000 0.056
624.000 0.058
625.000 0.058
626.000 0.057
627.000 0.057
628.000 0.057
629.000 0.056
630.000 0.056
631.000 0.057
632.000 0.057
633.000 0.057
634.000 0.057
635.000 0.057
636.000 0.057
637.000 0.056
638.000 0.053
639.000 0.054
640.000 0.055
641.000 0.054
642.000 0.052
643.000 0.051
644.000 0.052
645.000 0.052
646.000 0.051
647.000 0.051
648.000 0.052
649.000 0.052
650.000 0.051
651.000 0.051
652.000 0.052
653.000 0.051
654.000 0.050
655.000 0.050
656.000 0.051
657.000 0.052
658.000 0.052
659.000 0.052
660.000 0.051
661.000 0.052
662.000 0.052
663.000 0.052
664.000 0.051
665.000 0.050
666.000 0.051
667.000 0.052
668.000 0.051
669.000 0.050
670.000 0.051
671.000 0.051
672.000 0.051
673.000 0.052
674.000 0.054
675.000 0.055
676.000 0.055
677.000 0.055
678.000 0.058
679.000 0.059
680.000 0.058
681.000 0.059
682.000 0.061
683.000 0.062
684.000 0.061
685.000 0.062
686.000 0.064
687.000 0.066
688.000 0.066
689.000 0.069
690.000 0.070
691.000 0.071
692.000 0.073
693.000 0.077
694.000 0.080
695.000 0.086
696.000 0.089
697.000 0.095
698.000 0.100
699.000 0.106
700.000 0.114
701.000 0.122
702.000 0.129
703.000 0.136
704.000 0.144
705.000 0.152
706.000 0.159
707.000 0.168
708.000 0.177
709.000 0.185
710.000 0.193
711.000 0.202
712.000 0.211
713.000 0.219
714.000 0.228
715.000 0.237
716.000 0.246
717.000 0.256
718.000 0.265
719.000 0.277
720.000 0.287
721.000 0.296
722.000 0.304
723.000 0.312
724.000 0.322
725.000 0.331
726.000 0.340
727.000 0.349
728.000 0.357
729.000 0.366
730.000 0.374
731.000 0.381
732.000 0.388
733.000 0.395
734.000 0.401
735.000 0.408
736.000 0.414
737.000 0.419
738.000 0.424
739.000 0.430
740.000 0.435
741.000 0.439
742.000 0.444
743.000 0.447
744.000 0.451
745.000 0.454
746.000 0.458
747.000 0.461
748.000 0.463
749.000 0.466
750.000 0.469
751.000 0.471
752.000 0.473
753.000 0.475
754.000 0.477
755.000 0.479
756.000 0.480
757.000 0.481
758.000 0.482
759.000 0.484
760.000 0.487
761.000 0.490
762.000 0.491
763.000 0.492
764.000 0.491
765.000 0.492
766.000 0.492
767.000 0.492
768.000 0.492
769.000 0.492
770.000 0.493
771.000 0.493
772.000 0.494
773.000 0.494
774.000 0.495
775.000 0.495
776.000 0.496
777.000 0.496
778.000 0.497
779.000 0.497
780.000 0.498
781.000 0.498
782.000 0.498
783.000 0.499
784.000 0.499
785.000 0.500
786.000 0.500
787.000 0.501
788.000 0.501
789.000 0.502
790.000 0.502
791.000 0.502
792.000 0.503
793.000 0.503
794.000 0.503
795.000 0.504
796.000 0.505
797.000 0.505
798.000 0.506
799.000 0.506
800.000 0.506
801.000 0.507
802.000 0.507
803.000 0.508
804.000 0.508
805.000 0.509
806.000 0.508
807.000 0.509
808.000 0.510
809.000 0.510
810.000 0.510
811.000 0.510
812.000 0.511
813.000 0.512
814.000 0.512
815.000 0.513
816.000 0.514
817.000 0.514
818.000 0.514
819.000 0.515
820.000 0.514
821.000 0.515
822.000 0.515
823.000 0.516
824.000 0.516
825.000 0.516
826.000 0.516
827.000 0.516
828.000 0.517
829.000 0.517
830.000 0.517
831.000 0.517
832.000 0.518
833.000 0.518
834.000 0.518
835.000 0.518
836.000 0.518
837.000 0.518
838.000 0.518
839.000 0.518
840.000 0.519
841.000 0.519
842.000 0.519
843.000 0.520
844.000 0.520
845.000 0.520
846.000 0.520
847.000 0.520
848.000 0.520
849.000 0.520
850.000 0.521
851.000 0.521
852.000 0.521
853.000 0.522
854.000 0.522
855.000 0.523
856.000 0.523
857.000 0.523
858.000 0.523
859.000 0.523
860.000 0.523
861.000 0.524
862.000 0.524
863.000 0.524
864.000 0.524
865.000 0.524
866.000 0.525
867.000 0.525
868.000 0.525
869.000 0.525
870.000 0.526
871.000 0.526
872.000 0.526
873.000 0.526
874.000 0.527
875.000 0.527
876.000 0.527
877.000 0.527
878.000 0.527
879.000 0.528
880.000 0.528
881.000 0.528
882.000 0.529
883.000 0.529
884.000 0.530
885.000 0.530
886.000 0.530
887.000 0.530
888.000 0.531
889.000 0.531
890.000 0.531
891.000 0.531
892.000 0.531
893.000 0.532
894.000 0.532
895.000 0.533
896.000 0.534
897.000 0.534
898.000 0.534
899.000 0.535
900.000 0.535
901.000 0.536
902.000 0.535
903.000 0.535
904.000 0.536
905.000 0.536
906.000 0.536
907.000 0.536
908.000 0.536
909.000 0.537
910.000 0.537
911.000 0.537
912.000 0.537
913.000 0.538
914.000 0.538
915.000 0.538
916.000 0.538
917.000 0.538
918.000 0.538
919.000 0.538
920.000 0.538
921.000 0.538
922.000 0.538
923.000 0.538
924.000 0.538
925.000 0.539
926.000 0.538
927.000 0.537
928.000 0.538
929.000 0.539
930.000 0.539
931.000 0.539
932.000 0.540
933.000 0.540
934.000 0.538
935.000 0.537
936.000 0.539
937.000 0.538
938.000 0.537
939.000 0.534
940.000 0.533
941.000 0.535
942.000 0.537
943.000 0.536
944.000 0.534
945.000 0.532
946.000 0.532
947.000 0.533
948.000 0.531
949.000 0.530
950.000 0.528
951.000 0.527
952.000 0.525
953.000 0.525
954.000 0.524
955.000 0.525
956.000 0.524
957.000 0.521
958.000 0.519
959.000 0.521
960.000 0.520
961.000 0.519
962.000 0.518
963.000 0.517
964.000 0.518
965.000 0.517
966.000 0.517
967.000 0.519
968.000 0.518
969.000 0.518
970.000 0.518
971.000 0.517
972.000 0.518
973.000 0.516
974.000 0.517
975.000 0.519
976.000 0.518
977.000 0.517
978.000 0.517
979.000 0.518
980.000 0.518
981.000 0.517
982.000 0.518
983.000 0.519
984.000 0.519
985.000 0.518
986.000 0.518
987.000 0.518
988.000 0.521
989.000 0.521
990.000 0.520
991.000 0.520
992.000 0.521
993.000 0.520
994.000 0.521
995.000 0.523
996.000 0.522
997.000 0.522
998.000 0.523
999.000 0.525
1000.000 0.526
1001.000 0.530
1002.000 0.531
1003.000 0.532
1004.000 0.532
1005.000 0.532
1006.000 0.533
1007.000 0.533
1008.000 0.533
1009.000 0.534
1010.000 0.534
1011.000 0.535
1012.000 0.535
1013.000 0.536
1014.000 0.537
1015.000 0.538
1016.000 0.539
1017.000 0.540
1018.000 0.541
1019.000 0.542
1020.000 0.543
1021.000 0.545
1022.000 0.545
1023.000 0.545
1024.000 0.546
1025.000 0.545
1026.000 0.546
1027.000 0.547
1028.000 0.547
1029.000 0.548
1030.000 0.549
1031.000 0.550
1032.000 0.550
1033.000 0.551
1034.000 0.552
1035.000 0.552
1036.000 0.552
1037.000 0.553
1038.000 0.553
1039.000 0.554
1040.000 0.554
1041.000 0.555
1042.000 0.555
1043.000 0.555
1044.000 0.556
1045.000 0.556
1046.000 0.556
1047.000 0.556
1048.000 0.557
1049.000 0.558
1050.000 0.559
1051.000 0.559
1052.000 0.559
1053.000 0.559
1054.000 0.559
1055.000 0.559
1056.000 0.560
1057.000 0.561
1058.000 0.562
1059.000 0.562
1060.000 0.563
1061.000 0.564
1062.000 0.565
1063.000 0.564
1064.000 0.565
1065.000 0.565
1066.000 0.564
1067.000 0.564
1068.000 0.565
1069.000 0.565
1070.000 0.565
1071.000 0.566
1072.000 0.567
1073.000 0.567
1074.000 0.567
1075.000 0.568
1076.000 0.569
1077.000 0.569
1078.000 0.568
1079.000 0.568
1080.000 0.568
1081.000 0.568
1082.000 0.569
1083.000 0.570
1084.000 0.570
1085.000 0.571
1086.000 0.571
1087.000 0.571
1088.000 0.571
1089.000 0.570
1090.000 0.570
1091.000 0.570
1092.000 0.570
1093.000 0.570
1094.000 0.570
1095.000 0.571
1096.000 0.572
1097.000 0.571
1098.000 0.571
1099.000 0.570
1100.000 0.570
1101.000 0.570
1102.000 0.571
1103.000 0.571
1104.000 0.571
1105.000 0.570
1106.000 0.569
1107.000 0.569
1108.000 0.569
1109.000 0.570
1110.000 0.570
1111.000 0.570
1112.000 0.570
1113.000 0.570
1114.000 0.571
1115.000 0.571
1116.000 0.571
1117.000 0.571
1118.000 0.571
1119.000 0.571
1120.000 0.572
1121.000 0.574
1122.000 0.574
1123.000 0.573
1124.000 0.572
1125.000 0.572
1126.000 0.570
1127.000 0.569
1128.000 0.568
1129.000 0.566
1130.000 0.564
1131.000 0.563
1132.000 0.563
1133.000 0.563
1134.000 0.561
1135.000 0.559
1136.000 0.557
1137.000 0.554
1138.000 0.553
1139.000 0.550
1140.000 0.548
1141.000 0.543
1142.000 0.541
1143.000 0.540
1144.000 0.538
1145.000 0.538
1146.000 0.536
1147.000 0.532
1148.000 0.530
1149.000 0.526
1150.000 0.523
1151.000 0.522
1152.000 0.521
1153.000 0.519
1154.000 0.516
1155.000 0.514
1156.000 0.511
1157.000 0.510
1158.000 0.509
1159.000 0.508
1160.000 0.506
1161.000 0.505
1162.000 0.505
1163.000 0.504
1164.000 0.503
1165.000 0.503
1166.000 0.503
1167.000 0.502
1168.000 0.502
1169.000 0.503
1170.000 0.503
1171.000 0.502
1172.000 0.502
1173.000 0.501
1174.000 0.500
1175.000 0.500
1176.000 0.500
1177.000 0.499
1178.000 0.499
1179.000 0.499
1180.000 0.499
1181.000 0.499
1182.000 0.499
1183.000 0.500
1184.000 0.500
1185.000 0.501
1186.000 0.501
1187.000 0.500
1188.000 0.499
1189.000 0.498
1190.000 0.498
1191.000 0.498
1192.000 0.498
1193.000 0.498
1194.000 0.499
1195.000 0.499
1196.000 0.499
1197.000 0.499
1198.000 0.500
1199.000 0.500
1200.000 0.500
1201.000 0.500
1202.000 0.500
1203.000 0.500
1204.000 0.500
1205.000 0.501
1206.000 0.500
1207.000 0.500
1208.000 0.500
1209.000 0.500
1210.000 0.501
1211.000 0.501
1212.000 0.502
1213.000 0.503
1214.000 0.503
1215.000 0.504
1216.000 0.505
1217.000 0.505
1218.000 0.505
1219.000 0.505
1220.000 0.506
1221.000 0.506
1222.000 0.506
1223.000 0.507
1224.000 0.508
1225.000 0.508
1226.000 0.508
1227.000 0.508
1228.000 0.508
1229.000 0.508
1230.000 0.508
1231.000 0.509
1232.000 0.509
1233.000 0.510
1234.000 0.510
1235.000 0.511
1236.000 0.511
1237.000 0.511
1238.000 0.512
1239.000 0.512
1240.000 0.512
1241.000 0.513
1242.000 0.513
1243.000 0.514
1244.000 0.515
1245.000 0.515
1246.000 0.516
1247.000 0.516
1248.000 0.516
1249.000 0.517
1250.000 0.517
1251.000 0.517
1252.000 0.517
1253.000 0.518
1254.000 0.518
1255.000 0.519
1256.000 0.519
1257.000 0.520
1258.000 0.520
1259.000 0.520
1260.000 0.520
1261.000 0.521
1262.000 0.521
1263.000 0.521
1264.000 0.521
1265.000 0.521
1266.000 0.521
1267.000 0.522
1268.000 0.522
1269.000 0.522
1270.000 0.523
1271.000 0.523
1272.000 0.523
1273.000 0.523
1274.000 0.524
1275.000 0.523
1276.000 0.523
1277.000 0.523
1278.000 0.522
1279.000 0.522
1280.000 0.523
1281.000 0.522
1282.000 0.522
1283.000 0.521
1284.000 0.521
1285.000 0.521
1286.000 0.521
1287.000 0.521
1288.000 0.522
1289.000 0.522
1290.000 0.521
1291.000 0.521
1292.000 0.519
1293.000 0.519
1294.000 0.518
1295.000 0.518
1296.000 0.517
1297.000 0.517
1298.000 0.516
1299.000 0.514
1300.000 0.514
1301.000 0.514
1302.000 0.513
1303.000 0.512
1304.000 0.511
1305.000 0.509
1306.000 0.508
1307.000 0.507
1308.000 0.506
1309.000 0.505
1310.000 0.504
1311.000 0.503
1312.000 0.502
1313.000 0.500
1314.000 0.499
1315.000 0.496
1316.000 0.494
1317.000 0.493
1318.000 0.491
1319.000 0.490
1320.000 0.489
1321.000 0.487
1322.000 0.486
1323.000 0.484
1324.000 0.482
1325.000 0.480
1326.000 0.479
1327.000 0.478
1328.000 0.478
1329.000 0.476
1330.000 0.474
1331.000 0.471
1332.000 0.468
1333.000 0.466
1334.000 0.464
1335.000 0.462
1336.000 0.460
1337.000 0.458
1338.000 0.456
1339.000 0.454
1340.000 0.451
1341.000 0.450
1342.000 0.449
1343.000 0.448
1344.000 0.449
1345.000 0.448
1346.000 0.443
1347.000 0.441
1348.000 0.438
1349.000 0.435
1350.000 0.433
1351.000 0.441
1352.000 0.443
1353.000 0.433
1354.000 0.431
1355.000 0.409
1356.000 0.386
1357.000 0.341
1358.000 0.298
1359.000 0.302
1360.000 0.344
1361.000 0.316
1362.000 0.311
1363.000 0.377
1364.000 0.501
1365.000 0.394
1366.000 0.396
1367.000 0.411
1368.000 0.593
1369.000 0.367
1370.000 0.437
1371.000 0.373
1372.000 0.476
1373.000 0.698
1374.000 0.466
1375.000 0.545
1376.000 0.364
1377.000 0.384
1378.000 0.477
1379.000 0.588
1380.000 0.235
1381.000 0.351
1382.000 0.626
1383.000 0.635
1384.000 0.531
1385.000 0.538
1386.000 0.586
1387.000 0.805
1388.000 0.754
1389.000 0.743
1390.000 0.796
1391.000 0.680
1392.000 0.521
1393.000 0.675
1394.000 0.187
1395.000 0.307
1396.000 0.553
1397.000 0.491
1398.000 0.520
1399.000 0.217
1400.000 0.535
1401.000 0.556
1402.000 0.349
1403.000 0.334
1404.000 0.336
1405.000 0.329
1406.000 0.366
1407.000 0.672
1408.000 0.646
1409.000 0.568
1410.000 0.485
1411.000 0.454
1412.000 0.453
1413.000 0.375
1414.000 0.395
1415.000 0.308
1416.000 0.249
1417.000 0.286
1418.000 0.314
1419.000 0.282
1420.000 0.295
1421.000 0.419
1422.000 0.467
1423.000 0.261
1424.000 0.420
1425.000 0.295
1426.000 0.249
1427.000 0.197
1428.000 0.176
1429.000 0.143
1430.000 0.152
1431.000 0.153
1432.000 0.154
1433.000 0.197
1434.000 0.210
1435.000 0.203
1436.000 0.190
1437.000 0.215
1438.000 0.215
1439.000 0.187
1440.000 0.188
1441.000 0.195
1442.000 0.196
1443.000 0.173
1444.000 0.170
1445.000 0.171
1446.000 0.172
1447.000 0.178
1448.000 0.178
1449.000 0.169
1450.000 0.165
1451.000 0.172
1452.000 0.180
1453.000 0.176
1454.000 0.175
1455.000 0.171
1456.000 0.161
1457.000 0.158
1458.000 0.159
1459.000 0.158
1460.000 0.158
1461.000 0.158
1462.000 0.156
1463.000 0.158
1464.000 0.162
1465.000 0.165
1466.000 0.172
1467.000 0.175
1468.000 0.172
1469.000 0.171
1470.000 0.170
1471.000 0.171
1472.000 0.172
1473.000 0.174
1474.000 0.180
1475.000 0.181
1476.000 0.176
1477.000 0.177
1478.000 0.182
1479.000 0.183
1480.000 0.187
1481.000 0.189
1482.000 0.186
1483.000 0.186
1484.000 0.186
1485.000 0.187
1486.000 0.187
1487.000 0.187
1488.000 0.186
1489.000 0.186
1490.000 0.187
1491.000 0.188
1492.000 0.192
1493.000 0.194
1494.000 0.194
1495.000 0.194
1496.000 0.194
1497.000 0.194
1498.000 0.195
1499.000 0.196
1500.000 0.195
1501.000 0.197
1502.000 0.201
1503.000 0.203
1504.000 0.204
1505.000 0.205
1506.000 0.205
1507.000 0.204
1508.000 0.206
1509.000 0.209
1510.000 0.212
1511.000 0.215
1512.000 0.216
1513.000 0.216
1514.000 0.216
1515.000 0.216
1516.000 0.217
1517.000 0.218
1518.000 0.220
1519.000 0.223
1520.000 0.225
1521.000 0.227
1522.000 0.229
1523.000 0.228
1524.000 0.228
1525.000 0.229
1526.000 0.230
1527.000 0.232
1528.000 0.233
1529.000 0.235
1530.000 0.236
1531.000 0.238
1532.000 0.240
1533.000 0.240
1534.000 0.242
1535.000 0.244
1536.000 0.244
1537.000 0.245
1538.000 0.246
1539.000 0.247
1540.000 0.248
1541.000 0.249
1542.000 0.251
1543.000 0.251
1544.000 0.252
1545.000 0.255
1546.000 0.256
1547.000 0.258
1548.000 0.259
1549.000 0.259
1550.000 0.260
1551.000 0.262
1552.000 0.263
1553.000 0.265
1554.000 0.266
1555.000 0.268
1556.000 0.269
1557.000 0.270
1558.000 0.271
1559.000 0.272
1560.000 0.273
1561.000 0.274
1562.000 0.276
1563.000 0.277
1564.000 0.279
1565.000 0.280
1566.000 0.282
1567.000 0.282
1568.000 0.283
1569.000 0.283
1570.000 0.284
1571.000 0.286
1572.000 0.287
1573.000 0.289
1574.000 0.290
1575.000 0.291
1576.000 0.291
1577.000 0.291
1578.000 0.291
1579.000 0.293
1580.000 0.294
1581.000 0.296
1582.000 0.297
1583.000 0.297
1584.000 0.298
1585.000 0.301
1586.000 0.302
1587.000 0.303
1588.000 0.304
1589.000 0.303
1590.000 0.304
1591.000 0.305
1592.000 0.306
1593.000 0.308
1594.000 0.309
1595.000 0.309
1596.000 0.310
1597.000 0.310
1598.000 0.311
1599.000 0.311
1600.000 0.312
1601.000 0.313
1602.000 0.314
1603.000 0.314
1604.000 0.314
1605.000 0.316
1606.000 0.317
1607.000 0.318
1608.000 0.320
1609.000 0.321
1610.000 0.320
1611.000 0.321
1612.000 0.322
1613.000 0.323
1614.000 0.324
1615.000 0.326
1616.000 0.327
1617.000 0.328
1618.000 0.329
1619.000 0.329
1620.000 0.330
1621.000 0.331
1622.000 0.332
1623.000 0.334
1624.000 0.335
1625.000 0.335
1626.000 0.336
1627.000 0.335
1628.000 0.336
1629.000 0.337
1630.000 0.337
1631.000 0.338
1632.000 0.338
1633.000 0.338
1634.000 0.338
1635.000 0.339
1636.000 0.339
1637.000 0.339
1638.000 0.339
1639.000 0.340
1640.000 0.340
1641.000 0.341
1642.000 0.341
1643.000 0.339
1644.000 0.339
1645.000 0.339
1646.000 0.340
1647.000 0.342
1648.000 0.343
1649.000 0.344
1650.000 0.345
1651.000 0.345
1652.000 0.345
1653.000 0.346
1654.000 0.347
1655.000 0.348
1656.000 0.347
1657.000 0.348
1658.000 0.348
1659.000 0.347
1660.000 0.347
1661.000 0.346
1662.000 0.346
1663.000 0.346
1664.000 0.347
1665.000 0.348
1666.000 0.349
1667.000 0.349
1668.000 0.349
1669.000 0.350
1670.000 0.350
1671.000 0.348
1672.000 0.347
1673.000 0.346
1674.000 0.346
1675.000 0.347
1676.000 0.347
1677.000 0.348
1678.000 0.348
1679.000 0.348
1680.000 0.348
1681.000 0.350
1682.000 0.350
1683.000 0.349
1684.000 0.349
1685.000 0.350
1686.000 0.351
1687.000 0.351
1688.000 0.351
1689.000 0.349
1690.000 0.349
1691.000 0.349
1692.000 0.349
1693.000 0.350
1694.000 0.349
1695.000 0.347
1696.000 0.346
1697.000 0.346
1698.000 0.345
1699.000 0.345
1700.000 0.345
1701.000 0.343
1702.000 0.343
1703.000 0.343
1704.000 0.342
1705.000 0.341
1706.000 0.340
1707.000 0.340
1708.000 0.340
1709.000 0.341
1710.000 0.341
1711.000 0.341
1712.000 0.341
1713.000 0.340
1714.000 0.339
1715.000 0.341
1716.000 0.340
1717.000 0.340
1718.000 0.339
1719.000 0.336
1720.000 0.336
1721.000 0.335
1722.000 0.337
1723.000 0.337
1724.000 0.335
1725.000 0.333
1726.000 0.332
1727.000 0.331
1728.000 0.333
1729.000 0.335
1730.000 0.336
1731.000 0.334
1732.000 0.331
1733.000 0.330
1734.000 0.330
1735.000 0.331
1736.000 0.330
1737.000 0.329
1738.000 0.327
1739.000 0.326
1740.000 0.327
1741.000 0.327
1742.000 0.326
1743.000 0.326
1744.000 0.329
1745.000 0.330
1746.000 0.332
1747.000 0.332
1748.000 0.328
1749.000 0.328
1750.000 0.328
1751.000 0.327
1752.000 0.328
1753.000 0.327
1754.000 0.324
1755.000 0.323
1756.000 0.322
1757.000 0.321
1758.000 0.319
1759.000 0.316
1760.000 0.314
1761.000 0.313
1762.000 0.312
1763.000 0.312
1764.000 0.311
1765.000 0.308
1766.000 0.305
1767.000 0.306
1768.000 0.305
1769.000 0.307
1770.000 0.311
1771.000 0.311
1772.000 0.313
1773.000 0.314
1774.000 0.313
1775.000 0.308
1776.000 0.305
1777.000 0.305
1778.000 0.300
1779.000 0.296
1780.000 0.292
1781.000 0.290
1782.000 0.292
1783.000 0.298
1784.000 0.309
1785.000 0.312
1786.000 0.313
1787.000 0.311
1788.000 0.310
1789.000 0.305
1790.000 0.304
1791.000 0.305
1792.000 0.313
1793.000 0.310
1794.000 0.310
1795.000 0.310
1796.000 0.297
1797.000 0.301
1798.000 0.307
1799.000 0.303
1800.000 0.327
1801.000 0.458
1802.000 0.476
1803.000 0.471
1804.000 0.500
1805.000 0.491
1806.000 0.459
1807.000 0.471
1808.000 0.449
1809.000 0.440
1810.000 0.409
1811.000 0.473
1812.000 0.558
1813.000 0.540
1814.000 0.570
1815.000 0.592
1816.000 0.675
1817.000 0.598
1818.000 0.512
1819.000 0.520
1820.000 0.492
1821.000 0.496
1822.000 0.444
1823.000 0.405
1824.000 0.404
1825.000 0.421
1826.000 0.480
1827.000 0.527
1828.000 0.507
1829.000 0.455
1830.000 0.574
1831.000 0.639
1832.000 0.624
1833.000 0.609
1834.000 0.585
1835.000 0.546
1836.000 0.585
1837.000 0.500
1838.000 0.538
1839.000 0.471
1840.000 0.475
1841.000 0.558
1842.000 0.558
1843.000 0.606
1844.000 0.680
1845.000 0.647
1846.000 0.653
1847.000 0.650
1848.000 0.767
1849.000 0.530
1850.000 0.322
1851.000 0.296
1852.000 0.232
1853.000 0.270
1854.000 0.492
1855.000 0.543
1856.000 0.592
1857.000 0.415
1858.000 0.357
1859.000 0.289
1860.000 0.457
1861.000 0.381
1862.000 0.608
1863.000 0.399
1864.000 0.373
1865.000 0.319
1866.000 0.591
1867.000 0.514
1868.000 0.486
1869.000 0.424
1870.000 0.356
1871.000 0.477
1872.000 0.481
1873.000 0.604
1874.000 0.465
1875.000 0.463
1876.000 0.492
1877.000 0.553
1878.000 0.656
1879.000 0.807
1880.000 0.797
1881.000 0.763
1882.000 0.784
1883.000 0.756
1884.000 0.640
1885.000 0.676
1886.000 0.625
1887.000 0.574
1888.000 0.681
1889.000 0.597
1890.000 0.539
1891.000 0.639
1892.000 0.523
1893.000 0.388
1894.000 0.496
1895.000 0.525
1896.000 0.544
1897.000 0.459
1898.000 0.573
1899.000 0.453
1900.000 0.383
1901.000 0.633
1902.000 0.478
1903.000 0.343
1904.000 0.315
1905.000 0.340
1906.000 0.378
1907.000 0.414
1908.000 0.364
1909.000 0.451
1910.000 0.488
1911.000 0.600
1912.000 0.585
1913.000 0.399
1914.000 0.327
1915.000 0.439
1916.000 0.325
1917.000 0.470
1918.000 0.455
1919.000 0.481
1920.000 0.474
1921.000 0.410
1922.000 0.345
1923.000 0.497
1924.000 0.604
1925.000 0.554
1926.000 0.478
1927.000 0.323
1928.000 0.198
1929.000 0.239
1930.000 0.399
1931.000 0.320
1932.000 0.454
1933.000 0.458
1934.000 0.348
1935.000 0.208
1936.000 0.318
1937.000 0.216
1938.000 0.140
1939.000 0.363
1940.000 0.553
1941.000 0.551
1942.000 0.544
1943.000 0.515
1944.000 0.441
1945.000 0.479
1946.000 0.502
1947.000 0.480
1948.000 0.409
1949.000 0.466
1950.000 0.464
1951.000 0.492
1952.000 0.417
1953.000 0.562
1954.000 0.706
1955.000 0.635
1956.000 0.603
1957.000 0.519
1958.000 0.458
1959.000 0.502
1960.000 0.457
1961.000 0.472
1962.000 0.460
1963.000 0.385
1964.000 0.342
1965.000 0.332
1966.000 0.297
1967.000 0.212
1968.000 0.180
1969.000 0.163
1970.000 0.157
1971.000 0.176
1972.000 0.185
1973.000 0.189
1974.000 0.167
1975.000 0.159
1976.000 0.145
1977.000 0.140
1978.000 0.134
1979.000 0.140
1980.000 0.148
1981.000 0.142
1982.000 0.144
1983.000 0.144
1984.000 0.139
1985.000 0.143
1986.000 0.142
1987.000 0.140
1988.000 0.145
1989.000 0.176
1990.000 0.161
1991.000 0.168
1992.000 0.203
1993.000 0.203
1994.000 0.202
1995.000 0.206
1996.000 0.204
1997.000 0.205
1998.000 0.206
1999.000 0.201
2000.000 0.186
2001.000 0.180
2002.000 0.172
2003.000 0.178
2004.000 0.235
2005.000 0.243
2006.000 0.247
2007.000 0.256
2008.000 0.276
2009.000 0.252
2010.000 0.292
2011.000 0.287
2012.000 0.288
2013.000 0.268
2014.000 0.260
2015.000 0.265
2016.000 0.253
2017.000 0.228
2018.000 0.209
2019.000 0.199
2020.000 0.173
2021.000 0.165
2022.000 0.167
2023.000 0.163
2024.000 0.165
2025.000 0.170
2026.000 0.168
2027.000 0.167
2028.000 0.168
2029.000 0.164
2030.000 0.152
2031.000 0.147
2032.000 0.140
2033.000 0.141
2034.000 0.149
2035.000 0.156
2036.000 0.158
2037.000 0.158
2038.000 0.154
2039.000 0.152
2040.000 0.154
2041.000 0.160
2042.000 0.160
2043.000 0.155
2044.000 0.155
2045.000 0.153
2046.000 0.154
2047.000 0.164
2048.000 0.168
2049.000 0.170
2050.000 0.176
2051.000 0.175
2052.000 0.173
2053.000 0.170
2054.000 0.167
2055.000 0.168
2056.000 0.171
2057.000 0.170
2058.000 0.166
2059.000 0.164
2060.000 0.156
2061.000 0.161
2062.000 0.183
2063.000 0.191
2064.000 0.204
2065.000 0.207
2066.000 0.197
2067.000 0.183
2068.000 0.174
2069.000 0.171
2070.000 0.165
2071.000 0.157
2072.000 0.155
2073.000 0.155
2074.000 0.158
2075.000 0.167
2076.000 0.173
2077.000 0.183
2078.000 0.185
2079.000 0.178
2080.000 0.179
2081.000 0.180
2082.000 0.177
2083.000 0.181
2084.000 0.187
2085.000 0.186
2086.000 0.184
2087.000 0.181
2088.000 0.176
2089.000 0.178
2090.000 0.182
2091.000 0.182
2092.000 0.185
2093.000 0.184
2094.000 0.174
2095.000 0.173
2096.000 0.178
2097.000 0.179
2098.000 0.179
2099.000 0.181
2100.000 0.179
2101.000 0.183
2102.000 0.193
2103.000 0.197
2104.000 0.198
2105.000 0.197
2106.000 0.193
2107.000 0.184
2108.000 0.181
2109.000 0.180
2110.000 0.181
2111.000 0.186
2112.000 0.187
2113.000 0.187
2114.000 0.189
2115.000 0.190
2116.000 0.194
2117.000 0.202
2118.000 0.210
2119.000 0.215
2120.000 0.221
2121.000 0.218
2122.000 0.214
2123.000 0.209
2124.000 0.199
2125.000 0.197
2126.000 0.197
2127.000 0.196
2128.000 0.200
2129.000 0.203
2130.000 0.202
2131.000 0.203
2132.000 0.207
2133.000 0.208
2134.000 0.210
2135.000 0.210
2136.000 0.209
2137.000 0.203
2138.000 0.199
2139.000 0.195
2140.000 0.193
2141.000 0.193
2142.000 0.195
2143.000 0.200
2144.000 0.201
2145.000 0.205
2146.000 0.205
2147.000 0.201
2148.000 0.199
2149.000 0.197
2150.000 0.196
2151.000 0.192
2152.000 0.193
2153.000 0.196
2154.000 0.199
2155.000 0.206
2156.000 0.212
2157.000 0.213
2158.000 0.218
2159.000 0.226
2160.000 0.232
2161.000 0.230
2162.000 0.227
2163.000 0.222
2164.000 0.210
2165.000 0.204
2166.000 0.198
2167.000 0.195
2168.000 0.192
2169.000 0.194
2170.000 0.204
2171.000 0.211
2172.000 0.226
2173.000 0.232
2174.000 0.234
2175.000 0.236
2176.000 0.237
2177.000 0.230
2178.000 0.227
2179.000 0.225
2180.000 0.219
2181.000 0.216
2182.000 0.214
2183.000 0.216
2184.000 0.217
2185.000 0.223
2186.000 0.224
2187.000 0.221
2188.000 0.224
2189.000 0.227
2190.000 0.230
2191.000 0.241
2192.000 0.245
2193.000 0.246
2194.000 0.246
2195.000 0.240
2196.000 0.238
2197.000 0.239
2198.000 0.235
2199.000 0.223
2200.000 0.219
2201.000 0.214
2202.000 0.212
2203.000 0.211
2204.000 0.214
2205.000 0.218
2206.000 0.216
2207.000 0.217
2208.000 0.222
2209.000 0.222
2210.000 0.216
2211.000 0.218
2212.000 0.224
2213.000 0.225
2214.000 0.229
2215.000 0.228
2216.000 0.218
2217.000 0.217
2218.000 0.221
2219.000 0.220
2220.000 0.219
2221.000 0.218
2222.000 0.213
2223.000 0.211
2224.000 0.211
2225.000 0.211
2226.000 0.212
2227.000 0.212
2228.000 0.218
2229.000 0.229
2230.000 0.232
2231.000 0.233
2232.000 0.228
2233.000 0.222
2234.000 0.228
2235.000 0.235
2236.000 0.236
2237.000 0.231
2238.000 0.228
2239.000 0.217
2240.000 0.213
2241.000 0.217
2242.000 0.214
2243.000 0.206
2244.000 0.204
2245.000 0.200
2246.000 0.201
2247.000 0.208
2248.000 0.210
2249.000 0.208
2250.000 0.210
2251.000 0.210
2252.000 0.211
2253.000 0.216
2254.000 0.218
2255.000 0.217
2256.000 0.217
2257.000 0.221
2258.000 0.219
2259.000 0.215
2260.000 0.209
2261.000 0.200
2262.000 0.196
2263.000 0.194
2264.000 0.194
2265.000 0.192
2266.000 0.191
2267.000 0.191
2268.000 0.187
2269.000 0.193
2270.000 0.201
2271.000 0.203
2272.000 0.210
2273.000 0.212
2274.000 0.205
2275.000 0.205
2276.000 0.210
2277.000 0.209
2278.000 0.210
2279.000 0.208
2280.000 0.204
2281.000 0.200
2282.000 0.189
2283.000 0.183
2284.000 0.182
2285.000 0.176
2286.000 0.165
2287.000 0.163
2288.000 0.160
2289.000 0.163
2290.000 0.183
2291.000 0.196
2292.000 0.211
2293.000 0.224
2294.000 0.236
2295.000 0.234
2296.000 0.226
2297.000 0.203
2298.000 0.185
2299.000 0.181
2300.000 0.175
2301.000 0.185
2302.000 0.185
2303.000 0.181
2304.000 0.186
2305.000 0.191
2306.000 0.193
2307.000 0.211
2308.000 0.217
2309.000 0.214
2310.000 0.212
2311.000 0.197
2312.000 0.185
2313.000 0.187
2314.000 0.194
2315.000 0.184
2316.000 0.184
2317.000 0.177
2318.000 0.168
2319.000 0.158
2320.000 0.157
2321.000 0.149
2322.000 0.137
2323.000 0.138
2324.000 0.148
2325.000 0.143
2326.000 0.146
2327.000 0.152
2328.000 0.161
2329.000 0.182
2330.000 0.189
2331.000 0.182
2332.000 0.202
2333.000 0.207
2334.000 0.200
2335.000 0.188
2336.000 0.178
2337.000 0.147
2338.000 0.141
2339.000 0.160
2340.000 0.180
2341.000 0.196
2342.000 0.190
2343.000 0.199
2344.000 0.190
2345.000 0.167
2346.000 0.167
2347.000 0.163
2348.000 0.190
2349.000 0.248
2350.000 0.278
2351.000 0.319
2352.000 0.312
2353.000 0.268
2354.000 0.244
2355.000 0.180
2356.000 0.173
2357.000 0.163
2358.000 0.158
2359.000 0.174
2360.000 0.155
2361.000 0.132
2362.000 0.137
2363.000 0.157
2364.000 0.158
2365.000 0.140
2366.000 0.126
2367.000 0.157
2368.000 0.175
2369.000 0.183
2370.000 0.176
2371.000 0.138
2372.000 0.152
2373.000 0.173
2374.000 0.193
2375.000 0.270
2376.000 0.308
2377.000 0.280
2378.000 0.225
2379.000 0.193
2380.000 0.195
2381.000 0.164
2382.000 0.273
2383.000 0.269
2384.000 0.163
2385.000 0.139
2386.000 0.161
2387.000 0.198
2388.000 0.249
2389.000 0.279
2390.000 0.275
2391.000 0.195
2392.000 0.124
2393.000 0.121
2394.000 0.137
2395.000 0.180
2396.000 0.153
2397.000 0.155
2398.000 0.125
2399.000 0.150
2400.000 0.196
2401.000 0.147
2402.000 0.195
2403.000 0.216
2404.000 0.540
2405.000 0.763
2406.000 0.250
2407.000 0.486
2408.000 0.383
2409.000 0.386
2410.000 0.401
2411.000 0.355
2412.000 0.365
2413.000 0.412
2414.000 0.313
2415.000 0.291
2416.000 0.366
2417.000 0.318
2418.000 0.304
2419.000 0.238
2420.000 0.129
2421.000 0.203
2422.000 0.139
2423.000 0.113
2424.000 0.221
2425.000 0.181
2426.000 0.196
2427.000 0.202
2428.000 0.265
2429.000 0.278
2430.000 0.465
2431.000 0.808
2432.000 0.302
2433.000 0.244
2434.000 0.191
2435.000 0.136
2436.000 0.134
2437.000 0.278
2438.000 0.235
2439.000 0.195
2440.000 0.250
2441.000 0.254
2442.000 0.338
2443.000 0.282
2444.000 0.471
2445.000 0.352
2446.000 0.330
2447.000 0.255
2448.000 0.188
2449.000 0.210
2450.000 0.306
2451.000 0.311
2452.000 0.311
2453.000 0.494
2454.000 0.700
2455.000 0.610
2456.000 0.582
2457.000 0.636
2458.000 0.643
2459.000 0.658
2460.000 0.602
2461.000 0.568
2462.000 0.614
2463.000 0.508
2464.000 0.361
2465.000 0.288
2466.000 0.364
2467.000 0.478
2468.000 0.628
2469.000 0.727
2470.000 0.745
2471.000 0.380
2472.000 0.390
2473.000 0.332
2474.000 0.391
2475.000 0.223
2476.000 0.305
2477.000 0.220
2478.000 0.154
2479.000 0.200
2480.000 0.538
2481.000 0.547
2482.000 0.507
2483.000 0.335
2484.000 0.135
2485.000 0.315
2486.000 0.385
2487.000 0.178
2488.000 0.376
2489.000 0.207
2490.000 0.331
2491.000 0.310
2492.000 0.365
2493.000 0.529
2494.000 0.338
2495.000 0.435
2496.000 0.577
2497.000 0.510
2498.000 0.488
2499.000 0.529
2500.000 0.630
