391.000 0.023
392.000 0.026
393.000 0.027
394.000 0.025
395.000 0.024
396.000 0.025
397.000 0.027
398.000 0.032
399.000 0.031
400.000 0.029
401.000 0.031
402.000 0.027
403.000 0.025
404.000 0.025
405.000 0.026
406.000 0.026
407.000 0.029
408.000 0.030
409.000 0.029
410.000 0.030
411.000 0.030
412.000 0.029
413.000 0.029
414.000 0.030
415.000 0.031
416.000 0.030
417.000 0.030
418.000 0.030
419.000 0.029
420.000 0.031
421.000 0.032
422.000 0.031
423.000 0.031
424.000 0.030
425.000 0.029
426.000 0.029
427.000 0.031
428.000 0.032
429.000 0.032
430.000 0.031
431.000 0.032
432.000 0.032
433.000 0.032
434.000 0.032
435.000 0.029
436.000 0.031
437.000 0.034
438.000 0.032
439.000 0.032
440.000 0.032
441.000 0.032
442.000 0.033
443.000 0.033
444.000 0.034
445.000 0.033
446.000 0.033
447.000 0.033
448.000 0.033
449.000 0.032
450.000 0.032
451.000 0.033
452.000 0.034
453.000 0.032
454.000 0.033
455.000 0.036
456.000 0.037
457.000 0.034
458.000 0.034
459.000 0.036
460.000 0.036
461.000 0.034
462.000 0.034
463.000 0.035
464.000 0.035
465.000 0.034
466.000 0.034
467.000 0.034
468.000 0.036
469.000 0.036
470.000 0.034
471.000 0.034
472.000 0.035
473.000 0.035
474.000 0.034
475.000 0.034
476.000 0.036
477.000 0.036
478.000 0.034
479.000 0.034
480.000 0.036
481.000 0.037
482.000 0.035
483.000 0.036
484.000 0.036
485.000 0.035
486.000 0.035
487.000 0.034
488.000 0.035
489.000 0.035
490.000 0.035
491.000 0.035
492.000 0.035
493.000 0.037
494.000 0.036
495.000 0.037
496.000 0.039
497.000 0.038
498.000 0.039
499.000 0.039
500.000 0.038
501.000 0.038
502.000 0.039
503.000 0.039
504.000 0.041
505.000 0.041
506.000 0.041
507.000 0.043
508.000 0.042
509.000 0.044
510.000 0.046
511.000 0.047
512.000 0.047
513.000 0.049
514.000 0.050
515.000 0.050
516.000 0.052
517.000 0.055
518.000 0.056
519.000 0.058
520.000 0.059
521.000 0.061
522.000 0.065
523.000 0.066
524.000 0.068
525.000 0.070
526.000 0.072
527.000 0.073
528.000 0.074
529.000 0.075
530.000 0.076
531.000 0.079
532.000 0.081
533.000 0.081
534.000 0.081
535.000 0.082
536.000 0.084
537.000 0.084
538.000 0.084
539.000 0.085
540.000 0.084
541.000 0.086
542.000 0.087
543.000 0.086
544.000 0.087
545.000 0.087
546.000 0.088
547.000 0.088
548.000 0.088
549.000 0.088
550.000 0.088
551.000 0.089
552.000 0.088
553.000 0.088
554.000 0.088
555.000 0.088
556.000 0.087
557.000 0.087
558.000 0.086
559.000 0.086
560.000 0.086
561.000 0.085
562.000 0.085
563.000 0.083
564.000 0.082
565.000 0.081
566.000 0.080
567.000 0.079
568.000 0.078
569.000 0.077
570.000 0.076
571.000 0.074
572.000 0.073
573.000 0.073
574.000 0.073
575.000 0.072
576.000 0.070
577.000 0.069
578.000 0.068
579.000 0.067
580.000 0.068
581.000 0.067
582.000 0.065
583.000 0.064
584.000 0.064
585.000 0.064
586.000 0.064
587.000 0.063
588.000 0.062
589.000 0.061
590.000 0.061
591.000 0.061
592.000 0.061
593.000 0.061
594.000 0.060
595.000 0.061
596.000 0.061
597.000 0.060
598.000 0.060
599.000 0.060
600.000 0.060
601.000 0.059
602.000 0.060
603.000 0.059
604.000 0.059
605.000 0.060
606.000 0.059
607.000 0.058
608.000 0.059
609.000 0.059
610.000 0.058
611.000 0.058
612.000 0.057
613.000 0.056
614.000 0.056
615.000 0.056
616.000 0.055
617.000 0.055
618.000 0.056
619.000 0.054
620.000 0.055
621.000 0.054
622.000 0.053
623.000 0.054
624.000 0.055
625.000 0.054
626.000 0.054
627.000 0.054
628.000 0.053
629.000 0.054
630.000 0.054
631.000 0.054
632.000 0.055
633.000 0.056
634.000 0.055
635.000 0.053
636.000 0.052
637.000 0.052
638.000 0.055
639.000 0.054
640.000 0.052
641.000 0.053
642.000 0.051
643.000 0.049
644.000 0.051
645.000 0.051
646.000 0.048
647.000 0.047
648.000 0.049
649.000 0.049
650.000 0.049
651.000 0.048
652.000 0.049
653.000 0.048
654.000 0.048
655.000 0.049
656.000 0.049
657.000 0.049
658.000 0.050
659.000 0.050
660.000 0.051
661.000 0.052
662.000 0.051
663.000 0.048
664.000 0.049
665.000 0.050
666.000 0.049
667.000 0.049
668.000 0.049
669.000 0.050
670.000 0.053
671.000 0.053
672.000 0.053
673.000 0.052
674.000 0.056
675.000 0.054
676.000 0.051
677.000 0.053
678.000 0.057
679.000 0.058
680.000 0.057
681.000 0.059
682.000 0.059
683.000 0.059
684.000 0.061
685.000 0.061
686.000 0.063
687.000 0.064
688.000 0.065
689.000 0.068
690.000 0.068
691.000 0.068
692.000 0.069
693.000 0.073
694.000 0.078
695.000 0.083
696.000 0.086
697.000 0.090
698.000 0.095
699.000 0.101
700.000 0.105
701.000 0.111
702.000 0.117
703.000 0.123
704.000 0.128
705.000 0.134
706.000 0.140
707.000 0.146
708.000 0.151
709.000 0.157
710.000 0.163
711.000 0.169
712.000 0.175
713.000 0.181
714.000 0.187
715.000 0.193
716.000 0.198
717.000 0.204
718.000 0.210
719.000 0.217
720.000 0.224
721.000 0.231
722.000 0.237
723.000 0.243
724.000 0.248
725.000 0.254
726.000 0.261
727.000 0.267
728.000 0.273
729.000 0.279
730.000 0.285
731.000 0.292
732.000 0.298
733.000 0.303
734.000 0.309
735.000 0.314
736.000 0.318
737.000 0.324
738.000 0.328
739.000 0.333
740.000 0.337
741.000 0.341
742.000 0.345
743.000 0.348
744.000 0.352
745.000 0.354
746.000 0.357
747.000 0.360
748.000 0.362
749.000 0.364
750.000 0.367
751.000 0.368
752.000 0.371
753.000 0.372
754.000 0.373
755.000 0.375
756.000 0.376
757.000 0.377
758.000 0.377
759.000 0.377
760.000 0.376
761.000 0.375
762.000 0.373
763.000 0.373
764.000 0.375
765.000 0.378
766.000 0.380
767.000 0.383
768.000 0.385
769.000 0.386
770.000 0.387
771.000 0.388
772.000 0.389
773.000 0.389
774.000 0.390
775.000 0.390
776.000 0.391
777.000 0.392
778.000 0.392
779.000 0.392
780.000 0.393
781.000 0.393
782.000 0.393
783.000 0.393
784.000 0.394
785.000 0.394
786.000 0.394
787.000 0.394
788.000 0.394
789.000 0.394
790.000 0.394
791.000 0.394
792.000 0.395
793.000 0.396
794.000 0.396
795.000 0.396
796.000 0.396
797.000 0.396
798.000 0.396
799.000 0.397
800.000 0.397
801.000 0.397
802.000 0.397
803.000 0.398
804.000 0.398
805.000 0.399
806.000 0.400
807.000 0.400
808.000 0.400
809.000 0.400
810.000 0.400
811.000 0.399
812.000 0.398
813.000 0.397
814.000 0.396
815.000 0.395
816.000 0.395
817.000 0.395
818.000 0.396
819.000 0.396
820.000 0.398
821.000 0.398
822.000 0.399
823.000 0.400
824.000 0.400
825.000 0.400
826.000 0.401
827.000 0.401
828.000 0.402
829.000 0.402
830.000 0.402
831.000 0.403
832.000 0.403
833.000 0.404
834.000 0.406
835.000 0.406
836.000 0.407
837.000 0.407
838.000 0.408
839.000 0.409
840.000 0.410
841.000 0.410
842.000 0.411
843.000 0.411
844.000 0.412
845.000 0.412
846.000 0.413
847.000 0.413
848.000 0.414
849.000 0.414
850.000 0.414
851.000 0.414
852.000 0.415
853.000 0.415
854.000 0.416
855.000 0.416
856.000 0.416
857.000 0.417
858.000 0.416
859.000 0.417
860.000 0.418
861.000 0.418
862.000 0.418
863.000 0.418
864.000 0.419
865.000 0.419
866.000 0.420
867.000 0.420
868.000 0.420
869.000 0.420
870.000 0.420
871.000 0.421
872.000 0.420
873.000 0.421
874.000 0.421
875.000 0.421
876.000 0.421
877.000 0.421
878.000 0.422
879.000 0.422
880.000 0.422
881.000 0.422
882.000 0.422
883.000 0.422
884.000 0.422
885.000 0.423
886.000 0.423
887.000 0.423
888.000 0.423
889.000 0.423
890.000 0.423
891.000 0.422
892.000 0.422
893.000 0.421
894.000 0.420
895.000 0.419
896.000 0.418
897.000 0.417
898.000 0.416
899.000 0.415
900.000 0.415
901.000 0.416
902.000 0.416
903.000 0.416
904.000 0.416
905.000 0.416
906.000 0.417
907.000 0.417
908.000 0.417
909.000 0.416
910.000 0.416
911.000 0.415
912.000 0.414
913.000 0.414
914.000 0.414
915.000 0.415
916.000 0.416
917.000 0.417
918.000 0.418
919.000 0.418
920.000 0.418
921.000 0.418
922.000 0.419
923.000 0.419
924.000 0.419
925.000 0.417
926.000 0.415
927.000 0.415
928.000 0.412
929.000 0.411
930.000 0.409
931.000 0.405
932.000 0.402
933.000 0.402
934.000 0.400
935.000 0.395
936.000 0.394
937.000 0.395
938.000 0.395
939.000 0.393
940.000 0.392
941.000 0.393
942.000 0.393
943.000 0.392
944.000 0.394
945.000 0.394
946.000 0.393
947.000 0.392
948.000 0.392
949.000 0.392
950.000 0.392
951.000 0.393
952.000 0.393
953.000 0.392
954.000 0.393
955.000 0.395
956.000 0.394
957.000 0.395
958.000 0.396
959.000 0.397
960.000 0.398
961.000 0.396
962.000 0.396
963.000 0.399
964.000 0.403
965.000 0.404
966.000 0.405
967.000 0.407
968.000 0.408
969.000 0.407
970.000 0.408
971.000 0.409
972.000 0.410
973.000 0.409
974.000 0.409
975.000 0.411
976.000 0.411
977.000 0.411
978.000 0.412
979.000 0.414
980.000 0.413
981.000 0.415
982.000 0.416
983.000 0.417
984.000 0.417
985.000 0.419
986.000 0.420
987.000 0.420
988.000 0.423
989.000 0.423
990.000 0.423
991.000 0.424
992.000 0.424
993.000 0.425
994.000 0.425
995.000 0.426
996.000 0.427
997.000 0.427
998.000 0.428
999.000 0.428
1000.000 0.427
1001.000 0.435
1002.000 0.436
1003.000 0.437
1004.000 0.438
1005.000 0.438
1006.000 0.438
1007.000 0.438
1008.000 0.438
1009.000 0.438
1010.000 0.438
1011.000 0.439
1012.000 0.439
1013.000 0.439
1014.000 0.440
1015.000 0.440
1016.000 0.441
1017.000 0.442
1018.000 0.443
1019.000 0.443
1020.000 0.443
1021.000 0.442
1022.000 0.442
1023.000 0.443
1024.000 0.444
1025.000 0.444
1026.000 0.445
1027.000 0.445
1028.000 0.445
1029.000 0.445
1030.000 0.446
1031.000 0.446
1032.000 0.447
1033.000 0.447
1034.000 0.447
1035.000 0.448
1036.000 0.448
1037.000 0.449
1038.000 0.449
1039.000 0.450
1040.000 0.450
1041.000 0.450
1042.000 0.450
1043.000 0.450
1044.000 0.451
1045.000 0.451
1046.000 0.452
1047.000 0.453
1048.000 0.453
1049.000 0.454
1050.000 0.454
1051.000 0.454
1052.000 0.455
1053.000 0.455
1054.000 0.455
1055.000 0.455
1056.000 0.454
1057.000 0.455
1058.000 0.455
1059.000 0.456
1060.000 0.456
1061.000 0.457
1062.000 0.457
1063.000 0.457
1064.000 0.456
1065.000 0.456
1066.000 0.456
1067.000 0.457
1068.000 0.457
1069.000 0.457
1070.000 0.457
1071.000 0.457
1072.000 0.457
1073.000 0.457
1074.000 0.457
1075.000 0.457
1076.000 0.457
1077.000 0.457
1078.000 0.458
1079.000 0.458
1080.000 0.458
1081.000 0.459
1082.000 0.459
1083.000 0.459
1084.000 0.459
1085.000 0.458
1086.000 0.458
1087.000 0.458
1088.000 0.457
1089.000 0.456
1090.000 0.455
1091.000 0.455
1092.000 0.456
1093.000 0.455
1094.000 0.455
1095.000 0.455
1096.000 0.454
1097.000 0.453
1098.000 0.452
1099.000 0.452
1100.000 0.451
1101.000 0.450
1102.000 0.449
1103.000 0.448
1104.000 0.447
1105.000 0.446
1106.000 0.445
1107.000 0.444
1108.000 0.444
1109.000 0.443
1110.000 0.442
1111.000 0.440
1112.000 0.438
1113.000 0.436
1114.000 0.434
1115.000 0.433
1116.000 0.432
1117.000 0.430
1118.000 0.429
1119.000 0.427
1120.000 0.424
1121.000 0.423
1122.000 0.422
1123.000 0.420
1124.000 0.417
1125.000 0.415
1126.000 0.412
1127.000 0.411
1128.000 0.411
1129.000 0.413
1130.000 0.414
1131.000 0.415
1132.000 0.415
1133.000 0.413
1134.000 0.412
1135.000 0.413
1136.000 0.414
1137.000 0.414
1138.000 0.416
1139.000 0.416
1140.000 0.415
1141.000 0.411
1142.000 0.411
1143.000 0.410
1144.000 0.409
1145.000 0.411
1146.000 0.410
1147.000 0.408
1148.000 0.406
1149.000 0.405
1150.000 0.404
1151.000 0.404
1152.000 0.405
1153.000 0.405
1154.000 0.405
1155.000 0.406
1156.000 0.407
1157.000 0.408
1158.000 0.410
1159.000 0.411
1160.000 0.411
1161.000 0.412
1162.000 0.412
1163.000 0.413
1164.000 0.413
1165.000 0.414
1166.000 0.415
1167.000 0.415
1168.000 0.416
1169.000 0.416
1170.000 0.416
1171.000 0.416
1172.000 0.417
1173.000 0.417
1174.000 0.417
1175.000 0.417
1176.000 0.418
1177.000 0.418
1178.000 0.418
1179.000 0.418
1180.000 0.418
1181.000 0.418
1182.000 0.418
1183.000 0.418
1184.000 0.418
1185.000 0.418
1186.000 0.417
1187.000 0.417
1188.000 0.418
1189.000 0.418
1190.000 0.419
1191.000 0.419
1192.000 0.419
1193.000 0.419
1194.000 0.420
1195.000 0.421
1196.000 0.421
1197.000 0.421
1198.000 0.421
1199.000 0.421
1200.000 0.421
1201.000 0.422
1202.000 0.421
1203.000 0.421
1204.000 0.421
1205.000 0.422
1206.000 0.422
1207.000 0.424
1208.000 0.425
1209.000 0.425
1210.000 0.426
1211.000 0.426
1212.000 0.426
1213.000 0.426
1214.000 0.427
1215.000 0.427
1216.000 0.427
1217.000 0.428
1218.000 0.428
1219.000 0.428
1220.000 0.429
1221.000 0.430
1222.000 0.430
1223.000 0.431
1224.000 0.431
1225.000 0.432
1226.000 0.432
1227.000 0.433
1228.000 0.434
1229.000 0.434
1230.000 0.435
1231.000 0.435
1232.000 0.436
1233.000 0.436
1234.000 0.437
1235.000 0.437
1236.000 0.437
1237.000 0.438
1238.000 0.439
1239.000 0.439
1240.000 0.440
1241.000 0.440
1242.000 0.440
1243.000 0.441
1244.000 0.441
1245.000 0.442
1246.000 0.443
1247.000 0.443
1248.000 0.443
1249.000 0.444
1250.000 0.443
1251.000 0.443
1252.000 0.443
1253.000 0.443
1254.000 0.443
1255.000 0.443
1256.000 0.443
1257.000 0.442
1258.000 0.442
1259.000 0.442
1260.000 0.442
1261.000 0.442
1262.000 0.442
1263.000 0.442
1264.000 0.441
1265.000 0.442
1266.000 0.442
1267.000 0.442
1268.000 0.442
1269.000 0.442
1270.000 0.442
1271.000 0.443
1272.000 0.443
1273.000 0.444
1274.000 0.444
1275.000 0.444
1276.000 0.445
1277.000 0.445
1278.000 0.446
1279.000 0.446
1280.000 0.446
1281.000 0.446
1282.000 0.447
1283.000 0.447
1284.000 0.447
1285.000 0.447
1286.000 0.447
1287.000 0.448
1288.000 0.447
1289.000 0.447
1290.000 0.445
1291.000 0.445
1292.000 0.444
1293.000 0.444
1294.000 0.443
1295.000 0.443
1296.000 0.442
1297.000 0.441
1298.000 0.441
1299.000 0.440
1300.000 0.439
1301.000 0.439
1302.000 0.438
1303.000 0.437
1304.000 0.436
1305.000 0.435
1306.000 0.434
1307.000 0.433
1308.000 0.433
1309.000 0.431
1310.000 0.430
1311.000 0.430
1312.000 0.429
1313.000 0.428
1314.000 0.427
1315.000 0.425
1316.000 0.424
1317.000 0.423
1318.000 0.422
1319.000 0.421
1320.000 0.421
1321.000 0.419
1322.000 0.418
1323.000 0.416
1324.000 0.414
1325.000 0.412
1326.000 0.410
1327.000 0.408
1328.000 0.405
1329.000 0.403
1330.000 0.401
1331.000 0.398
1332.000 0.399
1333.000 0.396
1334.000 0.394
1335.000 0.392
1336.000 0.390
1337.000 0.388
1338.000 0.388
1339.000 0.387
1340.000 0.385
1341.000 0.384
1342.000 0.384
1343.000 0.384
1344.000 0.386
1345.000 0.386
1346.000 0.384
1347.000 0.384
1348.000 0.383
1349.000 0.378
1350.000 0.378
1351.000 0.388
1352.000 0.393
1353.000 0.405
1354.000 0.432
1355.000 0.446
1356.000 0.393
1357.000 0.399
1358.000 0.474
1359.000 0.453
1360.000 0.513
1361.000 0.362
1362.000 0.426
1363.000 0.295
1364.000 0.312
1365.000 0.339
1366.000 0.347
1367.000 0.416
1368.000 0.466
1369.000 0.384
1370.000 0.354
1371.000 0.164
1372.000 0.161
1373.000 0.145
1374.000 0.377
1375.000 0.537
1376.000 0.632
1377.000 0.330
1378.000 0.571
1379.000 0.755
1380.000 0.614
1381.000 0.460
1382.000 0.451
1383.000 0.413
1384.000 0.290
1385.000 0.229
1386.000 0.183
1387.000 0.202
1388.000 0.187
1389.000 0.292
1390.000 0.481
1391.000 0.631
1392.000 0.553
1393.000 0.713
1394.000 0.450
1395.000 0.433
1396.000 0.488
1397.000 0.473
1398.000 0.684
1399.000 0.894
1400.000 0.764
1401.000 0.625
1402.000 0.431
1403.000 0.347
1404.000 0.353
1405.000 0.418
1406.000 0.497
1407.000 0.453
1408.000 0.511
1409.000 0.543
1410.000 0.621
1411.000 0.585
1412.000 0.345
1413.000 0.231
1414.000 0.158
1415.000 0.064
1416.000 0.088
1417.000 0.223
1418.000 0.229
1419.000 0.243
1420.000 0.240
1421.000 0.143
1422.000 0.148
1423.000 0.160
1424.000 0.162
1425.000 0.186
1426.000 0.163
1427.000 0.167
1428.000 0.190
1429.000 0.219
1430.000 0.203
1431.000 0.183
1432.000 0.176
1433.000 0.207
1434.000 0.174
1435.000 0.181
1436.000 0.202
1437.000 0.137
1438.000 0.129
1439.000 0.198
1440.000 0.204
1441.000 0.180
1442.000 0.207
1443.000 0.169
1444.000 0.141
1445.000 0.138
1446.000 0.138
1447.000 0.142
1448.000 0.146
1449.000 0.146
1450.000 0.152
1451.000 0.157
1452.000 0.155
1453.000 0.156
1454.000 0.157
1455.000 0.160
1456.000 0.168
1457.000 0.166
1458.000 0.170
1459.000 0.167
1460.000 0.156
1461.000 0.157
1462.000 0.159
1463.000 0.162
1464.000 0.175
1465.000 0.179
1466.000 0.180
1467.000 0.183
1468.000 0.181
1469.000 0.187
1470.000 0.200
1471.000 0.204
1472.000 0.210
1473.000 0.209
1474.000 0.198
1475.000 0.193
1476.000 0.188
1477.000 0.184
1478.000 0.184
1479.000 0.183
1480.000 0.179
1481.000 0.179
1482.000 0.180
1483.000 0.180
1484.000 0.182
1485.000 0.183
1486.000 0.183
1487.000 0.183
1488.000 0.184
1489.000 0.187
1490.000 0.191
1491.000 0.194
1492.000 0.199
1493.000 0.201
1494.000 0.199
1495.000 0.199
1496.000 0.200
1497.000 0.199
1498.000 0.200
1499.000 0.202
1500.000 0.202
1501.000 0.202
1502.000 0.202
1503.000 0.202
1504.000 0.204
1505.000 0.205
1506.000 0.206
1507.000 0.208
1508.000 0.209
1509.000 0.210
1510.000 0.212
1511.000 0.216
1512.000 0.218
1513.000 0.220
1514.000 0.222
1515.000 0.221
1516.000 0.222
1517.000 0.223
1518.000 0.222
1519.000 0.221
1520.000 0.222
1521.000 0.223
1522.000 0.225
1523.000 0.227
1524.000 0.229
1525.000 0.230
1526.000 0.233
1527.000 0.236
1528.000 0.238
1529.000 0.240
1530.000 0.241
1531.000 0.243
1532.000 0.243
1533.000 0.243
1534.000 0.243
1535.000 0.244
1536.000 0.245
1537.000 0.246
1538.000 0.247
1539.000 0.249
1540.000 0.251
1541.000 0.252
1542.000 0.253
1543.000 0.255
1544.000 0.256
1545.000 0.255
1546.000 0.256
1547.000 0.258
1548.000 0.259
1549.000 0.261
1550.000 0.262
1551.000 0.262
1552.000 0.262
1553.000 0.264
1554.000 0.265
1555.000 0.267
1556.000 0.268
1557.000 0.270
1558.000 0.270
1559.000 0.269
1560.000 0.269
1561.000 0.269
1562.000 0.269
1563.000 0.269
1564.000 0.270
1565.000 0.271
1566.000 0.272
1567.000 0.274
1568.000 0.275
1569.000 0.277
1570.000 0.278
1571.000 0.278
1572.000 0.279
1573.000 0.279
1574.000 0.280
1575.000 0.282
1576.000 0.284
1577.000 0.287
1578.000 0.288
1579.000 0.290
1580.000 0.290
1581.000 0.289
1582.000 0.289
1583.000 0.289
1584.000 0.289
1585.000 0.291
1586.000 0.292
1587.000 0.293
1588.000 0.294
1589.000 0.295
1590.000 0.296
1591.000 0.298
1592.000 0.299
1593.000 0.299
1594.000 0.299
1595.000 0.300
1596.000 0.301
1597.000 0.300
1598.000 0.301
1599.000 0.303
1600.000 0.303
1601.000 0.306
1602.000 0.307
1603.000 0.306
1604.000 0.305
1605.000 0.304
1606.000 0.305
1607.000 0.307
1608.000 0.308
1609.000 0.310
1610.000 0.311
1611.000 0.311
1612.000 0.312
1613.000 0.312
1614.000 0.313
1615.000 0.313
1616.000 0.313
1617.000 0.313
1618.000 0.313
1619.000 0.315
1620.000 0.316
1621.000 0.317
1622.000 0.318
1623.000 0.317
1624.000 0.317
1625.000 0.317
1626.000 0.317
1627.000 0.319
1628.000 0.320
1629.000 0.319
1630.000 0.319
1631.000 0.319
1632.000 0.319
1633.000 0.321
1634.000 0.322
1635.000 0.321
1636.000 0.322
1637.000 0.322
1638.000 0.322
1639.000 0.323
1640.000 0.324
1641.000 0.324
1642.000 0.324
1643.000 0.324
1644.000 0.324
1645.000 0.324
1646.000 0.324
1647.000 0.326
1648.000 0.326
1649.000 0.327
1650.000 0.327
1651.000 0.329
1652.000 0.329
1653.000 0.329
1654.000 0.329
1655.000 0.328
1656.000 0.327
1657.000 0.327
1658.000 0.327
1659.000 0.327
1660.000 0.327
1661.000 0.329
1662.000 0.330
1663.000 0.331
1664.000 0.331
1665.000 0.330
1666.000 0.330
1667.000 0.329
1668.000 0.329
1669.000 0.328
1670.000 0.329
1671.000 0.329
1672.000 0.330
1673.000 0.332
1674.000 0.332
1675.000 0.332
1676.000 0.332
1677.000 0.331
1678.000 0.330
1679.000 0.331
1680.000 0.331
1681.000 0.330
1682.000 0.330
1683.000 0.329
1684.000 0.329
1685.000 0.331
1686.000 0.331
1687.000 0.333
1688.000 0.332
1689.000 0.329
1690.000 0.329
1691.000 0.330
1692.000 0.330
1693.000 0.330
1694.000 0.329
1695.000 0.328
1696.000 0.328
1697.000 0.329
1698.000 0.330
1699.000 0.330
1700.000 0.329
1701.000 0.328
1702.000 0.327
1703.000 0.326
1704.000 0.326
1705.000 0.326
1706.000 0.325
1707.000 0.325
1708.000 0.324
1709.000 0.323
1710.000 0.323
1711.000 0.322
1712.000 0.324
1713.000 0.326
1714.000 0.327
1715.000 0.327
1716.000 0.326
1717.000 0.324
1718.000 0.321
1719.000 0.320
1720.000 0.319
1721.000 0.318
1722.000 0.319
1723.000 0.319
1724.000 0.318
1725.000 0.317
1726.000 0.317
1727.000 0.315
1728.000 0.315
1729.000 0.315
1730.000 0.313
1731.000 0.313
1732.000 0.313
1733.000 0.314
1734.000 0.315
1735.000 0.313
1736.000 0.312
1737.000 0.312
1738.000 0.313
1739.000 0.312
1740.000 0.313
1741.000 0.312
1742.000 0.310
1743.000 0.308
1744.000 0.309
1745.000 0.307
1746.000 0.305
1747.000 0.306
1748.000 0.307
1749.000 0.306
1750.000 0.305
1751.000 0.304
1752.000 0.300
1753.000 0.299
1754.000 0.299
1755.000 0.298
1756.000 0.300
1757.000 0.300
1758.000 0.301
1759.000 0.297
1760.000 0.293
1761.000 0.289
1762.000 0.290
1763.000 0.291
1764.000 0.290
1765.000 0.290
1766.000 0.290
1767.000 0.290
1768.000 0.293
1769.000 0.292
1770.000 0.292
1771.000 0.293
1772.000 0.291
1773.000 0.292
1774.000 0.293
1775.000 0.291
1776.000 0.290
1777.000 0.286
1778.000 0.279
1779.000 0.276
1780.000 0.278
1781.000 0.282
1782.000 0.288
1783.000 0.291
1784.000 0.292
1785.000 0.287
1786.000 0.286
1787.000 0.287
1788.000 0.286
1789.000 0.290
1790.000 0.291
1791.000 0.292
1792.000 0.299
1793.000 0.296
1794.000 0.300
1795.000 0.295
1796.000 0.298
1797.000 0.310
1798.000 0.312
1799.000 0.327
1800.000 0.315
1801.000 0.339
1802.000 0.357
1803.000 0.389
1804.000 0.447
1805.000 0.492
1806.000 0.552
1807.000 0.560
1808.000 0.500
1809.000 0.463
1810.000 0.444
1811.000 0.436
1812.000 0.467
1813.000 0.442
1814.000 0.566
1815.000 0.671
1816.000 0.613
1817.000 0.581
1818.000 0.500
1819.000 0.420
1820.000 0.496
1821.000 0.671
1822.000 0.817
1823.000 0.775
1824.000 0.721
1825.000 0.715
1826.000 0.729
1827.000 0.705
1828.000 0.729
1829.000 0.737
1830.000 0.850
1831.000 0.865
1832.000 0.569
1833.000 0.593
1834.000 0.545
1835.000 0.557
1836.000 0.565
1837.000 0.528
1838.000 0.412
1839.000 0.408
1840.000 0.441
1841.000 0.593
1842.000 0.563
1843.000 0.487
1844.000 0.489
1845.000 0.359
1846.000 0.320
1847.000 0.318
1848.000 0.241
1849.000 0.328
1850.000 0.337
1851.000 0.395
1852.000 0.467
1853.000 0.416
1854.000 0.399
1855.000 0.418
1856.000 0.426
1857.000 0.459
1858.000 0.446
1859.000 0.581
1860.000 0.642
1861.000 0.615
1862.000 0.373
1863.000 0.298
1864.000 0.255
1865.000 0.214
1866.000 0.251
1867.000 0.440
1868.000 0.625
1869.000 0.446
1870.000 0.444
1871.000 0.437
1872.000 0.410
1873.000 0.503
1874.000 0.436
1875.000 0.427
1876.000 0.366
1877.000 0.199
1878.000 0.366
1879.000 0.456
1880.000 0.415
1881.000 0.377
1882.000 0.395
1883.000 0.701
1884.000 0.619
1885.000 0.602
1886.000 0.614
1887.000 0.681
1888.000 0.636
1889.000 0.627
1890.000 0.495
1891.000 0.573
1892.000 0.587
1893.000 0.509
1894.000 0.644
1895.000 0.579
1896.000 0.611
1897.000 0.608
1898.000 0.549
1899.000 0.635
1900.000 0.681
1901.000 0.737
1902.000 0.481
1903.000 0.576
1904.000 0.665
1905.000 0.528
1906.000 0.437
1907.000 0.650
1908.000 0.238
1909.000 0.485
1910.000 0.425
1911.000 0.564
1912.000 0.480
1913.000 0.434
1914.000 0.436
1915.000 0.480
1916.000 0.473
1917.000 0.569
1918.000 0.704
1919.000 0.724
1920.000 0.667
1921.000 0.678
1922.000 0.718
1923.000 0.735
1924.000 0.705
1925.000 0.660
1926.000 0.657
1927.000 0.644
1928.000 0.640
1929.000 0.568
1930.000 0.469
1931.000 0.380
1932.000 0.784
1933.000 0.629
1934.000 0.522
1935.000 0.618
1936.000 0.654
1937.000 0.603
1938.000 0.538
1939.000 0.551
1940.000 0.494
1941.000 0.443
1942.000 0.479
1943.000 0.445
1944.000 0.574
1945.000 0.516
1946.000 0.555
1947.000 0.547
1948.000 0.574
1949.000 0.524
1950.000 0.472
1951.000 0.264
1952.000 0.160
1953.000 0.360
1954.000 0.397
1955.000 0.448
1956.000 0.519
1957.000 0.695
1958.000 0.319
1959.000 0.552
1960.000 0.455
1961.000 0.476
1962.000 0.456
1963.000 0.532
1964.000 0.526
1965.000 0.530
1966.000 0.453
1967.000 0.431
1968.000 0.390
1969.000 0.319
1970.000 0.291
1971.000 0.245
1972.000 0.234
1973.000 0.242
1974.000 0.246
1975.000 0.252
1976.000 0.288
1977.000 0.293
1978.000 0.273
1979.000 0.267
1980.000 0.251
1981.000 0.221
1982.000 0.220
1983.000 0.209
1984.000 0.202
1985.000 0.186
1986.000 0.195
1987.000 0.202
1988.000 0.202
1989.000 0.233
1990.000 0.234
1991.000 0.225
1992.000 0.217
1993.000 0.208
1994.000 0.220
1995.000 0.234
1996.000 0.247
1997.000 0.247
1998.000 0.223
1999.000 0.224
2000.000 0.304
2001.000 0.329
2002.000 0.326
2003.000 0.341
2004.000 0.330
2005.000 0.330
2006.000 0.309
2007.000 0.324
2008.000 0.310
2009.000 0.290
2010.000 0.295
2011.000 0.310
2012.000 0.313
2013.000 0.235
2014.000 0.228
2015.000 0.227
2016.000 0.216
2017.000 0.255
2018.000 0.258
2019.000 0.246
2020.000 0.250
2021.000 0.236
2022.000 0.218
2023.000 0.220
2024.000 0.208
2025.000 0.190
2026.000 0.186
2027.000 0.180
2028.000 0.176
2029.000 0.175
2030.000 0.168
2031.000 0.170
2032.000 0.183
2033.000 0.182
2034.000 0.182
2035.000 0.180
2036.000 0.167
2037.000 0.163
2038.000 0.163
2039.000 0.151
2040.000 0.150
2041.000 0.145
2042.000 0.145
2043.000 0.149
2044.000 0.151
2045.000 0.149
2046.000 0.156
2047.000 0.172
2048.000 0.181
2049.000 0.189
2050.000 0.204
2051.000 0.202
2052.000 0.194
2053.000 0.202
2054.000 0.202
2055.000 0.204
2056.000 0.199
2057.000 0.182
2058.000 0.159
2059.000 0.152
2060.000 0.149
2061.000 0.150
2062.000 0.158
2063.000 0.166
2064.000 0.178
2065.000 0.191
2066.000 0.193
2067.000 0.208
2068.000 0.219
2069.000 0.227
2070.000 0.230
2071.000 0.220
2072.000 0.214
2073.000 0.197
2074.000 0.194
2075.000 0.200
2076.000 0.201
2077.000 0.199
2078.000 0.201
2079.000 0.205
2080.000 0.206
2081.000 0.205
2082.000 0.210
2083.000 0.211
2084.000 0.206
2085.000 0.207
2086.000 0.206
2087.000 0.204
2088.000 0.201
2089.000 0.198
2090.000 0.194
2091.000 0.191
2092.000 0.189
2093.000 0.187
2094.000 0.184
2095.000 0.184
2096.000 0.183
2097.000 0.186
2098.000 0.190
2099.000 0.197
2100.000 0.207
2101.000 0.214
2102.000 0.212
2103.000 0.212
2104.000 0.211
2105.000 0.203
2106.000 0.205
2107.000 0.216
2108.000 0.216
2109.000 0.214
2110.000 0.213
2111.000 0.203
2112.000 0.202
2113.000 0.209
2114.000 0.209
2115.000 0.205
2116.000 0.204
2117.000 0.198
2118.000 0.194
2119.000 0.198
2120.000 0.193
2121.000 0.189
2122.000 0.189
2123.000 0.189
2124.000 0.189
2125.000 0.193
2126.000 0.204
2127.000 0.209
2128.000 0.215
2129.000 0.218
2130.000 0.212
2131.000 0.212
2132.000 0.213
2133.000 0.215
2134.000 0.220
2135.000 0.223
2136.000 0.225
2137.000 0.225
2138.000 0.225
2139.000 0.223
2140.000 0.218
2141.000 0.214
2142.000 0.214
2143.000 0.213
2144.000 0.212
2145.000 0.216
2146.000 0.218
2147.000 0.216
2148.000 0.220
2149.000 0.232
2150.000 0.235
2151.000 0.237
2152.000 0.237
2153.000 0.225
2154.000 0.221
2155.000 0.216
2156.000 0.219
2157.000 0.228
2158.000 0.234
2159.000 0.240
2160.000 0.236
2161.000 0.232
2162.000 0.220
2163.000 0.217
2164.000 0.213
2165.000 0.213
2166.000 0.217
2167.000 0.221
2168.000 0.227
2169.000 0.231
2170.000 0.240
2171.000 0.243
2172.000 0.242
2173.000 0.239
2174.000 0.226
2175.000 0.219
2176.000 0.213
2177.000 0.212
2178.000 0.213
2179.000 0.219
2180.000 0.221
2181.000 0.224
2182.000 0.224
2183.000 0.221
2184.000 0.221
2185.000 0.225
2186.000 0.226
2187.000 0.225
2188.000 0.225
2189.000 0.220
2190.000 0.220
2191.000 0.222
2192.000 0.223
2193.000 0.221
2194.000 0.223
2195.000 0.227
2196.000 0.230
2197.000 0.238
2198.000 0.239
2199.000 0.234
2200.000 0.231
2201.000 0.227
2202.000 0.225
2203.000 0.224
2204.000 0.221
2205.000 0.216
2206.000 0.215
2207.000 0.215
2208.000 0.220
2209.000 0.223
2210.000 0.228
2211.000 0.228
2212.000 0.223
2213.000 0.226
2214.000 0.232
2215.000 0.232
2216.000 0.236
2217.000 0.234
2218.000 0.223
2219.000 0.216
2220.000 0.205
2221.000 0.203
2222.000 0.206
2223.000 0.211
2224.000 0.229
2225.000 0.236
2226.000 0.238
2227.000 0.237
2228.000 0.233
2229.000 0.230
2230.000 0.228
2231.000 0.230
2232.000 0.231
2233.000 0.230
2234.000 0.235
2235.000 0.233
2236.000 0.229
2237.000 0.229
2238.000 0.226
2239.000 0.217
2240.000 0.217
2241.000 0.221
2242.000 0.219
2243.000 0.218
2244.000 0.219
2245.000 0.216
2246.000 0.217
2247.000 0.228
2248.000 0.231
2249.000 0.233
2250.000 0.231
2251.000 0.218
2252.000 0.212
2253.000 0.202
2254.000 0.197
2255.000 0.199
2256.000 0.196
2257.000 0.191
2258.000 0.186
2259.000 0.182
2260.000 0.190
2261.000 0.203
2262.000 0.217
2263.000 0.222
2264.000 0.224
2265.000 0.234
2266.000 0.231
2267.000 0.234
2268.000 0.240
2269.000 0.234
2270.000 0.246
2271.000 0.258
2272.000 0.255
2273.000 0.252
2274.000 0.242
2275.000 0.231
2276.000 0.215
2277.000 0.205
2278.000 0.195
2279.000 0.195
2280.000 0.205
2281.000 0.207
2282.000 0.215
2283.000 0.224
2284.000 0.214
2285.000 0.212
2286.000 0.212
2287.000 0.209
2288.000 0.204
2289.000 0.200
2290.000 0.186
2291.000 0.179
2292.000 0.174
2293.000 0.175
2294.000 0.197
2295.000 0.208
2296.000 0.222
2297.000 0.226
2298.000 0.226
2299.000 0.215
2300.000 0.204
2301.000 0.219
2302.000 0.226
2303.000 0.228
2304.000 0.235
2305.000 0.252
2306.000 0.254
2307.000 0.243
2308.000 0.217
2309.000 0.217
2310.000 0.201
2311.000 0.201
2312.000 0.216
2313.000 0.221
2314.000 0.218
2315.000 0.232
2316.000 0.239
2317.000 0.226
2318.000 0.218
2319.000 0.221
2320.000 0.213
2321.000 0.210
2322.000 0.211
2323.000 0.199
2324.000 0.199
2325.000 0.189
2326.000 0.167
2327.000 0.117
2328.000 0.114
2329.000 0.142
2330.000 0.153
2331.000 0.175
2332.000 0.188
2333.000 0.186
2334.000 0.195
2335.000 0.222
2336.000 0.231
2337.000 0.199
2338.000 0.189
2339.000 0.170
2340.000 0.180
2341.000 0.180
2342.000 0.201
2343.000 0.134
2344.000 0.100
2345.000 0.108
2346.000 0.101
2347.000 0.129
2348.000 0.146
2349.000 0.169
2350.000 0.190
2351.000 0.235
2352.000 0.240
2353.000 0.199
2354.000 0.248
2355.000 0.244
2356.000 0.271
2357.000 0.294
2358.000 0.364
2359.000 0.381
2360.000 0.426
2361.000 0.380
2362.000 0.353
2363.000 0.228
2364.000 0.199
2365.000 0.162
2366.000 0.146
2367.000 0.190
2368.000 0.175
2369.000 0.168
2370.000 0.183
2371.000 0.156
2372.000 0.192
2373.000 0.191
2374.000 0.242
2375.000 0.197
2376.000 0.246
2377.000 0.211
2378.000 0.323
2379.000 0.473
2380.000 0.255
2381.000 0.207
2382.000 0.255
2383.000 0.419
2384.000 0.449
2385.000 0.247
2386.000 0.247
2387.000 0.201
2388.000 0.155
2389.000 0.220
2390.000 0.212
2391.000 0.241
2392.000 0.168
2393.000 0.151
2394.000 0.258
2395.000 0.240
2396.000 0.295
2397.000 0.275
2398.000 0.313
2399.000 0.255
2400.000 0.287
2401.000 0.160
2402.000 0.261
2403.000 0.341
2404.000 0.223
2405.000 0.215
2406.000 0.213
2407.000 0.200
2408.000 0.193
2409.000 0.287
2410.000 0.220
2411.000 0.334
2412.000 0.465
2413.000 0.249
2414.000 0.344
2415.000 0.256
2416.000 0.367
2417.000 0.539
2418.000 0.420
2419.000 0.357
2420.000 0.403
2421.000 0.379
2422.000 0.407
2423.000 0.444
2424.000 0.327
2425.000 0.392
2426.000 0.436
2427.000 0.328
2428.000 0.222
2429.000 0.162
2430.000 0.260
2431.000 0.380
2432.000 0.343
2433.000 0.318
2434.000 0.467
2435.000 0.438
2436.000 0.389
2437.000 0.295
2438.000 0.324
2439.000 0.339
2440.000 0.472
2441.000 0.486
2442.000 0.534
2443.000 0.398
2444.000 0.441
2445.000 0.467
2446.000 0.220
2447.000 0.250
2448.000 0.348
2449.000 0.267
2450.000 0.288
2451.000 0.419
2452.000 0.560
2453.000 0.340
2454.000 0.351
2455.000 0.408
2456.000 0.210
2457.000 0.710
2458.000 0.602
2459.000 0.496
2460.000 0.339
2461.000 0.176
2462.000 0.291
2463.000 0.384
2464.000 0.406
2465.000 0.474
2466.000 0.452
2467.000 0.606
2468.000 0.416
2469.000 0.304
2470.000 0.393
2471.000 0.283
2472.000 0.165
2473.000 0.146
2474.000 0.256
2475.000 0.480
2476.000 0.487
2477.000 0.730
2478.000 0.261
2479.000 0.699
2480.000 0.405
2481.000 0.221
2482.000 0.322
2483.000 0.299
2484.000 0.189
2485.000 0.307
2486.000 0.278
2487.000 0.175
2488.000 0.189
2489.000 0.207
2490.000 0.202
2491.000 0.420
2492.000 0.753
2493.000 0.311
2494.000 0.331
2495.000 0.433
2496.000 0.538
2497.000 0.226
2498.000 0.243
2499.000 0.358
2500.000 0.348
