391.000 0.026
392.000 0.025
393.000 0.029
394.000 0.028
395.000 0.031
396.000 0.031
397.000 0.027
398.000 0.032
399.000 0.031
400.000 0.028
401.000 0.026
402.000 0.025
403.000 0.027
404.000 0.028
405.000 0.028
406.000 0.027
407.000 0.028
408.000 0.030
409.000 0.030
410.000 0.029
411.000 0.030
412.000 0.032
413.000 0.031
414.000 0.030
415.000 0.029
416.000 0.028
417.000 0.029
418.000 0.030
419.000 0.030
420.000 0.029
421.000 0.030
422.000 0.030
423.000 0.029
424.000 0.031
425.000 0.032
426.000 0.032
427.000 0.031
428.000 0.029
429.000 0.029
430.000 0.029
431.000 0.031
432.000 0.031
433.000 0.031
434.000 0.032
435.000 0.030
436.000 0.031
437.000 0.032
438.000 0.032
439.000 0.032
440.000 0.032
441.000 0.031
442.000 0.032
443.000 0.032
444.000 0.032
445.000 0.033
446.000 0.032
447.000 0.031
448.000 0.032
449.000 0.031
450.000 0.031
451.000 0.032
452.000 0.033
453.000 0.031
454.000 0.032
455.000 0.033
456.000 0.032
457.000 0.032
458.000 0.032
459.000 0.032
460.000 0.033
461.000 0.033
462.000 0.033
463.000 0.034
464.000 0.032
465.000 0.034
466.000 0.034
467.000 0.032
468.000 0.033
469.000 0.033
470.000 0.033
471.000 0.035
472.000 0.035
473.000 0.034
474.000 0.033
475.000 0.033
476.000 0.034
477.000 0.034
478.000 0.033
479.000 0.034
480.000 0.035
481.000 0.035
482.000 0.035
483.000 0.035
484.000 0.035
485.000 0.034
486.000 0.034
487.000 0.035
488.000 0.036
489.000 0.035
490.000 0.034
491.000 0.036
492.000 0.038
493.000 0.038
494.000 0.037
495.000 0.037
496.000 0.037
497.000 0.037
498.000 0.036
499.000 0.036
500.000 0.038
501.000 0.039
502.000 0.038
503.000 0.038
504.000 0.041
505.000 0.040
506.000 0.040
507.000 0.041
508.000 0.041
509.000 0.042
510.000 0.042
511.000 0.042
512.000 0.043
513.000 0.045
514.000 0.046
515.000 0.047
516.000 0.049
517.000 0.050
518.000 0.051
519.000 0.052
520.000 0.053
521.000 0.054
522.000 0.055
523.000 0.056
524.000 0.057
525.000 0.058
526.000 0.061
527.000 0.063
528.000 0.064
529.000 0.064
530.000 0.064
531.000 0.066
532.000 0.067
533.000 0.068
534.000 0.068
535.000 0.069
536.000 0.070
537.000 0.070
538.000 0.070
539.000 0.071
540.000 0.070
541.000 0.071
542.000 0.072
543.000 0.072
544.000 0.072
545.000 0.072
546.000 0.073
547.000 0.073
548.000 0.073
549.000 0.073
550.000 0.074
551.000 0.074
552.000 0.074
553.000 0.074
554.000 0.074
555.000 0.074
556.000 0.074
557.000 0.074
558.000 0.073
559.000 0.074
560.000 0.074
561.000 0.073
562.000 0.072
563.000 0.071
564.000 0.070
565.000 0.070
566.000 0.070
567.000 0.069
568.000 0.068
569.000 0.069
570.000 0.068
571.000 0.066
572.000 0.065
573.000 0.065
574.000 0.065
575.000 0.064
576.000 0.063
577.000 0.063
578.000 0.063
579.000 0.063
580.000 0.063
581.000 0.062
582.000 0.061
583.000 0.061
584.000 0.061
585.000 0.061
586.000 0.060
587.000 0.060
588.000 0.060
589.000 0.060
590.000 0.060
591.000 0.060
592.000 0.059
593.000 0.059
594.000 0.059
595.000 0.059
596.000 0.059
597.000 0.058
598.000 0.059
599.000 0.059
600.000 0.059
601.000 0.059
602.000 0.059
603.000 0.058
604.000 0.058
605.000 0.059
606.000 0.059
607.000 0.059
608.000 0.059
609.000 0.059
610.000 0.058
611.000 0.057
612.000 0.057
613.000 0.056
614.000 0.057
615.000 0.057
616.000 0.057
617.000 0.056
618.000 0.056
619.000 0.056
620.000 0.057
621.000 0.056
622.000 0.055
623.000 0.057
624.000 0.057
625.000 0.057
626.000 0.056
627.000 0.056
628.000 0.057
629.000 0.058
630.000 0.056
631.000 0.057
632.000 0.057
633.000 0.057
634.000 0.057
635.000 0.058
636.000 0.058
637.000 0.058
638.000 0.057
639.000 0.056
640.000 0.055
641.000 0.056
642.000 0.056
643.000 0.056
644.000 0.055
645.000 0.056
646.000 0.056
647.000 0.055
648.000 0.054
649.000 0.055
650.000 0.054
651.000 0.054
652.000 0.054
653.000 0.056
654.000 0.056
655.000 0.055
656.000 0.055
657.000 0.055
658.000 0.055
659.000 0.055
660.000 0.055
661.000 0.056
662.000 0.056
663.000 0.055
664.000 0.055
665.000 0.056
666.000 0.056
667.000 0.056
668.000 0.055
669.000 0.055
670.000 0.056
671.000 0.056
672.000 0.057
673.000 0.058
674.000 0.059
675.000 0.058
676.000 0.058
677.000 0.058
678.000 0.060
679.000 0.060
680.000 0.059
681.000 0.060
682.000 0.061
683.000 0.062
684.000 0.062
685.000 0.063
686.000 0.065
687.000 0.067
688.000 0.069
689.000 0.069
690.000 0.069
691.000 0.071
692.000 0.074
693.000 0.076
694.000 0.079
695.000 0.084
696.000 0.086
697.000 0.089
698.000 0.093
699.000 0.097
700.000 0.100
701.000 0.104
702.000 0.108
703.000 0.112
704.000 0.116
705.000 0.120
706.000 0.123
707.000 0.127
708.000 0.131
709.000 0.134
710.000 0.138
711.000 0.142
712.000 0.145
713.000 0.148
714.000 0.151
715.000 0.155
716.000 0.158
717.000 0.161
718.000 0.165
719.000 0.168
720.000 0.171
721.000 0.175
722.000 0.177
723.000 0.179
724.000 0.182
725.000 0.185
726.000 0.188
727.000 0.190
728.000 0.193
729.000 0.195
730.000 0.197
731.000 0.200
732.000 0.202
733.000 0.204
734.000 0.206
735.000 0.208
736.000 0.210
737.000 0.212
738.000 0.214
739.000 0.215
740.000 0.217
741.000 0.218
742.000 0.220
743.000 0.221
744.000 0.223
745.000 0.224
746.000 0.225
747.000 0.226
748.000 0.227
749.000 0.228
750.000 0.229
751.000 0.229
752.000 0.230
753.000 0.231
754.000 0.232
755.000 0.232
756.000 0.233
757.000 0.234
758.000 0.234
759.000 0.234
760.000 0.234
761.000 0.235
762.000 0.234
763.000 0.234
764.000 0.235
765.000 0.237
766.000 0.237
767.000 0.238
768.000 0.239
769.000 0.240
770.000 0.240
771.000 0.241
772.000 0.241
773.000 0.242
774.000 0.242
775.000 0.243
776.000 0.243
777.000 0.244
778.000 0.244
779.000 0.245
780.000 0.245
781.000 0.245
782.000 0.246
783.000 0.246
784.000 0.246
785.000 0.247
786.000 0.247
787.000 0.247
788.000 0.248
789.000 0.248
790.000 0.248
791.000 0.249
792.000 0.249
793.000 0.249
794.000 0.250
795.000 0.250
796.000 0.251
797.000 0.251
798.000 0.251
799.000 0.252
800.000 0.252
801.000 0.252
802.000 0.253
803.000 0.253
804.000 0.254
805.000 0.255
806.000 0.255
807.000 0.255
808.000 0.255
809.000 0.256
810.000 0.256
811.000 0.256
812.000 0.256
813.000 0.256
814.000 0.255
815.000 0.255
816.000 0.256
817.000 0.256
818.000 0.257
819.000 0.258
820.000 0.258
821.000 0.258
822.000 0.259
823.000 0.260
824.000 0.260
825.000 0.261
826.000 0.261
827.000 0.261
828.000 0.262
829.000 0.262
830.000 0.263
831.000 0.263
832.000 0.264
833.000 0.264
834.000 0.265
835.000 0.266
836.000 0.266
837.000 0.267
838.000 0.267
839.000 0.268
840.000 0.268
841.000 0.269
842.000 0.269
843.000 0.270
844.000 0.270
845.000 0.270
846.000 0.271
847.000 0.271
848.000 0.272
849.000 0.273
850.000 0.273
851.000 0.273
852.000 0.273
853.000 0.274
854.000 0.275
855.000 0.275
856.000 0.275
857.000 0.275
858.000 0.275
859.000 0.276
860.000 0.276
861.000 0.277
862.000 0.277
863.000 0.277
864.000 0.277
865.000 0.278
866.000 0.279
867.000 0.279
868.000 0.279
869.000 0.279
870.000 0.280
871.000 0.280
872.000 0.280
873.000 0.281
874.000 0.281
875.000 0.281
876.000 0.281
877.000 0.282
878.000 0.282
879.000 0.282
880.000 0.283
881.000 0.283
882.000 0.283
883.000 0.283
884.000 0.284
885.000 0.284
886.000 0.285
887.000 0.285
888.000 0.286
889.000 0.286
890.000 0.286
891.000 0.285
892.000 0.285
893.000 0.286
894.000 0.285
895.000 0.285
896.000 0.286
897.000 0.286
898.000 0.285
899.000 0.285
900.000 0.285
901.000 0.286
902.000 0.286
903.000 0.285
904.000 0.286
905.000 0.286
906.000 0.287
907.000 0.288
908.000 0.288
909.000 0.288
910.000 0.288
911.000 0.287
912.000 0.288
913.000 0.288
914.000 0.288
915.000 0.288
916.000 0.288
917.000 0.289
918.000 0.290
919.000 0.291
920.000 0.290
921.000 0.290
922.000 0.291
923.000 0.291
924.000 0.290
925.000 0.290
926.000 0.290
927.000 0.289
928.000 0.289
929.000 0.289
930.000 0.288
931.000 0.284
932.000 0.282
933.000 0.285
934.000 0.285
935.000 0.280
936.000 0.278
937.000 0.280
938.000 0.280
939.000 0.278
940.000 0.281
941.000 0.282
942.000 0.282
943.000 0.283
944.000 0.283
945.000 0.287
946.000 0.286
947.000 0.281
948.000 0.284
949.000 0.283
950.000 0.282
951.000 0.284
952.000 0.283
953.000 0.282
954.000 0.284
955.000 0.287
956.000 0.283
957.000 0.283
958.000 0.288
959.000 0.292
960.000 0.288
961.000 0.287
962.000 0.287
963.000 0.289
964.000 0.295
965.000 0.295
966.000 0.294
967.000 0.296
968.000 0.293
969.000 0.294
970.000 0.297
971.000 0.298
972.000 0.299
973.000 0.298
974.000 0.298
975.000 0.300
976.000 0.300
977.000 0.299
978.000 0.299
979.000 0.302
980.000 0.303
981.000 0.303
982.000 0.303
983.000 0.304
984.000 0.304
985.000 0.304
986.000 0.303
987.000 0.303
988.000 0.306
989.000 0.306
990.000 0.306
991.000 0.307
992.000 0.307
993.000 0.307
994.000 0.308
995.000 0.310
996.000 0.310
997.000 0.309
998.000 0.309
999.000 0.311
1000.000 0.312
1001.000 0.317
1002.000 0.317
1003.000 0.318
1004.000 0.318
1005.000 0.318
1006.000 0.320
1007.000 0.321
1008.000 0.321
1009.000 0.321
1010.000 0.322
1011.000 0.322
1012.000 0.322
1013.000 0.322
1014.000 0.322
1015.000 0.323
1016.000 0.324
1017.000 0.324
1018.000 0.325
1019.000 0.326
1020.000 0.325
1021.000 0.325
1022.000 0.325
1023.000 0.326
1024.000 0.327
1025.000 0.327
1026.000 0.327
1027.000 0.327
1028.000 0.328
1029.000 0.329
1030.000 0.329
1031.000 0.330
1032.000 0.330
1033.000 0.329
1034.000 0.329
1035.000 0.329
1036.000 0.329
1037.000 0.330
1038.000 0.331
1039.000 0.331
1040.000 0.331
1041.000 0.332
1042.000 0.331
1043.000 0.331
1044.000 0.332
1045.000 0.332
1046.000 0.332
1047.000 0.333
1048.000 0.334
1049.000 0.334
1050.000 0.333
1051.000 0.334
1052.000 0.334
1053.000 0.335
1054.000 0.336
1055.000 0.336
1056.000 0.336
1057.000 0.336
1058.000 0.335
1059.000 0.335
1060.000 0.336
1061.000 0.337
1062.000 0.337
1063.000 0.337
1064.000 0.337
1065.000 0.337
1066.000 0.337
1067.000 0.338
1068.000 0.338
1069.000 0.339
1070.000 0.339
1071.000 0.339
1072.000 0.339
1073.000 0.340
1074.000 0.340
1075.000 0.340
1076.000 0.341
1077.000 0.341
1078.000 0.341
1079.000 0.341
1080.000 0.342
1081.000 0.342
1082.000 0.342
1083.000 0.343
1084.000 0.343
1085.000 0.343
1086.000 0.342
1087.000 0.343
1088.000 0.343
1089.000 0.343
1090.000 0.343
1091.000 0.344
1092.000 0.344
1093.000 0.344
1094.000 0.344
1095.000 0.344
1096.000 0.343
1097.000 0.343
1098.000 0.343
1099.000 0.342
1100.000 0.342
1101.000 0.342
1102.000 0.342
1103.000 0.343
1104.000 0.342
1105.000 0.341
1106.000 0.342
1107.000 0.342
1108.000 0.342
1109.000 0.343
1110.000 0.343
1111.000 0.341
1112.000 0.339
1113.000 0.340
1114.000 0.340
1115.000 0.338
1116.000 0.337
1117.000 0.336
1118.000 0.335
1119.000 0.334
1120.000 0.334
1121.000 0.338
1122.000 0.339
1123.000 0.339
1124.000 0.337
1125.000 0.335
1126.000 0.327
1127.000 0.327
1128.000 0.331
1129.000 0.337
1130.000 0.340
1131.000 0.342
1132.000 0.342
1133.000 0.340
1134.000 0.340
1135.000 0.339
1136.000 0.340
1137.000 0.339
1138.000 0.339
1139.000 0.338
1140.000 0.337
1141.000 0.333
1142.000 0.333
1143.000 0.334
1144.000 0.334
1145.000 0.338
1146.000 0.338
1147.000 0.335
1148.000 0.333
1149.000 0.332
1150.000 0.332
1151.000 0.332
1152.000 0.333
1153.000 0.333
1154.000 0.334
1155.000 0.335
1156.000 0.335
1157.000 0.335
1158.000 0.334
1159.000 0.334
1160.000 0.335
1161.000 0.337
1162.000 0.340
1163.000 0.341
1164.000 0.341
1165.000 0.342
1166.000 0.341
1167.000 0.341
1168.000 0.341
1169.000 0.341
1170.000 0.342
1171.000 0.343
1172.000 0.344
1173.000 0.345
1174.000 0.345
1175.000 0.345
1176.000 0.345
1177.000 0.344
1178.000 0.344
1179.000 0.344
1180.000 0.344
1181.000 0.345
1182.000 0.345
1183.000 0.344
1184.000 0.344
1185.000 0.344
1186.000 0.345
1187.000 0.346
1188.000 0.346
1189.000 0.346
1190.000 0.347
1191.000 0.347
1192.000 0.347
1193.000 0.348
1194.000 0.349
1195.000 0.349
1196.000 0.350
1197.000 0.350
1198.000 0.350
1199.000 0.350
1200.000 0.351
1201.000 0.351
1202.000 0.352
1203.000 0.352
1204.000 0.352
1205.000 0.353
1206.000 0.353
1207.000 0.353
1208.000 0.353
1209.000 0.354
1210.000 0.354
1211.000 0.354
1212.000 0.355
1213.000 0.355
1214.000 0.355
1215.000 0.355
1216.000 0.356
1217.000 0.357
1218.000 0.357
1219.000 0.358
1220.000 0.359
1221.000 0.359
1222.000 0.359
1223.000 0.359
1224.000 0.360
1225.000 0.361
1226.000 0.361
1227.000 0.362
1228.000 0.362
1229.000 0.362
1230.000 0.363
1231.000 0.363
1232.000 0.364
1233.000 0.365
1234.000 0.365
1235.000 0.365
1236.000 0.365
1237.000 0.366
1238.000 0.367
1239.000 0.367
1240.000 0.368
1241.000 0.368
1242.000 0.369
1243.000 0.369
1244.000 0.369
1245.000 0.370
1246.000 0.370
1247.000 0.370
1248.000 0.370
1249.000 0.370
1250.000 0.370
1251.000 0.371
1252.000 0.371
1253.000 0.372
1254.000 0.372
1255.000 0.372
1256.000 0.372
1257.000 0.372
1258.000 0.372
1259.000 0.372
1260.000 0.373
1261.000 0.373
1262.000 0.373
1263.000 0.373
1264.000 0.373
1265.000 0.373
1266.000 0.373
1267.000 0.374
1268.000 0.374
1269.000 0.374
1270.000 0.374
1271.000 0.375
1272.000 0.375
1273.000 0.375
1274.000 0.376
1275.000 0.377
1276.000 0.378
1277.000 0.379
1278.000 0.379
1279.000 0.379
1280.000 0.379
1281.000 0.379
1282.000 0.380
1283.000 0.380
1284.000 0.380
1285.000 0.381
1286.000 0.381
1287.000 0.381
1288.000 0.382
1289.000 0.383
1290.000 0.383
1291.000 0.383
1292.000 0.382
1293.000 0.381
1294.000 0.381
1295.000 0.380
1296.000 0.379
1297.000 0.379
1298.000 0.379
1299.000 0.379
1300.000 0.379
1301.000 0.380
1302.000 0.380
1303.000 0.380
1304.000 0.380
1305.000 0.380
1306.000 0.380
1307.000 0.379
1308.000 0.379
1309.000 0.378
1310.000 0.378
1311.000 0.378
1312.000 0.378
1313.000 0.377
1314.000 0.377
1315.000 0.375
1316.000 0.375
1317.000 0.375
1318.000 0.375
1319.000 0.375
1320.000 0.376
1321.000 0.375
1322.000 0.373
1323.000 0.372
1324.000 0.370
1325.000 0.369
1326.000 0.370
1327.000 0.369
1328.000 0.367
1329.000 0.366
1330.000 0.364
1331.000 0.363
1332.000 0.365
1333.000 0.364
1334.000 0.362
1335.000 0.361
1336.000 0.360
1337.000 0.358
1338.000 0.359
1339.000 0.358
1340.000 0.356
1341.000 0.355
1342.000 0.357
1343.000 0.357
1344.000 0.360
1345.000 0.362
1346.000 0.362
1347.000 0.361
1348.000 0.360
1349.000 0.358
1350.000 0.357
1351.000 0.350
1352.000 0.364
1353.000 0.435
1354.000 0.535
1355.000 0.557
1356.000 0.328
1357.000 0.258
1358.000 0.542
1359.000 0.771
1360.000 0.708
1361.000 0.544
1362.000 0.442
1363.000 0.319
1364.000 0.312
1365.000 0.383
1366.000 0.495
1367.000 0.731
1368.000 0.604
1369.000 0.477
1370.000 0.479
1371.000 0.171
1372.000 0.230
1373.000 0.225
1374.000 0.357
1375.000 0.489
1376.000 0.621
1377.000 0.663
1378.000 0.705
1379.000 0.747
1380.000 0.789
1381.000 0.831
1382.000 0.614
1383.000 0.651
1384.000 0.755
1385.000 0.859
1386.000 0.595
1387.000 0.499
1388.000 0.339
1389.000 0.779
1390.000 0.774
1391.000 0.770
1392.000 0.705
1393.000 0.641
1394.000 0.577
1395.000 0.507
1396.000 0.695
1397.000 0.781
1398.000 0.230
1399.000 0.967
1400.000 0.796
1401.000 0.625
1402.000 0.454
1403.000 0.526
1404.000 0.726
1405.000 0.509
1406.000 0.377
1407.000 0.356
1408.000 0.446
1409.000 0.537
1410.000 0.627
1411.000 0.640
1412.000 0.652
1413.000 0.665
1414.000 0.080
1415.000 0.160
1416.000 0.240
1417.000 0.925
1418.000 0.981
1419.000 0.725
1420.000 0.469
1421.000 0.345
1422.000 0.435
1423.000 0.477
1424.000 0.485
1425.000 0.616
1426.000 0.451
1427.000 0.636
1428.000 0.701
1429.000 0.682
1430.000 0.511
1431.000 0.594
1432.000 0.477
1433.000 0.434
1434.000 0.393
1435.000 0.328
1436.000 0.284
1437.000 0.310
1438.000 0.274
1439.000 0.252
1440.000 0.282
1441.000 0.190
1442.000 0.120
1443.000 0.113
1444.000 0.125
1445.000 0.107
1446.000 0.129
1447.000 0.153
1448.000 0.161
1449.000 0.145
1450.000 0.154
1451.000 0.170
1452.000 0.171
1453.000 0.184
1454.000 0.216
1455.000 0.218
1456.000 0.209
1457.000 0.206
1458.000 0.194
1459.000 0.191
1460.000 0.190
1461.000 0.194
1462.000 0.197
1463.000 0.213
1464.000 0.254
1465.000 0.279
1466.000 0.328
1467.000 0.335
1468.000 0.296
1469.000 0.279
1470.000 0.243
1471.000 0.232
1472.000 0.232
1473.000 0.234
1474.000 0.256
1475.000 0.250
1476.000 0.231
1477.000 0.223
1478.000 0.206
1479.000 0.199
1480.000 0.200
1481.000 0.201
1482.000 0.204
1483.000 0.205
1484.000 0.209
1485.000 0.211
1486.000 0.209
1487.000 0.211
1488.000 0.217
1489.000 0.219
1490.000 0.219
1491.000 0.219
1492.000 0.219
1493.000 0.217
1494.000 0.210
1495.000 0.211
1496.000 0.215
1497.000 0.218
1498.000 0.228
1499.000 0.236
1500.000 0.235
1501.000 0.234
1502.000 0.230
1503.000 0.226
1504.000 0.229
1505.000 0.231
1506.000 0.233
1507.000 0.237
1508.000 0.237
1509.000 0.234
1510.000 0.235
1511.000 0.238
1512.000 0.241
1513.000 0.246
1514.000 0.247
1515.000 0.246
1516.000 0.246
1517.000 0.245
1518.000 0.244
1519.000 0.242
1520.000 0.243
1521.000 0.244
1522.000 0.246
1523.000 0.251
1524.000 0.253
1525.000 0.255
1526.000 0.257
1527.000 0.259
1528.000 0.259
1529.000 0.259
1530.000 0.260
1531.000 0.260
1532.000 0.261
1533.000 0.263
1534.000 0.265
1535.000 0.266
1536.000 0.267
1537.000 0.266
1538.000 0.268
1539.000 0.271
1540.000 0.273
1541.000 0.275
1542.000 0.276
1543.000 0.277
1544.000 0.278
1545.000 0.277
1546.000 0.278
1547.000 0.279
1548.000 0.279
1549.000 0.280
1550.000 0.280
1551.000 0.280
1552.000 0.281
1553.000 0.284
1554.000 0.285
1555.000 0.287
1556.000 0.287
1557.000 0.284
1558.000 0.284
1559.000 0.285
1560.000 0.285
1561.000 0.286
1562.000 0.286
1563.000 0.286
1564.000 0.286
1565.000 0.284
1566.000 0.285
1567.000 0.287
1568.000 0.288
1569.000 0.290
1570.000 0.291
1571.000 0.288
1572.000 0.289
1573.000 0.292
1574.000 0.293
1575.000 0.297
1576.000 0.299
1577.000 0.298
1578.000 0.299
1579.000 0.302
1580.000 0.303
1581.000 0.304
1582.000 0.305
1583.000 0.304
1584.000 0.304
1585.000 0.305
1586.000 0.305
1587.000 0.305
1588.000 0.306
1589.000 0.308
1590.000 0.310
1591.000 0.312
1592.000 0.313
1593.000 0.313
1594.000 0.313
1595.000 0.313
1596.000 0.313
1597.000 0.312
1598.000 0.313
1599.000 0.315
1600.000 0.316
1601.000 0.317
1602.000 0.317
1603.000 0.314
1604.000 0.313
1605.000 0.313
1606.000 0.313
1607.000 0.314
1608.000 0.315
1609.000 0.316
1610.000 0.317
1611.000 0.317
1612.000 0.318
1613.000 0.318
1614.000 0.319
1615.000 0.319
1616.000 0.319
1617.000 0.318
1618.000 0.320
1619.000 0.323
1620.000 0.325
1621.000 0.328
1622.000 0.330
1623.000 0.330
1624.000 0.329
1625.000 0.327
1626.000 0.326
1627.000 0.325
1628.000 0.325
1629.000 0.327
1630.000 0.328
1631.000 0.328
1632.000 0.328
1633.000 0.328
1634.000 0.328
1635.000 0.327
1636.000 0.328
1637.000 0.331
1638.000 0.332
1639.000 0.334
1640.000 0.335
1641.000 0.332
1642.000 0.331
1643.000 0.331
1644.000 0.330
1645.000 0.331
1646.000 0.331
1647.000 0.331
1648.000 0.332
1649.000 0.333
1650.000 0.334
1651.000 0.337
1652.000 0.337
1653.000 0.336
1654.000 0.335
1655.000 0.335
1656.000 0.334
1657.000 0.334
1658.000 0.334
1659.000 0.333
1660.000 0.332
1661.000 0.333
1662.000 0.333
1663.000 0.335
1664.000 0.336
1665.000 0.338
1666.000 0.338
1667.000 0.337
1668.000 0.336
1669.000 0.335
1670.000 0.335
1671.000 0.334
1672.000 0.335
1673.000 0.336
1674.000 0.336
1675.000 0.337
1676.000 0.338
1677.000 0.337
1678.000 0.336
1679.000 0.335
1680.000 0.335
1681.000 0.335
1682.000 0.335
1683.000 0.335
1684.000 0.336
1685.000 0.334
1686.000 0.334
1687.000 0.337
1688.000 0.336
1689.000 0.332
1690.000 0.331
1691.000 0.329
1692.000 0.328
1693.000 0.329
1694.000 0.330
1695.000 0.332
1696.000 0.333
1697.000 0.336
1698.000 0.336
1699.000 0.334
1700.000 0.333
1701.000 0.332
1702.000 0.330
1703.000 0.329
1704.000 0.330
1705.000 0.330
1706.000 0.332
1707.000 0.335
1708.000 0.336
1709.000 0.335
1710.000 0.334
1711.000 0.330
1712.000 0.329
1713.000 0.329
1714.000 0.329
1715.000 0.331
1716.000 0.331
1717.000 0.329
1718.000 0.327
1719.000 0.324
1720.000 0.322
1721.000 0.321
1722.000 0.322
1723.000 0.323
1724.000 0.321
1725.000 0.320
1726.000 0.320
1727.000 0.320
1728.000 0.322
1729.000 0.321
1730.000 0.320
1731.000 0.320
1732.000 0.318
1733.000 0.322
1734.000 0.323
1735.000 0.321
1736.000 0.320
1737.000 0.319
1738.000 0.319
1739.000 0.319
1740.000 0.317
1741.000 0.316
1742.000 0.315
1743.000 0.315
1744.000 0.317
1745.000 0.319
1746.000 0.324
1747.000 0.326
1748.000 0.328
1749.000 0.328
1750.000 0.323
1751.000 0.322
1752.000 0.322
1753.000 0.320
1754.000 0.318
1755.000 0.317
1756.000 0.315
1757.000 0.317
1758.000 0.325
1759.000 0.327
1760.000 0.326
1761.000 0.321
1762.000 0.317
1763.000 0.316
1764.000 0.313
1765.000 0.309
1766.000 0.309
1767.000 0.308
1768.000 0.308
1769.000 0.311
1770.000 0.312
1771.000 0.317
1772.000 0.315
1773.000 0.311
1774.000 0.308
1775.000 0.300
1776.000 0.297
1777.000 0.301
1778.000 0.305
1779.000 0.305
1780.000 0.304
1781.000 0.302
1782.000 0.298
1783.000 0.297
1784.000 0.302
1785.000 0.311
1786.000 0.313
1787.000 0.316
1788.000 0.316
1789.000 0.313
1790.000 0.317
1791.000 0.328
1792.000 0.340
1793.000 0.335
1794.000 0.332
1795.000 0.320
1796.000 0.306
1797.000 0.304
1798.000 0.312
1799.000 0.358
1800.000 0.360
1801.000 0.495
1802.000 0.529
1803.000 0.566
1804.000 0.484
1805.000 0.478
1806.000 0.521
1807.000 0.457
1808.000 0.633
1809.000 0.562
1810.000 0.732
1811.000 0.537
1812.000 0.564
1813.000 0.590
1814.000 0.617
1815.000 0.644
1816.000 0.670
1817.000 0.697
1818.000 0.561
1819.000 0.598
1820.000 0.785
1821.000 0.927
1822.000 0.816
1823.000 0.569
1824.000 0.558
1825.000 0.685
1826.000 0.982
1827.000 0.826
1828.000 0.669
1829.000 0.513
1830.000 0.357
1831.000 0.201
1832.000 0.044
1833.000 0.940
1834.000 0.869
1835.000 0.799
1836.000 0.728
1837.000 0.657
1838.000 0.419
1839.000 0.699
1840.000 0.631
1841.000 0.407
1842.000 0.298
1843.000 0.350
1844.000 0.400
1845.000 0.388
1846.000 0.624
1847.000 0.605
1848.000 0.834
1849.000 0.914
1850.000 0.885
1851.000 0.781
1852.000 0.677
1853.000 0.573
1854.000 0.580
1855.000 0.425
1856.000 0.270
1857.000 0.577
1858.000 0.587
1859.000 0.398
1860.000 0.362
1861.000 0.326
1862.000 0.290
1863.000 0.255
1864.000 0.219
1865.000 0.183
1866.000 0.147
1867.000 0.783
1868.000 0.408
1869.000 0.652
1870.000 0.571
1871.000 0.558
1872.000 0.618
1873.000 0.512
1874.000 0.404
1875.000 0.479
1876.000 0.412
1877.000 0.281
1878.000 0.430
1879.000 0.563
1880.000 0.933
1881.000 0.911
1882.000 0.890
1883.000 0.869
1884.000 0.847
1885.000 0.826
1886.000 0.805
1887.000 0.783
1888.000 0.499
1889.000 0.532
1890.000 0.129
1891.000 0.244
1892.000 0.320
1893.000 0.397
1894.000 0.473
1895.000 0.549
1896.000 0.625
1897.000 0.702
1898.000 0.702
1899.000 0.702
1900.000 0.702
1901.000 0.702
1902.000 0.702
1903.000 0.702
1904.000 0.317
1905.000 0.413
1906.000 0.443
1907.000 0.431
1908.000 0.366
1909.000 0.474
1910.000 0.345
1911.000 0.558
1912.000 0.475
1913.000 0.501
1914.000 0.535
1915.000 0.579
1916.000 0.555
1917.000 0.562
1918.000 0.425
1919.000 0.499
1920.000 0.665
1921.000 0.734
1922.000 0.682
1923.000 0.482
1924.000 0.440
1925.000 0.422
1926.000 0.489
1927.000 0.400
1928.000 0.258
1929.000 0.466
1930.000 0.269
1931.000 0.250
1932.000 0.313
1933.000 0.432
1934.000 0.604
1935.000 0.233
1936.000 0.257
1937.000 0.336
1938.000 0.804
1939.000 0.772
1940.000 0.740
1941.000 0.708
1942.000 0.676
1943.000 0.644
1944.000 0.516
1945.000 0.487
1946.000 0.574
1947.000 0.421
1948.000 0.471
1949.000 0.660
1950.000 0.572
1951.000 0.428
1952.000 0.311
1953.000 0.295
1954.000 0.281
1955.000 0.304
1956.000 0.635
1957.000 0.550
1958.000 0.287
1959.000 0.416
1960.000 0.372
1961.000 0.420
1962.000 0.419
1963.000 0.536
1964.000 0.517
1965.000 0.411
1966.000 0.415
1967.000 0.427
1968.000 0.435
1969.000 0.396
1970.000 0.451
1971.000 0.419
1972.000 0.374
1973.000 0.446
1974.000 0.410
1975.000 0.395
1976.000 0.404
1977.000 0.393
1978.000 0.342
1979.000 0.342
1980.000 0.345
1981.000 0.287
1982.000 0.288
1983.000 0.279
1984.000 0.255
1985.000 0.264
1986.000 0.264
1987.000 0.258
1988.000 0.259
1989.000 0.269
1990.000 0.265
1991.000 0.242
1992.000 0.248
1993.000 0.270
1994.000 0.313
1995.000 0.371
1996.000 0.381
1997.000 0.359
1998.000 0.285
1999.000 0.233
2000.000 0.198
2001.000 0.175
2002.000 0.195
2003.000 0.228
2004.000 0.281
2005.000 0.318
2006.000 0.272
2007.000 0.283
2008.000 0.306
2009.000 0.358
2010.000 0.486
2011.000 0.437
2012.000 0.507
2013.000 0.351
2014.000 0.316
2015.000 0.400
2016.000 0.235
2017.000 0.307
2018.000 0.300
2019.000 0.244
2020.000 0.242
2021.000 0.226
2022.000 0.194
2023.000 0.214
2024.000 0.216
2025.000 0.198
2026.000 0.201
2027.000 0.202
2028.000 0.199
2029.000 0.194
2030.000 0.189
2031.000 0.191
2032.000 0.197
2033.000 0.199
2034.000 0.206
2035.000 0.218
2036.000 0.216
2037.000 0.204
2038.000 0.197
2039.000 0.172
2040.000 0.163
2041.000 0.151
2042.000 0.155
2043.000 0.186
2044.000 0.201
2045.000 0.217
2046.000 0.229
2047.000 0.239
2048.000 0.241
2049.000 0.225
2050.000 0.233
2051.000 0.227
2052.000 0.220
2053.000 0.243
2054.000 0.261
2055.000 0.274
2056.000 0.276
2057.000 0.269
2058.000 0.243
2059.000 0.230
2060.000 0.213
2061.000 0.210
2062.000 0.218
2063.000 0.220
2064.000 0.234
2065.000 0.232
2066.000 0.216
2067.000 0.198
2068.000 0.190
2069.000 0.195
2070.000 0.213
2071.000 0.228
2072.000 0.234
2073.000 0.239
2074.000 0.232
2075.000 0.206
2076.000 0.202
2077.000 0.201
2078.000 0.198
2079.000 0.207
2080.000 0.206
2081.000 0.193
2082.000 0.190
2083.000 0.188
2084.000 0.188
2085.000 0.193
2086.000 0.185
2087.000 0.185
2088.000 0.184
2089.000 0.189
2090.000 0.204
2091.000 0.207
2092.000 0.212
2093.000 0.210
2094.000 0.189
2095.000 0.185
2096.000 0.190
2097.000 0.190
2098.000 0.189
2099.000 0.203
2100.000 0.211
2101.000 0.203
2102.000 0.196
2103.000 0.191
2104.000 0.194
2105.000 0.198
2106.000 0.203
2107.000 0.219
2108.000 0.224
2109.000 0.221
2110.000 0.219
2111.000 0.212
2112.000 0.213
2113.000 0.218
2114.000 0.217
2115.000 0.219
2116.000 0.218
2117.000 0.205
2118.000 0.200
2119.000 0.199
2120.000 0.188
2121.000 0.189
2122.000 0.192
2123.000 0.191
2124.000 0.192
2125.000 0.193
2126.000 0.188
2127.000 0.188
2128.000 0.195
2129.000 0.196
2130.000 0.194
2131.000 0.194
2132.000 0.193
2133.000 0.196
2134.000 0.206
2135.000 0.211
2136.000 0.215
2137.000 0.219
2138.000 0.223
2139.000 0.231
2140.000 0.233
2141.000 0.234
2142.000 0.233
2143.000 0.224
2144.000 0.217
2145.000 0.211
2146.000 0.205
2147.000 0.196
2148.000 0.194
2149.000 0.199
2150.000 0.207
2151.000 0.226
2152.000 0.235
2153.000 0.242
2154.000 0.247
2155.000 0.242
2156.000 0.239
2157.000 0.251
2158.000 0.257
2159.000 0.262
2160.000 0.263
2161.000 0.257
2162.000 0.238
2163.000 0.234
2164.000 0.230
2165.000 0.231
2166.000 0.236
2167.000 0.243
2168.000 0.259
2169.000 0.264
2170.000 0.275
2171.000 0.275
2172.000 0.258
2173.000 0.249
2174.000 0.235
2175.000 0.230
2176.000 0.227
2177.000 0.235
2178.000 0.235
2179.000 0.235
2180.000 0.215
2181.000 0.201
2182.000 0.208
2183.000 0.209
2184.000 0.216
2185.000 0.247
2186.000 0.255
2187.000 0.248
2188.000 0.251
2189.000 0.252
2190.000 0.259
2191.000 0.277
2192.000 0.284
2193.000 0.285
2194.000 0.290
2195.000 0.296
2196.000 0.296
2197.000 0.305
2198.000 0.298
2199.000 0.271
2200.000 0.256
2201.000 0.241
2202.000 0.226
2203.000 0.217
2204.000 0.215
2205.000 0.214
2206.000 0.222
2207.000 0.229
2208.000 0.234
2209.000 0.235
2210.000 0.231
2211.000 0.229
2212.000 0.223
2213.000 0.225
2214.000 0.231
2215.000 0.235
2216.000 0.243
2217.000 0.246
2218.000 0.244
2219.000 0.243
2220.000 0.240
2221.000 0.243
2222.000 0.249
2223.000 0.256
2224.000 0.272
2225.000 0.278
2226.000 0.279
2227.000 0.279
2228.000 0.279
2229.000 0.285
2230.000 0.291
2231.000 0.284
2232.000 0.260
2233.000 0.240
2234.000 0.224
2235.000 0.222
2236.000 0.226
2237.000 0.226
2238.000 0.226
2239.000 0.223
2240.000 0.224
2241.000 0.224
2242.000 0.225
2243.000 0.232
2244.000 0.228
2245.000 0.224
2246.000 0.216
2247.000 0.197
2248.000 0.186
2249.000 0.173
2250.000 0.169
2251.000 0.170
2252.000 0.171
2253.000 0.178
2254.000 0.185
2255.000 0.201
2256.000 0.208
2257.000 0.215
2258.000 0.215
2259.000 0.208
2260.000 0.197
2261.000 0.203
2262.000 0.216
2263.000 0.224
2264.000 0.228
2265.000 0.225
2266.000 0.209
2267.000 0.203
2268.000 0.216
2269.000 0.223
2270.000 0.238
2271.000 0.241
2272.000 0.227
2273.000 0.224
2274.000 0.213
2275.000 0.212
2276.000 0.226
2277.000 0.233
2278.000 0.243
2279.000 0.248
2280.000 0.258
2281.000 0.247
2282.000 0.212
2283.000 0.195
2284.000 0.166
2285.000 0.160
2286.000 0.185
2287.000 0.193
2288.000 0.201
2289.000 0.205
2290.000 0.184
2291.000 0.181
2292.000 0.191
2293.000 0.195
2294.000 0.213
2295.000 0.224
2296.000 0.228
2297.000 0.237
2298.000 0.240
2299.000 0.220
2300.000 0.223
2301.000 0.214
2302.000 0.169
2303.000 0.151
2304.000 0.125
2305.000 0.103
2306.000 0.128
2307.000 0.145
2308.000 0.135
2309.000 0.119
2310.000 0.105
2311.000 0.099
2312.000 0.124
2313.000 0.164
2314.000 0.182
2315.000 0.201
2316.000 0.202
2317.000 0.192
2318.000 0.194
2319.000 0.187
2320.000 0.189
2321.000 0.148
2322.000 0.183
2323.000 0.187
2324.000 0.138
2325.000 0.126
2326.000 0.113
2327.000 0.081
2328.000 0.084
2329.000 0.126
2330.000 0.167
2331.000 0.264
2332.000 0.297
2333.000 0.269
2334.000 0.290
2335.000 0.386
2336.000 0.363
2337.000 0.310
2338.000 0.289
2339.000 0.202
2340.000 0.182
2341.000 0.169
2342.000 0.155
2343.000 0.209
2344.000 0.196
2345.000 0.124
2346.000 0.123
2347.000 0.175
2348.000 0.198
2349.000 0.197
2350.000 0.233
2351.000 0.252
2352.000 0.252
2353.000 0.256
2354.000 0.264
2355.000 0.230
2356.000 0.269
2357.000 0.321
2358.000 0.403
2359.000 0.207
2360.000 0.270
2361.000 0.285
2362.000 0.359
2363.000 0.204
2364.000 0.054
2365.000 0.082
2366.000 0.045
2367.000 0.083
2368.000 0.114
2369.000 0.086
2370.000 0.050
2371.000 0.048
2372.000 0.039
2373.000 0.150
2374.000 0.308
2375.000 0.448
2376.000 0.427
2377.000 0.376
2378.000 0.229
2379.000 0.142
2380.000 0.179
2381.000 0.166
2382.000 0.215
2383.000 0.254
2384.000 0.261
2385.000 0.211
2386.000 0.184
2387.000 0.340
2388.000 0.270
2389.000 0.210
2390.000 0.259
2391.000 0.228
2392.000 0.132
2393.000 0.123
2394.000 0.168
2395.000 0.212
2396.000 0.369
2397.000 0.313
2398.000 0.673
2399.000 0.592
2400.000 0.400
2401.000 0.406
2402.000 0.537
2403.000 0.300
2404.000 0.293
2405.000 0.182
2406.000 0.165
2407.000 0.494
2408.000 0.554
2409.000 0.994
2410.000 0.443
2411.000 0.159
2412.000 0.321
2413.000 0.200
2414.000 0.260
2415.000 0.188
2416.000 0.375
2417.000 0.348
2418.000 0.188
2419.000 0.028
2420.000 0.314
2421.000 0.407
2422.000 0.500
2423.000 0.552
2424.000 0.416
2425.000 0.546
2426.000 0.354
2427.000 0.307
2428.000 0.227
2429.000 0.217
2430.000 0.212
2431.000 0.782
2432.000 0.548
2433.000 0.618
2434.000 0.688
2435.000 0.471
2436.000 0.688
2437.000 0.884
2438.000 0.597
2439.000 0.310
2440.000 0.207
2441.000 0.862
2442.000 0.662
2443.000 0.462
2444.000 0.120
2445.000 0.063
2446.000 0.194
2447.000 0.379
2448.000 0.564
2449.000 0.018
2450.000 0.473
2451.000 0.427
2452.000 0.280
2453.000 0.356
2454.000 0.760
2455.000 0.804
2456.000 0.848
2457.000 0.891
2458.000 0.754
2459.000 0.621
2460.000 0.543
2461.000 0.304
2462.000 0.372
2463.000 0.447
2464.000 0.475
2465.000 0.467
2466.000 0.460
2467.000 0.452
2468.000 0.445
2469.000 0.437
2470.000 0.430
2471.000 0.294
2472.000 0.129
2473.000 0.246
2474.000 0.242
2475.000 0.210
2476.000 0.277
2477.000 0.399
2478.000 0.129
2479.000 0.165
2480.000 0.325
2481.000 0.592
2482.000 0.540
2483.000 0.093
2484.000 0.014
2485.000 0.077
2486.000 0.140
2487.000 0.203
2488.000 0.266
2489.000 0.254
2490.000 0.242
2491.000 0.231
2492.000 0.873
2493.000 0.729
2494.000 0.585
2495.000 0.343
2496.000 0.185
2497.000 0.189
2498.000 0.194
2499.000 0.951
2500.000 0.951
