391.000 0.026
392.000 0.028
393.000 0.031
394.000 0.029
395.000 0.028
396.000 0.029
397.000 0.030
398.000 0.035
399.000 0.034
400.000 0.031
401.000 0.032
402.000 0.028
403.000 0.027
404.000 0.028
405.000 0.029
406.000 0.030
407.000 0.031
408.000 0.033
409.000 0.032
410.000 0.032
411.000 0.033
412.000 0.032
413.000 0.032
414.000 0.033
415.000 0.034
416.000 0.032
417.000 0.032
418.000 0.032
419.000 0.032
420.000 0.033
421.000 0.034
422.000 0.033
423.000 0.033
424.000 0.033
425.000 0.033
426.000 0.032
427.000 0.033
428.000 0.034
429.000 0.034
430.000 0.033
431.000 0.035
432.000 0.035
433.000 0.035
434.000 0.035
435.000 0.032
436.000 0.033
437.000 0.036
438.000 0.035
439.000 0.034
440.000 0.034
441.000 0.034
442.000 0.035
443.000 0.035
444.000 0.036
445.000 0.036
446.000 0.035
447.000 0.035
448.000 0.035
449.000 0.035
450.000 0.034
451.000 0.035
452.000 0.037
453.000 0.034
454.000 0.035
455.000 0.038
456.000 0.039
457.000 0.036
458.000 0.036
459.000 0.037
460.000 0.038
461.000 0.036
462.000 0.036
463.000 0.037
464.000 0.037
465.000 0.037
466.000 0.036
467.000 0.036
468.000 0.038
469.000 0.038
470.000 0.037
471.000 0.036
472.000 0.038
473.000 0.038
474.000 0.037
475.000 0.036
476.000 0.038
477.000 0.038
478.000 0.037
479.000 0.037
480.000 0.038
481.000 0.038
482.000 0.038
483.000 0.038
484.000 0.038
485.000 0.037
486.000 0.037
487.000 0.037
488.000 0.038
489.000 0.038
490.000 0.037
491.000 0.038
492.000 0.038
493.000 0.040
494.000 0.039
495.000 0.039
496.000 0.041
497.000 0.040
498.000 0.040
499.000 0.041
500.000 0.040
501.000 0.041
502.000 0.041
503.000 0.042
504.000 0.043
505.000 0.043
506.000 0.043
507.000 0.045
508.000 0.045
509.000 0.046
510.000 0.048
511.000 0.048
512.000 0.049
513.000 0.051
514.000 0.052
515.000 0.052
516.000 0.055
517.000 0.057
518.000 0.058
519.000 0.060
520.000 0.062
521.000 0.064
522.000 0.067
523.000 0.068
524.000 0.070
525.000 0.072
526.000 0.074
527.000 0.076
528.000 0.077
529.000 0.079
530.000 0.079
531.000 0.082
532.000 0.084
533.000 0.084
534.000 0.085
535.000 0.086
536.000 0.088
537.000 0.088
538.000 0.088
539.000 0.088
540.000 0.088
541.000 0.090
542.000 0.090
543.000 0.090
544.000 0.091
545.000 0.091
546.000 0.092
547.000 0.092
548.000 0.092
549.000 0.092
550.000 0.092
551.000 0.093
552.000 0.092
553.000 0.092
554.000 0.092
555.000 0.091
556.000 0.091
557.000 0.091
558.000 0.090
559.000 0.090
560.000 0.090
561.000 0.089
562.000 0.088
563.000 0.087
564.000 0.085
565.000 0.084
566.000 0.084
567.000 0.083
568.000 0.081
569.000 0.080
570.000 0.079
571.000 0.077
572.000 0.075
573.000 0.075
574.000 0.075
575.000 0.074
576.000 0.072
577.000 0.071
578.000 0.071
579.000 0.070
580.000 0.070
581.000 0.069
582.000 0.067
583.000 0.067
584.000 0.066
585.000 0.066
586.000 0.066
587.000 0.065
588.000 0.064
589.000 0.064
590.000 0.063
591.000 0.063
592.000 0.063
593.000 0.063
594.000 0.062
595.000 0.063
596.000 0.063
597.000 0.062
598.000 0.062
599.000 0.062
600.000 0.061
601.000 0.061
602.000 0.062
603.000 0.061
604.000 0.060
605.000 0.062
606.000 0.060
607.000 0.060
608.000 0.061
609.000 0.060
610.000 0.059
611.000 0.059
612.000 0.059
613.000 0.058
614.000 0.057
615.000 0.058
616.000 0.057
617.000 0.057
618.000 0.057
619.000 0.056
620.000 0.056
621.000 0.055
622.000 0.055
623.000 0.056
624.000 0.056
625.000 0.056
626.000 0.056
627.000 0.055
628.000 0.055
629.000 0.056
630.000 0.056
631.000 0.056
632.000 0.057
633.000 0.057
634.000 0.056
635.000 0.055
636.000 0.054
637.000 0.054
638.000 0.056
639.000 0.055
640.000 0.053
641.000 0.054
642.000 0.052
643.000 0.051
644.000 0.052
645.000 0.053
646.000 0.050
647.000 0.049
648.000 0.051
649.000 0.050
650.000 0.050
651.000 0.050
652.000 0.050
653.000 0.050
654.000 0.050
655.000 0.050
656.000 0.051
657.000 0.051
658.000 0.051
659.000 0.051
660.000 0.052
661.000 0.053
662.000 0.052
663.000 0.050
664.000 0.050
665.000 0.051
666.000 0.050
667.000 0.051
668.000 0.051
669.000 0.051
670.000 0.053
671.000 0.054
672.000 0.054
673.000 0.054
674.000 0.057
675.000 0.055
676.000 0.053
677.000 0.055
678.000 0.058
679.000 0.059
680.000 0.058
681.000 0.060
682.000 0.060
683.000 0.061
684.000 0.062
685.000 0.063
686.000 0.064
687.000 0.066
688.000 0.067
689.000 0.069
690.000 0.069
691.000 0.070
692.000 0.071
693.000 0.075
694.000 0.080
695.000 0.085
696.000 0.088
697.000 0.093
698.000 0.098
699.000 0.104
700.000 0.109
701.000 0.116
702.000 0.122
703.000 0.129
704.000 0.135
705.000 0.141
706.000 0.148
707.000 0.154
708.000 0.161
709.000 0.167
710.000 0.174
711.000 0.181
712.000 0.187
713.000 0.194
714.000 0.202
715.000 0.208
716.000 0.215
717.000 0.221
718.000 0.229
719.000 0.236
720.000 0.244
721.000 0.252
722.000 0.259
723.000 0.265
724.000 0.272
725.000 0.279
726.000 0.287
727.000 0.294
728.000 0.301
729.000 0.307
730.000 0.314
731.000 0.321
732.000 0.328
733.000 0.335
734.000 0.341
735.000 0.347
736.000 0.351
737.000 0.357
738.000 0.363
739.000 0.368
740.000 0.373
741.000 0.377
742.000 0.381
743.000 0.385
744.000 0.389
745.000 0.392
746.000 0.395
747.000 0.398
748.000 0.401
749.000 0.403
750.000 0.406
751.000 0.408
752.000 0.410
753.000 0.412
754.000 0.413
755.000 0.415
756.000 0.417
757.000 0.418
758.000 0.418
759.000 0.417
760.000 0.416
761.000 0.415
762.000 0.413
763.000 0.413
764.000 0.415
765.000 0.419
766.000 0.421
767.000 0.424
768.000 0.426
769.000 0.428
770.000 0.429
771.000 0.429
772.000 0.430
773.000 0.431
774.000 0.431
775.000 0.432
776.000 0.432
777.000 0.433
778.000 0.433
779.000 0.434
780.000 0.434
781.000 0.434
782.000 0.435
783.000 0.435
784.000 0.435
785.000 0.435
786.000 0.435
787.000 0.436
788.000 0.436
789.000 0.435
790.000 0.435
791.000 0.436
792.000 0.436
793.000 0.437
794.000 0.438
795.000 0.438
796.000 0.438
797.000 0.438
798.000 0.438
799.000 0.439
800.000 0.439
801.000 0.439
802.000 0.439
803.000 0.440
804.000 0.440
805.000 0.441
806.000 0.441
807.000 0.442
808.000 0.442
809.000 0.442
810.000 0.441
811.000 0.440
812.000 0.439
813.000 0.439
814.000 0.437
815.000 0.436
816.000 0.436
817.000 0.436
818.000 0.437
819.000 0.438
820.000 0.439
821.000 0.439
822.000 0.440
823.000 0.441
824.000 0.441
825.000 0.442
826.000 0.443
827.000 0.443
828.000 0.443
829.000 0.444
830.000 0.444
831.000 0.445
832.000 0.445
833.000 0.446
834.000 0.448
835.000 0.448
836.000 0.449
837.000 0.450
838.000 0.451
839.000 0.451
840.000 0.452
841.000 0.452
842.000 0.453
843.000 0.454
844.000 0.454
845.000 0.455
846.000 0.455
847.000 0.456
848.000 0.456
849.000 0.456
850.000 0.457
851.000 0.457
852.000 0.457
853.000 0.458
854.000 0.458
855.000 0.459
856.000 0.459
857.000 0.459
858.000 0.459
859.000 0.459
860.000 0.460
861.000 0.460
862.000 0.460
863.000 0.461
864.000 0.461
865.000 0.462
866.000 0.463
867.000 0.463
868.000 0.463
869.000 0.463
870.000 0.463
871.000 0.463
872.000 0.463
873.000 0.464
874.000 0.464
875.000 0.464
876.000 0.464
877.000 0.464
878.000 0.465
879.000 0.465
880.000 0.465
881.000 0.465
882.000 0.465
883.000 0.465
884.000 0.465
885.000 0.466
886.000 0.466
887.000 0.466
888.000 0.466
889.000 0.466
890.000 0.465
891.000 0.465
892.000 0.464
893.000 0.463
894.000 0.462
895.000 0.461
896.000 0.460
897.000 0.459
898.000 0.459
899.000 0.458
900.000 0.457
901.000 0.458
902.000 0.458
903.000 0.458
904.000 0.458
905.000 0.458
906.000 0.459
907.000 0.459
908.000 0.459
909.000 0.459
910.000 0.458
911.000 0.457
912.000 0.456
913.000 0.457
914.000 0.457
915.000 0.457
916.000 0.457
917.000 0.458
918.000 0.460
919.000 0.460
920.000 0.460
921.000 0.460
922.000 0.461
923.000 0.461
924.000 0.461
925.000 0.458
926.000 0.456
927.000 0.456
928.000 0.455
929.000 0.453
930.000 0.451
931.000 0.447
932.000 0.444
933.000 0.444
934.000 0.442
935.000 0.436
936.000 0.435
937.000 0.436
938.000 0.436
939.000 0.434
940.000 0.433
941.000 0.434
942.000 0.434
943.000 0.433
944.000 0.435
945.000 0.437
946.000 0.436
947.000 0.433
948.000 0.434
949.000 0.433
950.000 0.433
951.000 0.435
952.000 0.435
953.000 0.433
954.000 0.433
955.000 0.436
956.000 0.435
957.000 0.436
958.000 0.437
959.000 0.438
960.000 0.438
961.000 0.436
962.000 0.437
963.000 0.440
964.000 0.445
965.000 0.445
966.000 0.446
967.000 0.448
968.000 0.448
969.000 0.448
970.000 0.448
971.000 0.450
972.000 0.452
973.000 0.451
974.000 0.450
975.000 0.452
976.000 0.453
977.000 0.453
978.000 0.454
979.000 0.456
980.000 0.455
981.000 0.456
982.000 0.458
983.000 0.459
984.000 0.459
985.000 0.461
986.000 0.461
987.000 0.461
988.000 0.464
989.000 0.464
990.000 0.464
991.000 0.466
992.000 0.466
993.000 0.467
994.000 0.467
995.000 0.468
996.000 0.470
997.000 0.469
998.000 0.470
999.000 0.470
1000.000 0.470
1001.000 0.476
1002.000 0.477
1003.000 0.477
1004.000 0.479
1005.000 0.479
1006.000 0.479
1007.000 0.480
1008.000 0.480
1009.000 0.480
1010.000 0.480
1011.000 0.481
1012.000 0.481
1013.000 0.481
1014.000 0.482
1015.000 0.482
1016.000 0.483
1017.000 0.484
1018.000 0.485
1019.000 0.485
1020.000 0.484
1021.000 0.484
1022.000 0.484
1023.000 0.485
1024.000 0.485
1025.000 0.486
1026.000 0.487
1027.000 0.486
1028.000 0.487
1029.000 0.487
1030.000 0.488
1031.000 0.489
1032.000 0.489
1033.000 0.490
1034.000 0.490
1035.000 0.490
1036.000 0.490
1037.000 0.491
1038.000 0.492
1039.000 0.492
1040.000 0.492
1041.000 0.492
1042.000 0.492
1043.000 0.492
1044.000 0.493
1045.000 0.493
1046.000 0.494
1047.000 0.495
1048.000 0.495
1049.000 0.495
1050.000 0.495
1051.000 0.496
1052.000 0.496
1053.000 0.497
1054.000 0.497
1055.000 0.497
1056.000 0.497
1057.000 0.498
1058.000 0.497
1059.000 0.498
1060.000 0.498
1061.000 0.499
1062.000 0.499
1063.000 0.499
1064.000 0.498
1065.000 0.498
1066.000 0.498
1067.000 0.499
1068.000 0.499
1069.000 0.499
1070.000 0.499
1071.000 0.499
1072.000 0.499
1073.000 0.499
1074.000 0.499
1075.000 0.499
1076.000 0.499
1077.000 0.499
1078.000 0.500
1079.000 0.500
1080.000 0.500
1081.000 0.501
1082.000 0.501
1083.000 0.501
1084.000 0.501
1085.000 0.500
1086.000 0.500
1087.000 0.499
1088.000 0.498
1089.000 0.498
1090.000 0.497
1091.000 0.497
1092.000 0.498
1093.000 0.498
1094.000 0.497
1095.000 0.497
1096.000 0.495
1097.000 0.494
1098.000 0.493
1099.000 0.492
1100.000 0.492
1101.000 0.491
1102.000 0.490
1103.000 0.489
1104.000 0.488
1105.000 0.487
1106.000 0.486
1107.000 0.486
1108.000 0.485
1109.000 0.484
1110.000 0.483
1111.000 0.481
1112.000 0.478
1113.000 0.475
1114.000 0.474
1115.000 0.473
1116.000 0.472
1117.000 0.469
1118.000 0.467
1119.000 0.465
1120.000 0.463
1121.000 0.462
1122.000 0.462
1123.000 0.460
1124.000 0.457
1125.000 0.455
1126.000 0.450
1127.000 0.448
1128.000 0.451
1129.000 0.454
1130.000 0.455
1131.000 0.457
1132.000 0.456
1133.000 0.453
1134.000 0.451
1135.000 0.451
1136.000 0.453
1137.000 0.454
1138.000 0.455
1139.000 0.456
1140.000 0.455
1141.000 0.451
1142.000 0.450
1143.000 0.448
1144.000 0.447
1145.000 0.449
1146.000 0.448
1147.000 0.445
1148.000 0.443
1149.000 0.441
1150.000 0.440
1151.000 0.441
1152.000 0.442
1153.000 0.442
1154.000 0.443
1155.000 0.444
1156.000 0.444
1157.000 0.445
1158.000 0.446
1159.000 0.447
1160.000 0.448
1161.000 0.449
1162.000 0.450
1163.000 0.451
1164.000 0.452
1165.000 0.452
1166.000 0.453
1167.000 0.453
1168.000 0.453
1169.000 0.453
1170.000 0.453
1171.000 0.454
1172.000 0.455
1173.000 0.455
1174.000 0.455
1175.000 0.455
1176.000 0.455
1177.000 0.455
1178.000 0.455
1179.000 0.455
1180.000 0.455
1181.000 0.455
1182.000 0.455
1183.000 0.455
1184.000 0.455
1185.000 0.455
1186.000 0.454
1187.000 0.455
1188.000 0.455
1189.000 0.455
1190.000 0.456
1191.000 0.456
1192.000 0.456
1193.000 0.456
1194.000 0.457
1195.000 0.458
1196.000 0.458
1197.000 0.458
1198.000 0.458
1199.000 0.458
1200.000 0.459
1201.000 0.459
1202.000 0.459
1203.000 0.459
1204.000 0.459
1205.000 0.460
1206.000 0.460
1207.000 0.461
1208.000 0.462
1209.000 0.462
1210.000 0.463
1211.000 0.463
1212.000 0.463
1213.000 0.463
1214.000 0.464
1215.000 0.464
1216.000 0.465
1217.000 0.466
1218.000 0.466
1219.000 0.466
1220.000 0.467
1221.000 0.467
1222.000 0.468
1223.000 0.468
1224.000 0.468
1225.000 0.470
1226.000 0.470
1227.000 0.471
1228.000 0.472
1229.000 0.472
1230.000 0.473
1231.000 0.473
1232.000 0.474
1233.000 0.474
1234.000 0.475
1235.000 0.475
1236.000 0.475
1237.000 0.476
1238.000 0.477
1239.000 0.478
1240.000 0.478
1241.000 0.478
1242.000 0.478
1243.000 0.479
1244.000 0.479
1245.000 0.480
1246.000 0.481
1247.000 0.481
1248.000 0.481
1249.000 0.481
1250.000 0.481
1251.000 0.481
1252.000 0.481
1253.000 0.481
1254.000 0.481
1255.000 0.481
1256.000 0.481
1257.000 0.480
1258.000 0.480
1259.000 0.480
1260.000 0.480
1261.000 0.480
1262.000 0.480
1263.000 0.479
1264.000 0.479
1265.000 0.479
1266.000 0.479
1267.000 0.480
1268.000 0.480
1269.000 0.480
1270.000 0.480
1271.000 0.481
1272.000 0.481
1273.000 0.482
1274.000 0.482
1275.000 0.482
1276.000 0.483
1277.000 0.484
1278.000 0.484
1279.000 0.484
1280.000 0.485
1281.000 0.485
1282.000 0.485
1283.000 0.485
1284.000 0.485
1285.000 0.485
1286.000 0.485
1287.000 0.485
1288.000 0.485
1289.000 0.485
1290.000 0.484
1291.000 0.483
1292.000 0.482
1293.000 0.482
1294.000 0.481
1295.000 0.481
1296.000 0.480
1297.000 0.479
1298.000 0.479
1299.000 0.478
1300.000 0.477
1301.000 0.476
1302.000 0.475
1303.000 0.474
1304.000 0.473
1305.000 0.473
1306.000 0.472
1307.000 0.471
1308.000 0.470
1309.000 0.468
1310.000 0.467
1311.000 0.466
1312.000 0.466
1313.000 0.465
1314.000 0.463
1315.000 0.461
1316.000 0.460
1317.000 0.458
1318.000 0.457
1319.000 0.457
1320.000 0.457
1321.000 0.455
1322.000 0.453
1323.000 0.451
1324.000 0.448
1325.000 0.446
1326.000 0.445
1327.000 0.443
1328.000 0.439
1329.000 0.437
1330.000 0.434
1331.000 0.432
1332.000 0.432
1333.000 0.430
1334.000 0.427
1335.000 0.425
1336.000 0.422
1337.000 0.420
1338.000 0.420
1339.000 0.419
1340.000 0.417
1341.000 0.417
1342.000 0.418
1343.000 0.419
1344.000 0.422
1345.000 0.424
1346.000 0.420
1347.000 0.418
1348.000 0.415
1349.000 0.408
1350.000 0.405
1351.000 0.409
1352.000 0.417
1353.000 0.446
1354.000 0.500
1355.000 0.566
1356.000 0.469
1357.000 0.413
1358.000 0.425
1359.000 0.476
1360.000 0.501
1361.000 0.399
1362.000 0.438
1363.000 0.242
1364.000 0.262
1365.000 0.299
1366.000 0.341
1367.000 0.358
1368.000 0.451
1369.000 0.454
1370.000 0.422
1371.000 0.161
1372.000 0.170
1373.000 0.142
1374.000 0.370
1375.000 0.517
1376.000 0.589
1377.000 0.285
1378.000 0.541
1379.000 0.665
1380.000 0.588
1381.000 0.438
1382.000 0.454
1383.000 0.499
1384.000 0.353
1385.000 0.231
1386.000 0.129
1387.000 0.158
1388.000 0.185
1389.000 0.309
1390.000 0.523
1391.000 0.640
1392.000 0.644
1393.000 0.765
1394.000 0.415
1395.000 0.385
1396.000 0.442
1397.000 0.430
1398.000 0.720
1399.000 0.859
1400.000 0.732
1401.000 0.612
1402.000 0.404
1403.000 0.306
1404.000 0.279
1405.000 0.471
1406.000 0.457
1407.000 0.459
1408.000 0.479
1409.000 0.487
1410.000 0.504
1411.000 0.454
1412.000 0.287
1413.000 0.187
1414.000 0.123
1415.000 0.043
1416.000 0.060
1417.000 0.290
1418.000 0.281
1419.000 0.271
1420.000 0.322
1421.000 0.176
1422.000 0.157
1423.000 0.162
1424.000 0.170
1425.000 0.228
1426.000 0.218
1427.000 0.219
1428.000 0.257
1429.000 0.253
1430.000 0.229
1431.000 0.202
1432.000 0.196
1433.000 0.231
1434.000 0.207
1435.000 0.215
1436.000 0.211
1437.000 0.166
1438.000 0.158
1439.000 0.196
1440.000 0.193
1441.000 0.175
1442.000 0.193
1443.000 0.141
1444.000 0.134
1445.000 0.134
1446.000 0.141
1447.000 0.148
1448.000 0.154
1449.000 0.161
1450.000 0.172
1451.000 0.178
1452.000 0.175
1453.000 0.175
1454.000 0.172
1455.000 0.172
1456.000 0.174
1457.000 0.171
1458.000 0.171
1459.000 0.167
1460.000 0.155
1461.000 0.156
1462.000 0.162
1463.000 0.167
1464.000 0.180
1465.000 0.188
1466.000 0.193
1467.000 0.195
1468.000 0.190
1469.000 0.195
1470.000 0.206
1471.000 0.211
1472.000 0.224
1473.000 0.225
1474.000 0.214
1475.000 0.208
1476.000 0.201
1477.000 0.196
1478.000 0.193
1479.000 0.191
1480.000 0.186
1481.000 0.185
1482.000 0.188
1483.000 0.188
1484.000 0.192
1485.000 0.193
1486.000 0.191
1487.000 0.192
1488.000 0.191
1489.000 0.193
1490.000 0.197
1491.000 0.200
1492.000 0.204
1493.000 0.206
1494.000 0.203
1495.000 0.203
1496.000 0.204
1497.000 0.204
1498.000 0.206
1499.000 0.208
1500.000 0.208
1501.000 0.209
1502.000 0.208
1503.000 0.209
1504.000 0.212
1505.000 0.213
1506.000 0.214
1507.000 0.216
1508.000 0.218
1509.000 0.218
1510.000 0.220
1511.000 0.224
1512.000 0.225
1513.000 0.228
1514.000 0.230
1515.000 0.230
1516.000 0.231
1517.000 0.232
1518.000 0.232
1519.000 0.230
1520.000 0.231
1521.000 0.232
1522.000 0.233
1523.000 0.236
1524.000 0.239
1525.000 0.240
1526.000 0.243
1527.000 0.245
1528.000 0.248
1529.000 0.249
1530.000 0.250
1531.000 0.252
1532.000 0.252
1533.000 0.253
1534.000 0.254
1535.000 0.254
1536.000 0.256
1537.000 0.257
1538.000 0.259
1539.000 0.260
1540.000 0.262
1541.000 0.263
1542.000 0.265
1543.000 0.267
1544.000 0.268
1545.000 0.267
1546.000 0.269
1547.000 0.270
1548.000 0.272
1549.000 0.274
1550.000 0.275
1551.000 0.275
1552.000 0.275
1553.000 0.277
1554.000 0.279
1555.000 0.281
1556.000 0.283
1557.000 0.283
1558.000 0.283
1559.000 0.283
1560.000 0.283
1561.000 0.284
1562.000 0.284
1563.000 0.284
1564.000 0.284
1565.000 0.285
1566.000 0.286
1567.000 0.288
1568.000 0.290
1569.000 0.292
1570.000 0.293
1571.000 0.292
1572.000 0.293
1573.000 0.294
1574.000 0.295
1575.000 0.297
1576.000 0.300
1577.000 0.302
1578.000 0.304
1579.000 0.305
1580.000 0.306
1581.000 0.305
1582.000 0.305
1583.000 0.306
1584.000 0.306
1585.000 0.308
1586.000 0.309
1587.000 0.310
1588.000 0.311
1589.000 0.312
1590.000 0.313
1591.000 0.314
1592.000 0.315
1593.000 0.316
1594.000 0.316
1595.000 0.316
1596.000 0.317
1597.000 0.316
1598.000 0.318
1599.000 0.320
1600.000 0.321
1601.000 0.323
1602.000 0.324
1603.000 0.323
1604.000 0.322
1605.000 0.322
1606.000 0.323
1607.000 0.324
1608.000 0.325
1609.000 0.327
1610.000 0.329
1611.000 0.329
1612.000 0.330
1613.000 0.331
1614.000 0.331
1615.000 0.331
1616.000 0.332
1617.000 0.332
1618.000 0.333
1619.000 0.335
1620.000 0.337
1621.000 0.337
1622.000 0.338
1623.000 0.337
1624.000 0.336
1625.000 0.337
1626.000 0.337
1627.000 0.338
1628.000 0.338
1629.000 0.338
1630.000 0.338
1631.000 0.338
1632.000 0.338
1633.000 0.340
1634.000 0.341
1635.000 0.341
1636.000 0.341
1637.000 0.341
1638.000 0.341
1639.000 0.343
1640.000 0.344
1641.000 0.344
1642.000 0.344
1643.000 0.343
1644.000 0.343
1645.000 0.344
1646.000 0.344
1647.000 0.345
1648.000 0.346
1649.000 0.346
1650.000 0.347
1651.000 0.348
1652.000 0.349
1653.000 0.348
1654.000 0.349
1655.000 0.348
1656.000 0.348
1657.000 0.347
1658.000 0.347
1659.000 0.347
1660.000 0.347
1661.000 0.349
1662.000 0.350
1663.000 0.350
1664.000 0.351
1665.000 0.350
1666.000 0.349
1667.000 0.348
1668.000 0.348
1669.000 0.347
1670.000 0.348
1671.000 0.348
1672.000 0.348
1673.000 0.351
1674.000 0.351
1675.000 0.352
1676.000 0.352
1677.000 0.350
1678.000 0.350
1679.000 0.350
1680.000 0.349
1681.000 0.348
1682.000 0.348
1683.000 0.348
1684.000 0.349
1685.000 0.351
1686.000 0.351
1687.000 0.352
1688.000 0.351
1689.000 0.348
1690.000 0.348
1691.000 0.348
1692.000 0.348
1693.000 0.348
1694.000 0.348
1695.000 0.347
1696.000 0.347
1697.000 0.348
1698.000 0.349
1699.000 0.348
1700.000 0.347
1701.000 0.346
1702.000 0.345
1703.000 0.345
1704.000 0.345
1705.000 0.345
1706.000 0.344
1707.000 0.345
1708.000 0.344
1709.000 0.342
1710.000 0.341
1711.000 0.340
1712.000 0.341
1713.000 0.343
1714.000 0.345
1715.000 0.345
1716.000 0.344
1717.000 0.341
1718.000 0.338
1719.000 0.337
1720.000 0.335
1721.000 0.334
1722.000 0.335
1723.000 0.336
1724.000 0.334
1725.000 0.334
1726.000 0.334
1727.000 0.332
1728.000 0.333
1729.000 0.333
1730.000 0.331
1731.000 0.332
1732.000 0.331
1733.000 0.332
1734.000 0.333
1735.000 0.331
1736.000 0.330
1737.000 0.330
1738.000 0.332
1739.000 0.331
1740.000 0.330
1741.000 0.330
1742.000 0.326
1743.000 0.325
1744.000 0.326
1745.000 0.326
1746.000 0.325
1747.000 0.326
1748.000 0.327
1749.000 0.325
1750.000 0.322
1751.000 0.320
1752.000 0.316
1753.000 0.314
1754.000 0.315
1755.000 0.315
1756.000 0.315
1757.000 0.315
1758.000 0.317
1759.000 0.314
1760.000 0.310
1761.000 0.307
1762.000 0.307
1763.000 0.308
1764.000 0.305
1765.000 0.304
1766.000 0.303
1767.000 0.303
1768.000 0.306
1769.000 0.307
1770.000 0.307
1771.000 0.309
1772.000 0.306
1773.000 0.306
1774.000 0.306
1775.000 0.303
1776.000 0.303
1777.000 0.300
1778.000 0.294
1779.000 0.292
1780.000 0.294
1781.000 0.299
1782.000 0.304
1783.000 0.302
1784.000 0.301
1785.000 0.299
1786.000 0.298
1787.000 0.301
1788.000 0.301
1789.000 0.303
1790.000 0.304
1791.000 0.306
1792.000 0.311
1793.000 0.302
1794.000 0.300
1795.000 0.298
1796.000 0.304
1797.000 0.316
1798.000 0.331
1799.000 0.356
1800.000 0.351
1801.000 0.380
1802.000 0.394
1803.000 0.435
1804.000 0.470
1805.000 0.508
1806.000 0.544
1807.000 0.527
1808.000 0.461
1809.000 0.441
1810.000 0.444
1811.000 0.486
1812.000 0.486
1813.000 0.468
1814.000 0.581
1815.000 0.681
1816.000 0.642
1817.000 0.606
1818.000 0.511
1819.000 0.430
1820.000 0.475
1821.000 0.675
1822.000 0.776
1823.000 0.720
1824.000 0.679
1825.000 0.656
1826.000 0.731
1827.000 0.692
1828.000 0.708
1829.000 0.717
1830.000 0.811
1831.000 0.822
1832.000 0.591
1833.000 0.606
1834.000 0.595
1835.000 0.590
1836.000 0.596
1837.000 0.486
1838.000 0.400
1839.000 0.407
1840.000 0.450
1841.000 0.606
1842.000 0.514
1843.000 0.461
1844.000 0.475
1845.000 0.409
1846.000 0.341
1847.000 0.414
1848.000 0.297
1849.000 0.382
1850.000 0.329
1851.000 0.396
1852.000 0.471
1853.000 0.435
1854.000 0.462
1855.000 0.482
1856.000 0.498
1857.000 0.429
1858.000 0.429
1859.000 0.566
1860.000 0.636
1861.000 0.626
1862.000 0.329
1863.000 0.298
1864.000 0.307
1865.000 0.310
1866.000 0.351
1867.000 0.399
1868.000 0.556
1869.000 0.450
1870.000 0.445
1871.000 0.441
1872.000 0.350
1873.000 0.526
1874.000 0.415
1875.000 0.409
1876.000 0.360
1877.000 0.260
1878.000 0.442
1879.000 0.321
1880.000 0.303
1881.000 0.291
1882.000 0.315
1883.000 0.603
1884.000 0.551
1885.000 0.537
1886.000 0.519
1887.000 0.597
1888.000 0.560
1889.000 0.609
1890.000 0.429
1891.000 0.566
1892.000 0.562
1893.000 0.529
1894.000 0.722
1895.000 0.647
1896.000 0.688
1897.000 0.677
1898.000 0.633
1899.000 0.672
1900.000 0.710
1901.000 0.741
1902.000 0.584
1903.000 0.652
1904.000 0.636
1905.000 0.523
1906.000 0.475
1907.000 0.601
1908.000 0.159
1909.000 0.495
1910.000 0.368
1911.000 0.633
1912.000 0.463
1913.000 0.419
1914.000 0.414
1915.000 0.472
1916.000 0.447
1917.000 0.551
1918.000 0.687
1919.000 0.740
1920.000 0.635
1921.000 0.631
1922.000 0.674
1923.000 0.718
1924.000 0.679
1925.000 0.589
1926.000 0.564
1927.000 0.526
1928.000 0.529
1929.000 0.447
1930.000 0.478
1931.000 0.397
1932.000 0.744
1933.000 0.577
1934.000 0.521
1935.000 0.578
1936.000 0.591
1937.000 0.578
1938.000 0.480
1939.000 0.524
1940.000 0.506
1941.000 0.493
1942.000 0.518
1943.000 0.472
1944.000 0.577
1945.000 0.483
1946.000 0.541
1947.000 0.478
1948.000 0.468
1949.000 0.464
1950.000 0.536
1951.000 0.367
1952.000 0.245
1953.000 0.391
1954.000 0.446
1955.000 0.507
1956.000 0.557
1957.000 0.734
1958.000 0.340
1959.000 0.585
1960.000 0.514
1961.000 0.505
1962.000 0.471
1963.000 0.544
1964.000 0.538
1965.000 0.565
1966.000 0.489
1967.000 0.465
1968.000 0.410
1969.000 0.335
1970.000 0.323
1971.000 0.270
1972.000 0.264
1973.000 0.265
1974.000 0.273
1975.000 0.275
1976.000 0.302
1977.000 0.303
1978.000 0.273
1979.000 0.263
1980.000 0.240
1981.000 0.215
1982.000 0.215
1983.000 0.203
1984.000 0.197
1985.000 0.181
1986.000 0.191
1987.000 0.202
1988.000 0.210
1989.000 0.260
1990.000 0.268
1991.000 0.262
1992.000 0.258
1993.000 0.251
1994.000 0.269
1995.000 0.289
1996.000 0.292
1997.000 0.284
1998.000 0.233
1999.000 0.228
2000.000 0.294
2001.000 0.311
2002.000 0.314
2003.000 0.337
2004.000 0.365
2005.000 0.364
2006.000 0.317
2007.000 0.317
2008.000 0.312
2009.000 0.305
2010.000 0.334
2011.000 0.342
2012.000 0.311
2013.000 0.220
2014.000 0.211
2015.000 0.216
2016.000 0.204
2017.000 0.240
2018.000 0.245
2019.000 0.233
2020.000 0.243
2021.000 0.240
2022.000 0.221
2023.000 0.227
2024.000 0.225
2025.000 0.198
2026.000 0.187
2027.000 0.177
2028.000 0.165
2029.000 0.161
2030.000 0.153
2031.000 0.155
2032.000 0.174
2033.000 0.176
2034.000 0.175
2035.000 0.175
2036.000 0.162
2037.000 0.160
2038.000 0.165
2039.000 0.154
2040.000 0.155
2041.000 0.148
2042.000 0.145
2043.000 0.148
2044.000 0.151
2045.000 0.151
2046.000 0.160
2047.000 0.182
2048.000 0.193
2049.000 0.201
2050.000 0.219
2051.000 0.219
2052.000 0.210
2053.000 0.219
2054.000 0.216
2055.000 0.219
2056.000 0.211
2057.000 0.182
2058.000 0.159
2059.000 0.151
2060.000 0.147
2061.000 0.149
2062.000 0.158
2063.000 0.166
2064.000 0.185
2065.000 0.197
2066.000 0.198
2067.000 0.211
2068.000 0.219
2069.000 0.224
2070.000 0.228
2071.000 0.214
2072.000 0.207
2073.000 0.188
2074.000 0.185
2075.000 0.194
2076.000 0.197
2077.000 0.199
2078.000 0.202
2079.000 0.205
2080.000 0.205
2081.000 0.204
2082.000 0.210
2083.000 0.210
2084.000 0.206
2085.000 0.208
2086.000 0.206
2087.000 0.204
2088.000 0.203
2089.000 0.200
2090.000 0.197
2091.000 0.194
2092.000 0.189
2093.000 0.187
2094.000 0.183
2095.000 0.182
2096.000 0.181
2097.000 0.184
2098.000 0.188
2099.000 0.195
2100.000 0.206
2101.000 0.212
2102.000 0.208
2103.000 0.208
2104.000 0.207
2105.000 0.202
2106.000 0.204
2107.000 0.214
2108.000 0.214
2109.000 0.208
2110.000 0.206
2111.000 0.200
2112.000 0.200
2113.000 0.209
2114.000 0.211
2115.000 0.209
2116.000 0.208
2117.000 0.202
2118.000 0.198
2119.000 0.200
2120.000 0.191
2121.000 0.186
2122.000 0.186
2123.000 0.187
2124.000 0.191
2125.000 0.195
2126.000 0.204
2127.000 0.208
2128.000 0.211
2129.000 0.211
2130.000 0.205
2131.000 0.204
2132.000 0.204
2133.000 0.206
2134.000 0.212
2135.000 0.216
2136.000 0.220
2137.000 0.221
2138.000 0.224
2139.000 0.226
2140.000 0.222
2141.000 0.220
2142.000 0.217
2143.000 0.211
2144.000 0.209
2145.000 0.211
2146.000 0.213
2147.000 0.213
2148.000 0.219
2149.000 0.235
2150.000 0.240
2151.000 0.244
2152.000 0.244
2153.000 0.227
2154.000 0.223
2155.000 0.220
2156.000 0.227
2157.000 0.240
2158.000 0.249
2159.000 0.254
2160.000 0.247
2161.000 0.243
2162.000 0.230
2163.000 0.226
2164.000 0.223
2165.000 0.222
2166.000 0.223
2167.000 0.226
2168.000 0.232
2169.000 0.236
2170.000 0.245
2171.000 0.247
2172.000 0.245
2173.000 0.241
2174.000 0.228
2175.000 0.222
2176.000 0.217
2177.000 0.218
2178.000 0.219
2179.000 0.225
2180.000 0.225
2181.000 0.227
2182.000 0.226
2183.000 0.221
2184.000 0.224
2185.000 0.233
2186.000 0.234
2187.000 0.235
2188.000 0.235
2189.000 0.225
2190.000 0.223
2191.000 0.226
2192.000 0.227
2193.000 0.230
2194.000 0.234
2195.000 0.241
2196.000 0.246
2197.000 0.252
2198.000 0.252
2199.000 0.242
2200.000 0.237
2201.000 0.227
2202.000 0.225
2203.000 0.222
2204.000 0.218
2205.000 0.217
2206.000 0.217
2207.000 0.218
2208.000 0.224
2209.000 0.228
2210.000 0.232
2211.000 0.233
2212.000 0.231
2213.000 0.234
2214.000 0.239
2215.000 0.240
2216.000 0.242
2217.000 0.241
2218.000 0.232
2219.000 0.226
2220.000 0.215
2221.000 0.212
2222.000 0.213
2223.000 0.216
2224.000 0.233
2225.000 0.239
2226.000 0.239
2227.000 0.237
2228.000 0.235
2229.000 0.233
2230.000 0.232
2231.000 0.234
2232.000 0.235
2233.000 0.235
2234.000 0.240
2235.000 0.241
2236.000 0.238
2237.000 0.238
2238.000 0.237
2239.000 0.230
2240.000 0.230
2241.000 0.235
2242.000 0.232
2243.000 0.227
2244.000 0.225
2245.000 0.220
2246.000 0.219
2247.000 0.229
2248.000 0.231
2249.000 0.231
2250.000 0.229
2251.000 0.220
2252.000 0.214
2253.000 0.202
2254.000 0.197
2255.000 0.197
2256.000 0.194
2257.000 0.193
2258.000 0.191
2259.000 0.188
2260.000 0.196
2261.000 0.205
2262.000 0.213
2263.000 0.216
2264.000 0.218
2265.000 0.230
2266.000 0.235
2267.000 0.241
2268.000 0.249
2269.000 0.242
2270.000 0.252
2271.000 0.259
2272.000 0.254
2273.000 0.252
2274.000 0.245
2275.000 0.236
2276.000 0.228
2277.000 0.220
2278.000 0.207
2279.000 0.207
2280.000 0.217
2281.000 0.219
2282.000 0.224
2283.000 0.228
2284.000 0.219
2285.000 0.215
2286.000 0.218
2287.000 0.216
2288.000 0.211
2289.000 0.206
2290.000 0.191
2291.000 0.182
2292.000 0.173
2293.000 0.174
2294.000 0.196
2295.000 0.207
2296.000 0.225
2297.000 0.236
2298.000 0.232
2299.000 0.221
2300.000 0.212
2301.000 0.221
2302.000 0.227
2303.000 0.228
2304.000 0.231
2305.000 0.240
2306.000 0.238
2307.000 0.227
2308.000 0.208
2309.000 0.204
2310.000 0.195
2311.000 0.195
2312.000 0.212
2313.000 0.218
2314.000 0.219
2315.000 0.234
2316.000 0.238
2317.000 0.233
2318.000 0.230
2319.000 0.229
2320.000 0.220
2321.000 0.207
2322.000 0.208
2323.000 0.192
2324.000 0.193
2325.000 0.185
2326.000 0.167
2327.000 0.121
2328.000 0.118
2329.000 0.175
2330.000 0.189
2331.000 0.207
2332.000 0.214
2333.000 0.188
2334.000 0.198
2335.000 0.218
2336.000 0.223
2337.000 0.196
2338.000 0.193
2339.000 0.183
2340.000 0.196
2341.000 0.206
2342.000 0.226
2343.000 0.149
2344.000 0.108
2345.000 0.111
2346.000 0.106
2347.000 0.142
2348.000 0.162
2349.000 0.183
2350.000 0.202
2351.000 0.220
2352.000 0.225
2353.000 0.224
2354.000 0.288
2355.000 0.300
2356.000 0.327
2357.000 0.359
2358.000 0.413
2359.000 0.421
2360.000 0.435
2361.000 0.353
2362.000 0.334
2363.000 0.253
2364.000 0.251
2365.000 0.217
2366.000 0.200
2367.000 0.223
2368.000 0.194
2369.000 0.186
2370.000 0.191
2371.000 0.163
2372.000 0.210
2373.000 0.234
2374.000 0.376
2375.000 0.239
2376.000 0.311
2377.000 0.216
2378.000 0.281
2379.000 0.382
2380.000 0.217
2381.000 0.212
2382.000 0.244
2383.000 0.465
2384.000 0.491
2385.000 0.293
2386.000 0.243
2387.000 0.185
2388.000 0.163
2389.000 0.208
2390.000 0.219
2391.000 0.220
2392.000 0.164
2393.000 0.160
2394.000 0.238
2395.000 0.223
2396.000 0.314
2397.000 0.263
2398.000 0.313
2399.000 0.242
2400.000 0.292
2401.000 0.170
2402.000 0.228
2403.000 0.286
2404.000 0.220
2405.000 0.176
2406.000 0.188
2407.000 0.242
2408.000 0.216
2409.000 0.287
2410.000 0.291
2411.000 0.311
2412.000 0.507
2413.000 0.352
2414.000 0.391
2415.000 0.298
2416.000 0.379
2417.000 0.461
2418.000 0.540
2419.000 0.425
2420.000 0.438
2421.000 0.430
2422.000 0.429
2423.000 0.459
2424.000 0.278
2425.000 0.315
2426.000 0.485
2427.000 0.365
2428.000 0.270
2429.000 0.250
2430.000 0.351
2431.000 0.325
2432.000 0.338
2433.000 0.325
2434.000 0.491
2435.000 0.486
2436.000 0.494
2437.000 0.324
2438.000 0.373
2439.000 0.352
2440.000 0.533
2441.000 0.569
2442.000 0.485
2443.000 0.317
2444.000 0.412
2445.000 0.481
2446.000 0.246
2447.000 0.238
2448.000 0.482
2449.000 0.336
2450.000 0.361
2451.000 0.426
2452.000 0.587
2453.000 0.414
2454.000 0.443
2455.000 0.444
2456.000 0.216
2457.000 0.604
2458.000 0.664
2459.000 0.551
2460.000 0.327
2461.000 0.202
2462.000 0.254
2463.000 0.339
2464.000 0.404
2465.000 0.479
2466.000 0.389
2467.000 0.713
2468.000 0.491
2469.000 0.415
2470.000 0.522
2471.000 0.263
2472.000 0.150
2473.000 0.144
2474.000 0.227
2475.000 0.416
2476.000 0.400
2477.000 0.662
2478.000 0.324
2479.000 0.668
2480.000 0.366
2481.000 0.180
2482.000 0.239
2483.000 0.216
2484.000 0.147
2485.000 0.266
2486.000 0.192
2487.000 0.113
2488.000 0.151
2489.000 0.173
2490.000 0.167
2491.000 0.351
2492.000 0.713
2493.000 0.363
2494.000 0.216
2495.000 0.481
2496.000 0.520
2497.000 0.151
2498.000 0.189
2499.000 0.342
2500.000 0.333
