391.000 0.044
392.000 0.045
393.000 0.049
394.000 0.049
395.000 0.050
396.000 0.050
397.000 0.048
398.000 0.052
399.000 0.051
400.000 0.049
401.000 0.047
402.000 0.047
403.000 0.048
404.000 0.049
405.000 0.051
406.000 0.050
407.000 0.050
408.000 0.052
409.000 0.051
410.000 0.051
411.000 0.051
412.000 0.053
413.000 0.052
414.000 0.052
415.000 0.052
416.000 0.052
417.000 0.052
418.000 0.052
419.000 0.053
420.000 0.052
421.000 0.053
422.000 0.054
423.000 0.053
424.000 0.054
425.000 0.055
426.000 0.054
427.000 0.054
428.000 0.052
429.000 0.052
430.000 0.053
431.000 0.055
432.000 0.055
433.000 0.055
434.000 0.056
435.000 0.055
436.000 0.055
437.000 0.055
438.000 0.055
439.000 0.056
440.000 0.057
441.000 0.056
442.000 0.057
443.000 0.057
444.000 0.058
445.000 0.058
446.000 0.057
447.000 0.057
448.000 0.057
449.000 0.057
450.000 0.058
451.000 0.058
452.000 0.058
453.000 0.058
454.000 0.058
455.000 0.059
456.000 0.059
457.000 0.059
458.000 0.059
459.000 0.059
460.000 0.059
461.000 0.059
462.000 0.060
463.000 0.060
464.000 0.059
465.000 0.060
466.000 0.060
467.000 0.059
468.000 0.060
469.000 0.060
470.000 0.060
471.000 0.061
472.000 0.061
473.000 0.061
474.000 0.061
475.000 0.061
476.000 0.062
477.000 0.062
478.000 0.061
479.000 0.061
480.000 0.062
481.000 0.062
482.000 0.062
483.000 0.062
484.000 0.062
485.000 0.062
486.000 0.062
487.000 0.064
488.000 0.064
489.000 0.063
490.000 0.062
491.000 0.063
492.000 0.065
493.000 0.065
494.000 0.065
495.000 0.064
496.000 0.065
497.000 0.065
498.000 0.065
499.000 0.066
500.000 0.066
501.000 0.067
502.000 0.067
503.000 0.068
504.000 0.070
505.000 0.070
506.000 0.070
507.000 0.071
508.000 0.072
509.000 0.072
510.000 0.073
511.000 0.074
512.000 0.075
513.000 0.076
514.000 0.078
515.000 0.079
516.000 0.081
517.000 0.082
518.000 0.083
519.000 0.086
520.000 0.088
521.000 0.089
522.000 0.091
523.000 0.093
524.000 0.095
525.000 0.097
526.000 0.099
527.000 0.101
528.000 0.103
529.000 0.104
530.000 0.105
531.000 0.108
532.000 0.109
533.000 0.110
534.000 0.111
535.000 0.112
536.000 0.113
537.000 0.113
538.000 0.114
539.000 0.115
540.000 0.115
541.000 0.116
542.000 0.117
543.000 0.117
544.000 0.117
545.000 0.118
546.000 0.118
547.000 0.118
548.000 0.119
549.000 0.119
550.000 0.120
551.000 0.120
552.000 0.120
553.000 0.121
554.000 0.121
555.000 0.120
556.000 0.120
557.000 0.120
558.000 0.119
559.000 0.119
560.000 0.119
561.000 0.118
562.000 0.117
563.000 0.116
564.000 0.115
565.000 0.114
566.000 0.113
567.000 0.112
568.000 0.111
569.000 0.110
570.000 0.109
571.000 0.107
572.000 0.106
573.000 0.106
574.000 0.105
575.000 0.104
576.000 0.103
577.000 0.103
578.000 0.102
579.000 0.101
580.000 0.101
581.000 0.100
582.000 0.100
583.000 0.099
584.000 0.099
585.000 0.098
586.000 0.098
587.000 0.098
588.000 0.098
589.000 0.097
590.000 0.097
591.000 0.097
592.000 0.096
593.000 0.096
594.000 0.097
595.000 0.096
596.000 0.096
597.000 0.095
598.000 0.096
599.000 0.096
600.000 0.096
601.000 0.095
602.000 0.095
603.000 0.095
604.000 0.095
605.000 0.095
606.000 0.095
607.000 0.094
608.000 0.095
609.000 0.095
610.000 0.094
611.000 0.093
612.000 0.093
613.000 0.093
614.000 0.093
615.000 0.093
616.000 0.093
617.000 0.092
618.000 0.092
619.000 0.092
620.000 0.092
621.000 0.091
622.000 0.091
623.000 0.092
624.000 0.092
625.000 0.092
626.000 0.092
627.000 0.092
628.000 0.093
629.000 0.093
630.000 0.092
631.000 0.093
632.000 0.093
633.000 0.093
634.000 0.093
635.000 0.093
636.000 0.093
637.000 0.092
638.000 0.092
639.000 0.092
640.000 0.092
641.000 0.091
642.000 0.091
643.000 0.091
644.000 0.090
645.000 0.090
646.000 0.090
647.000 0.089
648.000 0.090
649.000 0.089
650.000 0.090
651.000 0.089
652.000 0.089
653.000 0.090
654.000 0.090
655.000 0.090
656.000 0.089
657.000 0.090
658.000 0.090
659.000 0.090
660.000 0.090
661.000 0.090
662.000 0.091
663.000 0.090
664.000 0.091
665.000 0.091
666.000 0.090
667.000 0.090
668.000 0.090
669.000 0.090
670.000 0.090
671.000 0.091
672.000 0.092
673.000 0.094
674.000 0.094
675.000 0.094
676.000 0.094
677.000 0.094
678.000 0.095
679.000 0.096
680.000 0.096
681.000 0.097
682.000 0.098
683.000 0.100
684.000 0.101
685.000 0.102
686.000 0.104
687.000 0.106
688.000 0.109
689.000 0.109
690.000 0.111
691.000 0.113
692.000 0.117
693.000 0.121
694.000 0.125
695.000 0.130
696.000 0.135
697.000 0.140
698.000 0.146
699.000 0.152
700.000 0.160
701.000 0.168
702.000 0.174
703.000 0.183
704.000 0.189
705.000 0.196
706.000 0.204
707.000 0.212
708.000 0.219
709.000 0.227
710.000 0.234
711.000 0.242
712.000 0.250
713.000 0.258
714.000 0.265
715.000 0.273
716.000 0.281
717.000 0.289
718.000 0.297
719.000 0.306
720.000 0.315
721.000 0.323
722.000 0.330
723.000 0.336
724.000 0.344
725.000 0.353
726.000 0.360
727.000 0.367
728.000 0.374
729.000 0.381
730.000 0.388
731.000 0.395
732.000 0.402
733.000 0.408
734.000 0.414
735.000 0.420
736.000 0.425
737.000 0.430
738.000 0.436
739.000 0.441
740.000 0.445
741.000 0.450
742.000 0.454
743.000 0.458
744.000 0.462
745.000 0.465
746.000 0.469
747.000 0.471
748.000 0.475
749.000 0.477
750.000 0.479
751.000 0.482
752.000 0.484
753.000 0.485
754.000 0.487
755.000 0.489
756.000 0.491
757.000 0.492
758.000 0.493
759.000 0.493
760.000 0.491
761.000 0.489
762.000 0.487
763.000 0.488
764.000 0.490
765.000 0.494
766.000 0.497
767.000 0.500
768.000 0.502
769.000 0.504
770.000 0.505
771.000 0.507
772.000 0.508
773.000 0.509
774.000 0.509
775.000 0.510
776.000 0.511
777.000 0.512
778.000 0.513
779.000 0.513
780.000 0.514
781.000 0.514
782.000 0.515
783.000 0.516
784.000 0.517
785.000 0.517
786.000 0.517
787.000 0.517
788.000 0.517
789.000 0.517
790.000 0.518
791.000 0.519
792.000 0.519
793.000 0.521
794.000 0.522
795.000 0.522
796.000 0.522
797.000 0.522
798.000 0.523
799.000 0.524
800.000 0.524
801.000 0.524
802.000 0.525
803.000 0.526
804.000 0.527
805.000 0.528
806.000 0.529
807.000 0.530
808.000 0.530
809.000 0.530
810.000 0.530
811.000 0.530
812.000 0.529
813.000 0.528
814.000 0.527
815.000 0.527
816.000 0.526
817.000 0.527
818.000 0.529
819.000 0.530
820.000 0.531
821.000 0.532
822.000 0.533
823.000 0.534
824.000 0.535
825.000 0.535
826.000 0.537
827.000 0.537
828.000 0.538
829.000 0.538
830.000 0.539
831.000 0.540
832.000 0.541
833.000 0.542
834.000 0.544
835.000 0.544
836.000 0.545
837.000 0.546
838.000 0.548
839.000 0.549
840.000 0.549
841.000 0.550
842.000 0.551
843.000 0.552
844.000 0.553
845.000 0.554
846.000 0.554
847.000 0.555
848.000 0.556
849.000 0.556
850.000 0.557
851.000 0.558
852.000 0.558
853.000 0.558
854.000 0.559
855.000 0.560
856.000 0.561
857.000 0.561
858.000 0.562
859.000 0.562
860.000 0.563
861.000 0.564
862.000 0.565
863.000 0.565
864.000 0.565
865.000 0.566
866.000 0.567
867.000 0.567
868.000 0.567
869.000 0.568
870.000 0.569
871.000 0.570
872.000 0.570
873.000 0.571
874.000 0.571
875.000 0.571
876.000 0.572
877.000 0.573
878.000 0.574
879.000 0.573
880.000 0.573
881.000 0.574
882.000 0.575
883.000 0.575
884.000 0.576
885.000 0.576
886.000 0.577
887.000 0.577
888.000 0.578
889.000 0.578
890.000 0.578
891.000 0.578
892.000 0.578
893.000 0.577
894.000 0.577
895.000 0.576
896.000 0.576
897.000 0.575
898.000 0.575
899.000 0.574
900.000 0.574
901.000 0.575
902.000 0.576
903.000 0.577
904.000 0.577
905.000 0.578
906.000 0.578
907.000 0.579
908.000 0.578
909.000 0.578
910.000 0.578
911.000 0.578
912.000 0.578
913.000 0.579
914.000 0.579
915.000 0.579
916.000 0.580
917.000 0.580
918.000 0.581
919.000 0.583
920.000 0.584
921.000 0.583
922.000 0.584
923.000 0.585
924.000 0.585
925.000 0.584
926.000 0.583
927.000 0.583
928.000 0.583
929.000 0.581
930.000 0.578
931.000 0.574
932.000 0.573
933.000 0.573
934.000 0.572
935.000 0.569
936.000 0.567
937.000 0.567
938.000 0.567
939.000 0.568
940.000 0.571
941.000 0.570
942.000 0.569
943.000 0.570
944.000 0.572
945.000 0.573
946.000 0.571
947.000 0.569
948.000 0.572
949.000 0.570
950.000 0.570
951.000 0.574
952.000 0.574
953.000 0.573
954.000 0.572
955.000 0.574
956.000 0.573
957.000 0.575
958.000 0.577
959.000 0.576
960.000 0.575
961.000 0.575
962.000 0.576
963.000 0.579
964.000 0.584
965.000 0.582
966.000 0.583
967.000 0.586
968.000 0.584
969.000 0.584
970.000 0.585
971.000 0.588
972.000 0.590
973.000 0.588
974.000 0.587
975.000 0.588
976.000 0.591
977.000 0.592
978.000 0.592
979.000 0.594
980.000 0.595
981.000 0.594
982.000 0.596
983.000 0.598
984.000 0.599
985.000 0.600
986.000 0.598
987.000 0.598
988.000 0.602
989.000 0.603
990.000 0.603
991.000 0.604
992.000 0.604
993.000 0.605
994.000 0.606
995.000 0.607
996.000 0.608
997.000 0.608
998.000 0.608
999.000 0.610
1000.000 0.612
1001.000 0.614
1002.000 0.613
1003.000 0.614
1004.000 0.615
1005.000 0.616
1006.000 0.619
1007.000 0.620
1008.000 0.621
1009.000 0.622
1010.000 0.622
1011.000 0.622
1012.000 0.624
1013.000 0.624
1014.000 0.624
1015.000 0.625
1016.000 0.625
1017.000 0.625
1018.000 0.626
1019.000 0.627
1020.000 0.627
1021.000 0.627
1022.000 0.627
1023.000 0.628
1024.000 0.629
1025.000 0.630
1026.000 0.631
1027.000 0.631
1028.000 0.632
1029.000 0.633
1030.000 0.634
1031.000 0.636
1032.000 0.636
1033.000 0.636
1034.000 0.637
1035.000 0.637
1036.000 0.637
1037.000 0.639
1038.000 0.639
1039.000 0.641
1040.000 0.642
1041.000 0.642
1042.000 0.642
1043.000 0.642
1044.000 0.642
1045.000 0.643
1046.000 0.644
1047.000 0.645
1048.000 0.646
1049.000 0.646
1050.000 0.645
1051.000 0.645
1052.000 0.646
1053.000 0.647
1054.000 0.647
1055.000 0.648
1056.000 0.648
1057.000 0.650
1058.000 0.650
1059.000 0.650
1060.000 0.650
1061.000 0.650
1062.000 0.651
1063.000 0.651
1064.000 0.652
1065.000 0.651
1066.000 0.651
1067.000 0.651
1068.000 0.651
1069.000 0.652
1070.000 0.653
1071.000 0.652
1072.000 0.653
1073.000 0.653
1074.000 0.653
1075.000 0.654
1076.000 0.654
1077.000 0.654
1078.000 0.654
1079.000 0.654
1080.000 0.655
1081.000 0.656
1082.000 0.657
1083.000 0.656
1084.000 0.657
1085.000 0.656
1086.000 0.656
1087.000 0.656
1088.000 0.656
1089.000 0.657
1090.000 0.657
1091.000 0.658
1092.000 0.657
1093.000 0.657
1094.000 0.657
1095.000 0.657
1096.000 0.656
1097.000 0.656
1098.000 0.655
1099.000 0.655
1100.000 0.655
1101.000 0.655
1102.000 0.655
1103.000 0.655
1104.000 0.654
1105.000 0.653
1106.000 0.654
1107.000 0.654
1108.000 0.654
1109.000 0.654
1110.000 0.654
1111.000 0.653
1112.000 0.651
1113.000 0.651
1114.000 0.651
1115.000 0.650
1116.000 0.650
1117.000 0.649
1118.000 0.651
1119.000 0.650
1120.000 0.650
1121.000 0.652
1122.000 0.653
1123.000 0.654
1124.000 0.653
1125.000 0.628
1126.000 0.624
1127.000 0.624
1128.000 0.650
1129.000 0.655
1130.000 0.655
1131.000 0.655
1132.000 0.652
1133.000 0.648
1134.000 0.644
1135.000 0.643
1136.000 0.645
1137.000 0.645
1138.000 0.649
1139.000 0.648
1140.000 0.647
1141.000 0.644
1142.000 0.644
1143.000 0.641
1144.000 0.640
1145.000 0.640
1146.000 0.638
1147.000 0.633
1148.000 0.628
1149.000 0.625
1150.000 0.626
1151.000 0.630
1152.000 0.632
1153.000 0.633
1154.000 0.632
1155.000 0.630
1156.000 0.629
1157.000 0.628
1158.000 0.626
1159.000 0.625
1160.000 0.625
1161.000 0.625
1162.000 0.627
1163.000 0.629
1164.000 0.631
1165.000 0.632
1166.000 0.630
1167.000 0.629
1168.000 0.629
1169.000 0.628
1170.000 0.629
1171.000 0.630
1172.000 0.630
1173.000 0.630
1174.000 0.630
1175.000 0.630
1176.000 0.630
1177.000 0.630
1178.000 0.630
1179.000 0.630
1180.000 0.629
1181.000 0.629
1182.000 0.628
1183.000 0.628
1184.000 0.628
1185.000 0.628
1186.000 0.629
1187.000 0.630
1188.000 0.630
1189.000 0.630
1190.000 0.630
1191.000 0.629
1192.000 0.629
1193.000 0.629
1194.000 0.630
1195.000 0.631
1196.000 0.632
1197.000 0.632
1198.000 0.634
1199.000 0.634
1200.000 0.634
1201.000 0.634
1202.000 0.634
1203.000 0.634
1204.000 0.634
1205.000 0.635
1206.000 0.635
1207.000 0.636
1208.000 0.636
1209.000 0.637
1210.000 0.638
1211.000 0.638
1212.000 0.639
1213.000 0.639
1214.000 0.639
1215.000 0.639
1216.000 0.640
1217.000 0.641
1218.000 0.641
1219.000 0.642
1220.000 0.643
1221.000 0.642
1222.000 0.643
1223.000 0.643
1224.000 0.644
1225.000 0.645
1226.000 0.646
1227.000 0.646
1228.000 0.646
1229.000 0.647
1230.000 0.647
1231.000 0.648
1232.000 0.649
1233.000 0.650
1234.000 0.650
1235.000 0.650
1236.000 0.650
1237.000 0.650
1238.000 0.651
1239.000 0.652
1240.000 0.653
1241.000 0.654
1242.000 0.654
1243.000 0.654
1244.000 0.655
1245.000 0.655
1246.000 0.656
1247.000 0.656
1248.000 0.657
1249.000 0.657
1250.000 0.658
1251.000 0.658
1252.000 0.659
1253.000 0.659
1254.000 0.659
1255.000 0.659
1256.000 0.659
1257.000 0.659
1258.000 0.659
1259.000 0.660
1260.000 0.660
1261.000 0.660
1262.000 0.661
1263.000 0.659
1264.000 0.659
1265.000 0.660
1266.000 0.660
1267.000 0.660
1268.000 0.661
1269.000 0.661
1270.000 0.662
1271.000 0.663
1272.000 0.663
1273.000 0.663
1274.000 0.665
1275.000 0.665
1276.000 0.665
1277.000 0.665
1278.000 0.665
1279.000 0.665
1280.000 0.665
1281.000 0.666
1282.000 0.666
1283.000 0.666
1284.000 0.666
1285.000 0.666
1286.000 0.665
1287.000 0.666
1288.000 0.666
1289.000 0.666
1290.000 0.665
1291.000 0.665
1292.000 0.664
1293.000 0.664
1294.000 0.663
1295.000 0.663
1296.000 0.662
1297.000 0.662
1298.000 0.661
1299.000 0.661
1300.000 0.660
1301.000 0.660
1302.000 0.659
1303.000 0.658
1304.000 0.658
1305.000 0.657
1306.000 0.656
1307.000 0.655
1308.000 0.655
1309.000 0.653
1310.000 0.652
1311.000 0.651
1312.000 0.651
1313.000 0.650
1314.000 0.649
1315.000 0.647
1316.000 0.645
1317.000 0.644
1318.000 0.643
1319.000 0.644
1320.000 0.643
1321.000 0.644
1322.000 0.643
1323.000 0.642
1324.000 0.640
1325.000 0.639
1326.000 0.638
1327.000 0.636
1328.000 0.635
1329.000 0.633
1330.000 0.631
1331.000 0.628
1332.000 0.624
1333.000 0.622
1334.000 0.620
1335.000 0.619
1336.000 0.619
1337.000 0.619
1338.000 0.596
1339.000 0.596
1340.000 0.592
1341.000 0.554
1342.000 0.558
1343.000 0.559
1344.000 0.563
1345.000 0.564
1346.000 0.560
1347.000 0.555
1348.000 0.549
1349.000 0.537
1350.000 0.525
1351.000 0.506
1352.000 0.500
1353.000 0.538
1354.000 0.490
1355.000 0.480
1356.000 0.424
1357.000 0.553
1358.000 0.292
1359.000 0.314
1360.000 0.147
1361.000 0.189
1362.000 0.236
1363.000 0.262
1364.000 0.386
1365.000 0.307
1366.000 0.477
1367.000 0.529
1368.000 0.517
1369.000 0.487
1370.000 0.428
1371.000 0.237
1372.000 0.216
1373.000 0.490
1374.000 0.846
1375.000 0.593
1376.000 0.526
1377.000 0.405
1378.000 0.451
1379.000 0.652
1380.000 0.752
1381.000 0.605
1382.000 0.459
1383.000 0.495
1384.000 0.263
1385.000 0.406
1386.000 0.465
1387.000 0.392
1388.000 0.333
1389.000 0.294
1390.000 0.375
1391.000 0.345
1392.000 0.331
1393.000 0.313
1394.000 0.190
1395.000 0.355
1396.000 0.269
1397.000 0.245
1398.000 0.621
1399.000 0.563
1400.000 0.422
1401.000 0.365
1402.000 0.360
1403.000 0.671
1404.000 0.558
1405.000 0.211
1406.000 0.311
1407.000 0.300
1408.000 0.364
1409.000 0.114
1410.000 0.081
1411.000 0.081
1412.000 0.083
1413.000 0.090
1414.000 0.088
1415.000 0.135
1416.000 0.122
1417.000 0.321
1418.000 0.324
1419.000 0.345
1420.000 0.294
1421.000 0.312
1422.000 0.290
1423.000 0.221
1424.000 0.214
1425.000 0.262
1426.000 0.284
1427.000 0.358
1428.000 0.399
1429.000 0.382
1430.000 0.377
1431.000 0.402
1432.000 0.399
1433.000 0.333
1434.000 0.329
1435.000 0.359
1436.000 0.297
1437.000 0.277
1438.000 0.257
1439.000 0.295
1440.000 0.321
1441.000 0.335
1442.000 0.323
1443.000 0.371
1444.000 0.372
1445.000 0.309
1446.000 0.299
1447.000 0.328
1448.000 0.325
1449.000 0.287
1450.000 0.289
1451.000 0.294
1452.000 0.301
1453.000 0.307
1454.000 0.321
1455.000 0.320
1456.000 0.310
1457.000 0.308
1458.000 0.305
1459.000 0.306
1460.000 0.314
1461.000 0.312
1462.000 0.306
1463.000 0.305
1464.000 0.301
1465.000 0.304
1466.000 0.319
1467.000 0.319
1468.000 0.307
1469.000 0.308
1470.000 0.305
1471.000 0.308
1472.000 0.319
1473.000 0.327
1474.000 0.333
1475.000 0.338
1476.000 0.352
1477.000 0.353
1478.000 0.344
1479.000 0.339
1480.000 0.329
1481.000 0.328
1482.000 0.340
1483.000 0.336
1484.000 0.326
1485.000 0.321
1486.000 0.309
1487.000 0.307
1488.000 0.313
1489.000 0.315
1490.000 0.316
1491.000 0.318
1492.000 0.318
1493.000 0.319
1494.000 0.320
1495.000 0.321
1496.000 0.322
1497.000 0.324
1498.000 0.328
1499.000 0.330
1500.000 0.333
1501.000 0.336
1502.000 0.335
1503.000 0.337
1504.000 0.337
1505.000 0.338
1506.000 0.339
1507.000 0.341
1508.000 0.344
1509.000 0.348
1510.000 0.350
1511.000 0.352
1512.000 0.354
1513.000 0.355
1514.000 0.358
1515.000 0.359
1516.000 0.361
1517.000 0.363
1518.000 0.365
1519.000 0.366
1520.000 0.368
1521.000 0.370
1522.000 0.371
1523.000 0.375
1524.000 0.377
1525.000 0.377
1526.000 0.379
1527.000 0.382
1528.000 0.383
1529.000 0.384
1530.000 0.386
1531.000 0.387
1532.000 0.389
1533.000 0.391
1534.000 0.393
1535.000 0.394
1536.000 0.396
1537.000 0.400
1538.000 0.401
1539.000 0.403
1540.000 0.404
1541.000 0.404
1542.000 0.405
1543.000 0.408
1544.000 0.410
1545.000 0.413
1546.000 0.415
1547.000 0.416
1548.000 0.418
1549.000 0.420
1550.000 0.422
1551.000 0.423
1552.000 0.425
1553.000 0.427
1554.000 0.427
1555.000 0.428
1556.000 0.428
1557.000 0.429
1558.000 0.430
1559.000 0.434
1560.000 0.436
1561.000 0.437
1562.000 0.439
1563.000 0.438
1564.000 0.439
1565.000 0.440
1566.000 0.442
1567.000 0.446
1568.000 0.448
1569.000 0.448
1570.000 0.448
1571.000 0.445
1572.000 0.445
1573.000 0.450
1574.000 0.452
1575.000 0.457
1576.000 0.459
1577.000 0.457
1578.000 0.458
1579.000 0.459
1580.000 0.460
1581.000 0.464
1582.000 0.465
1583.000 0.465
1584.000 0.466
1585.000 0.468
1586.000 0.468
1587.000 0.470
1588.000 0.471
1589.000 0.472
1590.000 0.472
1591.000 0.473
1592.000 0.474
1593.000 0.475
1594.000 0.476
1595.000 0.477
1596.000 0.478
1597.000 0.478
1598.000 0.479
1599.000 0.481
1600.000 0.482
1601.000 0.484
1602.000 0.485
1603.000 0.487
1604.000 0.488
1605.000 0.489
1606.000 0.490
1607.000 0.490
1608.000 0.489
1609.000 0.490
1610.000 0.491
1611.000 0.491
1612.000 0.491
1613.000 0.492
1614.000 0.492
1615.000 0.494
1616.000 0.495
1617.000 0.498
1618.000 0.500
1619.000 0.504
1620.000 0.506
1621.000 0.507
1622.000 0.507
1623.000 0.506
1624.000 0.507
1625.000 0.507
1626.000 0.507
1627.000 0.508
1628.000 0.508
1629.000 0.506
1630.000 0.505
1631.000 0.504
1632.000 0.505
1633.000 0.507
1634.000 0.508
1635.000 0.508
1636.000 0.510
1637.000 0.512
1638.000 0.513
1639.000 0.516
1640.000 0.517
1641.000 0.516
1642.000 0.516
1643.000 0.515
1644.000 0.515
1645.000 0.516
1646.000 0.516
1647.000 0.516
1648.000 0.516
1649.000 0.518
1650.000 0.518
1651.000 0.520
1652.000 0.521
1653.000 0.519
1654.000 0.519
1655.000 0.521
1656.000 0.521
1657.000 0.520
1658.000 0.520
1659.000 0.517
1660.000 0.518
1661.000 0.520
1662.000 0.522
1663.000 0.524
1664.000 0.525
1665.000 0.524
1666.000 0.525
1667.000 0.524
1668.000 0.524
1669.000 0.523
1670.000 0.522
1671.000 0.519
1672.000 0.519
1673.000 0.519
1674.000 0.520
1675.000 0.523
1676.000 0.523
1677.000 0.523
1678.000 0.523
1679.000 0.522
1680.000 0.522
1681.000 0.521
1682.000 0.521
1683.000 0.522
1684.000 0.522
1685.000 0.521
1686.000 0.521
1687.000 0.521
1688.000 0.520
1689.000 0.519
1690.000 0.520
1691.000 0.522
1692.000 0.522
1693.000 0.523
1694.000 0.522
1695.000 0.518
1696.000 0.516
1697.000 0.516
1698.000 0.516
1699.000 0.517
1700.000 0.518
1701.000 0.520
1702.000 0.521
1703.000 0.519
1704.000 0.520
1705.000 0.518
1706.000 0.518
1707.000 0.519
1708.000 0.519
1709.000 0.520
1710.000 0.518
1711.000 0.514
1712.000 0.512
1713.000 0.511
1714.000 0.511
1715.000 0.514
1716.000 0.515
1717.000 0.513
1718.000 0.510
1719.000 0.506
1720.000 0.503
1721.000 0.502
1722.000 0.505
1723.000 0.508
1724.000 0.509
1725.000 0.510
1726.000 0.512
1727.000 0.512
1728.000 0.514
1729.000 0.515
1730.000 0.512
1731.000 0.512
1732.000 0.508
1733.000 0.508
1734.000 0.509
1735.000 0.505
1736.000 0.507
1737.000 0.508
1738.000 0.509
1739.000 0.509
1740.000 0.507
1741.000 0.505
1742.000 0.502
1743.000 0.501
1744.000 0.506
1745.000 0.507
1746.000 0.511
1747.000 0.511
1748.000 0.508
1749.000 0.506
1750.000 0.501
1751.000 0.499
1752.000 0.502
1753.000 0.500
1754.000 0.499
1755.000 0.499
1756.000 0.494
1757.000 0.494
1758.000 0.497
1759.000 0.496
1760.000 0.493
1761.000 0.492
1762.000 0.488
1763.000 0.483
1764.000 0.483
1765.000 0.484
1766.000 0.486
1767.000 0.488
1768.000 0.488
1769.000 0.483
1770.000 0.479
1771.000 0.478
1772.000 0.480
1773.000 0.483
1774.000 0.480
1775.000 0.479
1776.000 0.481
1777.000 0.479
1778.000 0.483
1779.000 0.489
1780.000 0.484
1781.000 0.480
1782.000 0.475
1783.000 0.464
1784.000 0.464
1785.000 0.471
1786.000 0.475
1787.000 0.484
1788.000 0.490
1789.000 0.496
1790.000 0.503
1791.000 0.501
1792.000 0.517
1793.000 0.525
1794.000 0.486
1795.000 0.519
1796.000 0.423
1797.000 0.423
1798.000 0.443
1799.000 0.457
1800.000 0.444
1801.000 0.648
1802.000 0.570
1803.000 0.633
1804.000 0.630
1805.000 0.567
1806.000 0.586
1807.000 0.535
1808.000 0.591
1809.000 0.653
1810.000 0.667
1811.000 0.757
1812.000 0.793
1813.000 0.816
1814.000 0.614
1815.000 0.584
1816.000 0.649
1817.000 0.637
1818.000 0.433
1819.000 0.355
1820.000 0.343
1821.000 0.505
1822.000 0.481
1823.000 0.483
1824.000 0.360
1825.000 0.402
1826.000 0.528
1827.000 0.280
1828.000 0.398
1829.000 0.345
1830.000 0.468
1831.000 0.461
1832.000 0.449
1833.000 0.444
1834.000 0.440
1835.000 0.458
1836.000 0.473
1837.000 0.506
1838.000 0.535
1839.000 0.454
1840.000 0.408
1841.000 0.347
1842.000 0.299
1843.000 0.360
1844.000 0.441
1845.000 0.435
1846.000 0.477
1847.000 0.544
1848.000 0.474
1849.000 0.505
1850.000 0.558
1851.000 0.674
1852.000 0.675
1853.000 0.605
1854.000 0.494
1855.000 0.522
1856.000 0.497
1857.000 0.465
1858.000 0.602
1859.000 0.344
1860.000 0.467
1861.000 0.393
1862.000 0.383
1863.000 0.486
1864.000 0.595
1865.000 0.665
1866.000 0.699
1867.000 0.669
1868.000 0.538
1869.000 0.468
1870.000 0.438
1871.000 0.340
1872.000 0.322
1873.000 0.444
1874.000 0.406
1875.000 0.545
1876.000 0.608
1877.000 0.528
1878.000 0.556
1879.000 0.610
1880.000 0.502
1881.000 0.623
1882.000 0.777
1883.000 0.466
1884.000 0.536
1885.000 0.601
1886.000 0.666
1887.000 0.724
1888.000 0.644
1889.000 0.695
1890.000 0.646
1891.000 0.596
1892.000 0.554
1893.000 0.514
1894.000 0.475
1895.000 0.583
1896.000 0.612
1897.000 0.630
1898.000 0.649
1899.000 0.585
1900.000 0.626
1901.000 0.268
1902.000 0.333
1903.000 0.450
1904.000 0.438
1905.000 0.639
1906.000 0.729
1907.000 0.598
1908.000 0.458
1909.000 0.563
1910.000 0.599
1911.000 0.439
1912.000 0.699
1913.000 0.623
1914.000 0.538
1915.000 0.274
1916.000 0.290
1917.000 0.390
1918.000 0.428
1919.000 0.490
1920.000 0.515
1921.000 0.415
1922.000 0.425
1923.000 0.483
1924.000 0.523
1925.000 0.516
1926.000 0.707
1927.000 0.720
1928.000 0.765
1929.000 0.705
1930.000 0.664
1931.000 0.566
1932.000 0.587
1933.000 0.607
1934.000 0.627
1935.000 0.584
1936.000 0.524
1937.000 0.428
1938.000 0.352
1939.000 0.520
1940.000 0.591
1941.000 0.380
1942.000 0.696
1943.000 0.576
1944.000 0.474
1945.000 0.276
1946.000 0.295
1947.000 0.376
1948.000 0.580
1949.000 0.509
1950.000 0.343
1951.000 0.279
1952.000 0.218
1953.000 0.230
1954.000 0.364
1955.000 0.428
1956.000 0.519
1957.000 0.583
1958.000 0.584
1959.000 0.550
1960.000 0.519
1961.000 0.476
1962.000 0.456
1963.000 0.443
1964.000 0.367
1965.000 0.349
1966.000 0.361
1967.000 0.383
1968.000 0.376
1969.000 0.317
1970.000 0.309
1971.000 0.301
1972.000 0.277
1973.000 0.342
1974.000 0.382
1975.000 0.382
1976.000 0.349
1977.000 0.342
1978.000 0.312
1979.000 0.301
1980.000 0.305
1981.000 0.286
1982.000 0.267
1983.000 0.244
1984.000 0.243
1985.000 0.273
1986.000 0.274
1987.000 0.285
1988.000 0.290
1989.000 0.246
1990.000 0.248
1991.000 0.263
1992.000 0.271
1993.000 0.291
1994.000 0.303
1995.000 0.292
1996.000 0.288
1997.000 0.279
1998.000 0.266
1999.000 0.272
2000.000 0.294
2001.000 0.311
2002.000 0.357
2003.000 0.389
2004.000 0.396
2005.000 0.410
2006.000 0.411
2007.000 0.430
2008.000 0.465
2009.000 0.502
2010.000 0.506
2011.000 0.457
2012.000 0.367
2013.000 0.291
2014.000 0.267
2015.000 0.266
2016.000 0.270
2017.000 0.292
2018.000 0.320
2019.000 0.321
2020.000 0.328
2021.000 0.317
2022.000 0.285
2023.000 0.285
2024.000 0.280
2025.000 0.272
2026.000 0.264
2027.000 0.258
2028.000 0.255
2029.000 0.249
2030.000 0.236
2031.000 0.238
2032.000 0.258
2033.000 0.261
2034.000 0.259
2035.000 0.268
2036.000 0.261
2037.000 0.242
2038.000 0.245
2039.000 0.239
2040.000 0.237
2041.000 0.248
2042.000 0.250
2043.000 0.251
2044.000 0.257
2045.000 0.259
2046.000 0.267
2047.000 0.287
2048.000 0.298
2049.000 0.305
2050.000 0.313
2051.000 0.320
2052.000 0.319
2053.000 0.331
2054.000 0.341
2055.000 0.322
2056.000 0.300
2057.000 0.283
2058.000 0.253
2059.000 0.243
2060.000 0.247
2061.000 0.248
2062.000 0.260
2063.000 0.261
2064.000 0.256
2065.000 0.256
2066.000 0.256
2067.000 0.247
2068.000 0.253
2069.000 0.272
2070.000 0.293
2071.000 0.310
2072.000 0.319
2073.000 0.326
2074.000 0.327
2075.000 0.316
2076.000 0.312
2077.000 0.309
2078.000 0.303
2079.000 0.293
2080.000 0.289
2081.000 0.292
2082.000 0.288
2083.000 0.284
2084.000 0.282
2085.000 0.281
2086.000 0.274
2087.000 0.272
2088.000 0.276
2089.000 0.279
2090.000 0.282
2091.000 0.282
2092.000 0.278
2093.000 0.280
2094.000 0.282
2095.000 0.279
2096.000 0.277
2097.000 0.276
2098.000 0.267
2099.000 0.267
2100.000 0.274
2101.000 0.275
2102.000 0.280
2103.000 0.281
2104.000 0.283
2105.000 0.284
2106.000 0.287
2107.000 0.288
2108.000 0.289
2109.000 0.287
2110.000 0.288
2111.000 0.289
2112.000 0.291
2113.000 0.298
2114.000 0.299
2115.000 0.297
2116.000 0.295
2117.000 0.288
2118.000 0.284
2119.000 0.289
2120.000 0.291
2121.000 0.300
2122.000 0.309
2123.000 0.314
2124.000 0.314
2125.000 0.319
2126.000 0.326
2127.000 0.326
2128.000 0.322
2129.000 0.320
2130.000 0.316
2131.000 0.314
2132.000 0.316
2133.000 0.316
2134.000 0.312
2135.000 0.307
2136.000 0.300
2137.000 0.297
2138.000 0.292
2139.000 0.297
2140.000 0.305
2141.000 0.313
2142.000 0.317
2143.000 0.320
2144.000 0.320
2145.000 0.316
2146.000 0.313
2147.000 0.306
2148.000 0.306
2149.000 0.310
2150.000 0.312
2151.000 0.316
2152.000 0.321
2153.000 0.322
2154.000 0.328
2155.000 0.332
2156.000 0.350
2157.000 0.366
2158.000 0.379
2159.000 0.388
2160.000 0.375
2161.000 0.366
2162.000 0.346
2163.000 0.340
2164.000 0.337
2165.000 0.337
2166.000 0.346
2167.000 0.347
2168.000 0.349
2169.000 0.346
2170.000 0.334
2171.000 0.330
2172.000 0.327
2173.000 0.326
2174.000 0.327
2175.000 0.327
2176.000 0.330
2177.000 0.328
2178.000 0.326
2179.000 0.331
2180.000 0.329
2181.000 0.327
2182.000 0.325
2183.000 0.322
2184.000 0.323
2185.000 0.330
2186.000 0.335
2187.000 0.338
2188.000 0.345
2189.000 0.356
2190.000 0.360
2191.000 0.369
2192.000 0.368
2193.000 0.351
2194.000 0.345
2195.000 0.337
2196.000 0.334
2197.000 0.343
2198.000 0.343
2199.000 0.342
2200.000 0.340
2201.000 0.332
2202.000 0.335
2203.000 0.337
2204.000 0.340
2205.000 0.344
2206.000 0.348
2207.000 0.352
2208.000 0.351
2209.000 0.352
2210.000 0.352
2211.000 0.349
2212.000 0.341
2213.000 0.338
2214.000 0.339
2215.000 0.338
2216.000 0.343
2217.000 0.342
2218.000 0.337
2219.000 0.331
2220.000 0.316
2221.000 0.313
2222.000 0.321
2223.000 0.320
2224.000 0.324
2225.000 0.327
2226.000 0.324
2227.000 0.320
2228.000 0.329
2229.000 0.340
2230.000 0.347
2231.000 0.351
2232.000 0.347
2233.000 0.343
2234.000 0.340
2235.000 0.340
2236.000 0.352
2237.000 0.357
2238.000 0.363
2239.000 0.376
2240.000 0.376
2241.000 0.365
2242.000 0.357
2243.000 0.341
2244.000 0.330
2245.000 0.322
2246.000 0.314
2247.000 0.300
2248.000 0.296
2249.000 0.301
2250.000 0.303
2251.000 0.314
2252.000 0.318
2253.000 0.313
2254.000 0.312
2255.000 0.313
2256.000 0.312
2257.000 0.311
2258.000 0.321
2259.000 0.323
2260.000 0.322
2261.000 0.321
2262.000 0.309
2263.000 0.307
2264.000 0.306
2265.000 0.317
2266.000 0.339
2267.000 0.350
2268.000 0.358
2269.000 0.349
2270.000 0.344
2271.000 0.343
2272.000 0.338
2273.000 0.335
2274.000 0.338
2275.000 0.334
2276.000 0.326
2277.000 0.322
2278.000 0.314
2279.000 0.313
2280.000 0.314
2281.000 0.321
2282.000 0.341
2283.000 0.345
2284.000 0.352
2285.000 0.343
2286.000 0.308
2287.000 0.295
2288.000 0.287
2289.000 0.281
2290.000 0.283
2291.000 0.283
2292.000 0.276
2293.000 0.277
2294.000 0.289
2295.000 0.300
2296.000 0.322
2297.000 0.332
2298.000 0.332
2299.000 0.324
2300.000 0.322
2301.000 0.325
2302.000 0.319
2303.000 0.320
2304.000 0.301
2305.000 0.281
2306.000 0.282
2307.000 0.283
2308.000 0.277
2309.000 0.265
2310.000 0.250
2311.000 0.240
2312.000 0.248
2313.000 0.289
2314.000 0.276
2315.000 0.292
2316.000 0.306
2317.000 0.348
2318.000 0.360
2319.000 0.374
2320.000 0.349
2321.000 0.271
2322.000 0.265
2323.000 0.273
2324.000 0.284
2325.000 0.359
2326.000 0.388
2327.000 0.358
2328.000 0.365
2329.000 0.366
2330.000 0.365
2331.000 0.386
2332.000 0.388
2333.000 0.347
2334.000 0.340
2335.000 0.383
2336.000 0.369
2337.000 0.326
2338.000 0.320
2339.000 0.312
2340.000 0.294
2341.000 0.290
2342.000 0.293
2343.000 0.283
2344.000 0.269
2345.000 0.297
2346.000 0.301
2347.000 0.359
2348.000 0.351
2349.000 0.296
2350.000 0.289
2351.000 0.325
2352.000 0.338
2353.000 0.389
2354.000 0.325
2355.000 0.380
2356.000 0.395
2357.000 0.500
2358.000 0.569
2359.000 0.512
2360.000 0.448
2361.000 0.322
2362.000 0.330
2363.000 0.274
2364.000 0.322
2365.000 0.397
2366.000 0.384
2367.000 0.352
2368.000 0.218
2369.000 0.412
2370.000 0.349
2371.000 0.254
2372.000 0.316
2373.000 0.345
2374.000 0.443
2375.000 0.508
2376.000 0.413
2377.000 0.317
2378.000 0.234
2379.000 0.156
2380.000 0.243
2381.000 0.278
2382.000 0.252
2383.000 0.269
2384.000 0.426
2385.000 0.394
2386.000 0.401
2387.000 0.420
2388.000 0.309
2389.000 0.237
2390.000 0.232
2391.000 0.229
2392.000 0.208
2393.000 0.279
2394.000 0.358
2395.000 0.435
2396.000 0.564
2397.000 0.442
2398.000 0.447
2399.000 0.414
2400.000 0.404
2401.000 0.461
2402.000 0.405
2403.000 0.331
2404.000 0.405
2405.000 0.266
2406.000 0.258
2407.000 0.467
2408.000 0.419
2409.000 0.384
2410.000 0.471
2411.000 0.631
2412.000 0.484
2413.000 0.499
2414.000 0.424
2415.000 0.370
2416.000 0.445
2417.000 0.532
2418.000 0.489
2419.000 0.420
2420.000 0.443
2421.000 0.412
2422.000 0.481
2423.000 0.469
2424.000 0.203
2425.000 0.320
2426.000 0.249
2427.000 0.186
2428.000 0.198
2429.000 0.180
2430.000 0.114
2431.000 0.173
2432.000 0.638
2433.000 0.375
2434.000 0.492
2435.000 0.753
2436.000 0.768
2437.000 0.776
2438.000 0.663
2439.000 0.591
2440.000 0.580
2441.000 0.534
2442.000 0.672
2443.000 0.627
2444.000 0.395
2445.000 0.698
2446.000 0.569
2447.000 0.659
2448.000 0.294
2449.000 0.350
2450.000 0.305
2451.000 0.381
2452.000 0.541
2453.000 0.261
2454.000 0.327
2455.000 0.470
2456.000 0.677
2457.000 0.478
2458.000 0.569
2459.000 0.267
2460.000 0.225
2461.000 0.329
2462.000 0.560
2463.000 0.656
2464.000 0.493
2465.000 0.406
2466.000 0.356
2467.000 0.438
2468.000 0.316
2469.000 0.417
2470.000 0.324
2471.000 0.364
2472.000 0.414
2473.000 0.274
2474.000 0.225
2475.000 0.420
2476.000 0.332
2477.000 0.368
2478.000 0.215
2479.000 0.428
2480.000 0.480
2481.000 0.302
2482.000 0.241
2483.000 0.293
2484.000 0.317
2485.000 0.306
2486.000 0.393
2487.000 0.358
2488.000 0.419
2489.000 0.337
2490.000 0.294
2491.000 0.461
2492.000 0.496
2493.000 0.432
2494.000 0.402
2495.000 0.633
2496.000 0.342
2497.000 0.426
2498.000 0.240
2499.000 0.410
2500.000 0.416
