391.000 0.020
392.000 0.023
393.000 0.025
394.000 0.022
395.000 0.021
396.000 0.022
397.000 0.024
398.000 0.029
399.000 0.029
400.000 0.029
401.000 0.030
402.000 0.027
403.000 0.026
404.000 0.025
405.000 0.025
406.000 0.026
407.000 0.028
408.000 0.030
409.000 0.030
410.000 0.030
411.000 0.030
412.000 0.029
413.000 0.028
414.000 0.030
415.000 0.031
416.000 0.030
417.000 0.031
418.000 0.030
419.000 0.029
420.000 0.031
421.000 0.032
422.000 0.031
423.000 0.031
424.000 0.029
425.000 0.029
426.000 0.029
427.000 0.032
428.000 0.032
429.000 0.031
430.000 0.031
431.000 0.033
432.000 0.033
433.000 0.033
434.000 0.032
435.000 0.029
436.000 0.032
437.000 0.034
438.000 0.032
439.000 0.032
440.000 0.033
441.000 0.033
442.000 0.034
443.000 0.034
444.000 0.034
445.000 0.033
446.000 0.034
447.000 0.034
448.000 0.034
449.000 0.033
450.000 0.032
451.000 0.033
452.000 0.034
453.000 0.033
454.000 0.033
455.000 0.036
456.000 0.037
457.000 0.034
458.000 0.035
459.000 0.036
460.000 0.037
461.000 0.035
462.000 0.035
463.000 0.036
464.000 0.035
465.000 0.034
466.000 0.034
467.000 0.035
468.000 0.037
469.000 0.036
470.000 0.034
471.000 0.033
472.000 0.034
473.000 0.035
474.000 0.034
475.000 0.035
476.000 0.036
477.000 0.036
478.000 0.034
479.000 0.035
480.000 0.036
481.000 0.038
482.000 0.037
483.000 0.036
484.000 0.036
485.000 0.035
486.000 0.035
487.000 0.035
488.000 0.035
489.000 0.035
490.000 0.036
491.000 0.035
492.000 0.034
493.000 0.037
494.000 0.037
495.000 0.037
496.000 0.039
497.000 0.038
498.000 0.039
499.000 0.039
500.000 0.038
501.000 0.038
502.000 0.039
503.000 0.039
504.000 0.040
505.000 0.040
506.000 0.041
507.000 0.042
508.000 0.042
509.000 0.043
510.000 0.045
511.000 0.046
512.000 0.046
513.000 0.047
514.000 0.048
515.000 0.048
516.000 0.049
517.000 0.052
518.000 0.052
519.000 0.054
520.000 0.055
521.000 0.057
522.000 0.060
523.000 0.061
524.000 0.062
525.000 0.064
526.000 0.066
527.000 0.067
528.000 0.068
529.000 0.069
530.000 0.070
531.000 0.072
532.000 0.073
533.000 0.074
534.000 0.074
535.000 0.074
536.000 0.076
537.000 0.076
538.000 0.076
539.000 0.077
540.000 0.076
541.000 0.078
542.000 0.078
543.000 0.078
544.000 0.078
545.000 0.079
546.000 0.079
547.000 0.080
548.000 0.080
549.000 0.080
550.000 0.080
551.000 0.080
552.000 0.080
553.000 0.079
554.000 0.079
555.000 0.080
556.000 0.079
557.000 0.078
558.000 0.078
559.000 0.078
560.000 0.078
561.000 0.077
562.000 0.076
563.000 0.075
564.000 0.074
565.000 0.073
566.000 0.073
567.000 0.072
568.000 0.071
569.000 0.070
570.000 0.069
571.000 0.067
572.000 0.066
573.000 0.067
574.000 0.066
575.000 0.065
576.000 0.064
577.000 0.063
578.000 0.062
579.000 0.062
580.000 0.062
581.000 0.062
582.000 0.060
583.000 0.059
584.000 0.059
585.000 0.059
586.000 0.059
587.000 0.059
588.000 0.057
589.000 0.056
590.000 0.056
591.000 0.056
592.000 0.056
593.000 0.056
594.000 0.056
595.000 0.057
596.000 0.056
597.000 0.056
598.000 0.056
599.000 0.056
600.000 0.056
601.000 0.055
602.000 0.056
603.000 0.056
604.000 0.055
605.000 0.057
606.000 0.055
607.000 0.055
608.000 0.056
609.000 0.055
610.000 0.055
611.000 0.055
612.000 0.054
613.000 0.053
614.000 0.053
615.000 0.053
616.000 0.051
617.000 0.052
618.000 0.052
619.000 0.051
620.000 0.052
621.000 0.050
622.000 0.050
623.000 0.051
624.000 0.052
625.000 0.051
626.000 0.051
627.000 0.051
628.000 0.051
629.000 0.051
630.000 0.050
631.000 0.051
632.000 0.053
633.000 0.053
634.000 0.052
635.000 0.050
636.000 0.049
637.000 0.050
638.000 0.052
639.000 0.051
640.000 0.049
641.000 0.051
642.000 0.049
643.000 0.048
644.000 0.049
645.000 0.049
646.000 0.047
647.000 0.046
648.000 0.047
649.000 0.047
650.000 0.047
651.000 0.046
652.000 0.047
653.000 0.046
654.000 0.046
655.000 0.047
656.000 0.048
657.000 0.048
658.000 0.047
659.000 0.048
660.000 0.050
661.000 0.051
662.000 0.050
663.000 0.047
664.000 0.047
665.000 0.049
666.000 0.048
667.000 0.047
668.000 0.048
669.000 0.050
670.000 0.052
671.000 0.052
672.000 0.051
673.000 0.051
674.000 0.055
675.000 0.053
676.000 0.050
677.000 0.052
678.000 0.055
679.000 0.056
680.000 0.056
681.000 0.058
682.000 0.056
683.000 0.056
684.000 0.057
685.000 0.058
686.000 0.060
687.000 0.061
688.000 0.061
689.000 0.063
690.000 0.063
691.000 0.063
692.000 0.063
693.000 0.067
694.000 0.071
695.000 0.074
696.000 0.077
697.000 0.080
698.000 0.084
699.000 0.088
700.000 0.092
701.000 0.098
702.000 0.103
703.000 0.107
704.000 0.111
705.000 0.117
706.000 0.122
707.000 0.127
708.000 0.132
709.000 0.136
710.000 0.142
711.000 0.146
712.000 0.152
713.000 0.157
714.000 0.162
715.000 0.167
716.000 0.171
717.000 0.175
718.000 0.180
719.000 0.185
720.000 0.191
721.000 0.198
722.000 0.205
723.000 0.209
724.000 0.213
725.000 0.218
726.000 0.224
727.000 0.229
728.000 0.235
729.000 0.240
730.000 0.245
731.000 0.251
732.000 0.257
733.000 0.263
734.000 0.268
735.000 0.273
736.000 0.277
737.000 0.282
738.000 0.286
739.000 0.290
740.000 0.294
741.000 0.298
742.000 0.302
743.000 0.305
744.000 0.309
745.000 0.311
746.000 0.314
747.000 0.316
748.000 0.318
749.000 0.321
750.000 0.323
751.000 0.324
752.000 0.326
753.000 0.328
754.000 0.329
755.000 0.330
756.000 0.331
757.000 0.332
758.000 0.332
759.000 0.330
760.000 0.328
761.000 0.323
762.000 0.321
763.000 0.322
764.000 0.324
765.000 0.328
766.000 0.332
767.000 0.335
768.000 0.338
769.000 0.340
770.000 0.341
771.000 0.342
772.000 0.343
773.000 0.344
774.000 0.344
775.000 0.345
776.000 0.345
777.000 0.346
778.000 0.346
779.000 0.347
780.000 0.347
781.000 0.347
782.000 0.347
783.000 0.347
784.000 0.348
785.000 0.348
786.000 0.348
787.000 0.347
788.000 0.347
789.000 0.346
790.000 0.346
791.000 0.347
792.000 0.347
793.000 0.348
794.000 0.349
795.000 0.349
796.000 0.349
797.000 0.349
798.000 0.349
799.000 0.349
800.000 0.349
801.000 0.349
802.000 0.349
803.000 0.350
804.000 0.350
805.000 0.351
806.000 0.352
807.000 0.352
808.000 0.352
809.000 0.352
810.000 0.351
811.000 0.349
812.000 0.347
813.000 0.346
814.000 0.344
815.000 0.342
816.000 0.342
817.000 0.341
818.000 0.343
819.000 0.344
820.000 0.345
821.000 0.346
822.000 0.347
823.000 0.347
824.000 0.348
825.000 0.348
826.000 0.349
827.000 0.349
828.000 0.350
829.000 0.350
830.000 0.350
831.000 0.351
832.000 0.352
833.000 0.353
834.000 0.354
835.000 0.355
836.000 0.357
837.000 0.357
838.000 0.358
839.000 0.359
840.000 0.360
841.000 0.360
842.000 0.361
843.000 0.362
844.000 0.363
845.000 0.363
846.000 0.364
847.000 0.364
848.000 0.365
849.000 0.365
850.000 0.365
851.000 0.365
852.000 0.365
853.000 0.366
854.000 0.367
855.000 0.367
856.000 0.367
857.000 0.367
858.000 0.367
859.000 0.368
860.000 0.368
861.000 0.369
862.000 0.369
863.000 0.369
864.000 0.369
865.000 0.370
866.000 0.371
867.000 0.371
868.000 0.371
869.000 0.371
870.000 0.371
871.000 0.371
872.000 0.371
873.000 0.371
874.000 0.372
875.000 0.372
876.000 0.372
877.000 0.372
878.000 0.372
879.000 0.372
880.000 0.372
881.000 0.372
882.000 0.373
883.000 0.373
884.000 0.373
885.000 0.373
886.000 0.373
887.000 0.372
888.000 0.373
889.000 0.373
890.000 0.372
891.000 0.371
892.000 0.369
893.000 0.368
894.000 0.366
895.000 0.364
896.000 0.362
897.000 0.360
898.000 0.359
899.000 0.358
900.000 0.357
901.000 0.359
902.000 0.359
903.000 0.359
904.000 0.359
905.000 0.360
906.000 0.359
907.000 0.359
908.000 0.358
909.000 0.357
910.000 0.357
911.000 0.355
912.000 0.354
913.000 0.354
914.000 0.354
915.000 0.354
916.000 0.355
917.000 0.357
918.000 0.358
919.000 0.359
920.000 0.359
921.000 0.360
922.000 0.361
923.000 0.360
924.000 0.359
925.000 0.358
926.000 0.355
927.000 0.354
928.000 0.350
929.000 0.348
930.000 0.344
931.000 0.338
932.000 0.333
933.000 0.330
934.000 0.326
935.000 0.321
936.000 0.319
937.000 0.321
938.000 0.321
939.000 0.320
940.000 0.319
941.000 0.320
942.000 0.320
943.000 0.320
944.000 0.321
945.000 0.320
946.000 0.318
947.000 0.318
948.000 0.320
949.000 0.319
950.000 0.319
951.000 0.320
952.000 0.320
953.000 0.319
954.000 0.320
955.000 0.323
956.000 0.321
957.000 0.322
958.000 0.325
959.000 0.326
960.000 0.327
961.000 0.326
962.000 0.326
963.000 0.330
964.000 0.336
965.000 0.338
966.000 0.339
967.000 0.341
968.000 0.343
969.000 0.343
970.000 0.344
971.000 0.345
972.000 0.346
973.000 0.346
974.000 0.346
975.000 0.347
976.000 0.347
977.000 0.347
978.000 0.348
979.000 0.350
980.000 0.351
981.000 0.352
982.000 0.354
983.000 0.355
984.000 0.356
985.000 0.358
986.000 0.360
987.000 0.360
988.000 0.362
989.000 0.363
990.000 0.364
991.000 0.365
992.000 0.366
993.000 0.366
994.000 0.366
995.000 0.367
996.000 0.369
997.000 0.368
998.000 0.369
999.000 0.369
1000.000 0.369
1001.000 0.379
1002.000 0.380
1003.000 0.381
1004.000 0.382
1005.000 0.382
1006.000 0.382
1007.000 0.382
1008.000 0.382
1009.000 0.382
1010.000 0.382
1011.000 0.383
1012.000 0.383
1013.000 0.383
1014.000 0.384
1015.000 0.385
1016.000 0.386
1017.000 0.387
1018.000 0.387
1019.000 0.387
1020.000 0.387
1021.000 0.387
1022.000 0.387
1023.000 0.387
1024.000 0.388
1025.000 0.388
1026.000 0.389
1027.000 0.390
1028.000 0.390
1029.000 0.390
1030.000 0.391
1031.000 0.391
1032.000 0.391
1033.000 0.392
1034.000 0.393
1035.000 0.394
1036.000 0.394
1037.000 0.395
1038.000 0.395
1039.000 0.395
1040.000 0.396
1041.000 0.395
1042.000 0.395
1043.000 0.396
1044.000 0.396
1045.000 0.396
1046.000 0.397
1047.000 0.398
1048.000 0.398
1049.000 0.399
1050.000 0.399
1051.000 0.399
1052.000 0.400
1053.000 0.400
1054.000 0.400
1055.000 0.400
1056.000 0.400
1057.000 0.400
1058.000 0.400
1059.000 0.400
1060.000 0.401
1061.000 0.402
1062.000 0.402
1063.000 0.402
1064.000 0.401
1065.000 0.401
1066.000 0.401
1067.000 0.401
1068.000 0.401
1069.000 0.401
1070.000 0.401
1071.000 0.401
1072.000 0.401
1073.000 0.401
1074.000 0.401
1075.000 0.401
1076.000 0.401
1077.000 0.401
1078.000 0.401
1079.000 0.401
1080.000 0.401
1081.000 0.401
1082.000 0.401
1083.000 0.401
1084.000 0.401
1085.000 0.401
1086.000 0.400
1087.000 0.399
1088.000 0.398
1089.000 0.397
1090.000 0.396
1091.000 0.395
1092.000 0.395
1093.000 0.395
1094.000 0.394
1095.000 0.393
1096.000 0.392
1097.000 0.391
1098.000 0.390
1099.000 0.389
1100.000 0.387
1101.000 0.385
1102.000 0.383
1103.000 0.382
1104.000 0.381
1105.000 0.379
1106.000 0.378
1107.000 0.377
1108.000 0.375
1109.000 0.374
1110.000 0.372
1111.000 0.370
1112.000 0.367
1113.000 0.365
1114.000 0.362
1115.000 0.360
1116.000 0.358
1117.000 0.355
1118.000 0.353
1119.000 0.349
1120.000 0.345
1121.000 0.342
1122.000 0.339
1123.000 0.335
1124.000 0.332
1125.000 0.330
1126.000 0.327
1127.000 0.326
1128.000 0.326
1129.000 0.328
1130.000 0.328
1131.000 0.329
1132.000 0.330
1133.000 0.330
1134.000 0.330
1135.000 0.331
1136.000 0.332
1137.000 0.332
1138.000 0.332
1139.000 0.332
1140.000 0.331
1141.000 0.328
1142.000 0.328
1143.000 0.328
1144.000 0.327
1145.000 0.328
1146.000 0.327
1147.000 0.325
1148.000 0.324
1149.000 0.322
1150.000 0.322
1151.000 0.323
1152.000 0.324
1153.000 0.325
1154.000 0.326
1155.000 0.328
1156.000 0.330
1157.000 0.331
1158.000 0.333
1159.000 0.335
1160.000 0.336
1161.000 0.337
1162.000 0.338
1163.000 0.339
1164.000 0.340
1165.000 0.341
1166.000 0.342
1167.000 0.343
1168.000 0.344
1169.000 0.344
1170.000 0.345
1171.000 0.345
1172.000 0.345
1173.000 0.346
1174.000 0.346
1175.000 0.346
1176.000 0.346
1177.000 0.346
1178.000 0.347
1179.000 0.347
1180.000 0.347
1181.000 0.347
1182.000 0.346
1183.000 0.346
1184.000 0.346
1185.000 0.346
1186.000 0.345
1187.000 0.346
1188.000 0.346
1189.000 0.347
1190.000 0.347
1191.000 0.347
1192.000 0.348
1193.000 0.348
1194.000 0.349
1195.000 0.349
1196.000 0.349
1197.000 0.349
1198.000 0.349
1199.000 0.349
1200.000 0.349
1201.000 0.350
1202.000 0.350
1203.000 0.350
1204.000 0.351
1205.000 0.351
1206.000 0.352
1207.000 0.352
1208.000 0.353
1209.000 0.354
1210.000 0.355
1211.000 0.355
1212.000 0.355
1213.000 0.355
1214.000 0.356
1215.000 0.356
1216.000 0.356
1217.000 0.357
1218.000 0.357
1219.000 0.357
1220.000 0.358
1221.000 0.359
1222.000 0.360
1223.000 0.361
1224.000 0.361
1225.000 0.362
1226.000 0.362
1227.000 0.363
1228.000 0.363
1229.000 0.364
1230.000 0.364
1231.000 0.365
1232.000 0.365
1233.000 0.366
1234.000 0.367
1235.000 0.368
1236.000 0.368
1237.000 0.369
1238.000 0.369
1239.000 0.370
1240.000 0.370
1241.000 0.370
1242.000 0.370
1243.000 0.371
1244.000 0.371
1245.000 0.372
1246.000 0.372
1247.000 0.373
1248.000 0.373
1249.000 0.373
1250.000 0.373
1251.000 0.373
1252.000 0.373
1253.000 0.372
1254.000 0.372
1255.000 0.372
1256.000 0.372
1257.000 0.371
1258.000 0.371
1259.000 0.371
1260.000 0.370
1261.000 0.370
1262.000 0.370
1263.000 0.370
1264.000 0.370
1265.000 0.370
1266.000 0.370
1267.000 0.370
1268.000 0.370
1269.000 0.370
1270.000 0.370
1271.000 0.370
1272.000 0.371
1273.000 0.371
1274.000 0.372
1275.000 0.372
1276.000 0.373
1277.000 0.373
1278.000 0.374
1279.000 0.374
1280.000 0.374
1281.000 0.374
1282.000 0.375
1283.000 0.375
1284.000 0.374
1285.000 0.375
1286.000 0.374
1287.000 0.374
1288.000 0.374
1289.000 0.373
1290.000 0.372
1291.000 0.371
1292.000 0.371
1293.000 0.370
1294.000 0.369
1295.000 0.368
1296.000 0.367
1297.000 0.367
1298.000 0.366
1299.000 0.364
1300.000 0.364
1301.000 0.363
1302.000 0.362
1303.000 0.361
1304.000 0.360
1305.000 0.358
1306.000 0.357
1307.000 0.355
1308.000 0.355
1309.000 0.353
1310.000 0.351
1311.000 0.350
1312.000 0.349
1313.000 0.348
1314.000 0.347
1315.000 0.345
1316.000 0.344
1317.000 0.342
1318.000 0.341
1319.000 0.340
1320.000 0.339
1321.000 0.337
1322.000 0.335
1323.000 0.333
1324.000 0.331
1325.000 0.329
1326.000 0.326
1327.000 0.324
1328.000 0.321
1329.000 0.319
1330.000 0.317
1331.000 0.315
1332.000 0.314
1333.000 0.312
1334.000 0.309
1335.000 0.307
1336.000 0.305
1337.000 0.303
1338.000 0.302
1339.000 0.302
1340.000 0.301
1341.000 0.300
1342.000 0.299
1343.000 0.297
1344.000 0.297
1345.000 0.296
1346.000 0.296
1347.000 0.295
1348.000 0.295
1349.000 0.293
1350.000 0.294
1351.000 0.300
1352.000 0.304
1353.000 0.311
1354.000 0.326
1355.000 0.317
1356.000 0.301
1357.000 0.343
1358.000 0.418
1359.000 0.439
1360.000 0.468
1361.000 0.325
1362.000 0.275
1363.000 0.281
1364.000 0.290
1365.000 0.351
1366.000 0.328
1367.000 0.428
1368.000 0.498
1369.000 0.343
1370.000 0.297
1371.000 0.235
1372.000 0.231
1373.000 0.186
1374.000 0.384
1375.000 0.383
1376.000 0.463
1377.000 0.490
1378.000 0.501
1379.000 0.631
1380.000 0.614
1381.000 0.628
1382.000 0.341
1383.000 0.309
1384.000 0.265
1385.000 0.263
1386.000 0.210
1387.000 0.230
1388.000 0.182
1389.000 0.294
1390.000 0.404
1391.000 0.702
1392.000 0.288
1393.000 0.689
1394.000 0.274
1395.000 0.325
1396.000 0.436
1397.000 0.489
1398.000 0.636
1399.000 0.871
1400.000 0.685
1401.000 0.499
1402.000 0.393
1403.000 0.298
1404.000 0.317
1405.000 0.334
1406.000 0.475
1407.000 0.212
1408.000 0.326
1409.000 0.377
1410.000 0.654
1411.000 0.692
1412.000 0.347
1413.000 0.262
1414.000 0.170
1415.000 0.100
1416.000 0.108
1417.000 0.196
1418.000 0.221
1419.000 0.190
1420.000 0.152
1421.000 0.105
1422.000 0.120
1423.000 0.118
1424.000 0.123
1425.000 0.164
1426.000 0.141
1427.000 0.131
1428.000 0.139
1429.000 0.176
1430.000 0.158
1431.000 0.161
1432.000 0.141
1433.000 0.129
1434.000 0.108
1435.000 0.097
1436.000 0.124
1437.000 0.093
1438.000 0.100
1439.000 0.208
1440.000 0.230
1441.000 0.196
1442.000 0.196
1443.000 0.172
1444.000 0.115
1445.000 0.121
1446.000 0.118
1447.000 0.106
1448.000 0.104
1449.000 0.096
1450.000 0.094
1451.000 0.098
1452.000 0.101
1453.000 0.103
1454.000 0.105
1455.000 0.107
1456.000 0.118
1457.000 0.112
1458.000 0.118
1459.000 0.118
1460.000 0.113
1461.000 0.116
1462.000 0.117
1463.000 0.120
1464.000 0.132
1465.000 0.136
1466.000 0.137
1467.000 0.139
1468.000 0.140
1469.000 0.142
1470.000 0.147
1471.000 0.145
1472.000 0.135
1473.000 0.132
1474.000 0.127
1475.000 0.126
1476.000 0.131
1477.000 0.132
1478.000 0.134
1479.000 0.134
1480.000 0.131
1481.000 0.131
1482.000 0.132
1483.000 0.132
1484.000 0.132
1485.000 0.132
1486.000 0.128
1487.000 0.128
1488.000 0.129
1489.000 0.131
1490.000 0.137
1491.000 0.140
1492.000 0.145
1493.000 0.147
1494.000 0.146
1495.000 0.146
1496.000 0.145
1497.000 0.145
1498.000 0.146
1499.000 0.148
1500.000 0.149
1501.000 0.150
1502.000 0.150
1503.000 0.150
1504.000 0.150
1505.000 0.151
1506.000 0.152
1507.000 0.154
1508.000 0.155
1509.000 0.158
1510.000 0.160
1511.000 0.162
1512.000 0.164
1513.000 0.166
1514.000 0.168
1515.000 0.169
1516.000 0.169
1517.000 0.168
1518.000 0.168
1519.000 0.165
1520.000 0.166
1521.000 0.168
1522.000 0.170
1523.000 0.173
1524.000 0.175
1525.000 0.177
1526.000 0.179
1527.000 0.181
1528.000 0.183
1529.000 0.183
1530.000 0.185
1531.000 0.186
1532.000 0.185
1533.000 0.185
1534.000 0.185
1535.000 0.185
1536.000 0.185
1537.000 0.187
1538.000 0.189
1539.000 0.191
1540.000 0.192
1541.000 0.193
1542.000 0.194
1543.000 0.195
1544.000 0.196
1545.000 0.196
1546.000 0.197
1547.000 0.198
1548.000 0.199
1549.000 0.201
1550.000 0.202
1551.000 0.202
1552.000 0.203
1553.000 0.204
1554.000 0.205
1555.000 0.207
1556.000 0.209
1557.000 0.210
1558.000 0.210
1559.000 0.210
1560.000 0.210
1561.000 0.209
1562.000 0.209
1563.000 0.210
1564.000 0.210
1565.000 0.210
1566.000 0.211
1567.000 0.212
1568.000 0.214
1569.000 0.216
1570.000 0.217
1571.000 0.217
1572.000 0.217
1573.000 0.218
1574.000 0.219
1575.000 0.219
1576.000 0.221
1577.000 0.223
1578.000 0.225
1579.000 0.227
1580.000 0.228
1581.000 0.227
1582.000 0.226
1583.000 0.226
1584.000 0.226
1585.000 0.227
1586.000 0.228
1587.000 0.229
1588.000 0.231
1589.000 0.232
1590.000 0.233
1591.000 0.234
1592.000 0.234
1593.000 0.234
1594.000 0.234
1595.000 0.234
1596.000 0.235
1597.000 0.235
1598.000 0.237
1599.000 0.238
1600.000 0.239
1601.000 0.241
1602.000 0.241
1603.000 0.241
1604.000 0.240
1605.000 0.239
1606.000 0.239
1607.000 0.240
1608.000 0.241
1609.000 0.243
1610.000 0.244
1611.000 0.244
1612.000 0.244
1613.000 0.245
1614.000 0.246
1615.000 0.246
1616.000 0.247
1617.000 0.246
1618.000 0.246
1619.000 0.247
1620.000 0.248
1621.000 0.249
1622.000 0.250
1623.000 0.250
1624.000 0.251
1625.000 0.252
1626.000 0.252
1627.000 0.253
1628.000 0.253
1629.000 0.253
1630.000 0.252
1631.000 0.253
1632.000 0.253
1633.000 0.254
1634.000 0.254
1635.000 0.254
1636.000 0.254
1637.000 0.254
1638.000 0.254
1639.000 0.254
1640.000 0.254
1641.000 0.255
1642.000 0.256
1643.000 0.256
1644.000 0.256
1645.000 0.256
1646.000 0.256
1647.000 0.257
1648.000 0.257
1649.000 0.258
1650.000 0.259
1651.000 0.260
1652.000 0.260
1653.000 0.260
1654.000 0.260
1655.000 0.259
1656.000 0.259
1657.000 0.259
1658.000 0.259
1659.000 0.258
1660.000 0.258
1661.000 0.259
1662.000 0.260
1663.000 0.261
1664.000 0.262
1665.000 0.262
1666.000 0.262
1667.000 0.262
1668.000 0.262
1669.000 0.260
1670.000 0.260
1671.000 0.261
1672.000 0.262
1673.000 0.263
1674.000 0.264
1675.000 0.263
1676.000 0.263
1677.000 0.263
1678.000 0.262
1679.000 0.262
1680.000 0.262
1681.000 0.261
1682.000 0.260
1683.000 0.259
1684.000 0.260
1685.000 0.262
1686.000 0.262
1687.000 0.263
1688.000 0.262
1689.000 0.259
1690.000 0.259
1691.000 0.261
1692.000 0.261
1693.000 0.261
1694.000 0.261
1695.000 0.260
1696.000 0.260
1697.000 0.261
1698.000 0.261
1699.000 0.261
1700.000 0.260
1701.000 0.259
1702.000 0.258
1703.000 0.257
1704.000 0.257
1705.000 0.258
1706.000 0.257
1707.000 0.257
1708.000 0.255
1709.000 0.253
1710.000 0.253
1711.000 0.253
1712.000 0.255
1713.000 0.257
1714.000 0.259
1715.000 0.258
1716.000 0.258
1717.000 0.256
1718.000 0.254
1719.000 0.253
1720.000 0.252
1721.000 0.251
1722.000 0.251
1723.000 0.251
1724.000 0.249
1725.000 0.248
1726.000 0.248
1727.000 0.245
1728.000 0.245
1729.000 0.244
1730.000 0.244
1731.000 0.245
1732.000 0.245
1733.000 0.246
1734.000 0.246
1735.000 0.245
1736.000 0.244
1737.000 0.244
1738.000 0.244
1739.000 0.243
1740.000 0.243
1741.000 0.243
1742.000 0.242
1743.000 0.241
1744.000 0.242
1745.000 0.240
1746.000 0.237
1747.000 0.237
1748.000 0.237
1749.000 0.237
1750.000 0.238
1751.000 0.237
1752.000 0.235
1753.000 0.233
1754.000 0.233
1755.000 0.232
1756.000 0.234
1757.000 0.233
1758.000 0.232
1759.000 0.229
1760.000 0.225
1761.000 0.222
1762.000 0.223
1763.000 0.222
1764.000 0.222
1765.000 0.222
1766.000 0.222
1767.000 0.222
1768.000 0.225
1769.000 0.225
1770.000 0.225
1771.000 0.227
1772.000 0.226
1773.000 0.226
1774.000 0.226
1775.000 0.224
1776.000 0.221
1777.000 0.219
1778.000 0.214
1779.000 0.211
1780.000 0.214
1781.000 0.216
1782.000 0.221
1783.000 0.226
1784.000 0.227
1785.000 0.223
1786.000 0.223
1787.000 0.224
1788.000 0.224
1789.000 0.226
1790.000 0.226
1791.000 0.223
1792.000 0.226
1793.000 0.225
1794.000 0.228
1795.000 0.229
1796.000 0.229
1797.000 0.237
1798.000 0.234
1799.000 0.238
1800.000 0.227
1801.000 0.293
1802.000 0.310
1803.000 0.330
1804.000 0.380
1805.000 0.406
1806.000 0.456
1807.000 0.451
1808.000 0.375
1809.000 0.352
1810.000 0.352
1811.000 0.337
1812.000 0.399
1813.000 0.365
1814.000 0.437
1815.000 0.439
1816.000 0.379
1817.000 0.437
1818.000 0.459
1819.000 0.470
1820.000 0.604
1821.000 0.666
1822.000 0.721
1823.000 0.702
1824.000 0.630
1825.000 0.658
1826.000 0.648
1827.000 0.715
1828.000 0.755
1829.000 0.752
1830.000 0.831
1831.000 0.852
1832.000 0.500
1833.000 0.659
1834.000 0.517
1835.000 0.594
1836.000 0.606
1837.000 0.516
1838.000 0.489
1839.000 0.472
1840.000 0.450
1841.000 0.452
1842.000 0.472
1843.000 0.503
1844.000 0.499
1845.000 0.223
1846.000 0.266
1847.000 0.288
1848.000 0.298
1849.000 0.367
1850.000 0.376
1851.000 0.398
1852.000 0.438
1853.000 0.433
1854.000 0.319
1855.000 0.366
1856.000 0.369
1857.000 0.395
1858.000 0.428
1859.000 0.558
1860.000 0.557
1861.000 0.494
1862.000 0.363
1863.000 0.292
1864.000 0.195
1865.000 0.114
1866.000 0.287
1867.000 0.586
1868.000 0.818
1869.000 0.402
1870.000 0.471
1871.000 0.533
1872.000 0.609
1873.000 0.732
1874.000 0.698
1875.000 0.688
1876.000 0.624
1877.000 0.187
1878.000 0.269
1879.000 0.504
1880.000 0.480
1881.000 0.481
1882.000 0.471
1883.000 0.543
1884.000 0.406
1885.000 0.512
1886.000 0.655
1887.000 0.605
1888.000 0.652
1889.000 0.621
1890.000 0.615
1891.000 0.615
1892.000 0.520
1893.000 0.297
1894.000 0.525
1895.000 0.422
1896.000 0.573
1897.000 0.635
1898.000 0.630
1899.000 0.707
1900.000 0.761
1901.000 0.829
1902.000 0.406
1903.000 0.512
1904.000 0.638
1905.000 0.562
1906.000 0.349
1907.000 0.508
1908.000 0.453
1909.000 0.397
1910.000 0.368
1911.000 0.511
1912.000 0.532
1913.000 0.461
1914.000 0.453
1915.000 0.456
1916.000 0.423
1917.000 0.475
1918.000 0.567
1919.000 0.572
1920.000 0.533
1921.000 0.581
1922.000 0.664
1923.000 0.716
1924.000 0.658
1925.000 0.615
1926.000 0.606
1927.000 0.586
1928.000 0.564
1929.000 0.691
1930.000 0.276
1931.000 0.240
1932.000 0.741
1933.000 0.654
1934.000 0.536
1935.000 0.633
1936.000 0.595
1937.000 0.550
1938.000 0.530
1939.000 0.516
1940.000 0.434
1941.000 0.399
1942.000 0.447
1943.000 0.401
1944.000 0.490
1945.000 0.399
1946.000 0.454
1947.000 0.425
1948.000 0.471
1949.000 0.499
1950.000 0.426
1951.000 0.163
1952.000 0.174
1953.000 0.293
1954.000 0.345
1955.000 0.412
1956.000 0.512
1957.000 0.795
1958.000 0.547
1959.000 0.441
1960.000 0.290
1961.000 0.343
1962.000 0.322
1963.000 0.416
1964.000 0.420
1965.000 0.432
1966.000 0.348
1967.000 0.325
1968.000 0.302
1969.000 0.236
1970.000 0.215
1971.000 0.181
1972.000 0.178
1973.000 0.199
1974.000 0.194
1975.000 0.196
1976.000 0.232
1977.000 0.242
1978.000 0.229
1979.000 0.221
1980.000 0.221
1981.000 0.203
1982.000 0.206
1983.000 0.180
1984.000 0.181
1985.000 0.159
1986.000 0.175
1987.000 0.170
1988.000 0.152
1989.000 0.165
1990.000 0.164
1991.000 0.181
1992.000 0.177
1993.000 0.164
1994.000 0.181
1995.000 0.175
1996.000 0.178
1997.000 0.166
1998.000 0.165
1999.000 0.161
2000.000 0.215
2001.000 0.243
2002.000 0.263
2003.000 0.266
2004.000 0.230
2005.000 0.225
2006.000 0.227
2007.000 0.256
2008.000 0.242
2009.000 0.242
2010.000 0.256
2011.000 0.232
2012.000 0.286
2013.000 0.224
2014.000 0.209
2015.000 0.171
2016.000 0.157
2017.000 0.191
2018.000 0.200
2019.000 0.205
2020.000 0.208
2021.000 0.177
2022.000 0.159
2023.000 0.144
2024.000 0.133
2025.000 0.119
2026.000 0.128
2027.000 0.133
2028.000 0.143
2029.000 0.147
2030.000 0.147
2031.000 0.146
2032.000 0.142
2033.000 0.136
2034.000 0.132
2035.000 0.123
2036.000 0.110
2037.000 0.107
2038.000 0.109
2039.000 0.108
2040.000 0.112
2041.000 0.115
2042.000 0.118
2043.000 0.119
2044.000 0.119
2045.000 0.120
2046.000 0.124
2047.000 0.133
2048.000 0.136
2049.000 0.140
2050.000 0.144
2051.000 0.136
2052.000 0.125
2053.000 0.133
2054.000 0.138
2055.000 0.144
2056.000 0.145
2057.000 0.137
2058.000 0.116
2059.000 0.111
2060.000 0.112
2061.000 0.113
2062.000 0.119
2063.000 0.123
2064.000 0.127
2065.000 0.144
2066.000 0.132
2067.000 0.145
2068.000 0.157
2069.000 0.165
2070.000 0.170
2071.000 0.166
2072.000 0.163
2073.000 0.153
2074.000 0.149
2075.000 0.148
2076.000 0.146
2077.000 0.137
2078.000 0.138
2079.000 0.146
2080.000 0.150
2081.000 0.156
2082.000 0.164
2083.000 0.167
2084.000 0.162
2085.000 0.161
2086.000 0.162
2087.000 0.160
2088.000 0.158
2089.000 0.155
2090.000 0.147
2091.000 0.145
2092.000 0.144
2093.000 0.144
2094.000 0.146
2095.000 0.147
2096.000 0.150
2097.000 0.153
2098.000 0.155
2099.000 0.159
2100.000 0.165
2101.000 0.165
2102.000 0.163
2103.000 0.166
2104.000 0.164
2105.000 0.157
2106.000 0.157
2107.000 0.158
2108.000 0.158
2109.000 0.160
2110.000 0.159
2111.000 0.150
2112.000 0.150
2113.000 0.154
2114.000 0.153
2115.000 0.155
2116.000 0.156
2117.000 0.155
2118.000 0.149
2119.000 0.149
2120.000 0.144
2121.000 0.139
2122.000 0.138
2123.000 0.137
2124.000 0.137
2125.000 0.141
2126.000 0.149
2127.000 0.154
2128.000 0.161
2129.000 0.164
2130.000 0.161
2131.000 0.162
2132.000 0.163
2133.000 0.165
2134.000 0.171
2135.000 0.173
2136.000 0.173
2137.000 0.176
2138.000 0.177
2139.000 0.172
2140.000 0.169
2141.000 0.167
2142.000 0.167
2143.000 0.169
2144.000 0.166
2145.000 0.162
2146.000 0.162
2147.000 0.158
2148.000 0.159
2149.000 0.169
2150.000 0.172
2151.000 0.173
2152.000 0.172
2153.000 0.166
2154.000 0.164
2155.000 0.161
2156.000 0.162
2157.000 0.166
2158.000 0.172
2159.000 0.174
2160.000 0.171
2161.000 0.168
2162.000 0.160
2163.000 0.158
2164.000 0.158
2165.000 0.160
2166.000 0.167
2167.000 0.171
2168.000 0.175
2169.000 0.177
2170.000 0.177
2171.000 0.176
2172.000 0.176
2173.000 0.174
2174.000 0.166
2175.000 0.163
2176.000 0.158
2177.000 0.160
2178.000 0.162
2179.000 0.166
2180.000 0.165
2181.000 0.164
2182.000 0.163
2183.000 0.160
2184.000 0.161
2185.000 0.166
2186.000 0.165
2187.000 0.161
2188.000 0.160
2189.000 0.158
2190.000 0.158
2191.000 0.163
2192.000 0.164
2193.000 0.160
2194.000 0.161
2195.000 0.163
2196.000 0.165
2197.000 0.171
2198.000 0.174
2199.000 0.176
2200.000 0.176
2201.000 0.173
2202.000 0.171
2203.000 0.169
2204.000 0.163
2205.000 0.159
2206.000 0.162
2207.000 0.165
2208.000 0.171
2209.000 0.172
2210.000 0.172
2211.000 0.170
2212.000 0.163
2213.000 0.164
2214.000 0.171
2215.000 0.170
2216.000 0.170
2217.000 0.167
2218.000 0.156
2219.000 0.150
2220.000 0.144
2221.000 0.143
2222.000 0.147
2223.000 0.153
2224.000 0.167
2225.000 0.175
2226.000 0.185
2227.000 0.189
2228.000 0.187
2229.000 0.185
2230.000 0.178
2231.000 0.174
2232.000 0.171
2233.000 0.168
2234.000 0.173
2235.000 0.173
2236.000 0.172
2237.000 0.178
2238.000 0.176
2239.000 0.165
2240.000 0.163
2241.000 0.160
2242.000 0.159
2243.000 0.163
2244.000 0.164
2245.000 0.163
2246.000 0.165
2247.000 0.172
2248.000 0.173
2249.000 0.175
2250.000 0.173
2251.000 0.162
2252.000 0.157
2253.000 0.149
2254.000 0.147
2255.000 0.152
2256.000 0.152
2257.000 0.151
2258.000 0.154
2259.000 0.151
2260.000 0.155
2261.000 0.168
2262.000 0.175
2263.000 0.176
2264.000 0.180
2265.000 0.179
2266.000 0.169
2267.000 0.170
2268.000 0.170
2269.000 0.165
2270.000 0.178
2271.000 0.181
2272.000 0.175
2273.000 0.173
2274.000 0.171
2275.000 0.164
2276.000 0.158
2277.000 0.150
2278.000 0.136
2279.000 0.131
2280.000 0.135
2281.000 0.137
2282.000 0.151
2283.000 0.175
2284.000 0.159
2285.000 0.160
2286.000 0.154
2287.000 0.149
2288.000 0.142
2289.000 0.139
2290.000 0.123
2291.000 0.121
2292.000 0.138
2293.000 0.148
2294.000 0.172
2295.000 0.188
2296.000 0.196
2297.000 0.190
2298.000 0.190
2299.000 0.178
2300.000 0.153
2301.000 0.176
2302.000 0.168
2303.000 0.167
2304.000 0.177
2305.000 0.213
2306.000 0.225
2307.000 0.224
2308.000 0.175
2309.000 0.189
2310.000 0.153
2311.000 0.151
2312.000 0.159
2313.000 0.159
2314.000 0.143
2315.000 0.156
2316.000 0.168
2317.000 0.161
2318.000 0.157
2319.000 0.159
2320.000 0.157
2321.000 0.157
2322.000 0.156
2323.000 0.140
2324.000 0.140
2325.000 0.128
2326.000 0.106
2327.000 0.072
2328.000 0.079
2329.000 0.107
2330.000 0.118
2331.000 0.128
2332.000 0.140
2333.000 0.152
2334.000 0.161
2335.000 0.184
2336.000 0.205
2337.000 0.173
2338.000 0.165
2339.000 0.150
2340.000 0.142
2341.000 0.143
2342.000 0.144
2343.000 0.101
2344.000 0.087
2345.000 0.085
2346.000 0.088
2347.000 0.132
2348.000 0.149
2349.000 0.193
2350.000 0.218
2351.000 0.252
2352.000 0.231
2353.000 0.153
2354.000 0.181
2355.000 0.141
2356.000 0.150
2357.000 0.148
2358.000 0.190
2359.000 0.234
2360.000 0.318
2361.000 0.396
2362.000 0.332
2363.000 0.194
2364.000 0.138
2365.000 0.114
2366.000 0.103
2367.000 0.159
2368.000 0.156
2369.000 0.156
2370.000 0.179
2371.000 0.107
2372.000 0.095
2373.000 0.077
2374.000 0.122
2375.000 0.132
2376.000 0.231
2377.000 0.201
2378.000 0.323
2379.000 0.580
2380.000 0.313
2381.000 0.350
2382.000 0.360
2383.000 0.435
2384.000 0.424
2385.000 0.258
2386.000 0.222
2387.000 0.217
2388.000 0.122
2389.000 0.192
2390.000 0.232
2391.000 0.193
2392.000 0.138
2393.000 0.084
2394.000 0.152
2395.000 0.136
2396.000 0.162
2397.000 0.157
2398.000 0.225
2399.000 0.179
2400.000 0.176
2401.000 0.174
2402.000 0.420
2403.000 0.416
2404.000 0.389
2405.000 0.407
2406.000 0.284
2407.000 0.169
2408.000 0.199
2409.000 0.216
2410.000 0.141
2411.000 0.172
2412.000 0.235
2413.000 0.123
2414.000 0.185
2415.000 0.153
2416.000 0.239
2417.000 0.357
2418.000 0.149
2419.000 0.218
2420.000 0.355
2421.000 0.362
2422.000 0.476
2423.000 0.354
2424.000 0.282
2425.000 0.345
2426.000 0.355
2427.000 0.293
2428.000 0.228
2429.000 0.174
2430.000 0.182
2431.000 0.349
2432.000 0.236
2433.000 0.290
2434.000 0.281
2435.000 0.228
2436.000 0.190
2437.000 0.177
2438.000 0.245
2439.000 0.332
2440.000 0.218
2441.000 0.253
2442.000 0.641
2443.000 0.443
2444.000 0.617
2445.000 0.456
2446.000 0.195
2447.000 0.296
2448.000 0.334
2449.000 0.194
2450.000 0.257
2451.000 0.295
2452.000 0.287
2453.000 0.388
2454.000 0.352
2455.000 0.434
2456.000 0.321
2457.000 0.688
2458.000 0.570
2459.000 0.487
2460.000 0.363
2461.000 0.084
2462.000 0.306
2463.000 0.445
2464.000 0.539
2465.000 0.566
2466.000 0.430
2467.000 0.363
2468.000 0.176
2469.000 0.210
2470.000 0.308
2471.000 0.339
2472.000 0.181
2473.000 0.192
2474.000 0.295
2475.000 0.437
2476.000 0.547
2477.000 0.603
2478.000 0.389
2479.000 0.457
2480.000 0.347
2481.000 0.243
2482.000 0.362
2483.000 0.313
2484.000 0.148
2485.000 0.241
2486.000 0.288
2487.000 0.212
2488.000 0.206
2489.000 0.303
2490.000 0.220
2491.000 0.399
2492.000 0.661
2493.000 0.501
2494.000 0.669
2495.000 0.336
2496.000 0.456
2497.000 0.413
2498.000 0.425
2499.000 0.523
2500.000 0.512
