391.000 0.030
392.000 0.030
393.000 0.026
394.000 0.026
395.000 0.029
396.000 0.030
397.000 0.030
398.000 0.032
399.000 0.030
400.000 0.030
401.000 0.032
402.000 0.031
403.000 0.031
404.000 0.031
405.000 0.028
406.000 0.031
407.000 0.034
408.000 0.034
409.000 0.034
410.000 0.032
411.000 0.030
412.000 0.030
413.000 0.031
414.000 0.032
415.000 0.032
416.000 0.031
417.000 0.031
418.000 0.031
419.000 0.032
420.000 0.033
421.000 0.034
422.000 0.033
423.000 0.032
424.000 0.032
425.000 0.030
426.000 0.030
427.000 0.033
428.000 0.034
429.000 0.034
430.000 0.033
431.000 0.034
432.000 0.033
433.000 0.033
434.000 0.034
435.000 0.034
436.000 0.034
437.000 0.034
438.000 0.033
439.000 0.033
440.000 0.034
441.000 0.035
442.000 0.035
443.000 0.035
444.000 0.034
445.000 0.034
446.000 0.034
447.000 0.034
448.000 0.034
449.000 0.035
450.000 0.033
451.000 0.033
452.000 0.036
453.000 0.033
454.000 0.033
455.000 0.035
456.000 0.035
457.000 0.036
458.000 0.036
459.000 0.037
460.000 0.038
461.000 0.036
462.000 0.035
463.000 0.035
464.000 0.037
465.000 0.035
466.000 0.035
467.000 0.037
468.000 0.035
469.000 0.037
470.000 0.037
471.000 0.035
472.000 0.036
473.000 0.037
474.000 0.037
475.000 0.036
476.000 0.035
477.000 0.036
478.000 0.037
479.000 0.036
480.000 0.037
481.000 0.037
482.000 0.037
483.000 0.037
484.000 0.037
485.000 0.037
486.000 0.038
487.000 0.039
488.000 0.039
489.000 0.040
490.000 0.038
491.000 0.038
492.000 0.039
493.000 0.038
494.000 0.039
495.000 0.039
496.000 0.038
497.000 0.040
498.000 0.042
499.000 0.042
500.000 0.040
501.000 0.041
502.000 0.042
503.000 0.042
504.000 0.043
505.000 0.044
506.000 0.044
507.000 0.044
508.000 0.044
509.000 0.046
510.000 0.047
511.000 0.048
512.000 0.047
513.000 0.049
514.000 0.051
515.000 0.051
516.000 0.053
517.000 0.054
518.000 0.055
519.000 0.057
520.000 0.059
521.000 0.062
522.000 0.064
523.000 0.065
524.000 0.066
525.000 0.067
526.000 0.069
527.000 0.070
528.000 0.072
529.000 0.073
530.000 0.074
531.000 0.075
532.000 0.077
533.000 0.077
534.000 0.077
535.000 0.079
536.000 0.080
537.000 0.080
538.000 0.081
539.000 0.082
540.000 0.081
541.000 0.082
542.000 0.082
543.000 0.083
544.000 0.083
545.000 0.083
546.000 0.084
547.000 0.084
548.000 0.084
549.000 0.084
550.000 0.084
551.000 0.085
552.000 0.084
553.000 0.084
554.000 0.084
555.000 0.084
556.000 0.083
557.000 0.084
558.000 0.083
559.000 0.083
560.000 0.083
561.000 0.082
562.000 0.082
563.000 0.081
564.000 0.080
565.000 0.080
566.000 0.078
567.000 0.078
568.000 0.076
569.000 0.075
570.000 0.074
571.000 0.073
572.000 0.072
573.000 0.072
574.000 0.072
575.000 0.071
576.000 0.070
577.000 0.070
578.000 0.069
579.000 0.068
580.000 0.068
581.000 0.067
582.000 0.067
583.000 0.066
584.000 0.066
585.000 0.066
586.000 0.066
587.000 0.065
588.000 0.063
589.000 0.063
590.000 0.064
591.000 0.064
592.000 0.063
593.000 0.062
594.000 0.062
595.000 0.063
596.000 0.063
597.000 0.063
598.000 0.063
599.000 0.062
600.000 0.062
601.000 0.063
602.000 0.062
603.000 0.061
604.000 0.061
605.000 0.062
606.000 0.061
607.000 0.061
608.000 0.062
609.000 0.062
610.000 0.061
611.000 0.061
612.000 0.061
613.000 0.060
614.000 0.060
615.000 0.061
616.000 0.062
617.000 0.060
618.000 0.060
619.000 0.061
620.000 0.060
621.000 0.060
622.000 0.060
623.000 0.060
624.000 0.060
625.000 0.061
626.000 0.061
627.000 0.061
628.000 0.060
629.000 0.060
630.000 0.061
631.000 0.061
632.000 0.061
633.000 0.061
634.000 0.061
635.000 0.060
636.000 0.060
637.000 0.061
638.000 0.061
639.000 0.060
640.000 0.059
641.000 0.060
642.000 0.059
643.000 0.059
644.000 0.057
645.000 0.057
646.000 0.058
647.000 0.059
648.000 0.058
649.000 0.058
650.000 0.058
651.000 0.057
652.000 0.057
653.000 0.057
654.000 0.058
655.000 0.060
656.000 0.059
657.000 0.058
658.000 0.059
659.000 0.061
660.000 0.059
661.000 0.058
662.000 0.059
663.000 0.059
664.000 0.060
665.000 0.061
666.000 0.059
667.000 0.061
668.000 0.062
669.000 0.061
670.000 0.063
671.000 0.063
672.000 0.062
673.000 0.061
674.000 0.064
675.000 0.064
676.000 0.062
677.000 0.063
678.000 0.066
679.000 0.067
680.000 0.066
681.000 0.070
682.000 0.069
683.000 0.069
684.000 0.071
685.000 0.070
686.000 0.071
687.000 0.073
688.000 0.076
689.000 0.076
690.000 0.075
691.000 0.077
692.000 0.078
693.000 0.081
694.000 0.084
695.000 0.087
696.000 0.091
697.000 0.094
698.000 0.097
699.000 0.101
700.000 0.105
701.000 0.111
702.000 0.117
703.000 0.119
704.000 0.124
705.000 0.129
706.000 0.133
707.000 0.136
708.000 0.141
709.000 0.145
710.000 0.150
711.000 0.154
712.000 0.158
713.000 0.163
714.000 0.167
715.000 0.171
716.000 0.175
717.000 0.179
718.000 0.184
719.000 0.190
720.000 0.194
721.000 0.198
722.000 0.202
723.000 0.206
724.000 0.210
725.000 0.214
726.000 0.218
727.000 0.222
728.000 0.226
729.000 0.229
730.000 0.233
731.000 0.236
732.000 0.240
733.000 0.243
734.000 0.246
735.000 0.249
736.000 0.252
737.000 0.254
738.000 0.257
739.000 0.259
740.000 0.262
741.000 0.264
742.000 0.266
743.000 0.268
744.000 0.270
745.000 0.271
746.000 0.273
747.000 0.275
748.000 0.276
749.000 0.278
750.000 0.279
751.000 0.280
752.000 0.281
753.000 0.282
754.000 0.283
755.000 0.284
756.000 0.285
757.000 0.286
758.000 0.286
759.000 0.286
760.000 0.285
761.000 0.287
762.000 0.287
763.000 0.287
764.000 0.289
765.000 0.289
766.000 0.291
767.000 0.292
768.000 0.292
769.000 0.293
770.000 0.293
771.000 0.294
772.000 0.295
773.000 0.296
774.000 0.296
775.000 0.296
776.000 0.297
777.000 0.297
778.000 0.297
779.000 0.298
780.000 0.298
781.000 0.298
782.000 0.299
783.000 0.299
784.000 0.300
785.000 0.300
786.000 0.300
787.000 0.300
788.000 0.301
789.000 0.301
790.000 0.302
791.000 0.302
792.000 0.302
793.000 0.303
794.000 0.304
795.000 0.304
796.000 0.304
797.000 0.304
798.000 0.305
799.000 0.305
800.000 0.306
801.000 0.306
802.000 0.306
803.000 0.307
804.000 0.307
805.000 0.308
806.000 0.308
807.000 0.308
808.000 0.308
809.000 0.308
810.000 0.309
811.000 0.309
812.000 0.309
813.000 0.309
814.000 0.309
815.000 0.308
816.000 0.308
817.000 0.309
818.000 0.309
819.000 0.310
820.000 0.310
821.000 0.311
822.000 0.311
823.000 0.312
824.000 0.312
825.000 0.313
826.000 0.313
827.000 0.313
828.000 0.314
829.000 0.314
830.000 0.314
831.000 0.315
832.000 0.315
833.000 0.316
834.000 0.317
835.000 0.317
836.000 0.317
837.000 0.318
838.000 0.319
839.000 0.319
840.000 0.319
841.000 0.320
842.000 0.320
843.000 0.321
844.000 0.321
845.000 0.321
846.000 0.321
847.000 0.322
848.000 0.322
849.000 0.323
850.000 0.323
851.000 0.323
852.000 0.324
853.000 0.324
854.000 0.324
855.000 0.324
856.000 0.325
857.000 0.325
858.000 0.325
859.000 0.326
860.000 0.326
861.000 0.326
862.000 0.327
863.000 0.327
864.000 0.327
865.000 0.327
866.000 0.328
867.000 0.328
868.000 0.328
869.000 0.328
870.000 0.328
871.000 0.328
872.000 0.329
873.000 0.329
874.000 0.329
875.000 0.330
876.000 0.330
877.000 0.331
878.000 0.331
879.000 0.331
880.000 0.332
881.000 0.331
882.000 0.332
883.000 0.332
884.000 0.332
885.000 0.332
886.000 0.333
887.000 0.333
888.000 0.333
889.000 0.333
890.000 0.333
891.000 0.333
892.000 0.333
893.000 0.333
894.000 0.333
895.000 0.332
896.000 0.332
897.000 0.332
898.000 0.332
899.000 0.332
900.000 0.333
901.000 0.333
902.000 0.333
903.000 0.333
904.000 0.333
905.000 0.333
906.000 0.333
907.000 0.333
908.000 0.334
909.000 0.333
910.000 0.333
911.000 0.333
912.000 0.333
913.000 0.333
914.000 0.333
915.000 0.334
916.000 0.335
917.000 0.335
918.000 0.335
919.000 0.336
920.000 0.336
921.000 0.336
922.000 0.336
923.000 0.337
924.000 0.336
925.000 0.336
926.000 0.334
927.000 0.334
928.000 0.333
929.000 0.332
930.000 0.331
931.000 0.331
932.000 0.328
933.000 0.326
934.000 0.325
935.000 0.326
936.000 0.328
937.000 0.326
938.000 0.324
939.000 0.326
940.000 0.326
941.000 0.323
942.000 0.323
943.000 0.326
944.000 0.325
945.000 0.324
946.000 0.325
947.000 0.325
948.000 0.324
949.000 0.322
950.000 0.322
951.000 0.324
952.000 0.325
953.000 0.328
954.000 0.328
955.000 0.325
956.000 0.327
957.000 0.329
958.000 0.328
959.000 0.325
960.000 0.326
961.000 0.328
962.000 0.329
963.000 0.328
964.000 0.329
965.000 0.331
966.000 0.333
967.000 0.333
968.000 0.334
969.000 0.334
970.000 0.334
971.000 0.334
972.000 0.337
973.000 0.335
974.000 0.334
975.000 0.336
976.000 0.336
977.000 0.336
978.000 0.337
979.000 0.337
980.000 0.337
981.000 0.338
982.000 0.340
983.000 0.340
984.000 0.339
985.000 0.340
986.000 0.341
987.000 0.342
988.000 0.342
989.000 0.341
990.000 0.340
991.000 0.342
992.000 0.343
993.000 0.344
994.000 0.345
995.000 0.344
996.000 0.345
997.000 0.346
998.000 0.347
999.000 0.347
1000.000 0.345
1001.000 0.349
1002.000 0.349
1003.000 0.350
1004.000 0.350
1005.000 0.352
1006.000 0.353
1007.000 0.353
1008.000 0.353
1009.000 0.353
1010.000 0.353
1011.000 0.354
1012.000 0.354
1013.000 0.354
1014.000 0.354
1015.000 0.355
1016.000 0.356
1017.000 0.356
1018.000 0.356
1019.000 0.356
1020.000 0.355
1021.000 0.355
1022.000 0.356
1023.000 0.356
1024.000 0.357
1025.000 0.358
1026.000 0.358
1027.000 0.359
1028.000 0.360
1029.000 0.360
1030.000 0.361
1031.000 0.361
1032.000 0.362
1033.000 0.362
1034.000 0.363
1035.000 0.363
1036.000 0.362
1037.000 0.363
1038.000 0.363
1039.000 0.363
1040.000 0.364
1041.000 0.364
1042.000 0.365
1043.000 0.365
1044.000 0.366
1045.000 0.366
1046.000 0.367
1047.000 0.367
1048.000 0.367
1049.000 0.367
1050.000 0.367
1051.000 0.367
1052.000 0.367
1053.000 0.367
1054.000 0.368
1055.000 0.367
1056.000 0.368
1057.000 0.368
1058.000 0.369
1059.000 0.369
1060.000 0.369
1061.000 0.370
1062.000 0.370
1063.000 0.371
1064.000 0.372
1065.000 0.373
1066.000 0.372
1067.000 0.371
1068.000 0.371
1069.000 0.371
1070.000 0.372
1071.000 0.372
1072.000 0.372
1073.000 0.372
1074.000 0.373
1075.000 0.373
1076.000 0.373
1077.000 0.373
1078.000 0.373
1079.000 0.373
1080.000 0.374
1081.000 0.374
1082.000 0.376
1083.000 0.376
1084.000 0.376
1085.000 0.376
1086.000 0.376
1087.000 0.376
1088.000 0.376
1089.000 0.375
1090.000 0.376
1091.000 0.375
1092.000 0.376
1093.000 0.376
1094.000 0.376
1095.000 0.375
1096.000 0.375
1097.000 0.374
1098.000 0.374
1099.000 0.374
1100.000 0.373
1101.000 0.373
1102.000 0.372
1103.000 0.371
1104.000 0.372
1105.000 0.372
1106.000 0.371
1107.000 0.370
1108.000 0.371
1109.000 0.371
1110.000 0.371
1111.000 0.371
1112.000 0.370
1113.000 0.369
1114.000 0.368
1115.000 0.367
1116.000 0.367
1117.000 0.365
1118.000 0.363
1119.000 0.362
1120.000 0.360
1121.000 0.360
1122.000 0.361
1123.000 0.360
1124.000 0.357
1125.000 0.356
1126.000 0.355
1127.000 0.354
1128.000 0.354
1129.000 0.353
1130.000 0.351
1131.000 0.351
1132.000 0.350
1133.000 0.349
1134.000 0.349
1135.000 0.350
1136.000 0.354
1137.000 0.356
1138.000 0.359
1139.000 0.360
1140.000 0.361
1141.000 0.361
1142.000 0.361
1143.000 0.359
1144.000 0.358
1145.000 0.354
1146.000 0.352
1147.000 0.350
1148.000 0.349
1149.000 0.348
1150.000 0.349
1151.000 0.349
1152.000 0.349
1153.000 0.349
1154.000 0.348
1155.000 0.348
1156.000 0.348
1157.000 0.349
1158.000 0.349
1159.000 0.350
1160.000 0.350
1161.000 0.351
1162.000 0.351
1163.000 0.353
1164.000 0.353
1165.000 0.354
1166.000 0.354
1167.000 0.354
1168.000 0.355
1169.000 0.355
1170.000 0.355
1171.000 0.355
1172.000 0.355
1173.000 0.355
1174.000 0.356
1175.000 0.356
1176.000 0.356
1177.000 0.357
1178.000 0.357
1179.000 0.357
1180.000 0.358
1181.000 0.358
1182.000 0.357
1183.000 0.357
1184.000 0.357
1185.000 0.357
1186.000 0.357
1187.000 0.358
1188.000 0.359
1189.000 0.358
1190.000 0.358
1191.000 0.359
1192.000 0.358
1193.000 0.358
1194.000 0.359
1195.000 0.359
1196.000 0.359
1197.000 0.359
1198.000 0.360
1199.000 0.360
1200.000 0.361
1201.000 0.361
1202.000 0.361
1203.000 0.361
1204.000 0.361
1205.000 0.361
1206.000 0.362
1207.000 0.362
1208.000 0.362
1209.000 0.362
1210.000 0.362
1211.000 0.363
1212.000 0.363
1213.000 0.364
1214.000 0.364
1215.000 0.365
1216.000 0.366
1217.000 0.366
1218.000 0.366
1219.000 0.367
1220.000 0.367
1221.000 0.368
1222.000 0.368
1223.000 0.369
1224.000 0.369
1225.000 0.369
1226.000 0.370
1227.000 0.370
1228.000 0.370
1229.000 0.370
1230.000 0.371
1231.000 0.371
1232.000 0.372
1233.000 0.373
1234.000 0.373
1235.000 0.374
1236.000 0.374
1237.000 0.374
1238.000 0.374
1239.000 0.375
1240.000 0.375
1241.000 0.376
1242.000 0.376
1243.000 0.376
1244.000 0.376
1245.000 0.377
1246.000 0.378
1247.000 0.378
1248.000 0.379
1249.000 0.379
1250.000 0.379
1251.000 0.379
1252.000 0.379
1253.000 0.379
1254.000 0.379
1255.000 0.380
1256.000 0.380
1257.000 0.380
1258.000 0.380
1259.000 0.380
1260.000 0.380
1261.000 0.380
1262.000 0.380
1263.000 0.380
1264.000 0.381
1265.000 0.381
1266.000 0.381
1267.000 0.382
1268.000 0.382
1269.000 0.382
1270.000 0.382
1271.000 0.382
1272.000 0.382
1273.000 0.382
1274.000 0.382
1275.000 0.383
1276.000 0.383
1277.000 0.383
1278.000 0.384
1279.000 0.384
1280.000 0.385
1281.000 0.385
1282.000 0.385
1283.000 0.385
1284.000 0.385
1285.000 0.385
1286.000 0.384
1287.000 0.384
1288.000 0.384
1289.000 0.385
1290.000 0.385
1291.000 0.385
1292.000 0.385
1293.000 0.384
1294.000 0.384
1295.000 0.384
1296.000 0.384
1297.000 0.383
1298.000 0.383
1299.000 0.382
1300.000 0.382
1301.000 0.382
1302.000 0.382
1303.000 0.381
1304.000 0.381
1305.000 0.380
1306.000 0.380
1307.000 0.379
1308.000 0.378
1309.000 0.377
1310.000 0.377
1311.000 0.376
1312.000 0.375
1313.000 0.374
1314.000 0.374
1315.000 0.373
1316.000 0.372
1317.000 0.371
1318.000 0.370
1319.000 0.369
1320.000 0.370
1321.000 0.369
1322.000 0.369
1323.000 0.369
1324.000 0.367
1325.000 0.366
1326.000 0.364
1327.000 0.363
1328.000 0.361
1329.000 0.359
1330.000 0.358
1331.000 0.357
1332.000 0.357
1333.000 0.356
1334.000 0.354
1335.000 0.353
1336.000 0.352
1337.000 0.351
1338.000 0.350
1339.000 0.349
1340.000 0.349
1341.000 0.348
1342.000 0.350
1343.000 0.350
1344.000 0.351
1345.000 0.351
1346.000 0.347
1347.000 0.346
1348.000 0.345
1349.000 0.347
1350.000 0.347
1351.000 0.353
1352.000 0.358
1353.000 0.363
1354.000 0.383
1355.000 0.460
1356.000 0.554
1357.000 0.495
1358.000 0.494
1359.000 0.500
1360.000 0.571
1361.000 0.585
1362.000 0.569
1363.000 0.570
1364.000 0.537
1365.000 0.110
1366.000 0.339
1367.000 0.525
1368.000 0.697
1369.000 0.389
1370.000 0.516
1371.000 0.519
1372.000 0.519
1373.000 0.316
1374.000 0.355
1375.000 0.568
1376.000 0.605
1377.000 0.586
1378.000 0.712
1379.000 0.798
1380.000 0.873
1381.000 0.548
1382.000 0.593
1383.000 0.310
1384.000 0.267
1385.000 0.220
1386.000 0.248
1387.000 0.210
1388.000 0.290
1389.000 0.223
1390.000 0.215
1391.000 0.191
1392.000 0.376
1393.000 0.324
1394.000 0.320
1395.000 0.355
1396.000 0.283
1397.000 0.250
1398.000 0.155
1399.000 0.181
1400.000 0.322
1401.000 0.591
1402.000 0.444
1403.000 0.449
1404.000 0.495
1405.000 0.513
1406.000 0.480
1407.000 0.521
1408.000 0.468
1409.000 0.360
1410.000 0.385
1411.000 0.472
1412.000 0.506
1413.000 0.538
1414.000 0.539
1415.000 0.438
1416.000 0.450
1417.000 0.431
1418.000 0.366
1419.000 0.480
1420.000 0.476
1421.000 0.423
1422.000 0.378
1423.000 0.364
1424.000 0.359
1425.000 0.312
1426.000 0.307
1427.000 0.334
1428.000 0.328
1429.000 0.312
1430.000 0.311
1431.000 0.263
1432.000 0.269
1433.000 0.303
1434.000 0.323
1435.000 0.372
1436.000 0.389
1437.000 0.388
1438.000 0.380
1439.000 0.352
1440.000 0.343
1441.000 0.334
1442.000 0.315
1443.000 0.277
1444.000 0.259
1445.000 0.229
1446.000 0.225
1447.000 0.222
1448.000 0.220
1449.000 0.231
1450.000 0.227
1451.000 0.208
1452.000 0.225
1453.000 0.212
1454.000 0.196
1455.000 0.189
1456.000 0.173
1457.000 0.167
1458.000 0.182
1459.000 0.197
1460.000 0.203
1461.000 0.207
1462.000 0.193
1463.000 0.198
1464.000 0.211
1465.000 0.207
1466.000 0.220
1467.000 0.217
1468.000 0.217
1469.000 0.216
1470.000 0.212
1471.000 0.214
1472.000 0.220
1473.000 0.214
1474.000 0.200
1475.000 0.197
1476.000 0.192
1477.000 0.191
1478.000 0.185
1479.000 0.181
1480.000 0.187
1481.000 0.184
1482.000 0.183
1483.000 0.185
1484.000 0.190
1485.000 0.192
1486.000 0.192
1487.000 0.194
1488.000 0.188
1489.000 0.187
1490.000 0.182
1491.000 0.182
1492.000 0.185
1493.000 0.187
1494.000 0.189
1495.000 0.190
1496.000 0.187
1497.000 0.188
1498.000 0.190
1499.000 0.193
1500.000 0.196
1501.000 0.197
1502.000 0.195
1503.000 0.194
1504.000 0.194
1505.000 0.195
1506.000 0.197
1507.000 0.202
1508.000 0.203
1509.000 0.204
1510.000 0.205
1511.000 0.204
1512.000 0.205
1513.000 0.205
1514.000 0.206
1515.000 0.207
1516.000 0.208
1517.000 0.210
1518.000 0.211
1519.000 0.213
1520.000 0.215
1521.000 0.214
1522.000 0.216
1523.000 0.217
1524.000 0.218
1525.000 0.221
1526.000 0.222
1527.000 0.223
1528.000 0.224
1529.000 0.225
1530.000 0.226
1531.000 0.228
1532.000 0.229
1533.000 0.228
1534.000 0.228
1535.000 0.228
1536.000 0.228
1537.000 0.230
1538.000 0.231
1539.000 0.232
1540.000 0.233
1541.000 0.234
1542.000 0.234
1543.000 0.235
1544.000 0.236
1545.000 0.236
1546.000 0.237
1547.000 0.239
1548.000 0.241
1549.000 0.242
1550.000 0.243
1551.000 0.243
1552.000 0.244
1553.000 0.245
1554.000 0.245
1555.000 0.246
1556.000 0.248
1557.000 0.249
1558.000 0.250
1559.000 0.251
1560.000 0.252
1561.000 0.252
1562.000 0.252
1563.000 0.252
1564.000 0.252
1565.000 0.252
1566.000 0.252
1567.000 0.254
1568.000 0.256
1569.000 0.256
1570.000 0.257
1571.000 0.258
1572.000 0.258
1573.000 0.258
1574.000 0.259
1575.000 0.260
1576.000 0.261
1577.000 0.264
1578.000 0.265
1579.000 0.267
1580.000 0.268
1581.000 0.268
1582.000 0.268
1583.000 0.268
1584.000 0.268
1585.000 0.269
1586.000 0.270
1587.000 0.271
1588.000 0.272
1589.000 0.272
1590.000 0.272
1591.000 0.273
1592.000 0.274
1593.000 0.274
1594.000 0.275
1595.000 0.276
1596.000 0.277
1597.000 0.277
1598.000 0.278
1599.000 0.278
1600.000 0.278
1601.000 0.278
1602.000 0.279
1603.000 0.279
1604.000 0.279
1605.000 0.281
1606.000 0.282
1607.000 0.283
1608.000 0.284
1609.000 0.284
1610.000 0.284
1611.000 0.284
1612.000 0.284
1613.000 0.283
1614.000 0.283
1615.000 0.285
1616.000 0.285
1617.000 0.283
1618.000 0.284
1619.000 0.284
1620.000 0.285
1621.000 0.289
1622.000 0.291
1623.000 0.289
1624.000 0.290
1625.000 0.288
1626.000 0.289
1627.000 0.290
1628.000 0.291
1629.000 0.291
1630.000 0.293
1631.000 0.292
1632.000 0.292
1633.000 0.293
1634.000 0.294
1635.000 0.294
1636.000 0.294
1637.000 0.295
1638.000 0.294
1639.000 0.294
1640.000 0.294
1641.000 0.295
1642.000 0.295
1643.000 0.296
1644.000 0.297
1645.000 0.297
1646.000 0.297
1647.000 0.296
1648.000 0.296
1649.000 0.297
1650.000 0.297
1651.000 0.298
1652.000 0.298
1653.000 0.298
1654.000 0.298
1655.000 0.298
1656.000 0.298
1657.000 0.299
1658.000 0.299
1659.000 0.297
1660.000 0.296
1661.000 0.296
1662.000 0.296
1663.000 0.298
1664.000 0.298
1665.000 0.299
1666.000 0.299
1667.000 0.297
1668.000 0.297
1669.000 0.298
1670.000 0.298
1671.000 0.297
1672.000 0.297
1673.000 0.297
1674.000 0.298
1675.000 0.298
1676.000 0.299
1677.000 0.299
1678.000 0.299
1679.000 0.299
1680.000 0.299
1681.000 0.298
1682.000 0.298
1683.000 0.299
1684.000 0.298
1685.000 0.300
1686.000 0.300
1687.000 0.298
1688.000 0.298
1689.000 0.298
1690.000 0.298
1691.000 0.298
1692.000 0.298
1693.000 0.296
1694.000 0.295
1695.000 0.294
1696.000 0.293
1697.000 0.292
1698.000 0.292
1699.000 0.292
1700.000 0.292
1701.000 0.294
1702.000 0.295
1703.000 0.295
1704.000 0.296
1705.000 0.296
1706.000 0.295
1707.000 0.295
1708.000 0.295
1709.000 0.294
1710.000 0.293
1711.000 0.292
1712.000 0.291
1713.000 0.290
1714.000 0.290
1715.000 0.290
1716.000 0.291
1717.000 0.291
1718.000 0.291
1719.000 0.291
1720.000 0.291
1721.000 0.290
1722.000 0.288
1723.000 0.289
1724.000 0.288
1725.000 0.289
1726.000 0.289
1727.000 0.286
1728.000 0.287
1729.000 0.287
1730.000 0.284
1731.000 0.284
1732.000 0.282
1733.000 0.280
1734.000 0.282
1735.000 0.284
1736.000 0.287
1737.000 0.287
1738.000 0.285
1739.000 0.284
1740.000 0.277
1741.000 0.275
1742.000 0.274
1743.000 0.274
1744.000 0.278
1745.000 0.279
1746.000 0.279
1747.000 0.278
1748.000 0.277
1749.000 0.275
1750.000 0.272
1751.000 0.270
1752.000 0.269
1753.000 0.268
1754.000 0.268
1755.000 0.269
1756.000 0.269
1757.000 0.268
1758.000 0.267
1759.000 0.268
1760.000 0.266
1761.000 0.262
1762.000 0.264
1763.000 0.265
1764.000 0.263
1765.000 0.264
1766.000 0.266
1767.000 0.262
1768.000 0.260
1769.000 0.261
1770.000 0.258
1771.000 0.260
1772.000 0.264
1773.000 0.265
1774.000 0.271
1775.000 0.270
1776.000 0.269
1777.000 0.270
1778.000 0.268
1779.000 0.267
1780.000 0.265
1781.000 0.264
1782.000 0.262
1783.000 0.259
1784.000 0.260
1785.000 0.266
1786.000 0.264
1787.000 0.264
1788.000 0.256
1789.000 0.238
1790.000 0.226
1791.000 0.209
1792.000 0.210
1793.000 0.211
1794.000 0.229
1795.000 0.246
1796.000 0.247
1797.000 0.229
1798.000 0.213
1799.000 0.191
1800.000 0.195
1801.000 0.381
1802.000 0.416
1803.000 0.450
1804.000 0.508
1805.000 0.581
1806.000 0.644
1807.000 0.711
1808.000 0.763
1809.000 0.511
1810.000 0.391
1811.000 0.352
1812.000 0.570
1813.000 0.450
1814.000 0.507
1815.000 0.604
1816.000 0.696
1817.000 0.706
1818.000 0.707
1819.000 0.554
1820.000 0.580
1821.000 0.517
1822.000 0.511
1823.000 0.402
1824.000 0.644
1825.000 0.589
1826.000 0.592
1827.000 0.542
1828.000 0.407
1829.000 0.338
1830.000 0.226
1831.000 0.213
1832.000 0.257
1833.000 0.353
1834.000 0.549
1835.000 0.289
1836.000 0.222
1837.000 0.237
1838.000 0.239
1839.000 0.312
1840.000 0.226
1841.000 0.452
1842.000 0.703
1843.000 0.510
1844.000 0.487
1845.000 0.607
1846.000 0.451
1847.000 0.439
1848.000 0.401
1849.000 0.419
1850.000 0.541
1851.000 0.740
1852.000 0.309
1853.000 0.632
1854.000 0.613
1855.000 0.492
1856.000 0.524
1857.000 0.458
1858.000 0.258
1859.000 0.560
1860.000 0.663
1861.000 0.485
1862.000 0.298
1863.000 0.243
1864.000 0.289
1865.000 0.304
1866.000 0.273
1867.000 0.414
1868.000 0.441
1869.000 0.487
1870.000 0.526
1871.000 0.575
1872.000 0.325
1873.000 0.453
1874.000 0.303
1875.000 0.347
1876.000 0.531
1877.000 0.574
1878.000 0.695
1879.000 0.613
1880.000 0.610
1881.000 0.670
1882.000 0.607
1883.000 0.563
1884.000 0.562
1885.000 0.633
1886.000 0.750
1887.000 0.609
1888.000 0.507
1889.000 0.381
1890.000 0.503
1891.000 0.581
1892.000 0.652
1893.000 0.689
1894.000 0.531
1895.000 0.545
1896.000 0.766
1897.000 0.432
1898.000 0.508
1899.000 0.641
1900.000 0.405
1901.000 0.195
1902.000 0.300
1903.000 0.335
1904.000 0.379
1905.000 0.311
1906.000 0.268
1907.000 0.298
1908.000 0.281
1909.000 0.301
1910.000 0.365
1911.000 0.379
1912.000 0.472
1913.000 0.555
1914.000 0.653
1915.000 0.747
1916.000 0.500
1917.000 0.334
1918.000 0.506
1919.000 0.535
1920.000 0.593
1921.000 0.636
1922.000 0.618
1923.000 0.567
1924.000 0.555
1925.000 0.476
1926.000 0.465
1927.000 0.502
1928.000 0.460
1929.000 0.362
1930.000 0.486
1931.000 0.606
1932.000 0.720
1933.000 0.564
1934.000 0.584
1935.000 0.485
1936.000 0.642
1937.000 0.661
1938.000 0.681
1939.000 0.516
1940.000 0.451
1941.000 0.394
1942.000 0.440
1943.000 0.442
1944.000 0.426
1945.000 0.463
1946.000 0.548
1947.000 0.509
1948.000 0.288
1949.000 0.339
1950.000 0.254
1951.000 0.381
1952.000 0.473
1953.000 0.598
1954.000 0.535
1955.000 0.487
1956.000 0.466
1957.000 0.545
1958.000 0.650
1959.000 0.579
1960.000 0.449
1961.000 0.574
1962.000 0.586
1963.000 0.483
1964.000 0.514
1965.000 0.415
1966.000 0.402
1967.000 0.410
1968.000 0.394
1969.000 0.410
1970.000 0.348
1971.000 0.239
1972.000 0.190
1973.000 0.168
1974.000 0.168
1975.000 0.164
1976.000 0.164
1977.000 0.167
1978.000 0.169
1979.000 0.185
1980.000 0.194
1981.000 0.189
1982.000 0.170
1983.000 0.158
1984.000 0.136
1985.000 0.140
1986.000 0.122
1987.000 0.142
1988.000 0.162
1989.000 0.168
1990.000 0.178
1991.000 0.142
1992.000 0.128
1993.000 0.142
1994.000 0.172
1995.000 0.195
1996.000 0.198
1997.000 0.218
1998.000 0.217
1999.000 0.222
2000.000 0.331
2001.000 0.348
2002.000 0.264
2003.000 0.295
2004.000 0.225
2005.000 0.240
2006.000 0.291
2007.000 0.415
2008.000 0.435
2009.000 0.349
2010.000 0.270
2011.000 0.438
2012.000 0.467
2013.000 0.369
2014.000 0.293
2015.000 0.185
2016.000 0.180
2017.000 0.201
2018.000 0.197
2019.000 0.195
2020.000 0.193
2021.000 0.185
2022.000 0.182
2023.000 0.182
2024.000 0.185
2025.000 0.180
2026.000 0.169
2027.000 0.163
2028.000 0.151
2029.000 0.150
2030.000 0.157
2031.000 0.163
2032.000 0.157
2033.000 0.166
2034.000 0.167
2035.000 0.164
2036.000 0.163
2037.000 0.149
2038.000 0.145
2039.000 0.147
2040.000 0.163
2041.000 0.158
2042.000 0.168
2043.000 0.168
2044.000 0.174
2045.000 0.190
2046.000 0.199
2047.000 0.221
2048.000 0.229
2049.000 0.230
2050.000 0.224
2051.000 0.207
2052.000 0.193
2053.000 0.183
2054.000 0.174
2055.000 0.179
2056.000 0.189
2057.000 0.193
2058.000 0.208
2059.000 0.206
2060.000 0.207
2061.000 0.201
2062.000 0.176
2063.000 0.172
2064.000 0.175
2065.000 0.175
2066.000 0.174
2067.000 0.177
2068.000 0.192
2069.000 0.190
2070.000 0.199
2071.000 0.203
2072.000 0.205
2073.000 0.190
2074.000 0.188
2075.000 0.193
2076.000 0.194
2077.000 0.196
2078.000 0.195
2079.000 0.189
2080.000 0.192
2081.000 0.202
2082.000 0.210
2083.000 0.208
2084.000 0.210
2085.000 0.199
2086.000 0.190
2087.000 0.186
2088.000 0.177
2089.000 0.177
2090.000 0.189
2091.000 0.186
2092.000 0.186
2093.000 0.190
2094.000 0.192
2095.000 0.195
2096.000 0.202
2097.000 0.203
2098.000 0.209
2099.000 0.207
2100.000 0.205
2101.000 0.208
2102.000 0.200
2103.000 0.189
2104.000 0.186
2105.000 0.179
2106.000 0.178
2107.000 0.174
2108.000 0.183
2109.000 0.202
2110.000 0.201
2111.000 0.214
2112.000 0.218
2113.000 0.196
2114.000 0.192
2115.000 0.191
2116.000 0.192
2117.000 0.199
2118.000 0.195
2119.000 0.204
2120.000 0.202
2121.000 0.201
2122.000 0.211
2123.000 0.210
2124.000 0.206
2125.000 0.208
2126.000 0.211
2127.000 0.206
2128.000 0.206
2129.000 0.204
2130.000 0.197
2131.000 0.200
2132.000 0.209
2133.000 0.212
2134.000 0.207
2135.000 0.208
2136.000 0.205
2137.000 0.210
2138.000 0.213
2139.000 0.216
2140.000 0.204
2141.000 0.199
2142.000 0.195
2143.000 0.190
2144.000 0.191
2145.000 0.198
2146.000 0.203
2147.000 0.206
2148.000 0.210
2149.000 0.218
2150.000 0.222
2151.000 0.231
2152.000 0.233
2153.000 0.212
2154.000 0.206
2155.000 0.202
2156.000 0.201
2157.000 0.204
2158.000 0.216
2159.000 0.215
2160.000 0.228
2161.000 0.232
2162.000 0.224
2163.000 0.215
2164.000 0.208
2165.000 0.221
2166.000 0.217
2167.000 0.206
2168.000 0.209
2169.000 0.207
2170.000 0.217
2171.000 0.217
2172.000 0.216
2173.000 0.208
2174.000 0.225
2175.000 0.225
2176.000 0.223
2177.000 0.221
2178.000 0.214
2179.000 0.225
2180.000 0.218
2181.000 0.206
2182.000 0.207
2183.000 0.211
2184.000 0.213
2185.000 0.215
2186.000 0.215
2187.000 0.213
2188.000 0.217
2189.000 0.214
2190.000 0.218
2191.000 0.232
2192.000 0.235
2193.000 0.244
2194.000 0.244
2195.000 0.239
2196.000 0.236
2197.000 0.235
2198.000 0.231
2199.000 0.222
2200.000 0.216
2201.000 0.208
2202.000 0.207
2203.000 0.212
2204.000 0.211
2205.000 0.218
2206.000 0.222
2207.000 0.226
2208.000 0.227
2209.000 0.226
2210.000 0.218
2211.000 0.216
2212.000 0.214
2213.000 0.211
2214.000 0.206
2215.000 0.204
2216.000 0.206
2217.000 0.209
2218.000 0.220
2219.000 0.224
2220.000 0.224
2221.000 0.226
2222.000 0.225
2223.000 0.222
2224.000 0.214
2225.000 0.212
2226.000 0.216
2227.000 0.216
2228.000 0.221
2229.000 0.223
2230.000 0.214
2231.000 0.221
2232.000 0.211
2233.000 0.208
2234.000 0.209
2235.000 0.205
2236.000 0.201
2237.000 0.193
2238.000 0.194
2239.000 0.200
2240.000 0.203
2241.000 0.216
2242.000 0.216
2243.000 0.203
2244.000 0.203
2245.000 0.202
2246.000 0.204
2247.000 0.221
2248.000 0.223
2249.000 0.218
2250.000 0.213
2251.000 0.200
2252.000 0.196
2253.000 0.186
2254.000 0.190
2255.000 0.201
2256.000 0.207
2257.000 0.216
2258.000 0.221
2259.000 0.220
2260.000 0.249
2261.000 0.247
2262.000 0.236
2263.000 0.210
2264.000 0.194
2265.000 0.189
2266.000 0.188
2267.000 0.189
2268.000 0.182
2269.000 0.181
2270.000 0.177
2271.000 0.168
2272.000 0.159
2273.000 0.160
2274.000 0.170
2275.000 0.177
2276.000 0.201
2277.000 0.211
2278.000 0.219
2279.000 0.222
2280.000 0.223
2281.000 0.225
2282.000 0.218
2283.000 0.213
2284.000 0.217
2285.000 0.213
2286.000 0.211
2287.000 0.210
2288.000 0.202
2289.000 0.195
2290.000 0.185
2291.000 0.185
2292.000 0.184
2293.000 0.185
2294.000 0.183
2295.000 0.183
2296.000 0.180
2297.000 0.177
2298.000 0.170
2299.000 0.191
2300.000 0.192
2301.000 0.180
2302.000 0.179
2303.000 0.167
2304.000 0.145
2305.000 0.145
2306.000 0.165
2307.000 0.168
2308.000 0.186
2309.000 0.204
2310.000 0.198
2311.000 0.195
2312.000 0.173
2313.000 0.171
2314.000 0.194
2315.000 0.198
2316.000 0.202
2317.000 0.192
2318.000 0.178
2319.000 0.215
2320.000 0.238
2321.000 0.275
2322.000 0.296
2323.000 0.259
2324.000 0.236
2325.000 0.208
2326.000 0.194
2327.000 0.207
2328.000 0.207
2329.000 0.199
2330.000 0.196
2331.000 0.182
2332.000 0.163
2333.000 0.164
2334.000 0.153
2335.000 0.157
2336.000 0.148
2337.000 0.126
2338.000 0.141
2339.000 0.152
2340.000 0.171
2341.000 0.215
2342.000 0.215
2343.000 0.167
2344.000 0.182
2345.000 0.176
2346.000 0.167
2347.000 0.140
2348.000 0.138
2349.000 0.179
2350.000 0.234
2351.000 0.229
2352.000 0.230
2353.000 0.192
2354.000 0.162
2355.000 0.173
2356.000 0.207
2357.000 0.201
2358.000 0.213
2359.000 0.203
2360.000 0.222
2361.000 0.334
2362.000 0.337
2363.000 0.269
2364.000 0.255
2365.000 0.195
2366.000 0.174
2367.000 0.225
2368.000 0.247
2369.000 0.253
2370.000 0.226
2371.000 0.319
2372.000 0.325
2373.000 0.326
2374.000 0.395
2375.000 0.165
2376.000 0.418
2377.000 0.385
2378.000 0.456
2379.000 0.394
2380.000 0.392
2381.000 0.291
2382.000 0.262
2383.000 0.230
2384.000 0.275
2385.000 0.442
2386.000 0.553
2387.000 0.114
2388.000 0.503
2389.000 0.300
2390.000 0.277
2391.000 0.286
2392.000 0.437
2393.000 0.412
2394.000 0.381
2395.000 0.369
2396.000 0.258
2397.000 0.168
2398.000 0.175
2399.000 0.184
2400.000 0.330
2401.000 0.127
2402.000 0.188
2403.000 0.288
2404.000 0.342
2405.000 0.369
2406.000 0.402
2407.000 0.521
2408.000 0.517
2409.000 0.403
2410.000 0.347
2411.000 0.295
2412.000 0.355
2413.000 0.340
2414.000 0.489
2415.000 0.531
2416.000 0.540
2417.000 0.221
2418.000 0.503
2419.000 0.371
2420.000 0.469
2421.000 0.431
2422.000 0.410
2423.000 0.289
2424.000 0.262
2425.000 0.303
2426.000 0.410
2427.000 0.507
2428.000 0.353
2429.000 0.435
2430.000 0.303
2431.000 0.315
2432.000 0.294
2433.000 0.298
2434.000 0.312
2435.000 0.304
2436.000 0.597
2437.000 0.710
2438.000 0.723
2439.000 0.205
2440.000 0.374
2441.000 0.345
2442.000 0.332
2443.000 0.286
2444.000 0.247
2445.000 0.240
2446.000 0.203
2447.000 0.415
2448.000 0.353
2449.000 0.241
2450.000 0.471
2451.000 0.449
2452.000 0.411
2453.000 0.315
2454.000 0.343
2455.000 0.355
2456.000 0.356
2457.000 0.347
2458.000 0.286
2459.000 0.446
2460.000 0.833
2461.000 0.809
2462.000 0.668
2463.000 0.304
2464.000 0.362
2465.000 0.527
2466.000 0.496
2467.000 0.600
2468.000 0.328
2469.000 0.131
2470.000 0.289
2471.000 0.782
2472.000 0.701
2473.000 0.582
2474.000 0.151
2475.000 0.406
2476.000 0.583
2477.000 0.504
2478.000 0.609
2479.000 0.557
2480.000 0.559
2481.000 0.311
2482.000 0.149
2483.000 0.194
2484.000 0.275
2485.000 0.242
2486.000 0.209
2487.000 0.124
2488.000 0.111
2489.000 0.190
2490.000 0.346
2491.000 0.514
2492.000 0.742
2493.000 0.542
2494.000 0.234
2495.000 0.382
2496.000 0.200
2497.000 0.124
2498.000 0.289
2499.000 0.688
2500.000 0.778
