391.000 0.059
392.000 0.060
393.000 0.045
394.000 0.041
395.000 0.054
396.000 0.055
397.000 0.044
398.000 0.047
399.000 0.049
400.000 0.049
401.000 0.049
402.000 0.051
403.000 0.051
404.000 0.048
405.000 0.043
406.000 0.050
407.000 0.049
408.000 0.041
409.000 0.044
410.000 0.046
411.000 0.047
412.000 0.046
413.000 0.047
414.000 0.046
415.000 0.045
416.000 0.046
417.000 0.044
418.000 0.043
419.000 0.046
420.000 0.047
421.000 0.045
422.000 0.044
423.000 0.046
424.000 0.047
425.000 0.044
426.000 0.044
427.000 0.050
428.000 0.047
429.000 0.042
430.000 0.042
431.000 0.046
432.000 0.046
433.000 0.045
434.000 0.044
435.000 0.044
436.000 0.044
437.000 0.045
438.000 0.046
439.000 0.044
440.000 0.044
441.000 0.045
442.000 0.045
443.000 0.043
444.000 0.042
445.000 0.044
446.000 0.042
447.000 0.042
448.000 0.044
449.000 0.043
450.000 0.044
451.000 0.044
452.000 0.043
453.000 0.041
454.000 0.042
455.000 0.043
456.000 0.043
457.000 0.045
458.000 0.044
459.000 0.042
460.000 0.041
461.000 0.043
462.000 0.045
463.000 0.045
464.000 0.042
465.000 0.041
466.000 0.043
467.000 0.046
468.000 0.044
469.000 0.044
470.000 0.045
471.000 0.046
472.000 0.043
473.000 0.042
474.000 0.043
475.000 0.043
476.000 0.045
477.000 0.045
478.000 0.042
479.000 0.043
480.000 0.044
481.000 0.045
482.000 0.044
483.000 0.043
484.000 0.042
485.000 0.043
486.000 0.044
487.000 0.045
488.000 0.045
489.000 0.046
490.000 0.046
491.000 0.046
492.000 0.044
493.000 0.041
494.000 0.043
495.000 0.045
496.000 0.045
497.000 0.044
498.000 0.045
499.000 0.048
500.000 0.049
501.000 0.046
502.000 0.047
503.000 0.051
504.000 0.053
505.000 0.052
506.000 0.052
507.000 0.054
508.000 0.055
509.000 0.054
510.000 0.055
511.000 0.058
512.000 0.060
513.000 0.061
514.000 0.061
515.000 0.066
516.000 0.068
517.000 0.069
518.000 0.070
519.000 0.074
520.000 0.079
521.000 0.082
522.000 0.082
523.000 0.085
524.000 0.089
525.000 0.092
526.000 0.095
527.000 0.096
528.000 0.098
529.000 0.101
530.000 0.103
531.000 0.105
532.000 0.107
533.000 0.109
534.000 0.110
535.000 0.112
536.000 0.114
537.000 0.115
538.000 0.115
539.000 0.116
540.000 0.117
541.000 0.117
542.000 0.118
543.000 0.118
544.000 0.119
545.000 0.119
546.000 0.119
547.000 0.119
548.000 0.119
549.000 0.120
550.000 0.120
551.000 0.120
552.000 0.119
553.000 0.119
554.000 0.120
555.000 0.119
556.000 0.119
557.000 0.119
558.000 0.118
559.000 0.117
560.000 0.115
561.000 0.115
562.000 0.112
563.000 0.112
564.000 0.111
565.000 0.108
566.000 0.107
567.000 0.105
568.000 0.102
569.000 0.100
570.000 0.099
571.000 0.098
572.000 0.096
573.000 0.095
574.000 0.093
575.000 0.091
576.000 0.089
577.000 0.089
578.000 0.088
579.000 0.085
580.000 0.084
581.000 0.083
582.000 0.082
583.000 0.081
584.000 0.082
585.000 0.080
586.000 0.078
587.000 0.078
588.000 0.077
589.000 0.077
590.000 0.077
591.000 0.075
592.000 0.075
593.000 0.075
594.000 0.074
595.000 0.073
596.000 0.073
597.000 0.073
598.000 0.073
599.000 0.074
600.000 0.073
601.000 0.072
602.000 0.073
603.000 0.073
604.000 0.071
605.000 0.068
606.000 0.069
607.000 0.069
608.000 0.068
609.000 0.069
610.000 0.069
611.000 0.069
612.000 0.069
613.000 0.068
614.000 0.066
615.000 0.066
616.000 0.065
617.000 0.065
618.000 0.066
619.000 0.065
620.000 0.063
621.000 0.063
622.000 0.064
623.000 0.064
624.000 0.063
625.000 0.062
626.000 0.062
627.000 0.064
628.000 0.064
629.000 0.064
630.000 0.062
631.000 0.063
632.000 0.063
633.000 0.062
634.000 0.064
635.000 0.063
636.000 0.063
637.000 0.063
638.000 0.063
639.000 0.061
640.000 0.058
641.000 0.056
642.000 0.056
643.000 0.055
644.000 0.054
645.000 0.056
646.000 0.057
647.000 0.056
648.000 0.053
649.000 0.055
650.000 0.055
651.000 0.053
652.000 0.051
653.000 0.052
654.000 0.055
655.000 0.058
656.000 0.056
657.000 0.054
658.000 0.054
659.000 0.056
660.000 0.054
661.000 0.052
662.000 0.052
663.000 0.053
664.000 0.053
665.000 0.053
666.000 0.052
667.000 0.053
668.000 0.054
669.000 0.055
670.000 0.056
671.000 0.055
672.000 0.054
673.000 0.054
674.000 0.057
675.000 0.059
676.000 0.059
677.000 0.059
678.000 0.059
679.000 0.061
680.000 0.062
681.000 0.061
682.000 0.063
683.000 0.065
684.000 0.066
685.000 0.068
686.000 0.070
687.000 0.072
688.000 0.075
689.000 0.078
690.000 0.079
691.000 0.081
692.000 0.085
693.000 0.089
694.000 0.095
695.000 0.100
696.000 0.107
697.000 0.114
698.000 0.122
699.000 0.132
700.000 0.141
701.000 0.152
702.000 0.163
703.000 0.172
704.000 0.183
705.000 0.193
706.000 0.203
707.000 0.215
708.000 0.226
709.000 0.235
710.000 0.246
711.000 0.257
712.000 0.268
713.000 0.279
714.000 0.290
715.000 0.301
716.000 0.312
717.000 0.324
718.000 0.336
719.000 0.349
720.000 0.363
721.000 0.373
722.000 0.382
723.000 0.392
724.000 0.404
725.000 0.415
726.000 0.426
727.000 0.436
728.000 0.445
729.000 0.454
730.000 0.464
731.000 0.472
732.000 0.480
733.000 0.487
734.000 0.494
735.000 0.502
736.000 0.508
737.000 0.514
738.000 0.520
739.000 0.526
740.000 0.531
741.000 0.536
742.000 0.540
743.000 0.545
744.000 0.549
745.000 0.553
746.000 0.555
747.000 0.559
748.000 0.562
749.000 0.565
750.000 0.567
751.000 0.570
752.000 0.572
753.000 0.574
754.000 0.576
755.000 0.578
756.000 0.579
757.000 0.580
758.000 0.582
759.000 0.584
760.000 0.586
761.000 0.588
762.000 0.590
763.000 0.591
764.000 0.591
765.000 0.592
766.000 0.592
767.000 0.592
768.000 0.593
769.000 0.593
770.000 0.593
771.000 0.594
772.000 0.595
773.000 0.596
774.000 0.596
775.000 0.597
776.000 0.597
777.000 0.597
778.000 0.598
779.000 0.599
780.000 0.599
781.000 0.600
782.000 0.601
783.000 0.601
784.000 0.601
785.000 0.602
786.000 0.603
787.000 0.603
788.000 0.604
789.000 0.605
790.000 0.605
791.000 0.606
792.000 0.606
793.000 0.607
794.000 0.607
795.000 0.608
796.000 0.608
797.000 0.608
798.000 0.609
799.000 0.610
800.000 0.610
801.000 0.611
802.000 0.611
803.000 0.612
804.000 0.612
805.000 0.612
806.000 0.613
807.000 0.613
808.000 0.614
809.000 0.615
810.000 0.615
811.000 0.616
812.000 0.617
813.000 0.618
814.000 0.619
815.000 0.619
816.000 0.620
817.000 0.620
818.000 0.621
819.000 0.621
820.000 0.622
821.000 0.622
822.000 0.622
823.000 0.622
824.000 0.622
825.000 0.623
826.000 0.624
827.000 0.624
828.000 0.624
829.000 0.624
830.000 0.625
831.000 0.625
832.000 0.626
833.000 0.625
834.000 0.626
835.000 0.626
836.000 0.626
837.000 0.627
838.000 0.627
839.000 0.628
840.000 0.628
841.000 0.629
842.000 0.629
843.000 0.629
844.000 0.629
845.000 0.630
846.000 0.630
847.000 0.631
848.000 0.631
849.000 0.631
850.000 0.631
851.000 0.632
852.000 0.632
853.000 0.633
854.000 0.633
855.000 0.633
856.000 0.634
857.000 0.634
858.000 0.634
859.000 0.635
860.000 0.635
861.000 0.635
862.000 0.636
863.000 0.636
864.000 0.636
865.000 0.637
866.000 0.636
867.000 0.637
868.000 0.637
869.000 0.638
870.000 0.638
871.000 0.638
872.000 0.639
873.000 0.639
874.000 0.640
875.000 0.640
876.000 0.640
877.000 0.641
878.000 0.641
879.000 0.641
880.000 0.642
881.000 0.642
882.000 0.643
883.000 0.643
884.000 0.643
885.000 0.644
886.000 0.644
887.000 0.645
888.000 0.646
889.000 0.646
890.000 0.646
891.000 0.647
892.000 0.648
893.000 0.648
894.000 0.649
895.000 0.650
896.000 0.651
897.000 0.651
898.000 0.651
899.000 0.652
900.000 0.652
901.000 0.653
902.000 0.653
903.000 0.654
904.000 0.655
905.000 0.655
906.000 0.655
907.000 0.655
908.000 0.655
909.000 0.656
910.000 0.657
911.000 0.657
912.000 0.658
913.000 0.658
914.000 0.658
915.000 0.658
916.000 0.658
917.000 0.659
918.000 0.659
919.000 0.659
920.000 0.660
921.000 0.661
922.000 0.660
923.000 0.660
924.000 0.660
925.000 0.660
926.000 0.661
927.000 0.662
928.000 0.663
929.000 0.663
930.000 0.663
931.000 0.663
932.000 0.663
933.000 0.662
934.000 0.663
935.000 0.664
936.000 0.662
937.000 0.664
938.000 0.666
939.000 0.666
940.000 0.667
941.000 0.665
942.000 0.664
943.000 0.667
944.000 0.668
945.000 0.666
946.000 0.665
947.000 0.665
948.000 0.668
949.000 0.665
950.000 0.662
951.000 0.663
952.000 0.665
953.000 0.665
954.000 0.662
955.000 0.658
956.000 0.658
957.000 0.657
958.000 0.657
959.000 0.660
960.000 0.658
961.000 0.659
962.000 0.659
963.000 0.657
964.000 0.653
965.000 0.658
966.000 0.659
967.000 0.655
968.000 0.658
969.000 0.658
970.000 0.656
971.000 0.657
972.000 0.657
973.000 0.658
974.000 0.658
975.000 0.657
976.000 0.656
977.000 0.657
978.000 0.658
979.000 0.658
980.000 0.658
981.000 0.656
982.000 0.657
983.000 0.658
984.000 0.656
985.000 0.657
986.000 0.659
987.000 0.660
988.000 0.661
989.000 0.661
990.000 0.660
991.000 0.660
992.000 0.660
993.000 0.661
994.000 0.662
995.000 0.663
996.000 0.663
997.000 0.662
998.000 0.663
999.000 0.664
1000.000 0.664
1001.000 0.667
1002.000 0.667
1003.000 0.668
1004.000 0.668
1005.000 0.668
1006.000 0.668
1007.000 0.669
1008.000 0.670
1009.000 0.670
1010.000 0.670
1011.000 0.670
1012.000 0.671
1013.000 0.671
1014.000 0.670
1015.000 0.671
1016.000 0.671
1017.000 0.672
1018.000 0.673
1019.000 0.674
1020.000 0.676
1021.000 0.676
1022.000 0.677
1023.000 0.679
1024.000 0.680
1025.000 0.681
1026.000 0.681
1027.000 0.682
1028.000 0.682
1029.000 0.681
1030.000 0.681
1031.000 0.682
1032.000 0.682
1033.000 0.682
1034.000 0.683
1035.000 0.683
1036.000 0.682
1037.000 0.682
1038.000 0.682
1039.000 0.684
1040.000 0.684
1041.000 0.685
1042.000 0.686
1043.000 0.686
1044.000 0.686
1045.000 0.686
1046.000 0.687
1047.000 0.687
1048.000 0.687
1049.000 0.687
1050.000 0.688
1051.000 0.689
1052.000 0.689
1053.000 0.690
1054.000 0.691
1055.000 0.691
1056.000 0.692
1057.000 0.692
1058.000 0.692
1059.000 0.692
1060.000 0.692
1061.000 0.692
1062.000 0.693
1063.000 0.693
1064.000 0.694
1065.000 0.694
1066.000 0.694
1067.000 0.693
1068.000 0.694
1069.000 0.695
1070.000 0.694
1071.000 0.694
1072.000 0.694
1073.000 0.693
1074.000 0.694
1075.000 0.694
1076.000 0.694
1077.000 0.694
1078.000 0.695
1079.000 0.695
1080.000 0.695
1081.000 0.695
1082.000 0.696
1083.000 0.696
1084.000 0.695
1085.000 0.696
1086.000 0.696
1087.000 0.696
1088.000 0.696
1089.000 0.696
1090.000 0.696
1091.000 0.696
1092.000 0.696
1093.000 0.697
1094.000 0.698
1095.000 0.699
1096.000 0.700
1097.000 0.700
1098.000 0.700
1099.000 0.701
1100.000 0.700
1101.000 0.701
1102.000 0.701
1103.000 0.701
1104.000 0.700
1105.000 0.700
1106.000 0.699
1107.000 0.698
1108.000 0.698
1109.000 0.698
1110.000 0.698
1111.000 0.699
1112.000 0.700
1113.000 0.701
1114.000 0.702
1115.000 0.703
1116.000 0.701
1117.000 0.703
1118.000 0.703
1119.000 0.702
1120.000 0.703
1121.000 0.703
1122.000 0.704
1123.000 0.703
1124.000 0.704
1125.000 0.703
1126.000 0.699
1127.000 0.697
1128.000 0.696
1129.000 0.695
1130.000 0.693
1131.000 0.692
1132.000 0.691
1133.000 0.691
1134.000 0.690
1135.000 0.688
1136.000 0.688
1137.000 0.689
1138.000 0.688
1139.000 0.688
1140.000 0.686
1141.000 0.685
1142.000 0.683
1143.000 0.680
1144.000 0.678
1145.000 0.675
1146.000 0.672
1147.000 0.672
1148.000 0.670
1149.000 0.668
1150.000 0.668
1151.000 0.667
1152.000 0.665
1153.000 0.664
1154.000 0.662
1155.000 0.661
1156.000 0.661
1157.000 0.660
1158.000 0.659
1159.000 0.658
1160.000 0.657
1161.000 0.656
1162.000 0.656
1163.000 0.655
1164.000 0.655
1165.000 0.654
1166.000 0.654
1167.000 0.653
1168.000 0.654
1169.000 0.654
1170.000 0.653
1171.000 0.653
1172.000 0.652
1173.000 0.652
1174.000 0.652
1175.000 0.653
1176.000 0.652
1177.000 0.653
1178.000 0.653
1179.000 0.653
1180.000 0.652
1181.000 0.651
1182.000 0.650
1183.000 0.650
1184.000 0.650
1185.000 0.650
1186.000 0.650
1187.000 0.651
1188.000 0.650
1189.000 0.650
1190.000 0.650
1191.000 0.650
1192.000 0.650
1193.000 0.650
1194.000 0.650
1195.000 0.649
1196.000 0.650
1197.000 0.650
1198.000 0.650
1199.000 0.650
1200.000 0.650
1201.000 0.650
1202.000 0.650
1203.000 0.650
1204.000 0.650
1205.000 0.651
1206.000 0.651
1207.000 0.651
1208.000 0.651
1209.000 0.651
1210.000 0.652
1211.000 0.653
1212.000 0.653
1213.000 0.655
1214.000 0.656
1215.000 0.654
1216.000 0.654
1217.000 0.654
1218.000 0.655
1219.000 0.657
1220.000 0.657
1221.000 0.657
1222.000 0.657
1223.000 0.656
1224.000 0.657
1225.000 0.656
1226.000 0.656
1227.000 0.657
1228.000 0.657
1229.000 0.658
1230.000 0.660
1231.000 0.660
1232.000 0.660
1233.000 0.660
1234.000 0.660
1235.000 0.660
1236.000 0.660
1237.000 0.660
1238.000 0.661
1239.000 0.661
1240.000 0.661
1241.000 0.662
1242.000 0.662
1243.000 0.663
1244.000 0.663
1245.000 0.663
1246.000 0.664
1247.000 0.664
1248.000 0.665
1249.000 0.665
1250.000 0.666
1251.000 0.666
1252.000 0.666
1253.000 0.667
1254.000 0.667
1255.000 0.668
1256.000 0.668
1257.000 0.668
1258.000 0.668
1259.000 0.668
1260.000 0.668
1261.000 0.668
1262.000 0.669
1263.000 0.670
1264.000 0.669
1265.000 0.670
1266.000 0.669
1267.000 0.670
1268.000 0.670
1269.000 0.669
1270.000 0.669
1271.000 0.670
1272.000 0.670
1273.000 0.671
1274.000 0.671
1275.000 0.672
1276.000 0.672
1277.000 0.672
1278.000 0.672
1279.000 0.672
1280.000 0.670
1281.000 0.670
1282.000 0.669
1283.000 0.669
1284.000 0.668
1285.000 0.668
1286.000 0.669
1287.000 0.669
1288.000 0.670
1289.000 0.669
1290.000 0.668
1291.000 0.667
1292.000 0.666
1293.000 0.665
1294.000 0.665
1295.000 0.665
1296.000 0.665
1297.000 0.665
1298.000 0.665
1299.000 0.664
1300.000 0.663
1301.000 0.663
1302.000 0.662
1303.000 0.661
1304.000 0.661
1305.000 0.659
1306.000 0.659
1307.000 0.658
1308.000 0.657
1309.000 0.657
1310.000 0.656
1311.000 0.655
1312.000 0.654
1313.000 0.651
1314.000 0.650
1315.000 0.647
1316.000 0.646
1317.000 0.646
1318.000 0.645
1319.000 0.643
1320.000 0.642
1321.000 0.640
1322.000 0.639
1323.000 0.637
1324.000 0.636
1325.000 0.634
1326.000 0.632
1327.000 0.630
1328.000 0.627
1329.000 0.626
1330.000 0.625
1331.000 0.624
1332.000 0.625
1333.000 0.623
1334.000 0.621
1335.000 0.619
1336.000 0.614
1337.000 0.611
1338.000 0.613
1339.000 0.611
1340.000 0.611
1341.000 0.609
1342.000 0.606
1343.000 0.604
1344.000 0.605
1345.000 0.605
1346.000 0.604
1347.000 0.603
1348.000 0.602
1349.000 0.600
1350.000 0.599
1351.000 0.606
1352.000 0.599
1353.000 0.561
1354.000 0.535
1355.000 0.513
1356.000 0.495
1357.000 0.485
1358.000 0.502
1359.000 0.463
1360.000 0.446
1361.000 0.436
1362.000 0.410
1363.000 0.343
1364.000 0.438
1365.000 0.592
1366.000 0.671
1367.000 0.516
1368.000 0.594
1369.000 0.473
1370.000 0.351
1371.000 0.489
1372.000 0.214
1373.000 0.131
1374.000 0.179
1375.000 0.153
1376.000 0.115
1377.000 0.190
1378.000 0.232
1379.000 0.255
1380.000 0.250
1381.000 0.293
1382.000 0.513
1383.000 0.507
1384.000 0.550
1385.000 0.479
1386.000 0.338
1387.000 0.322
1388.000 0.614
1389.000 0.556
1390.000 0.599
1391.000 0.563
1392.000 0.381
1393.000 0.415
1394.000 0.639
1395.000 0.694
1396.000 0.428
1397.000 0.528
1398.000 0.502
1399.000 0.591
1400.000 0.517
1401.000 0.493
1402.000 0.457
1403.000 0.531
1404.000 0.514
1405.000 0.537
1406.000 0.513
1407.000 0.447
1408.000 0.338
1409.000 0.279
1410.000 0.453
1411.000 0.420
1412.000 0.348
1413.000 0.278
1414.000 0.185
1415.000 0.415
1416.000 0.214
1417.000 0.517
1418.000 0.528
1419.000 0.569
1420.000 0.543
1421.000 0.406
1422.000 0.349
1423.000 0.516
1424.000 0.407
1425.000 0.451
1426.000 0.397
1427.000 0.354
1428.000 0.334
1429.000 0.302
1430.000 0.303
1431.000 0.415
1432.000 0.460
1433.000 0.467
1434.000 0.374
1435.000 0.553
1436.000 0.463
1437.000 0.343
1438.000 0.339
1439.000 0.358
1440.000 0.353
1441.000 0.418
1442.000 0.403
1443.000 0.323
1444.000 0.310
1445.000 0.322
1446.000 0.319
1447.000 0.333
1448.000 0.341
1449.000 0.344
1450.000 0.330
1451.000 0.315
1452.000 0.291
1453.000 0.275
1454.000 0.255
1455.000 0.252
1456.000 0.254
1457.000 0.257
1458.000 0.269
1459.000 0.264
1460.000 0.250
1461.000 0.247
1462.000 0.242
1463.000 0.238
1464.000 0.241
1465.000 0.243
1466.000 0.242
1467.000 0.240
1468.000 0.246
1469.000 0.245
1470.000 0.233
1471.000 0.230
1472.000 0.231
1473.000 0.233
1474.000 0.234
1475.000 0.239
1476.000 0.254
1477.000 0.257
1478.000 0.256
1479.000 0.257
1480.000 0.250
1481.000 0.251
1482.000 0.259
1483.000 0.263
1484.000 0.269
1485.000 0.269
1486.000 0.262
1487.000 0.260
1488.000 0.256
1489.000 0.256
1490.000 0.260
1491.000 0.262
1492.000 0.262
1493.000 0.264
1494.000 0.266
1495.000 0.268
1496.000 0.274
1497.000 0.278
1498.000 0.279
1499.000 0.281
1500.000 0.283
1501.000 0.285
1502.000 0.287
1503.000 0.290
1504.000 0.292
1505.000 0.295
1506.000 0.297
1507.000 0.299
1508.000 0.302
1509.000 0.305
1510.000 0.307
1511.000 0.308
1512.000 0.310
1513.000 0.310
1514.000 0.312
1515.000 0.316
1516.000 0.318
1517.000 0.319
1518.000 0.320
1519.000 0.321
1520.000 0.323
1521.000 0.326
1522.000 0.328
1523.000 0.330
1524.000 0.332
1525.000 0.334
1526.000 0.335
1527.000 0.336
1528.000 0.337
1529.000 0.339
1530.000 0.340
1531.000 0.342
1532.000 0.344
1533.000 0.347
1534.000 0.348
1535.000 0.350
1536.000 0.351
1537.000 0.351
1538.000 0.352
1539.000 0.354
1540.000 0.356
1541.000 0.358
1542.000 0.359
1543.000 0.360
1544.000 0.362
1545.000 0.364
1546.000 0.366
1547.000 0.371
1548.000 0.374
1549.000 0.376
1550.000 0.378
1551.000 0.377
1552.000 0.378
1553.000 0.381
1554.000 0.383
1555.000 0.387
1556.000 0.389
1557.000 0.390
1558.000 0.392
1559.000 0.393
1560.000 0.394
1561.000 0.396
1562.000 0.398
1563.000 0.400
1564.000 0.402
1565.000 0.404
1566.000 0.405
1567.000 0.408
1568.000 0.409
1569.000 0.408
1570.000 0.409
1571.000 0.410
1572.000 0.410
1573.000 0.413
1574.000 0.414
1575.000 0.414
1576.000 0.415
1577.000 0.416
1578.000 0.417
1579.000 0.417
1580.000 0.419
1581.000 0.422
1582.000 0.424
1583.000 0.425
1584.000 0.426
1585.000 0.426
1586.000 0.426
1587.000 0.427
1588.000 0.428
1589.000 0.427
1590.000 0.428
1591.000 0.429
1592.000 0.432
1593.000 0.435
1594.000 0.437
1595.000 0.439
1596.000 0.440
1597.000 0.443
1598.000 0.444
1599.000 0.445
1600.000 0.445
1601.000 0.446
1602.000 0.446
1603.000 0.447
1604.000 0.448
1605.000 0.450
1606.000 0.451
1607.000 0.451
1608.000 0.452
1609.000 0.451
1610.000 0.451
1611.000 0.453
1612.000 0.454
1613.000 0.455
1614.000 0.456
1615.000 0.457
1616.000 0.458
1617.000 0.458
1618.000 0.459
1619.000 0.461
1620.000 0.462
1621.000 0.463
1622.000 0.464
1623.000 0.463
1624.000 0.462
1625.000 0.464
1626.000 0.465
1627.000 0.466
1628.000 0.467
1629.000 0.466
1630.000 0.467
1631.000 0.469
1632.000 0.470
1633.000 0.473
1634.000 0.474
1635.000 0.474
1636.000 0.474
1637.000 0.476
1638.000 0.476
1639.000 0.478
1640.000 0.479
1641.000 0.480
1642.000 0.480
1643.000 0.482
1644.000 0.484
1645.000 0.485
1646.000 0.485
1647.000 0.485
1648.000 0.485
1649.000 0.483
1650.000 0.482
1651.000 0.482
1652.000 0.483
1653.000 0.485
1654.000 0.486
1655.000 0.485
1656.000 0.486
1657.000 0.486
1658.000 0.487
1659.000 0.488
1660.000 0.489
1661.000 0.489
1662.000 0.490
1663.000 0.492
1664.000 0.493
1665.000 0.493
1666.000 0.493
1667.000 0.493
1668.000 0.493
1669.000 0.494
1670.000 0.494
1671.000 0.494
1672.000 0.492
1673.000 0.488
1674.000 0.487
1675.000 0.486
1676.000 0.486
1677.000 0.489
1678.000 0.492
1679.000 0.496
1680.000 0.496
1681.000 0.496
1682.000 0.495
1683.000 0.489
1684.000 0.489
1685.000 0.491
1686.000 0.492
1687.000 0.493
1688.000 0.493
1689.000 0.491
1690.000 0.490
1691.000 0.489
1692.000 0.490
1693.000 0.492
1694.000 0.491
1695.000 0.487
1696.000 0.486
1697.000 0.482
1698.000 0.482
1699.000 0.487
1700.000 0.488
1701.000 0.487
1702.000 0.487
1703.000 0.485
1704.000 0.485
1705.000 0.485
1706.000 0.485
1707.000 0.484
1708.000 0.482
1709.000 0.479
1710.000 0.478
1711.000 0.478
1712.000 0.478
1713.000 0.479
1714.000 0.476
1715.000 0.474
1716.000 0.475
1717.000 0.476
1718.000 0.477
1719.000 0.479
1720.000 0.477
1721.000 0.474
1722.000 0.475
1723.000 0.475
1724.000 0.474
1725.000 0.474
1726.000 0.472
1727.000 0.469
1728.000 0.467
1729.000 0.465
1730.000 0.463
1731.000 0.462
1732.000 0.460
1733.000 0.461
1734.000 0.463
1735.000 0.463
1736.000 0.465
1737.000 0.465
1738.000 0.461
1739.000 0.460
1740.000 0.459
1741.000 0.459
1742.000 0.461
1743.000 0.461
1744.000 0.460
1745.000 0.458
1746.000 0.459
1747.000 0.454
1748.000 0.446
1749.000 0.444
1750.000 0.441
1751.000 0.442
1752.000 0.451
1753.000 0.453
1754.000 0.452
1755.000 0.451
1756.000 0.446
1757.000 0.446
1758.000 0.450
1759.000 0.452
1760.000 0.455
1761.000 0.456
1762.000 0.454
1763.000 0.451
1764.000 0.450
1765.000 0.451
1766.000 0.452
1767.000 0.452
1768.000 0.449
1769.000 0.444
1770.000 0.439
1771.000 0.443
1772.000 0.444
1773.000 0.443
1774.000 0.440
1775.000 0.436
1776.000 0.434
1777.000 0.431
1778.000 0.430
1779.000 0.427
1780.000 0.430
1781.000 0.442
1782.000 0.448
1783.000 0.455
1784.000 0.453
1785.000 0.434
1786.000 0.429
1787.000 0.425
1788.000 0.422
1789.000 0.432
1790.000 0.437
1791.000 0.438
1792.000 0.431
1793.000 0.419
1794.000 0.416
1795.000 0.427
1796.000 0.459
1797.000 0.486
1798.000 0.499
1799.000 0.534
1800.000 0.495
1801.000 0.404
1802.000 0.401
1803.000 0.426
1804.000 0.442
1805.000 0.473
1806.000 0.724
1807.000 0.761
1808.000 0.640
1809.000 0.594
1810.000 0.544
1811.000 0.504
1812.000 0.469
1813.000 0.500
1814.000 0.547
1815.000 0.522
1816.000 0.532
1817.000 0.573
1818.000 0.596
1819.000 0.539
1820.000 0.507
1821.000 0.545
1822.000 0.616
1823.000 0.594
1824.000 0.609
1825.000 0.596
1826.000 0.549
1827.000 0.532
1828.000 0.510
1829.000 0.488
1830.000 0.561
1831.000 0.547
1832.000 0.532
1833.000 0.580
1834.000 0.498
1835.000 0.608
1836.000 0.528
1837.000 0.443
1838.000 0.475
1839.000 0.449
1840.000 0.461
1841.000 0.584
1842.000 0.616
1843.000 0.805
1844.000 0.606
1845.000 0.662
1846.000 0.639
1847.000 0.652
1848.000 0.634
1849.000 0.605
1850.000 0.563
1851.000 0.529
1852.000 0.489
1853.000 0.615
1854.000 0.717
1855.000 0.686
1856.000 0.632
1857.000 0.575
1858.000 0.571
1859.000 0.523
1860.000 0.541
1861.000 0.542
1862.000 0.522
1863.000 0.556
1864.000 0.515
1865.000 0.544
1866.000 0.537
1867.000 0.591
1868.000 0.723
1869.000 0.728
1870.000 0.419
1871.000 0.513
1872.000 0.663
1873.000 0.596
1874.000 0.579
1875.000 0.499
1876.000 0.405
1877.000 0.369
1878.000 0.449
1879.000 0.686
1880.000 0.543
1881.000 0.475
1882.000 0.444
1883.000 0.318
1884.000 0.337
1885.000 0.381
1886.000 0.418
1887.000 0.393
1888.000 0.371
1889.000 0.488
1890.000 0.462
1891.000 0.411
1892.000 0.436
1893.000 0.363
1894.000 0.391
1895.000 0.342
1896.000 0.397
1897.000 0.645
1898.000 0.551
1899.000 0.508
1900.000 0.519
1901.000 0.492
1902.000 0.511
1903.000 0.495
1904.000 0.558
1905.000 0.481
1906.000 0.463
1907.000 0.552
1908.000 0.488
1909.000 0.623
1910.000 0.543
1911.000 0.722
1912.000 0.572
1913.000 0.489
1914.000 0.610
1915.000 0.500
1916.000 0.632
1917.000 0.571
1918.000 0.619
1919.000 0.591
1920.000 0.662
1921.000 0.636
1922.000 0.566
1923.000 0.557
1924.000 0.448
1925.000 0.414
1926.000 0.339
1927.000 0.432
1928.000 0.728
1929.000 0.719
1930.000 0.663
1931.000 0.644
1932.000 0.641
1933.000 0.609
1934.000 0.580
1935.000 0.556
1936.000 0.479
1937.000 0.347
1938.000 0.296
1939.000 0.346
1940.000 0.361
1941.000 0.532
1942.000 0.433
1943.000 0.453
1944.000 0.450
1945.000 0.524
1946.000 0.471
1947.000 0.455
1948.000 0.461
1949.000 0.594
1950.000 0.495
1951.000 0.466
1952.000 0.431
1953.000 0.451
1954.000 0.356
1955.000 0.288
1956.000 0.306
1957.000 0.297
1958.000 0.337
1959.000 0.325
1960.000 0.317
1961.000 0.335
1962.000 0.339
1963.000 0.327
1964.000 0.304
1965.000 0.302
1966.000 0.237
1967.000 0.230
1968.000 0.236
1969.000 0.240
1970.000 0.230
1971.000 0.236
1972.000 0.242
1973.000 0.268
1974.000 0.324
1975.000 0.347
1976.000 0.333
1977.000 0.299
1978.000 0.249
1979.000 0.216
1980.000 0.197
1981.000 0.187
1982.000 0.189
1983.000 0.195
1984.000 0.183
1985.000 0.184
1986.000 0.178
1987.000 0.164
1988.000 0.157
1989.000 0.155
1990.000 0.147
1991.000 0.136
1992.000 0.129
1993.000 0.121
1994.000 0.119
1995.000 0.127
1996.000 0.142
1997.000 0.155
1998.000 0.171
1999.000 0.189
2000.000 0.208
2001.000 0.237
2002.000 0.265
2003.000 0.290
2004.000 0.310
2005.000 0.312
2006.000 0.293
2007.000 0.313
2008.000 0.265
2009.000 0.287
2010.000 0.274
2011.000 0.239
2012.000 0.227
2013.000 0.191
2014.000 0.182
2015.000 0.175
2016.000 0.185
2017.000 0.217
2018.000 0.235
2019.000 0.259
2020.000 0.274
2021.000 0.246
2022.000 0.224
2023.000 0.215
2024.000 0.200
2025.000 0.182
2026.000 0.175
2027.000 0.175
2028.000 0.179
2029.000 0.185
2030.000 0.204
2031.000 0.211
2032.000 0.212
2033.000 0.211
2034.000 0.203
2035.000 0.205
2036.000 0.203
2037.000 0.200
2038.000 0.194
2039.000 0.191
2040.000 0.195
2041.000 0.200
2042.000 0.206
2043.000 0.226
2044.000 0.232
2045.000 0.234
2046.000 0.234
2047.000 0.225
2048.000 0.219
2049.000 0.211
2050.000 0.200
2051.000 0.200
2052.000 0.208
2053.000 0.217
2054.000 0.231
2055.000 0.235
2056.000 0.231
2057.000 0.234
2058.000 0.235
2059.000 0.240
2060.000 0.249
2061.000 0.257
2062.000 0.275
2063.000 0.281
2064.000 0.281
2065.000 0.279
2066.000 0.266
2067.000 0.261
2068.000 0.248
2069.000 0.250
2070.000 0.258
2071.000 0.252
2072.000 0.253
2073.000 0.258
2074.000 0.259
2075.000 0.254
2076.000 0.253
2077.000 0.254
2078.000 0.250
2079.000 0.247
2080.000 0.244
2081.000 0.235
2082.000 0.230
2083.000 0.232
2084.000 0.231
2085.000 0.229
2086.000 0.228
2087.000 0.230
2088.000 0.231
2089.000 0.231
2090.000 0.237
2091.000 0.238
2092.000 0.231
2093.000 0.228
2094.000 0.224
2095.000 0.223
2096.000 0.226
2097.000 0.227
2098.000 0.226
2099.000 0.233
2100.000 0.235
2101.000 0.237
2102.000 0.238
2103.000 0.239
2104.000 0.249
2105.000 0.269
2106.000 0.273
2107.000 0.283
2108.000 0.277
2109.000 0.244
2110.000 0.238
2111.000 0.244
2112.000 0.242
2113.000 0.249
2114.000 0.248
2115.000 0.229
2116.000 0.227
2117.000 0.232
2118.000 0.238
2119.000 0.245
2120.000 0.260
2121.000 0.267
2122.000 0.266
2123.000 0.268
2124.000 0.267
2125.000 0.272
2126.000 0.284
2127.000 0.290
2128.000 0.304
2129.000 0.306
2130.000 0.297
2131.000 0.290
2132.000 0.279
2133.000 0.270
2134.000 0.258
2135.000 0.252
2136.000 0.249
2137.000 0.245
2138.000 0.248
2139.000 0.257
2140.000 0.270
2141.000 0.288
2142.000 0.296
2143.000 0.299
2144.000 0.298
2145.000 0.285
2146.000 0.281
2147.000 0.284
2148.000 0.282
2149.000 0.277
2150.000 0.278
2151.000 0.283
2152.000 0.287
2153.000 0.301
2154.000 0.309
2155.000 0.311
2156.000 0.308
2157.000 0.306
2158.000 0.299
2159.000 0.296
2160.000 0.296
2161.000 0.295
2162.000 0.299
2163.000 0.297
2164.000 0.288
2165.000 0.285
2166.000 0.286
2167.000 0.284
2168.000 0.285
2169.000 0.283
2170.000 0.271
2171.000 0.270
2172.000 0.273
2173.000 0.277
2174.000 0.289
2175.000 0.295
2176.000 0.303
2177.000 0.303
2178.000 0.289
2179.000 0.286
2180.000 0.281
2181.000 0.270
2182.000 0.272
2183.000 0.272
2184.000 0.276
2185.000 0.285
2186.000 0.291
2187.000 0.300
2188.000 0.303
2189.000 0.298
2190.000 0.300
2191.000 0.306
2192.000 0.308
2193.000 0.313
2194.000 0.312
2195.000 0.305
2196.000 0.303
2197.000 0.295
2198.000 0.295
2199.000 0.300
2200.000 0.302
2201.000 0.314
2202.000 0.311
2203.000 0.306
2204.000 0.305
2205.000 0.294
2206.000 0.295
2207.000 0.303
2208.000 0.297
2209.000 0.295
2210.000 0.294
2211.000 0.291
2212.000 0.283
2213.000 0.283
2214.000 0.287
2215.000 0.291
2216.000 0.300
2217.000 0.306
2218.000 0.312
2219.000 0.317
2220.000 0.321
2221.000 0.323
2222.000 0.330
2223.000 0.324
2224.000 0.305
2225.000 0.299
2226.000 0.294
2227.000 0.288
2228.000 0.294
2229.000 0.296
2230.000 0.286
2231.000 0.278
2232.000 0.271
2233.000 0.266
2234.000 0.265
2235.000 0.260
2236.000 0.257
2237.000 0.265
2238.000 0.267
2239.000 0.272
2240.000 0.277
2241.000 0.280
2242.000 0.281
2243.000 0.281
2244.000 0.282
2245.000 0.273
2246.000 0.275
2247.000 0.290
2248.000 0.293
2249.000 0.291
2250.000 0.294
2251.000 0.291
2252.000 0.290
2253.000 0.299
2254.000 0.296
2255.000 0.281
2256.000 0.273
2257.000 0.259
2258.000 0.258
2259.000 0.266
2260.000 0.272
2261.000 0.291
2262.000 0.303
2263.000 0.310
2264.000 0.309
2265.000 0.295
2266.000 0.283
2267.000 0.283
2268.000 0.287
2269.000 0.290
2270.000 0.297
2271.000 0.296
2272.000 0.284
2273.000 0.280
2274.000 0.273
2275.000 0.269
2276.000 0.276
2277.000 0.271
2278.000 0.255
2279.000 0.249
2280.000 0.246
2281.000 0.236
2282.000 0.226
2283.000 0.226
2284.000 0.222
2285.000 0.224
2286.000 0.242
2287.000 0.244
2288.000 0.235
2289.000 0.235
2290.000 0.227
2291.000 0.231
2292.000 0.261
2293.000 0.266
2294.000 0.260
2295.000 0.259
2296.000 0.243
2297.000 0.232
2298.000 0.252
2299.000 0.257
2300.000 0.257
2301.000 0.257
2302.000 0.234
2303.000 0.220
2304.000 0.201
2305.000 0.195
2306.000 0.200
2307.000 0.198
2308.000 0.204
2309.000 0.216
2310.000 0.220
2311.000 0.235
2312.000 0.234
2313.000 0.229
2314.000 0.241
2315.000 0.235
2316.000 0.246
2317.000 0.280
2318.000 0.274
2319.000 0.274
2320.000 0.261
2321.000 0.246
2322.000 0.241
2323.000 0.231
2324.000 0.213
2325.000 0.201
2326.000 0.195
2327.000 0.198
2328.000 0.224
2329.000 0.241
2330.000 0.224
2331.000 0.228
2332.000 0.253
2333.000 0.258
2334.000 0.248
2335.000 0.246
2336.000 0.250
2337.000 0.227
2338.000 0.243
2339.000 0.257
2340.000 0.282
2341.000 0.407
2342.000 0.414
2343.000 0.414
2344.000 0.374
2345.000 0.248
2346.000 0.238
2347.000 0.285
2348.000 0.285
2349.000 0.266
2350.000 0.248
2351.000 0.220
2352.000 0.213
2353.000 0.222
2354.000 0.215
2355.000 0.268
2356.000 0.320
2357.000 0.369
2358.000 0.581
2359.000 0.575
2360.000 0.474
2361.000 0.359
2362.000 0.295
2363.000 0.235
2364.000 0.244
2365.000 0.341
2366.000 0.438
2367.000 0.418
2368.000 0.401
2369.000 0.474
2370.000 0.396
2371.000 0.256
2372.000 0.235
2373.000 0.228
2374.000 0.155
2375.000 0.212
2376.000 0.276
2377.000 0.281
2378.000 0.308
2379.000 0.276
2380.000 0.241
2381.000 0.292
2382.000 0.281
2383.000 0.240
2384.000 0.289
2385.000 0.269
2386.000 0.234
2387.000 0.277
2388.000 0.281
2389.000 0.275
2390.000 0.300
2391.000 0.423
2392.000 0.287
2393.000 0.274
2394.000 0.257
2395.000 0.399
2396.000 0.436
2397.000 0.441
2398.000 0.379
2399.000 0.504
2400.000 0.297
2401.000 0.305
2402.000 0.284
2403.000 0.352
2404.000 0.357
2405.000 0.274
2406.000 0.218
2407.000 0.195
2408.000 0.172
2409.000 0.276
2410.000 0.263
2411.000 0.319
2412.000 0.432
2413.000 0.267
2414.000 0.623
2415.000 0.473
2416.000 0.435
2417.000 0.399
2418.000 0.318
2419.000 0.303
2420.000 0.290
2421.000 0.210
2422.000 0.243
2423.000 0.523
2424.000 0.657
2425.000 0.609
2426.000 0.442
2427.000 0.357
2428.000 0.583
2429.000 0.541
2430.000 0.408
2431.000 0.360
2432.000 0.394
2433.000 0.362
2434.000 0.553
2435.000 0.636
2436.000 0.782
2437.000 0.526
2438.000 0.576
2439.000 0.675
2440.000 0.520
2441.000 0.380
2442.000 0.395
2443.000 0.419
2444.000 0.473
2445.000 0.494
2446.000 0.438
2447.000 0.409
2448.000 0.344
2449.000 0.304
2450.000 0.340
2451.000 0.385
2452.000 0.341
2453.000 0.452
2454.000 0.605
2455.000 0.385
2456.000 0.556
2457.000 0.666
2458.000 0.648
2459.000 0.571
2460.000 0.499
2461.000 0.473
2462.000 0.518
2463.000 0.523
2464.000 0.572
2465.000 0.540
2466.000 0.507
2467.000 0.476
2468.000 0.531
2469.000 0.589
2470.000 0.370
2471.000 0.246
2472.000 0.204
2473.000 0.537
2474.000 0.495
2475.000 0.421
2476.000 0.591
2477.000 0.492
2478.000 0.486
2479.000 0.544
2480.000 0.483
2481.000 0.316
2482.000 0.209
2483.000 0.452
2484.000 0.532
2485.000 0.338
2486.000 0.421
2487.000 0.460
2488.000 0.421
2489.000 0.376
2490.000 0.406
2491.000 0.405
2492.000 0.433
2493.000 0.380
2494.000 0.406
2495.000 0.593
2496.000 0.600
2497.000 0.467
2498.000 0.552
2499.000 0.375
2500.000 0.413
