391.000 0.042
392.000 0.042
393.000 0.044
394.000 0.044
395.000 0.047
396.000 0.046
397.000 0.042
398.000 0.043
399.000 0.044
400.000 0.044
401.000 0.045
402.000 0.044
403.000 0.044
404.000 0.044
405.000 0.044
406.000 0.042
407.000 0.042
408.000 0.045
409.000 0.043
410.000 0.043
411.000 0.043
412.000 0.045
413.000 0.043
414.000 0.043
415.000 0.043
416.000 0.041
417.000 0.041
418.000 0.041
419.000 0.043
420.000 0.043
421.000 0.042
422.000 0.041
423.000 0.042
424.000 0.043
425.000 0.043
426.000 0.042
427.000 0.041
428.000 0.042
429.000 0.042
430.000 0.041
431.000 0.041
432.000 0.041
433.000 0.042
434.000 0.043
435.000 0.041
436.000 0.041
437.000 0.042
438.000 0.041
439.000 0.042
440.000 0.041
441.000 0.040
442.000 0.041
443.000 0.040
444.000 0.039
445.000 0.041
446.000 0.041
447.000 0.042
448.000 0.042
449.000 0.041
450.000 0.041
451.000 0.041
452.000 0.040
453.000 0.041
454.000 0.041
455.000 0.041
456.000 0.041
457.000 0.040
458.000 0.040
459.000 0.041
460.000 0.041
461.000 0.041
462.000 0.041
463.000 0.040
464.000 0.041
465.000 0.042
466.000 0.041
467.000 0.039
468.000 0.040
469.000 0.041
470.000 0.040
471.000 0.041
472.000 0.041
473.000 0.041
474.000 0.041
475.000 0.041
476.000 0.040
477.000 0.040
478.000 0.039
479.000 0.041
480.000 0.041
481.000 0.040
482.000 0.039
483.000 0.040
484.000 0.040
485.000 0.041
486.000 0.041
487.000 0.042
488.000 0.042
489.000 0.041
490.000 0.040
491.000 0.040
492.000 0.041
493.000 0.041
494.000 0.041
495.000 0.041
496.000 0.041
497.000 0.042
498.000 0.042
499.000 0.041
500.000 0.042
501.000 0.043
502.000 0.044
503.000 0.044
504.000 0.045
505.000 0.045
506.000 0.045
507.000 0.046
508.000 0.046
509.000 0.047
510.000 0.049
511.000 0.049
512.000 0.050
513.000 0.051
514.000 0.053
515.000 0.055
516.000 0.056
517.000 0.058
518.000 0.060
519.000 0.062
520.000 0.064
521.000 0.065
522.000 0.066
523.000 0.068
524.000 0.070
525.000 0.072
526.000 0.074
527.000 0.076
528.000 0.078
529.000 0.080
530.000 0.081
531.000 0.082
532.000 0.084
533.000 0.084
534.000 0.085
535.000 0.087
536.000 0.087
537.000 0.088
538.000 0.089
539.000 0.089
540.000 0.090
541.000 0.090
542.000 0.090
543.000 0.091
544.000 0.091
545.000 0.092
546.000 0.092
547.000 0.091
548.000 0.092
549.000 0.092
550.000 0.092
551.000 0.092
552.000 0.093
553.000 0.093
554.000 0.092
555.000 0.092
556.000 0.092
557.000 0.092
558.000 0.091
559.000 0.090
560.000 0.090
561.000 0.089
562.000 0.088
563.000 0.087
564.000 0.086
565.000 0.084
566.000 0.083
567.000 0.082
568.000 0.080
569.000 0.080
570.000 0.078
571.000 0.076
572.000 0.075
573.000 0.074
574.000 0.073
575.000 0.072
576.000 0.071
577.000 0.070
578.000 0.070
579.000 0.069
580.000 0.068
581.000 0.067
582.000 0.067
583.000 0.066
584.000 0.065
585.000 0.065
586.000 0.064
587.000 0.064
588.000 0.063
589.000 0.063
590.000 0.063
591.000 0.062
592.000 0.062
593.000 0.062
594.000 0.060
595.000 0.060
596.000 0.061
597.000 0.061
598.000 0.060
599.000 0.060
600.000 0.060
601.000 0.059
602.000 0.059
603.000 0.059
604.000 0.058
605.000 0.058
606.000 0.058
607.000 0.057
608.000 0.057
609.000 0.056
610.000 0.056
611.000 0.056
612.000 0.055
613.000 0.055
614.000 0.054
615.000 0.054
616.000 0.054
617.000 0.053
618.000 0.052
619.000 0.053
620.000 0.053
621.000 0.053
622.000 0.052
623.000 0.052
624.000 0.053
625.000 0.053
626.000 0.052
627.000 0.052
628.000 0.052
629.000 0.052
630.000 0.052
631.000 0.052
632.000 0.052
633.000 0.051
634.000 0.051
635.000 0.051
636.000 0.050
637.000 0.049
638.000 0.051
639.000 0.050
640.000 0.048
641.000 0.048
642.000 0.048
643.000 0.047
644.000 0.046
645.000 0.047
646.000 0.046
647.000 0.045
648.000 0.046
649.000 0.046
650.000 0.045
651.000 0.044
652.000 0.045
653.000 0.044
654.000 0.044
655.000 0.045
656.000 0.045
657.000 0.043
658.000 0.043
659.000 0.044
660.000 0.044
661.000 0.044
662.000 0.044
663.000 0.044
664.000 0.044
665.000 0.044
666.000 0.043
667.000 0.043
668.000 0.043
669.000 0.043
670.000 0.043
671.000 0.044
672.000 0.044
673.000 0.044
674.000 0.044
675.000 0.045
676.000 0.045
677.000 0.046
678.000 0.047
679.000 0.047
680.000 0.047
681.000 0.048
682.000 0.048
683.000 0.049
684.000 0.051
685.000 0.051
686.000 0.052
687.000 0.054
688.000 0.056
689.000 0.057
690.000 0.058
691.000 0.061
692.000 0.064
693.000 0.066
694.000 0.069
695.000 0.074
696.000 0.078
697.000 0.082
698.000 0.088
699.000 0.094
700.000 0.101
701.000 0.108
702.000 0.114
703.000 0.121
704.000 0.128
705.000 0.135
706.000 0.143
707.000 0.150
708.000 0.157
709.000 0.165
710.000 0.174
711.000 0.181
712.000 0.189
713.000 0.198
714.000 0.206
715.000 0.214
716.000 0.221
717.000 0.229
718.000 0.239
719.000 0.248
720.000 0.257
721.000 0.265
722.000 0.273
723.000 0.280
724.000 0.289
725.000 0.296
726.000 0.304
727.000 0.312
728.000 0.319
729.000 0.326
730.000 0.332
731.000 0.339
732.000 0.345
733.000 0.351
734.000 0.356
735.000 0.361
736.000 0.366
737.000 0.371
738.000 0.376
739.000 0.379
740.000 0.383
741.000 0.387
742.000 0.390
743.000 0.393
744.000 0.396
745.000 0.399
746.000 0.401
747.000 0.403
748.000 0.406
749.000 0.407
750.000 0.409
751.000 0.411
752.000 0.413
753.000 0.414
754.000 0.415
755.000 0.416
756.000 0.417
757.000 0.418
758.000 0.419
759.000 0.420
760.000 0.421
761.000 0.423
762.000 0.423
763.000 0.424
764.000 0.424
765.000 0.425
766.000 0.426
767.000 0.426
768.000 0.426
769.000 0.426
770.000 0.427
771.000 0.427
772.000 0.428
773.000 0.428
774.000 0.428
775.000 0.429
776.000 0.429
777.000 0.430
778.000 0.430
779.000 0.430
780.000 0.430
781.000 0.431
782.000 0.431
783.000 0.431
784.000 0.432
785.000 0.432
786.000 0.432
787.000 0.433
788.000 0.433
789.000 0.433
790.000 0.433
791.000 0.434
792.000 0.434
793.000 0.435
794.000 0.435
795.000 0.435
796.000 0.435
797.000 0.436
798.000 0.436
799.000 0.436
800.000 0.436
801.000 0.437
802.000 0.437
803.000 0.437
804.000 0.437
805.000 0.438
806.000 0.438
807.000 0.438
808.000 0.439
809.000 0.439
810.000 0.439
811.000 0.439
812.000 0.439
813.000 0.439
814.000 0.439
815.000 0.440
816.000 0.440
817.000 0.440
818.000 0.440
819.000 0.441
820.000 0.441
821.000 0.441
822.000 0.442
823.000 0.442
824.000 0.442
825.000 0.442
826.000 0.442
827.000 0.442
828.000 0.443
829.000 0.443
830.000 0.443
831.000 0.443
832.000 0.443
833.000 0.444
834.000 0.444
835.000 0.445
836.000 0.445
837.000 0.444
838.000 0.445
839.000 0.445
840.000 0.445
841.000 0.446
842.000 0.446
843.000 0.446
844.000 0.446
845.000 0.447
846.000 0.447
847.000 0.447
848.000 0.447
849.000 0.447
850.000 0.448
851.000 0.448
852.000 0.448
853.000 0.448
854.000 0.448
855.000 0.448
856.000 0.449
857.000 0.449
858.000 0.449
859.000 0.449
860.000 0.449
861.000 0.450
862.000 0.450
863.000 0.450
864.000 0.450
865.000 0.450
866.000 0.450
867.000 0.450
868.000 0.450
869.000 0.450
870.000 0.450
871.000 0.451
872.000 0.451
873.000 0.451
874.000 0.451
875.000 0.451
876.000 0.451
877.000 0.452
878.000 0.452
879.000 0.452
880.000 0.452
881.000 0.452
882.000 0.452
883.000 0.453
884.000 0.453
885.000 0.453
886.000 0.453
887.000 0.453
888.000 0.454
889.000 0.454
890.000 0.454
891.000 0.454
892.000 0.454
893.000 0.454
894.000 0.454
895.000 0.454
896.000 0.454
897.000 0.454
898.000 0.454
899.000 0.454
900.000 0.454
901.000 0.455
902.000 0.454
903.000 0.454
904.000 0.455
905.000 0.455
906.000 0.455
907.000 0.455
908.000 0.454
909.000 0.455
910.000 0.455
911.000 0.455
912.000 0.455
913.000 0.455
914.000 0.455
915.000 0.456
916.000 0.455
917.000 0.456
918.000 0.456
919.000 0.456
920.000 0.456
921.000 0.456
922.000 0.456
923.000 0.456
924.000 0.456
925.000 0.455
926.000 0.454
927.000 0.454
928.000 0.454
929.000 0.453
930.000 0.453
931.000 0.453
932.000 0.452
933.000 0.452
934.000 0.449
935.000 0.446
936.000 0.448
937.000 0.448
938.000 0.446
939.000 0.445
940.000 0.445
941.000 0.444
942.000 0.444
943.000 0.445
944.000 0.444
945.000 0.443
946.000 0.441
947.000 0.439
948.000 0.439
949.000 0.440
950.000 0.440
951.000 0.439
952.000 0.438
953.000 0.438
954.000 0.436
955.000 0.436
956.000 0.437
957.000 0.435
958.000 0.433
959.000 0.432
960.000 0.432
961.000 0.434
962.000 0.434
963.000 0.433
964.000 0.433
965.000 0.433
966.000 0.434
967.000 0.435
968.000 0.434
969.000 0.434
970.000 0.434
971.000 0.434
972.000 0.434
973.000 0.435
974.000 0.436
975.000 0.435
976.000 0.435
977.000 0.435
978.000 0.436
979.000 0.437
980.000 0.437
981.000 0.437
982.000 0.436
983.000 0.435
984.000 0.436
985.000 0.438
986.000 0.439
987.000 0.439
988.000 0.438
989.000 0.439
990.000 0.439
991.000 0.440
992.000 0.440
993.000 0.442
994.000 0.440
995.000 0.439
996.000 0.442
997.000 0.444
998.000 0.444
999.000 0.443
1000.000 0.444
1001.000 0.451
1002.000 0.451
1003.000 0.451
1004.000 0.451
1005.000 0.452
1006.000 0.451
1007.000 0.452
1008.000 0.452
1009.000 0.452
1010.000 0.453
1011.000 0.455
1012.000 0.456
1013.000 0.456
1014.000 0.457
1015.000 0.458
1016.000 0.458
1017.000 0.459
1018.000 0.459
1019.000 0.459
1020.000 0.461
1021.000 0.462
1022.000 0.462
1023.000 0.463
1024.000 0.463
1025.000 0.463
1026.000 0.464
1027.000 0.465
1028.000 0.465
1029.000 0.466
1030.000 0.467
1031.000 0.467
1032.000 0.467
1033.000 0.468
1034.000 0.468
1035.000 0.469
1036.000 0.470
1037.000 0.470
1038.000 0.470
1039.000 0.471
1040.000 0.472
1041.000 0.473
1042.000 0.473
1043.000 0.473
1044.000 0.473
1045.000 0.473
1046.000 0.473
1047.000 0.474
1048.000 0.474
1049.000 0.475
1050.000 0.475
1051.000 0.475
1052.000 0.476
1053.000 0.477
1054.000 0.477
1055.000 0.478
1056.000 0.477
1057.000 0.478
1058.000 0.478
1059.000 0.478
1060.000 0.479
1061.000 0.480
1062.000 0.480
1063.000 0.480
1064.000 0.479
1065.000 0.479
1066.000 0.480
1067.000 0.481
1068.000 0.481
1069.000 0.481
1070.000 0.481
1071.000 0.481
1072.000 0.481
1073.000 0.482
1074.000 0.482
1075.000 0.482
1076.000 0.483
1077.000 0.483
1078.000 0.482
1079.000 0.482
1080.000 0.482
1081.000 0.482
1082.000 0.482
1083.000 0.482
1084.000 0.483
1085.000 0.482
1086.000 0.482
1087.000 0.482
1088.000 0.482
1089.000 0.483
1090.000 0.483
1091.000 0.483
1092.000 0.483
1093.000 0.483
1094.000 0.482
1095.000 0.482
1096.000 0.482
1097.000 0.481
1098.000 0.481
1099.000 0.481
1100.000 0.481
1101.000 0.480
1102.000 0.479
1103.000 0.479
1104.000 0.479
1105.000 0.479
1106.000 0.479
1107.000 0.478
1108.000 0.478
1109.000 0.478
1110.000 0.477
1111.000 0.477
1112.000 0.477
1113.000 0.477
1114.000 0.476
1115.000 0.476
1116.000 0.475
1117.000 0.474
1118.000 0.473
1119.000 0.471
1120.000 0.470
1121.000 0.469
1122.000 0.468
1123.000 0.467
1124.000 0.467
1125.000 0.465
1126.000 0.464
1127.000 0.463
1128.000 0.463
1129.000 0.462
1130.000 0.462
1131.000 0.463
1132.000 0.462
1133.000 0.461
1134.000 0.459
1135.000 0.457
1136.000 0.455
1137.000 0.454
1138.000 0.453
1139.000 0.452
1140.000 0.451
1141.000 0.450
1142.000 0.448
1143.000 0.448
1144.000 0.447
1145.000 0.444
1146.000 0.441
1147.000 0.439
1148.000 0.436
1149.000 0.435
1150.000 0.433
1151.000 0.431
1152.000 0.429
1153.000 0.429
1154.000 0.429
1155.000 0.428
1156.000 0.428
1157.000 0.427
1158.000 0.426
1159.000 0.426
1160.000 0.427
1161.000 0.426
1162.000 0.426
1163.000 0.426
1164.000 0.426
1165.000 0.425
1166.000 0.426
1167.000 0.425
1168.000 0.425
1169.000 0.425
1170.000 0.425
1171.000 0.425
1172.000 0.426
1173.000 0.425
1174.000 0.425
1175.000 0.425
1176.000 0.424
1177.000 0.425
1178.000 0.424
1179.000 0.424
1180.000 0.424
1181.000 0.424
1182.000 0.424
1183.000 0.424
1184.000 0.424
1185.000 0.424
1186.000 0.423
1187.000 0.423
1188.000 0.423
1189.000 0.423
1190.000 0.423
1191.000 0.424
1192.000 0.424
1193.000 0.424
1194.000 0.424
1195.000 0.424
1196.000 0.425
1197.000 0.425
1198.000 0.424
1199.000 0.424
1200.000 0.424
1201.000 0.424
1202.000 0.425
1203.000 0.425
1204.000 0.426
1205.000 0.427
1206.000 0.426
1207.000 0.426
1208.000 0.426
1209.000 0.426
1210.000 0.426
1211.000 0.426
1212.000 0.427
1213.000 0.428
1214.000 0.429
1215.000 0.429
1216.000 0.430
1217.000 0.430
1218.000 0.430
1219.000 0.430
1220.000 0.430
1221.000 0.431
1222.000 0.431
1223.000 0.432
1224.000 0.432
1225.000 0.432
1226.000 0.433
1227.000 0.433
1228.000 0.434
1229.000 0.434
1230.000 0.435
1231.000 0.435
1232.000 0.435
1233.000 0.436
1234.000 0.436
1235.000 0.437
1236.000 0.437
1237.000 0.438
1238.000 0.438
1239.000 0.438
1240.000 0.439
1241.000 0.439
1242.000 0.439
1243.000 0.439
1244.000 0.440
1245.000 0.440
1246.000 0.440
1247.000 0.440
1248.000 0.441
1249.000 0.441
1250.000 0.442
1251.000 0.442
1252.000 0.443
1253.000 0.443
1254.000 0.443
1255.000 0.443
1256.000 0.444
1257.000 0.444
1258.000 0.444
1259.000 0.444
1260.000 0.445
1261.000 0.444
1262.000 0.444
1263.000 0.444
1264.000 0.444
1265.000 0.444
1266.000 0.444
1267.000 0.444
1268.000 0.445
1269.000 0.445
1270.000 0.445
1271.000 0.446
1272.000 0.446
1273.000 0.446
1274.000 0.446
1275.000 0.446
1276.000 0.446
1277.000 0.446
1278.000 0.446
1279.000 0.446
1280.000 0.445
1281.000 0.445
1282.000 0.445
1283.000 0.444
1284.000 0.444
1285.000 0.444
1286.000 0.443
1287.000 0.443
1288.000 0.443
1289.000 0.443
1290.000 0.443
1291.000 0.443
1292.000 0.442
1293.000 0.442
1294.000 0.441
1295.000 0.441
1296.000 0.440
1297.000 0.440
1298.000 0.439
1299.000 0.438
1300.000 0.438
1301.000 0.438
1302.000 0.437
1303.000 0.436
1304.000 0.436
1305.000 0.433
1306.000 0.432
1307.000 0.431
1308.000 0.430
1309.000 0.429
1310.000 0.429
1311.000 0.428
1312.000 0.426
1313.000 0.426
1314.000 0.424
1315.000 0.424
1316.000 0.422
1317.000 0.421
1318.000 0.419
1319.000 0.418
1320.000 0.417
1321.000 0.416
1322.000 0.415
1323.000 0.413
1324.000 0.412
1325.000 0.410
1326.000 0.409
1327.000 0.408
1328.000 0.407
1329.000 0.405
1330.000 0.403
1331.000 0.401
1332.000 0.398
1333.000 0.396
1334.000 0.393
1335.000 0.391
1336.000 0.388
1337.000 0.386
1338.000 0.386
1339.000 0.384
1340.000 0.384
1341.000 0.384
1342.000 0.382
1343.000 0.381
1344.000 0.382
1345.000 0.381
1346.000 0.380
1347.000 0.379
1348.000 0.378
1349.000 0.377
1350.000 0.376
1351.000 0.373
1352.000 0.369
1353.000 0.363
1354.000 0.357
1355.000 0.354
1356.000 0.358
1357.000 0.386
1358.000 0.387
1359.000 0.317
1360.000 0.289
1361.000 0.415
1362.000 0.427
1363.000 0.561
1364.000 0.707
1365.000 0.652
1366.000 0.595
1367.000 0.554
1368.000 0.481
1369.000 0.585
1370.000 0.637
1371.000 0.548
1372.000 0.468
1373.000 0.342
1374.000 0.262
1375.000 0.460
1376.000 0.410
1377.000 0.279
1378.000 0.274
1379.000 0.356
1380.000 0.519
1381.000 0.627
1382.000 0.534
1383.000 0.374
1384.000 0.125
1385.000 0.293
1386.000 0.259
1387.000 0.261
1388.000 0.255
1389.000 0.271
1390.000 0.278
1391.000 0.311
1392.000 0.525
1393.000 0.480
1394.000 0.430
1395.000 0.387
1396.000 0.257
1397.000 0.289
1398.000 0.366
1399.000 0.389
1400.000 0.412
1401.000 0.386
1402.000 0.375
1403.000 0.376
1404.000 0.370
1405.000 0.419
1406.000 0.418
1407.000 0.361
1408.000 0.194
1409.000 0.143
1410.000 0.267
1411.000 0.360
1412.000 0.359
1413.000 0.383
1414.000 0.303
1415.000 0.189
1416.000 0.160
1417.000 0.236
1418.000 0.212
1419.000 0.219
1420.000 0.203
1421.000 0.217
1422.000 0.203
1423.000 0.146
1424.000 0.140
1425.000 0.135
1426.000 0.135
1427.000 0.132
1428.000 0.143
1429.000 0.143
1430.000 0.149
1431.000 0.124
1432.000 0.124
1433.000 0.134
1434.000 0.135
1435.000 0.143
1436.000 0.147
1437.000 0.145
1438.000 0.148
1439.000 0.140
1440.000 0.143
1441.000 0.156
1442.000 0.160
1443.000 0.180
1444.000 0.170
1445.000 0.136
1446.000 0.128
1447.000 0.120
1448.000 0.119
1449.000 0.131
1450.000 0.141
1451.000 0.153
1452.000 0.160
1453.000 0.158
1454.000 0.149
1455.000 0.145
1456.000 0.135
1457.000 0.133
1458.000 0.136
1459.000 0.138
1460.000 0.144
1461.000 0.147
1462.000 0.154
1463.000 0.155
1464.000 0.153
1465.000 0.150
1466.000 0.138
1467.000 0.134
1468.000 0.133
1469.000 0.134
1470.000 0.143
1471.000 0.144
1472.000 0.143
1473.000 0.141
1474.000 0.135
1475.000 0.131
1476.000 0.124
1477.000 0.124
1478.000 0.126
1479.000 0.128
1480.000 0.134
1481.000 0.136
1482.000 0.134
1483.000 0.137
1484.000 0.142
1485.000 0.145
1486.000 0.148
1487.000 0.151
1488.000 0.153
1489.000 0.154
1490.000 0.154
1491.000 0.155
1492.000 0.156
1493.000 0.157
1494.000 0.158
1495.000 0.159
1496.000 0.159
1497.000 0.160
1498.000 0.161
1499.000 0.164
1500.000 0.165
1501.000 0.167
1502.000 0.167
1503.000 0.166
1504.000 0.167
1505.000 0.167
1506.000 0.169
1507.000 0.171
1508.000 0.173
1509.000 0.174
1510.000 0.175
1511.000 0.177
1512.000 0.178
1513.000 0.181
1514.000 0.182
1515.000 0.183
1516.000 0.184
1517.000 0.184
1518.000 0.186
1519.000 0.186
1520.000 0.187
1521.000 0.189
1522.000 0.190
1523.000 0.190
1524.000 0.192
1525.000 0.194
1526.000 0.195
1527.000 0.196
1528.000 0.197
1529.000 0.198
1530.000 0.199
1531.000 0.200
1532.000 0.201
1533.000 0.202
1534.000 0.203
1535.000 0.204
1536.000 0.206
1537.000 0.207
1538.000 0.208
1539.000 0.209
1540.000 0.210
1541.000 0.212
1542.000 0.213
1543.000 0.214
1544.000 0.215
1545.000 0.217
1546.000 0.218
1547.000 0.219
1548.000 0.221
1549.000 0.220
1550.000 0.221
1551.000 0.222
1552.000 0.223
1553.000 0.225
1554.000 0.225
1555.000 0.227
1556.000 0.228
1557.000 0.230
1558.000 0.232
1559.000 0.233
1560.000 0.234
1561.000 0.234
1562.000 0.235
1563.000 0.236
1564.000 0.237
1565.000 0.239
1566.000 0.240
1567.000 0.241
1568.000 0.242
1569.000 0.243
1570.000 0.244
1571.000 0.244
1572.000 0.245
1573.000 0.245
1574.000 0.246
1575.000 0.247
1576.000 0.248
1577.000 0.249
1578.000 0.251
1579.000 0.253
1580.000 0.254
1581.000 0.255
1582.000 0.257
1583.000 0.257
1584.000 0.258
1585.000 0.259
1586.000 0.260
1587.000 0.259
1588.000 0.260
1589.000 0.260
1590.000 0.260
1591.000 0.263
1592.000 0.264
1593.000 0.266
1594.000 0.266
1595.000 0.265
1596.000 0.265
1597.000 0.266
1598.000 0.266
1599.000 0.268
1600.000 0.269
1601.000 0.270
1602.000 0.272
1603.000 0.273
1604.000 0.274
1605.000 0.274
1606.000 0.275
1607.000 0.275
1608.000 0.275
1609.000 0.275
1610.000 0.276
1611.000 0.277
1612.000 0.278
1613.000 0.279
1614.000 0.281
1615.000 0.280
1616.000 0.281
1617.000 0.281
1618.000 0.282
1619.000 0.282
1620.000 0.282
1621.000 0.283
1622.000 0.283
1623.000 0.284
1624.000 0.285
1625.000 0.286
1626.000 0.287
1627.000 0.287
1628.000 0.287
1629.000 0.287
1630.000 0.287
1631.000 0.287
1632.000 0.288
1633.000 0.288
1634.000 0.288
1635.000 0.289
1636.000 0.289
1637.000 0.290
1638.000 0.290
1639.000 0.290
1640.000 0.291
1641.000 0.291
1642.000 0.291
1643.000 0.291
1644.000 0.292
1645.000 0.293
1646.000 0.293
1647.000 0.294
1648.000 0.294
1649.000 0.294
1650.000 0.294
1651.000 0.294
1652.000 0.294
1653.000 0.294
1654.000 0.294
1655.000 0.294
1656.000 0.295
1657.000 0.296
1658.000 0.296
1659.000 0.297
1660.000 0.298
1661.000 0.298
1662.000 0.297
1663.000 0.297
1664.000 0.297
1665.000 0.295
1666.000 0.296
1667.000 0.296
1668.000 0.296
1669.000 0.297
1670.000 0.298
1671.000 0.298
1672.000 0.298
1673.000 0.296
1674.000 0.296
1675.000 0.296
1676.000 0.296
1677.000 0.297
1678.000 0.297
1679.000 0.296
1680.000 0.296
1681.000 0.296
1682.000 0.297
1683.000 0.297
1684.000 0.298
1685.000 0.297
1686.000 0.297
1687.000 0.297
1688.000 0.297
1689.000 0.298
1690.000 0.298
1691.000 0.299
1692.000 0.299
1693.000 0.298
1694.000 0.297
1695.000 0.297
1696.000 0.297
1697.000 0.298
1698.000 0.297
1699.000 0.296
1700.000 0.295
1701.000 0.295
1702.000 0.294
1703.000 0.293
1704.000 0.293
1705.000 0.294
1706.000 0.293
1707.000 0.293
1708.000 0.293
1709.000 0.292
1710.000 0.292
1711.000 0.291
1712.000 0.291
1713.000 0.291
1714.000 0.291
1715.000 0.291
1716.000 0.290
1717.000 0.289
1718.000 0.288
1719.000 0.286
1720.000 0.286
1721.000 0.286
1722.000 0.286
1723.000 0.286
1724.000 0.285
1725.000 0.284
1726.000 0.285
1727.000 0.287
1728.000 0.287
1729.000 0.287
1730.000 0.287
1731.000 0.285
1732.000 0.284
1733.000 0.284
1734.000 0.283
1735.000 0.281
1736.000 0.280
1737.000 0.280
1738.000 0.278
1739.000 0.277
1740.000 0.277
1741.000 0.276
1742.000 0.274
1743.000 0.274
1744.000 0.275
1745.000 0.275
1746.000 0.276
1747.000 0.276
1748.000 0.273
1749.000 0.271
1750.000 0.271
1751.000 0.269
1752.000 0.267
1753.000 0.266
1754.000 0.264
1755.000 0.264
1756.000 0.266
1757.000 0.266
1758.000 0.265
1759.000 0.264
1760.000 0.262
1761.000 0.262
1762.000 0.259
1763.000 0.258
1764.000 0.256
1765.000 0.253
1766.000 0.253
1767.000 0.255
1768.000 0.256
1769.000 0.257
1770.000 0.257
1771.000 0.256
1772.000 0.254
1773.000 0.254
1774.000 0.253
1775.000 0.252
1776.000 0.255
1777.000 0.258
1778.000 0.260
1779.000 0.262
1780.000 0.261
1781.000 0.261
1782.000 0.260
1783.000 0.259
1784.000 0.259
1785.000 0.250
1786.000 0.246
1787.000 0.239
1788.000 0.235
1789.000 0.236
1790.000 0.236
1791.000 0.238
1792.000 0.243
1793.000 0.247
1794.000 0.249
1795.000 0.244
1796.000 0.240
1797.000 0.248
1798.000 0.254
1799.000 0.267
1800.000 0.291
1801.000 0.435
1802.000 0.435
1803.000 0.495
1804.000 0.472
1805.000 0.485
1806.000 0.491
1807.000 0.515
1808.000 0.465
1809.000 0.515
1810.000 0.546
1811.000 0.550
1812.000 0.556
1813.000 0.480
1814.000 0.422
1815.000 0.439
1816.000 0.479
1817.000 0.663
1818.000 0.689
1819.000 0.630
1820.000 0.565
1821.000 0.579
1822.000 0.538
1823.000 0.591
1824.000 0.665
1825.000 0.695
1826.000 0.449
1827.000 0.493
1828.000 0.398
1829.000 0.530
1830.000 0.455
1831.000 0.414
1832.000 0.539
1833.000 0.505
1834.000 0.518
1835.000 0.588
1836.000 0.578
1837.000 0.561
1838.000 0.511
1839.000 0.699
1840.000 0.711
1841.000 0.724
1842.000 0.597
1843.000 0.497
1844.000 0.513
1845.000 0.446
1846.000 0.677
1847.000 0.720
1848.000 0.737
1849.000 0.673
1850.000 0.533
1851.000 0.426
1852.000 0.551
1853.000 0.598
1854.000 0.477
1855.000 0.404
1856.000 0.335
1857.000 0.403
1858.000 0.468
1859.000 0.360
1860.000 0.400
1861.000 0.518
1862.000 0.583
1863.000 0.531
1864.000 0.529
1865.000 0.505
1866.000 0.397
1867.000 0.425
1868.000 0.679
1869.000 0.523
1870.000 0.635
1871.000 0.612
1872.000 0.603
1873.000 0.554
1874.000 0.434
1875.000 0.366
1876.000 0.390
1877.000 0.429
1878.000 0.484
1879.000 0.370
1880.000 0.467
1881.000 0.467
1882.000 0.461
1883.000 0.554
1884.000 0.627
1885.000 0.564
1886.000 0.390
1887.000 0.301
1888.000 0.312
1889.000 0.313
1890.000 0.224
1891.000 0.198
1892.000 0.179
1893.000 0.158
1894.000 0.200
1895.000 0.260
1896.000 0.260
1897.000 0.291
1898.000 0.385
1899.000 0.476
1900.000 0.507
1901.000 0.530
1902.000 0.588
1903.000 0.624
1904.000 0.675
1905.000 0.708
1906.000 0.408
1907.000 0.402
1908.000 0.468
1909.000 0.409
1910.000 0.542
1911.000 0.673
1912.000 0.617
1913.000 0.544
1914.000 0.625
1915.000 0.543
1916.000 0.693
1917.000 0.503
1918.000 0.464
1919.000 0.447
1920.000 0.711
1921.000 0.569
1922.000 0.554
1923.000 0.485
1924.000 0.496
1925.000 0.625
1926.000 0.479
1927.000 0.420
1928.000 0.412
1929.000 0.470
1930.000 0.464
1931.000 0.454
1932.000 0.406
1933.000 0.343
1934.000 0.284
1935.000 0.238
1936.000 0.216
1937.000 0.235
1938.000 0.321
1939.000 0.404
1940.000 0.433
1941.000 0.495
1942.000 0.479
1943.000 0.397
1944.000 0.371
1945.000 0.411
1946.000 0.447
1947.000 0.461
1948.000 0.435
1949.000 0.271
1950.000 0.273
1951.000 0.421
1952.000 0.504
1953.000 0.407
1954.000 0.477
1955.000 0.389
1956.000 0.300
1957.000 0.288
1958.000 0.289
1959.000 0.241
1960.000 0.321
1961.000 0.248
1962.000 0.224
1963.000 0.197
1964.000 0.189
1965.000 0.172
1966.000 0.196
1967.000 0.202
1968.000 0.200
1969.000 0.207
1970.000 0.195
1971.000 0.148
1972.000 0.122
1973.000 0.126
1974.000 0.122
1975.000 0.122
1976.000 0.152
1977.000 0.152
1978.000 0.130
1979.000 0.120
1980.000 0.110
1981.000 0.091
1982.000 0.098
1983.000 0.097
1984.000 0.098
1985.000 0.100
1986.000 0.101
1987.000 0.106
1988.000 0.107
1989.000 0.113
1990.000 0.114
1991.000 0.111
1992.000 0.107
1993.000 0.097
1994.000 0.090
1995.000 0.101
1996.000 0.107
1997.000 0.128
1998.000 0.138
1999.000 0.142
2000.000 0.135
2001.000 0.141
2002.000 0.164
2003.000 0.169
2004.000 0.175
2005.000 0.180
2006.000 0.181
2007.000 0.170
2008.000 0.194
2009.000 0.232
2010.000 0.251
2011.000 0.245
2012.000 0.240
2013.000 0.180
2014.000 0.158
2015.000 0.155
2016.000 0.149
2017.000 0.152
2018.000 0.146
2019.000 0.138
2020.000 0.120
2021.000 0.115
2022.000 0.107
2023.000 0.109
2024.000 0.112
2025.000 0.108
2026.000 0.104
2027.000 0.103
2028.000 0.101
2029.000 0.100
2030.000 0.102
2031.000 0.100
2032.000 0.094
2033.000 0.092
2034.000 0.090
2035.000 0.086
2036.000 0.088
2037.000 0.090
2038.000 0.092
2039.000 0.100
2040.000 0.103
2041.000 0.103
2042.000 0.103
2043.000 0.095
2044.000 0.095
2045.000 0.100
2046.000 0.103
2047.000 0.114
2048.000 0.121
2049.000 0.124
2050.000 0.133
2051.000 0.141
2052.000 0.142
2053.000 0.142
2054.000 0.145
2055.000 0.141
2056.000 0.134
2057.000 0.134
2058.000 0.135
2059.000 0.133
2060.000 0.136
2061.000 0.136
2062.000 0.128
2063.000 0.126
2064.000 0.130
2065.000 0.129
2066.000 0.125
2067.000 0.129
2068.000 0.126
2069.000 0.125
2070.000 0.133
2071.000 0.134
2072.000 0.135
2073.000 0.140
2074.000 0.140
2075.000 0.138
2076.000 0.137
2077.000 0.142
2078.000 0.139
2079.000 0.127
2080.000 0.124
2081.000 0.122
2082.000 0.121
2083.000 0.124
2084.000 0.130
2085.000 0.132
2086.000 0.129
2087.000 0.132
2088.000 0.139
2089.000 0.142
2090.000 0.148
2091.000 0.147
2092.000 0.138
2093.000 0.136
2094.000 0.136
2095.000 0.135
2096.000 0.136
2097.000 0.136
2098.000 0.137
2099.000 0.136
2100.000 0.136
2101.000 0.133
2102.000 0.131
2103.000 0.135
2104.000 0.138
2105.000 0.145
2106.000 0.149
2107.000 0.149
2108.000 0.152
2109.000 0.155
2110.000 0.156
2111.000 0.158
2112.000 0.159
2113.000 0.156
2114.000 0.155
2115.000 0.156
2116.000 0.156
2117.000 0.156
2118.000 0.159
2119.000 0.157
2120.000 0.157
2121.000 0.158
2122.000 0.153
2123.000 0.151
2124.000 0.150
2125.000 0.151
2126.000 0.153
2127.000 0.154
2128.000 0.155
2129.000 0.157
2130.000 0.155
2131.000 0.158
2132.000 0.167
2133.000 0.171
2134.000 0.176
2135.000 0.178
2136.000 0.174
2137.000 0.173
2138.000 0.171
2139.000 0.168
2140.000 0.166
2141.000 0.163
2142.000 0.161
2143.000 0.159
2144.000 0.157
2145.000 0.153
2146.000 0.152
2147.000 0.154
2148.000 0.155
2149.000 0.159
2150.000 0.160
2151.000 0.157
2152.000 0.158
2153.000 0.161
2154.000 0.164
2155.000 0.170
2156.000 0.175
2157.000 0.173
2158.000 0.172
2159.000 0.172
2160.000 0.172
2161.000 0.171
2162.000 0.173
2163.000 0.173
2164.000 0.171
2165.000 0.168
2166.000 0.164
2167.000 0.162
2168.000 0.159
2169.000 0.159
2170.000 0.166
2171.000 0.168
2172.000 0.170
2173.000 0.173
2174.000 0.174
2175.000 0.175
2176.000 0.179
2177.000 0.181
2178.000 0.184
2179.000 0.185
2180.000 0.184
2181.000 0.181
2182.000 0.180
2183.000 0.171
2184.000 0.169
2185.000 0.168
2186.000 0.167
2187.000 0.168
2188.000 0.168
2189.000 0.166
2190.000 0.168
2191.000 0.172
2192.000 0.175
2193.000 0.182
2194.000 0.182
2195.000 0.177
2196.000 0.174
2197.000 0.166
2198.000 0.163
2199.000 0.166
2200.000 0.166
2201.000 0.168
2202.000 0.169
2203.000 0.170
2204.000 0.170
2205.000 0.172
2206.000 0.177
2207.000 0.177
2208.000 0.179
2209.000 0.179
2210.000 0.178
2211.000 0.175
2212.000 0.172
2213.000 0.171
2214.000 0.171
2215.000 0.170
2216.000 0.170
2217.000 0.170
2218.000 0.165
2219.000 0.163
2220.000 0.161
2221.000 0.162
2222.000 0.166
2223.000 0.168
2224.000 0.174
2225.000 0.173
2226.000 0.165
2227.000 0.159
2228.000 0.160
2229.000 0.158
2230.000 0.164
2231.000 0.173
2232.000 0.174
2233.000 0.178
2234.000 0.176
2235.000 0.172
2236.000 0.168
2237.000 0.161
2238.000 0.159
2239.000 0.156
2240.000 0.157
2241.000 0.162
2242.000 0.164
2243.000 0.170
2244.000 0.170
2245.000 0.163
2246.000 0.161
2247.000 0.159
2248.000 0.158
2249.000 0.158
2250.000 0.158
2251.000 0.159
2252.000 0.159
2253.000 0.161
2254.000 0.161
2255.000 0.158
2256.000 0.156
2257.000 0.153
2258.000 0.155
2259.000 0.156
2260.000 0.156
2261.000 0.160
2262.000 0.157
2263.000 0.158
2264.000 0.158
2265.000 0.154
2266.000 0.157
2267.000 0.158
2268.000 0.154
2269.000 0.153
2270.000 0.150
2271.000 0.147
2272.000 0.147
2273.000 0.146
2274.000 0.145
2275.000 0.143
2276.000 0.140
2277.000 0.138
2278.000 0.138
2279.000 0.141
2280.000 0.147
2281.000 0.150
2282.000 0.156
2283.000 0.158
2284.000 0.155
2285.000 0.152
2286.000 0.148
2287.000 0.146
2288.000 0.145
2289.000 0.145
2290.000 0.144
2291.000 0.147
2292.000 0.161
2293.000 0.160
2294.000 0.148
2295.000 0.147
2296.000 0.144
2297.000 0.137
2298.000 0.139
2299.000 0.149
2300.000 0.148
2301.000 0.145
2302.000 0.146
2303.000 0.148
2304.000 0.148
2305.000 0.137
2306.000 0.131
2307.000 0.125
2308.000 0.119
2309.000 0.124
2310.000 0.131
2311.000 0.142
2312.000 0.151
2313.000 0.148
2314.000 0.137
2315.000 0.127
2316.000 0.118
2317.000 0.117
2318.000 0.122
2319.000 0.122
2320.000 0.130
2321.000 0.129
2322.000 0.125
2323.000 0.138
2324.000 0.129
2325.000 0.127
2326.000 0.130
2327.000 0.135
2328.000 0.137
2329.000 0.149
2330.000 0.151
2331.000 0.148
2332.000 0.146
2333.000 0.151
2334.000 0.152
2335.000 0.149
2336.000 0.146
2337.000 0.137
2338.000 0.130
2339.000 0.118
2340.000 0.110
2341.000 0.104
2342.000 0.103
2343.000 0.112
2344.000 0.118
2345.000 0.140
2346.000 0.166
2347.000 0.178
2348.000 0.211
2349.000 0.244
2350.000 0.221
2351.000 0.217
2352.000 0.174
2353.000 0.129
2354.000 0.114
2355.000 0.100
2356.000 0.110
2357.000 0.117
2358.000 0.119
2359.000 0.102
2360.000 0.099
2361.000 0.069
2362.000 0.086
2363.000 0.118
2364.000 0.146
2365.000 0.155
2366.000 0.127
2367.000 0.130
2368.000 0.150
2369.000 0.115
2370.000 0.117
2371.000 0.135
2372.000 0.124
2373.000 0.209
2374.000 0.266
2375.000 0.203
2376.000 0.218
2377.000 0.244
2378.000 0.194
2379.000 0.192
2380.000 0.149
2381.000 0.170
2382.000 0.249
2383.000 0.405
2384.000 0.469
2385.000 0.295
2386.000 0.339
2387.000 0.266
2388.000 0.134
2389.000 0.116
2390.000 0.101
2391.000 0.122
2392.000 0.142
2393.000 0.199
2394.000 0.229
2395.000 0.256
2396.000 0.206
2397.000 0.176
2398.000 0.194
2399.000 0.211
2400.000 0.132
2401.000 0.115
2402.000 0.246
2403.000 0.222
2404.000 0.253
2405.000 0.226
2406.000 0.229
2407.000 0.283
2408.000 0.303
2409.000 0.306
2410.000 0.338
2411.000 0.206
2412.000 0.132
2413.000 0.138
2414.000 0.101
2415.000 0.125
2416.000 0.144
2417.000 0.173
2418.000 0.275
2419.000 0.431
2420.000 0.456
2421.000 0.347
2422.000 0.364
2423.000 0.286
2424.000 0.320
2425.000 0.387
2426.000 0.428
2427.000 0.347
2428.000 0.172
2429.000 0.296
2430.000 0.303
2431.000 0.252
2432.000 0.369
2433.000 0.296
2434.000 0.211
2435.000 0.388
2436.000 0.329
2437.000 0.271
2438.000 0.225
2439.000 0.236
2440.000 0.265
2441.000 0.268
2442.000 0.160
2443.000 0.383
2444.000 0.128
2445.000 0.328
2446.000 0.481
2447.000 0.292
2448.000 0.171
2449.000 0.189
2450.000 0.215
2451.000 0.402
2452.000 0.395
2453.000 0.440
2454.000 0.237
2455.000 0.198
2456.000 0.386
2457.000 0.390
2458.000 0.311
2459.000 0.207
2460.000 0.212
2461.000 0.448
2462.000 0.491
2463.000 0.568
2464.000 0.453
2465.000 0.311
2466.000 0.222
2467.000 0.136
2468.000 0.234
2469.000 0.343
2470.000 0.237
2471.000 0.347
2472.000 0.565
2473.000 0.567
2474.000 0.472
2475.000 0.444
2476.000 0.452
2477.000 0.502
2478.000 0.520
2479.000 0.525
2480.000 0.508
2481.000 0.525
2482.000 0.485
2483.000 0.362
2484.000 0.344
2485.000 0.269
2486.000 0.305
2487.000 0.561
2488.000 0.470
2489.000 0.376
2490.000 0.423
2491.000 0.389
2492.000 0.392
2493.000 0.457
2494.000 0.301
2495.000 0.378
2496.000 0.469
2497.000 0.347
2498.000 0.365
2499.000 0.472
2500.000 0.368
