391.000 0.023
392.000 0.023
393.000 0.024
394.000 0.026
395.000 0.026
396.000 0.025
397.000 0.025
398.000 0.024
399.000 0.024
400.000 0.025
401.000 0.025
402.000 0.025
403.000 0.025
404.000 0.025
405.000 0.025
406.000 0.024
407.000 0.024
408.000 0.026
409.000 0.025
410.000 0.025
411.000 0.025
412.000 0.026
413.000 0.025
414.000 0.025
415.000 0.025
416.000 0.025
417.000 0.024
418.000 0.024
419.000 0.025
420.000 0.025
421.000 0.025
422.000 0.025
423.000 0.025
424.000 0.025
425.000 0.025
426.000 0.025
427.000 0.025
428.000 0.025
429.000 0.025
430.000 0.025
431.000 0.025
432.000 0.025
433.000 0.025
434.000 0.025
435.000 0.025
436.000 0.025
437.000 0.025
438.000 0.025
439.000 0.025
440.000 0.025
441.000 0.025
442.000 0.026
443.000 0.026
444.000 0.025
445.000 0.025
446.000 0.026
447.000 0.025
448.000 0.025
449.000 0.026
450.000 0.026
451.000 0.026
452.000 0.026
453.000 0.026
454.000 0.026
455.000 0.026
456.000 0.026
457.000 0.026
458.000 0.026
459.000 0.026
460.000 0.026
461.000 0.027
462.000 0.026
463.000 0.026
464.000 0.027
465.000 0.026
466.000 0.027
467.000 0.026
468.000 0.026
469.000 0.027
470.000 0.027
471.000 0.027
472.000 0.027
473.000 0.027
474.000 0.027
475.000 0.027
476.000 0.027
477.000 0.026
478.000 0.026
479.000 0.027
480.000 0.027
481.000 0.026
482.000 0.026
483.000 0.026
484.000 0.027
485.000 0.027
486.000 0.027
487.000 0.028
488.000 0.028
489.000 0.027
490.000 0.028
491.000 0.028
492.000 0.028
493.000 0.028
494.000 0.028
495.000 0.028
496.000 0.028
497.000 0.028
498.000 0.029
499.000 0.029
500.000 0.029
501.000 0.030
502.000 0.031
503.000 0.031
504.000 0.032
505.000 0.033
506.000 0.033
507.000 0.034
508.000 0.035
509.000 0.036
510.000 0.037
511.000 0.037
512.000 0.039
513.000 0.040
514.000 0.041
515.000 0.043
516.000 0.044
517.000 0.046
518.000 0.047
519.000 0.050
520.000 0.051
521.000 0.053
522.000 0.054
523.000 0.056
524.000 0.058
525.000 0.060
526.000 0.061
527.000 0.063
528.000 0.065
529.000 0.066
530.000 0.068
531.000 0.070
532.000 0.070
533.000 0.071
534.000 0.072
535.000 0.074
536.000 0.074
537.000 0.074
538.000 0.075
539.000 0.076
540.000 0.077
541.000 0.077
542.000 0.077
543.000 0.078
544.000 0.078
545.000 0.078
546.000 0.079
547.000 0.079
548.000 0.080
549.000 0.080
550.000 0.080
551.000 0.080
552.000 0.080
553.000 0.080
554.000 0.080
555.000 0.080
556.000 0.080
557.000 0.080
558.000 0.080
559.000 0.079
560.000 0.079
561.000 0.078
562.000 0.077
563.000 0.076
564.000 0.075
565.000 0.074
566.000 0.073
567.000 0.072
568.000 0.071
569.000 0.070
570.000 0.069
571.000 0.068
572.000 0.067
573.000 0.066
574.000 0.065
575.000 0.064
576.000 0.064
577.000 0.063
578.000 0.062
579.000 0.061
580.000 0.061
581.000 0.060
582.000 0.060
583.000 0.060
584.000 0.059
585.000 0.058
586.000 0.057
587.000 0.057
588.000 0.057
589.000 0.056
590.000 0.056
591.000 0.056
592.000 0.056
593.000 0.056
594.000 0.055
595.000 0.055
596.000 0.055
597.000 0.055
598.000 0.055
599.000 0.054
600.000 0.054
601.000 0.054
602.000 0.054
603.000 0.053
604.000 0.053
605.000 0.053
606.000 0.053
607.000 0.052
608.000 0.052
609.000 0.051
610.000 0.051
611.000 0.051
612.000 0.050
613.000 0.050
614.000 0.050
615.000 0.049
616.000 0.049
617.000 0.049
618.000 0.048
619.000 0.048
620.000 0.048
621.000 0.048
622.000 0.048
623.000 0.048
624.000 0.047
625.000 0.047
626.000 0.047
627.000 0.047
628.000 0.047
629.000 0.047
630.000 0.047
631.000 0.047
632.000 0.047
633.000 0.046
634.000 0.046
635.000 0.046
636.000 0.046
637.000 0.045
638.000 0.045
639.000 0.045
640.000 0.043
641.000 0.043
642.000 0.042
643.000 0.042
644.000 0.041
645.000 0.041
646.000 0.040
647.000 0.040
648.000 0.039
649.000 0.039
650.000 0.039
651.000 0.038
652.000 0.038
653.000 0.038
654.000 0.038
655.000 0.038
656.000 0.038
657.000 0.037
658.000 0.037
659.000 0.037
660.000 0.037
661.000 0.036
662.000 0.036
663.000 0.036
664.000 0.036
665.000 0.036
666.000 0.035
667.000 0.034
668.000 0.034
669.000 0.034
670.000 0.034
671.000 0.034
672.000 0.034
673.000 0.034
674.000 0.035
675.000 0.035
676.000 0.036
677.000 0.036
678.000 0.037
679.000 0.037
680.000 0.037
681.000 0.038
682.000 0.038
683.000 0.040
684.000 0.040
685.000 0.042
686.000 0.043
687.000 0.045
688.000 0.047
689.000 0.049
690.000 0.050
691.000 0.053
692.000 0.056
693.000 0.059
694.000 0.063
695.000 0.067
696.000 0.072
697.000 0.076
698.000 0.082
699.000 0.087
700.000 0.093
701.000 0.100
702.000 0.106
703.000 0.113
704.000 0.119
705.000 0.126
706.000 0.132
707.000 0.138
708.000 0.145
709.000 0.152
710.000 0.160
711.000 0.167
712.000 0.174
713.000 0.181
714.000 0.188
715.000 0.196
716.000 0.203
717.000 0.210
718.000 0.218
719.000 0.227
720.000 0.235
721.000 0.243
722.000 0.250
723.000 0.257
724.000 0.264
725.000 0.272
726.000 0.279
727.000 0.286
728.000 0.293
729.000 0.300
730.000 0.306
731.000 0.313
732.000 0.318
733.000 0.324
734.000 0.330
735.000 0.335
736.000 0.340
737.000 0.344
738.000 0.349
739.000 0.353
740.000 0.358
741.000 0.361
742.000 0.364
743.000 0.368
744.000 0.371
745.000 0.374
746.000 0.377
747.000 0.378
748.000 0.381
749.000 0.383
750.000 0.385
751.000 0.387
752.000 0.389
753.000 0.390
754.000 0.391
755.000 0.392
756.000 0.393
757.000 0.395
758.000 0.396
759.000 0.397
760.000 0.397
761.000 0.399
762.000 0.399
763.000 0.400
764.000 0.400
765.000 0.401
766.000 0.402
767.000 0.402
768.000 0.403
769.000 0.403
770.000 0.404
771.000 0.405
772.000 0.405
773.000 0.406
774.000 0.406
775.000 0.407
776.000 0.407
777.000 0.407
778.000 0.408
779.000 0.408
780.000 0.408
781.000 0.409
782.000 0.409
783.000 0.409
784.000 0.410
785.000 0.410
786.000 0.410
787.000 0.410
788.000 0.410
789.000 0.410
790.000 0.410
791.000 0.411
792.000 0.411
793.000 0.412
794.000 0.412
795.000 0.412
796.000 0.412
797.000 0.413
798.000 0.413
799.000 0.413
800.000 0.413
801.000 0.414
802.000 0.414
803.000 0.414
804.000 0.415
805.000 0.415
806.000 0.416
807.000 0.416
808.000 0.416
809.000 0.416
810.000 0.416
811.000 0.416
812.000 0.416
813.000 0.416
814.000 0.415
815.000 0.415
816.000 0.415
817.000 0.415
818.000 0.416
819.000 0.417
820.000 0.417
821.000 0.417
822.000 0.417
823.000 0.417
824.000 0.418
825.000 0.418
826.000 0.418
827.000 0.419
828.000 0.419
829.000 0.419
830.000 0.419
831.000 0.419
832.000 0.420
833.000 0.420
834.000 0.421
835.000 0.421
836.000 0.421
837.000 0.421
838.000 0.422
839.000 0.422
840.000 0.422
841.000 0.423
842.000 0.423
843.000 0.424
844.000 0.424
845.000 0.424
846.000 0.425
847.000 0.425
848.000 0.425
849.000 0.425
850.000 0.425
851.000 0.425
852.000 0.425
853.000 0.425
854.000 0.426
855.000 0.426
856.000 0.426
857.000 0.426
858.000 0.426
859.000 0.426
860.000 0.426
861.000 0.427
862.000 0.427
863.000 0.427
864.000 0.427
865.000 0.427
866.000 0.427
867.000 0.427
868.000 0.428
869.000 0.428
870.000 0.428
871.000 0.428
872.000 0.428
873.000 0.428
874.000 0.429
875.000 0.429
876.000 0.429
877.000 0.429
878.000 0.429
879.000 0.429
880.000 0.429
881.000 0.429
882.000 0.429
883.000 0.430
884.000 0.430
885.000 0.430
886.000 0.430
887.000 0.430
888.000 0.430
889.000 0.430
890.000 0.430
891.000 0.431
892.000 0.430
893.000 0.430
894.000 0.429
895.000 0.429
896.000 0.428
897.000 0.427
898.000 0.428
899.000 0.425
900.000 0.425
901.000 0.425
902.000 0.426
903.000 0.426
904.000 0.428
905.000 0.428
906.000 0.426
907.000 0.426
908.000 0.425
909.000 0.425
910.000 0.424
911.000 0.424
912.000 0.424
913.000 0.424
914.000 0.424
915.000 0.424
916.000 0.425
917.000 0.425
918.000 0.424
919.000 0.425
920.000 0.426
921.000 0.426
922.000 0.428
923.000 0.428
924.000 0.427
925.000 0.426
926.000 0.423
927.000 0.422
928.000 0.421
929.000 0.418
930.000 0.417
931.000 0.416
932.000 0.413
933.000 0.410
934.000 0.407
935.000 0.404
936.000 0.403
937.000 0.402
938.000 0.402
939.000 0.402
940.000 0.402
941.000 0.401
942.000 0.402
943.000 0.402
944.000 0.400
945.000 0.399
946.000 0.397
947.000 0.395
948.000 0.395
949.000 0.397
950.000 0.394
951.000 0.393
952.000 0.393
953.000 0.391
954.000 0.390
955.000 0.389
956.000 0.389
957.000 0.389
958.000 0.387
959.000 0.387
960.000 0.385
961.000 0.387
962.000 0.388
963.000 0.387
964.000 0.387
965.000 0.387
966.000 0.388
967.000 0.389
968.000 0.389
969.000 0.390
970.000 0.390
971.000 0.391
972.000 0.390
973.000 0.391
974.000 0.391
975.000 0.390
976.000 0.389
977.000 0.390
978.000 0.390
979.000 0.392
980.000 0.392
981.000 0.393
982.000 0.392
983.000 0.393
984.000 0.394
985.000 0.395
986.000 0.395
987.000 0.396
988.000 0.396
989.000 0.397
990.000 0.397
991.000 0.398
992.000 0.398
993.000 0.399
994.000 0.399
995.000 0.399
996.000 0.401
997.000 0.402
998.000 0.402
999.000 0.402
1000.000 0.403
1001.000 0.406
1002.000 0.406
1003.000 0.406
1004.000 0.407
1005.000 0.408
1006.000 0.409
1007.000 0.410
1008.000 0.410
1009.000 0.411
1010.000 0.411
1011.000 0.412
1012.000 0.413
1013.000 0.414
1014.000 0.416
1015.000 0.417
1016.000 0.417
1017.000 0.418
1018.000 0.418
1019.000 0.419
1020.000 0.420
1021.000 0.421
1022.000 0.422
1023.000 0.422
1024.000 0.423
1025.000 0.424
1026.000 0.424
1027.000 0.426
1028.000 0.426
1029.000 0.426
1030.000 0.427
1031.000 0.428
1032.000 0.429
1033.000 0.430
1034.000 0.431
1035.000 0.431
1036.000 0.432
1037.000 0.432
1038.000 0.433
1039.000 0.434
1040.000 0.435
1041.000 0.436
1042.000 0.436
1043.000 0.437
1044.000 0.437
1045.000 0.437
1046.000 0.437
1047.000 0.437
1048.000 0.438
1049.000 0.439
1050.000 0.440
1051.000 0.440
1052.000 0.441
1053.000 0.442
1054.000 0.442
1055.000 0.443
1056.000 0.443
1057.000 0.443
1058.000 0.443
1059.000 0.443
1060.000 0.444
1061.000 0.445
1062.000 0.445
1063.000 0.445
1064.000 0.444
1065.000 0.445
1066.000 0.446
1067.000 0.446
1068.000 0.446
1069.000 0.446
1070.000 0.446
1071.000 0.446
1072.000 0.447
1073.000 0.447
1074.000 0.447
1075.000 0.447
1076.000 0.447
1077.000 0.447
1078.000 0.447
1079.000 0.447
1080.000 0.446
1081.000 0.446
1082.000 0.447
1083.000 0.447
1084.000 0.447
1085.000 0.446
1086.000 0.445
1087.000 0.445
1088.000 0.445
1089.000 0.445
1090.000 0.445
1091.000 0.445
1092.000 0.444
1093.000 0.444
1094.000 0.444
1095.000 0.443
1096.000 0.443
1097.000 0.442
1098.000 0.441
1099.000 0.440
1100.000 0.439
1101.000 0.439
1102.000 0.438
1103.000 0.437
1104.000 0.437
1105.000 0.437
1106.000 0.437
1107.000 0.433
1108.000 0.432
1109.000 0.431
1110.000 0.431
1111.000 0.430
1112.000 0.429
1113.000 0.429
1114.000 0.428
1115.000 0.426
1116.000 0.425
1117.000 0.423
1118.000 0.421
1119.000 0.419
1120.000 0.416
1121.000 0.412
1122.000 0.409
1123.000 0.406
1124.000 0.403
1125.000 0.400
1126.000 0.398
1127.000 0.396
1128.000 0.397
1129.000 0.396
1130.000 0.395
1131.000 0.396
1132.000 0.393
1133.000 0.391
1134.000 0.391
1135.000 0.390
1136.000 0.388
1137.000 0.387
1138.000 0.386
1139.000 0.384
1140.000 0.382
1141.000 0.381
1142.000 0.379
1143.000 0.376
1144.000 0.373
1145.000 0.370
1146.000 0.367
1147.000 0.364
1148.000 0.362
1149.000 0.360
1150.000 0.358
1151.000 0.355
1152.000 0.354
1153.000 0.354
1154.000 0.354
1155.000 0.353
1156.000 0.354
1157.000 0.354
1158.000 0.353
1159.000 0.353
1160.000 0.353
1161.000 0.353
1162.000 0.353
1163.000 0.354
1164.000 0.354
1165.000 0.353
1166.000 0.354
1167.000 0.354
1168.000 0.354
1169.000 0.354
1170.000 0.353
1171.000 0.353
1172.000 0.353
1173.000 0.353
1174.000 0.352
1175.000 0.352
1176.000 0.352
1177.000 0.352
1178.000 0.351
1179.000 0.351
1180.000 0.351
1181.000 0.350
1182.000 0.350
1183.000 0.350
1184.000 0.350
1185.000 0.350
1186.000 0.350
1187.000 0.350
1188.000 0.350
1189.000 0.350
1190.000 0.350
1191.000 0.350
1192.000 0.350
1193.000 0.350
1194.000 0.350
1195.000 0.350
1196.000 0.350
1197.000 0.350
1198.000 0.350
1199.000 0.349
1200.000 0.349
1201.000 0.349
1202.000 0.349
1203.000 0.350
1204.000 0.350
1205.000 0.350
1206.000 0.351
1207.000 0.352
1208.000 0.352
1209.000 0.352
1210.000 0.352
1211.000 0.352
1212.000 0.353
1213.000 0.353
1214.000 0.354
1215.000 0.354
1216.000 0.355
1217.000 0.355
1218.000 0.355
1219.000 0.356
1220.000 0.356
1221.000 0.356
1222.000 0.356
1223.000 0.357
1224.000 0.358
1225.000 0.358
1226.000 0.359
1227.000 0.359
1228.000 0.360
1229.000 0.360
1230.000 0.360
1231.000 0.361
1232.000 0.361
1233.000 0.362
1234.000 0.362
1235.000 0.363
1236.000 0.364
1237.000 0.364
1238.000 0.364
1239.000 0.365
1240.000 0.365
1241.000 0.366
1242.000 0.366
1243.000 0.366
1244.000 0.367
1245.000 0.367
1246.000 0.367
1247.000 0.368
1248.000 0.368
1249.000 0.368
1250.000 0.368
1251.000 0.369
1252.000 0.369
1253.000 0.370
1254.000 0.370
1255.000 0.371
1256.000 0.371
1257.000 0.371
1258.000 0.371
1259.000 0.371
1260.000 0.371
1261.000 0.371
1262.000 0.371
1263.000 0.371
1264.000 0.372
1265.000 0.372
1266.000 0.372
1267.000 0.371
1268.000 0.372
1269.000 0.371
1270.000 0.372
1271.000 0.372
1272.000 0.372
1273.000 0.372
1274.000 0.372
1275.000 0.372
1276.000 0.372
1277.000 0.372
1278.000 0.371
1279.000 0.371
1280.000 0.371
1281.000 0.371
1282.000 0.370
1283.000 0.370
1284.000 0.370
1285.000 0.369
1286.000 0.368
1287.000 0.368
1288.000 0.367
1289.000 0.367
1290.000 0.366
1291.000 0.366
1292.000 0.365
1293.000 0.365
1294.000 0.364
1295.000 0.363
1296.000 0.362
1297.000 0.361
1298.000 0.360
1299.000 0.359
1300.000 0.358
1301.000 0.357
1302.000 0.356
1303.000 0.355
1304.000 0.354
1305.000 0.352
1306.000 0.351
1307.000 0.349
1308.000 0.348
1309.000 0.346
1310.000 0.345
1311.000 0.344
1312.000 0.342
1313.000 0.341
1314.000 0.339
1315.000 0.338
1316.000 0.336
1317.000 0.334
1318.000 0.332
1319.000 0.331
1320.000 0.329
1321.000 0.327
1322.000 0.326
1323.000 0.324
1324.000 0.322
1325.000 0.320
1326.000 0.318
1327.000 0.316
1328.000 0.314
1329.000 0.312
1330.000 0.310
1331.000 0.308
1332.000 0.305
1333.000 0.303
1334.000 0.300
1335.000 0.297
1336.000 0.295
1337.000 0.294
1338.000 0.293
1339.000 0.291
1340.000 0.289
1341.000 0.288
1342.000 0.288
1343.000 0.286
1344.000 0.286
1345.000 0.285
1346.000 0.283
1347.000 0.280
1348.000 0.278
1349.000 0.275
1350.000 0.271
1351.000 0.268
1352.000 0.262
1353.000 0.251
1354.000 0.241
1355.000 0.239
1356.000 0.229
1357.000 0.255
1358.000 0.265
1359.000 0.234
1360.000 0.226
1361.000 0.310
1362.000 0.345
1363.000 0.393
1364.000 0.710
1365.000 0.816
1366.000 0.689
1367.000 0.361
1368.000 0.287
1369.000 0.450
1370.000 0.527
1371.000 0.427
1372.000 0.275
1373.000 0.201
1374.000 0.149
1375.000 0.278
1376.000 0.243
1377.000 0.287
1378.000 0.412
1379.000 0.593
1380.000 0.475
1381.000 0.442
1382.000 0.381
1383.000 0.287
1384.000 0.201
1385.000 0.183
1386.000 0.133
1387.000 0.208
1388.000 0.399
1389.000 0.424
1390.000 0.499
1391.000 0.386
1392.000 0.384
1393.000 0.313
1394.000 0.179
1395.000 0.150
1396.000 0.145
1397.000 0.164
1398.000 0.222
1399.000 0.280
1400.000 0.301
1401.000 0.263
1402.000 0.295
1403.000 0.328
1404.000 0.270
1405.000 0.390
1406.000 0.448
1407.000 0.361
1408.000 0.206
1409.000 0.150
1410.000 0.191
1411.000 0.162
1412.000 0.161
1413.000 0.185
1414.000 0.186
1415.000 0.192
1416.000 0.185
1417.000 0.182
1418.000 0.138
1419.000 0.149
1420.000 0.126
1421.000 0.090
1422.000 0.095
1423.000 0.075
1424.000 0.080
1425.000 0.069
1426.000 0.071
1427.000 0.093
1428.000 0.092
1429.000 0.087
1430.000 0.099
1431.000 0.102
1432.000 0.106
1433.000 0.113
1434.000 0.118
1435.000 0.094
1436.000 0.089
1437.000 0.087
1438.000 0.096
1439.000 0.093
1440.000 0.090
1441.000 0.084
1442.000 0.080
1443.000 0.076
1444.000 0.067
1445.000 0.068
1446.000 0.069
1447.000 0.074
1448.000 0.077
1449.000 0.078
1450.000 0.078
1451.000 0.080
1452.000 0.082
1453.000 0.082
1454.000 0.081
1455.000 0.079
1456.000 0.075
1457.000 0.074
1458.000 0.075
1459.000 0.075
1460.000 0.077
1461.000 0.078
1462.000 0.079
1463.000 0.079
1464.000 0.077
1465.000 0.077
1466.000 0.075
1467.000 0.075
1468.000 0.078
1469.000 0.079
1470.000 0.081
1471.000 0.082
1472.000 0.082
1473.000 0.083
1474.000 0.085
1475.000 0.084
1476.000 0.080
1477.000 0.080
1478.000 0.079
1479.000 0.078
1480.000 0.079
1481.000 0.080
1482.000 0.078
1483.000 0.080
1484.000 0.083
1485.000 0.085
1486.000 0.087
1487.000 0.090
1488.000 0.091
1489.000 0.092
1490.000 0.093
1491.000 0.093
1492.000 0.094
1493.000 0.095
1494.000 0.096
1495.000 0.096
1496.000 0.097
1497.000 0.097
1498.000 0.098
1499.000 0.099
1500.000 0.100
1501.000 0.100
1502.000 0.101
1503.000 0.102
1504.000 0.103
1505.000 0.104
1506.000 0.105
1507.000 0.106
1508.000 0.107
1509.000 0.108
1510.000 0.109
1511.000 0.110
1512.000 0.111
1513.000 0.112
1514.000 0.113
1515.000 0.113
1516.000 0.114
1517.000 0.114
1518.000 0.115
1519.000 0.116
1520.000 0.117
1521.000 0.118
1522.000 0.119
1523.000 0.120
1524.000 0.121
1525.000 0.122
1526.000 0.123
1527.000 0.124
1528.000 0.125
1529.000 0.126
1530.000 0.127
1531.000 0.128
1532.000 0.129
1533.000 0.130
1534.000 0.131
1535.000 0.132
1536.000 0.133
1537.000 0.133
1538.000 0.134
1539.000 0.135
1540.000 0.136
1541.000 0.136
1542.000 0.137
1543.000 0.139
1544.000 0.140
1545.000 0.142
1546.000 0.143
1547.000 0.144
1548.000 0.145
1549.000 0.145
1550.000 0.146
1551.000 0.146
1552.000 0.147
1553.000 0.148
1554.000 0.149
1555.000 0.150
1556.000 0.151
1557.000 0.152
1558.000 0.153
1559.000 0.153
1560.000 0.154
1561.000 0.155
1562.000 0.156
1563.000 0.157
1564.000 0.157
1565.000 0.158
1566.000 0.159
1567.000 0.160
1568.000 0.161
1569.000 0.162
1570.000 0.163
1571.000 0.164
1572.000 0.164
1573.000 0.165
1574.000 0.166
1575.000 0.166
1576.000 0.167
1577.000 0.168
1578.000 0.170
1579.000 0.171
1580.000 0.172
1581.000 0.172
1582.000 0.173
1583.000 0.173
1584.000 0.174
1585.000 0.174
1586.000 0.175
1587.000 0.176
1588.000 0.176
1589.000 0.176
1590.000 0.177
1591.000 0.178
1592.000 0.179
1593.000 0.180
1594.000 0.181
1595.000 0.181
1596.000 0.181
1597.000 0.182
1598.000 0.183
1599.000 0.183
1600.000 0.183
1601.000 0.184
1602.000 0.185
1603.000 0.186
1604.000 0.187
1605.000 0.188
1606.000 0.188
1607.000 0.189
1608.000 0.189
1609.000 0.189
1610.000 0.189
1611.000 0.190
1612.000 0.191
1613.000 0.191
1614.000 0.192
1615.000 0.192
1616.000 0.193
1617.000 0.194
1618.000 0.195
1619.000 0.195
1620.000 0.195
1621.000 0.197
1622.000 0.197
1623.000 0.197
1624.000 0.197
1625.000 0.198
1626.000 0.198
1627.000 0.198
1628.000 0.199
1629.000 0.200
1630.000 0.200
1631.000 0.200
1632.000 0.200
1633.000 0.201
1634.000 0.201
1635.000 0.202
1636.000 0.202
1637.000 0.202
1638.000 0.202
1639.000 0.202
1640.000 0.203
1641.000 0.204
1642.000 0.204
1643.000 0.204
1644.000 0.204
1645.000 0.204
1646.000 0.205
1647.000 0.205
1648.000 0.205
1649.000 0.205
1650.000 0.205
1651.000 0.205
1652.000 0.205
1653.000 0.206
1654.000 0.206
1655.000 0.207
1656.000 0.207
1657.000 0.206
1658.000 0.206
1659.000 0.207
1660.000 0.208
1661.000 0.208
1662.000 0.209
1663.000 0.209
1664.000 0.209
1665.000 0.208
1666.000 0.208
1667.000 0.208
1668.000 0.208
1669.000 0.208
1670.000 0.208
1671.000 0.209
1672.000 0.209
1673.000 0.208
1674.000 0.208
1675.000 0.209
1676.000 0.209
1677.000 0.210
1678.000 0.210
1679.000 0.210
1680.000 0.209
1681.000 0.209
1682.000 0.209
1683.000 0.209
1684.000 0.209
1685.000 0.208
1686.000 0.208
1687.000 0.208
1688.000 0.208
1689.000 0.209
1690.000 0.209
1691.000 0.209
1692.000 0.209
1693.000 0.208
1694.000 0.208
1695.000 0.207
1696.000 0.207
1697.000 0.206
1698.000 0.206
1699.000 0.206
1700.000 0.206
1701.000 0.205
1702.000 0.204
1703.000 0.204
1704.000 0.204
1705.000 0.204
1706.000 0.204
1707.000 0.205
1708.000 0.204
1709.000 0.203
1710.000 0.203
1711.000 0.203
1712.000 0.203
1713.000 0.203
1714.000 0.203
1715.000 0.202
1716.000 0.201
1717.000 0.201
1718.000 0.201
1719.000 0.200
1720.000 0.200
1721.000 0.200
1722.000 0.200
1723.000 0.199
1724.000 0.198
1725.000 0.196
1726.000 0.196
1727.000 0.196
1728.000 0.195
1729.000 0.195
1730.000 0.195
1731.000 0.194
1732.000 0.194
1733.000 0.193
1734.000 0.192
1735.000 0.192
1736.000 0.191
1737.000 0.192
1738.000 0.192
1739.000 0.192
1740.000 0.192
1741.000 0.191
1742.000 0.189
1743.000 0.189
1744.000 0.190
1745.000 0.190
1746.000 0.189
1747.000 0.188
1748.000 0.185
1749.000 0.183
1750.000 0.183
1751.000 0.182
1752.000 0.181
1753.000 0.182
1754.000 0.183
1755.000 0.183
1756.000 0.184
1757.000 0.184
1758.000 0.182
1759.000 0.181
1760.000 0.179
1761.000 0.177
1762.000 0.175
1763.000 0.175
1764.000 0.175
1765.000 0.176
1766.000 0.175
1767.000 0.175
1768.000 0.175
1769.000 0.174
1770.000 0.175
1771.000 0.174
1772.000 0.172
1773.000 0.172
1774.000 0.171
1775.000 0.172
1776.000 0.172
1777.000 0.174
1778.000 0.175
1779.000 0.174
1780.000 0.175
1781.000 0.174
1782.000 0.173
1783.000 0.172
1784.000 0.171
1785.000 0.172
1786.000 0.171
1787.000 0.167
1788.000 0.167
1789.000 0.165
1790.000 0.165
1791.000 0.170
1792.000 0.171
1793.000 0.171
1794.000 0.172
1795.000 0.174
1796.000 0.177
1797.000 0.181
1798.000 0.186
1799.000 0.180
1800.000 0.184
1801.000 0.235
1802.000 0.232
1803.000 0.260
1804.000 0.260
1805.000 0.261
1806.000 0.254
1807.000 0.248
1808.000 0.215
1809.000 0.211
1810.000 0.260
1811.000 0.262
1812.000 0.268
1813.000 0.342
1814.000 0.339
1815.000 0.343
1816.000 0.398
1817.000 0.573
1818.000 0.620
1819.000 0.632
1820.000 0.483
1821.000 0.489
1822.000 0.456
1823.000 0.542
1824.000 0.726
1825.000 0.888
1826.000 0.338
1827.000 0.537
1828.000 0.257
1829.000 0.315
1830.000 0.284
1831.000 0.336
1832.000 0.458
1833.000 0.481
1834.000 0.474
1835.000 0.596
1836.000 0.494
1837.000 0.869
1838.000 0.809
1839.000 0.831
1840.000 0.793
1841.000 0.754
1842.000 0.672
1843.000 0.433
1844.000 0.482
1845.000 0.477
1846.000 0.643
1847.000 0.863
1848.000 0.870
1849.000 0.834
1850.000 0.532
1851.000 0.382
1852.000 0.471
1853.000 0.452
1854.000 0.421
1855.000 0.324
1856.000 0.349
1857.000 0.560
1858.000 0.672
1859.000 0.350
1860.000 0.372
1861.000 0.505
1862.000 0.691
1863.000 0.467
1864.000 0.566
1865.000 0.574
1866.000 0.404
1867.000 0.518
1868.000 0.504
1869.000 0.488
1870.000 0.571
1871.000 0.669
1872.000 0.668
1873.000 0.609
1874.000 0.580
1875.000 0.506
1876.000 0.476
1877.000 0.465
1878.000 0.516
1879.000 0.281
1880.000 0.529
1881.000 0.532
1882.000 0.489
1883.000 0.547
1884.000 0.751
1885.000 0.764
1886.000 0.698
1887.000 0.564
1888.000 0.480
1889.000 0.465
1890.000 0.278
1891.000 0.266
1892.000 0.234
1893.000 0.185
1894.000 0.297
1895.000 0.353
1896.000 0.362
1897.000 0.322
1898.000 0.476
1899.000 0.601
1900.000 0.555
1901.000 0.448
1902.000 0.464
1903.000 0.426
1904.000 0.375
1905.000 0.313
1906.000 0.191
1907.000 0.251
1908.000 0.323
1909.000 0.211
1910.000 0.315
1911.000 0.503
1912.000 0.575
1913.000 0.654
1914.000 0.737
1915.000 0.446
1916.000 0.590
1917.000 0.245
1918.000 0.319
1919.000 0.366
1920.000 0.733
1921.000 0.390
1922.000 0.438
1923.000 0.333
1924.000 0.403
1925.000 0.472
1926.000 0.438
1927.000 0.446
1928.000 0.471
1929.000 0.493
1930.000 0.543
1931.000 0.454
1932.000 0.402
1933.000 0.395
1934.000 0.316
1935.000 0.248
1936.000 0.217
1937.000 0.244
1938.000 0.196
1939.000 0.243
1940.000 0.238
1941.000 0.305
1942.000 0.289
1943.000 0.298
1944.000 0.320
1945.000 0.324
1946.000 0.309
1947.000 0.289
1948.000 0.282
1949.000 0.191
1950.000 0.201
1951.000 0.183
1952.000 0.194
1953.000 0.131
1954.000 0.131
1955.000 0.135
1956.000 0.146
1957.000 0.119
1958.000 0.110
1959.000 0.113
1960.000 0.167
1961.000 0.164
1962.000 0.135
1963.000 0.114
1964.000 0.103
1965.000 0.101
1966.000 0.098
1967.000 0.088
1968.000 0.083
1969.000 0.077
1970.000 0.070
1971.000 0.058
1972.000 0.056
1973.000 0.060
1974.000 0.056
1975.000 0.057
1976.000 0.062
1977.000 0.060
1978.000 0.058
1979.000 0.058
1980.000 0.056
1981.000 0.048
1982.000 0.052
1983.000 0.056
1984.000 0.055
1985.000 0.048
1986.000 0.048
1987.000 0.051
1988.000 0.049
1989.000 0.048
1990.000 0.047
1991.000 0.044
1992.000 0.049
1993.000 0.049
1994.000 0.043
1995.000 0.046
1996.000 0.050
1997.000 0.051
1998.000 0.058
1999.000 0.064
2000.000 0.081
2001.000 0.091
2002.000 0.092
2003.000 0.094
2004.000 0.088
2005.000 0.074
2006.000 0.080
2007.000 0.076
2008.000 0.094
2009.000 0.110
2010.000 0.114
2011.000 0.106
2012.000 0.099
2013.000 0.078
2014.000 0.068
2015.000 0.070
2016.000 0.069
2017.000 0.070
2018.000 0.069
2019.000 0.069
2020.000 0.067
2021.000 0.064
2022.000 0.061
2023.000 0.059
2024.000 0.057
2025.000 0.052
2026.000 0.050
2027.000 0.048
2028.000 0.049
2029.000 0.047
2030.000 0.053
2031.000 0.055
2032.000 0.056
2033.000 0.056
2034.000 0.056
2035.000 0.054
2036.000 0.055
2037.000 0.055
2038.000 0.056
2039.000 0.059
2040.000 0.061
2041.000 0.061
2042.000 0.061
2043.000 0.059
2044.000 0.059
2045.000 0.060
2046.000 0.060
2047.000 0.061
2048.000 0.061
2049.000 0.062
2050.000 0.065
2051.000 0.067
2052.000 0.068
2053.000 0.066
2054.000 0.066
2055.000 0.066
2056.000 0.065
2057.000 0.066
2058.000 0.071
2059.000 0.072
2060.000 0.073
2061.000 0.074
2062.000 0.070
2063.000 0.069
2064.000 0.068
2065.000 0.067
2066.000 0.068
2067.000 0.071
2068.000 0.071
2069.000 0.072
2070.000 0.073
2071.000 0.073
2072.000 0.074
2073.000 0.075
2074.000 0.076
2075.000 0.079
2076.000 0.079
2077.000 0.078
2078.000 0.077
2079.000 0.075
2080.000 0.074
2081.000 0.074
2082.000 0.074
2083.000 0.075
2084.000 0.076
2085.000 0.077
2086.000 0.077
2087.000 0.078
2088.000 0.078
2089.000 0.078
2090.000 0.079
2091.000 0.080
2092.000 0.077
2093.000 0.078
2094.000 0.079
2095.000 0.080
2096.000 0.082
2097.000 0.082
2098.000 0.082
2099.000 0.081
2100.000 0.081
2101.000 0.080
2102.000 0.081
2103.000 0.083
2104.000 0.083
2105.000 0.082
2106.000 0.083
2107.000 0.082
2108.000 0.082
2109.000 0.085
2110.000 0.085
2111.000 0.086
2112.000 0.087
2113.000 0.087
2114.000 0.088
2115.000 0.089
2116.000 0.090
2117.000 0.091
2118.000 0.091
2119.000 0.093
2120.000 0.094
2121.000 0.094
2122.000 0.094
2123.000 0.093
2124.000 0.091
2125.000 0.090
2126.000 0.092
2127.000 0.092
2128.000 0.095
2129.000 0.096
2130.000 0.095
2131.000 0.096
2132.000 0.097
2133.000 0.097
2134.000 0.099
2135.000 0.099
2136.000 0.099
2137.000 0.098
2138.000 0.097
2139.000 0.096
2140.000 0.097
2141.000 0.096
2142.000 0.096
2143.000 0.096
2144.000 0.096
2145.000 0.094
2146.000 0.095
2147.000 0.097
2148.000 0.097
2149.000 0.098
2150.000 0.097
2151.000 0.094
2152.000 0.093
2153.000 0.096
2154.000 0.098
2155.000 0.100
2156.000 0.104
2157.000 0.104
2158.000 0.103
2159.000 0.103
2160.000 0.102
2161.000 0.102
2162.000 0.102
2163.000 0.102
2164.000 0.102
2165.000 0.100
2166.000 0.098
2167.000 0.097
2168.000 0.096
2169.000 0.096
2170.000 0.099
2171.000 0.101
2172.000 0.103
2173.000 0.104
2174.000 0.103
2175.000 0.103
2176.000 0.102
2177.000 0.103
2178.000 0.104
2179.000 0.105
2180.000 0.106
2181.000 0.105
2182.000 0.105
2183.000 0.103
2184.000 0.103
2185.000 0.104
2186.000 0.104
2187.000 0.104
2188.000 0.105
2189.000 0.103
2190.000 0.104
2191.000 0.106
2192.000 0.108
2193.000 0.111
2194.000 0.111
2195.000 0.108
2196.000 0.107
2197.000 0.103
2198.000 0.102
2199.000 0.103
2200.000 0.103
2201.000 0.105
2202.000 0.106
2203.000 0.106
2204.000 0.107
2205.000 0.107
2206.000 0.106
2207.000 0.106
2208.000 0.105
2209.000 0.105
2210.000 0.109
2211.000 0.108
2212.000 0.107
2213.000 0.105
2214.000 0.102
2215.000 0.100
2216.000 0.102
2217.000 0.103
2218.000 0.104
2219.000 0.104
2220.000 0.102
2221.000 0.102
2222.000 0.100
2223.000 0.100
2224.000 0.101
2225.000 0.101
2226.000 0.102
2227.000 0.102
2228.000 0.104
2229.000 0.105
2230.000 0.105
2231.000 0.107
2232.000 0.108
2233.000 0.109
2234.000 0.110
2235.000 0.108
2236.000 0.105
2237.000 0.104
2238.000 0.104
2239.000 0.104
2240.000 0.104
2241.000 0.105
2242.000 0.104
2243.000 0.102
2244.000 0.100
2245.000 0.099
2246.000 0.098
2247.000 0.096
2248.000 0.096
2249.000 0.096
2250.000 0.096
2251.000 0.097
2252.000 0.097
2253.000 0.098
2254.000 0.098
2255.000 0.098
2256.000 0.098
2257.000 0.095
2258.000 0.094
2259.000 0.090
2260.000 0.088
2261.000 0.087
2262.000 0.088
2263.000 0.090
2264.000 0.093
2265.000 0.094
2266.000 0.093
2267.000 0.092
2268.000 0.091
2269.000 0.090
2270.000 0.091
2271.000 0.093
2272.000 0.093
2273.000 0.093
2274.000 0.092
2275.000 0.090
2276.000 0.087
2277.000 0.086
2278.000 0.087
2279.000 0.088
2280.000 0.088
2281.000 0.089
2282.000 0.091
2283.000 0.091
2284.000 0.086
2285.000 0.086
2286.000 0.085
2287.000 0.085
2288.000 0.087
2289.000 0.087
2290.000 0.083
2291.000 0.083
2292.000 0.085
2293.000 0.084
2294.000 0.084
2295.000 0.085
2296.000 0.084
2297.000 0.082
2298.000 0.083
2299.000 0.083
2300.000 0.083
2301.000 0.084
2302.000 0.083
2303.000 0.084
2304.000 0.081
2305.000 0.074
2306.000 0.077
2307.000 0.077
2308.000 0.080
2309.000 0.083
2310.000 0.081
2311.000 0.081
2312.000 0.084
2313.000 0.080
2314.000 0.079
2315.000 0.079
2316.000 0.073
2317.000 0.073
2318.000 0.076
2319.000 0.077
2320.000 0.077
2321.000 0.070
2322.000 0.070
2323.000 0.070
2324.000 0.067
2325.000 0.069
2326.000 0.070
2327.000 0.070
2328.000 0.070
2329.000 0.078
2330.000 0.078
2331.000 0.077
2332.000 0.077
2333.000 0.076
2334.000 0.077
2335.000 0.073
2336.000 0.075
2337.000 0.080
2338.000 0.081
2339.000 0.081
2340.000 0.081
2341.000 0.077
2342.000 0.074
2343.000 0.069
2344.000 0.066
2345.000 0.068
2346.000 0.074
2347.000 0.076
2348.000 0.093
2349.000 0.105
2350.000 0.101
2351.000 0.093
2352.000 0.084
2353.000 0.080
2354.000 0.078
2355.000 0.075
2356.000 0.078
2357.000 0.077
2358.000 0.074
2359.000 0.064
2360.000 0.053
2361.000 0.049
2362.000 0.036
2363.000 0.037
2364.000 0.051
2365.000 0.071
2366.000 0.083
2367.000 0.086
2368.000 0.091
2369.000 0.072
2370.000 0.067
2371.000 0.061
2372.000 0.072
2373.000 0.097
2374.000 0.123
2375.000 0.103
2376.000 0.125
2377.000 0.095
2378.000 0.057
2379.000 0.074
2380.000 0.055
2381.000 0.061
2382.000 0.089
2383.000 0.122
2384.000 0.155
2385.000 0.126
2386.000 0.100
2387.000 0.089
2388.000 0.077
2389.000 0.094
2390.000 0.132
2391.000 0.107
2392.000 0.104
2393.000 0.096
2394.000 0.085
2395.000 0.113
2396.000 0.071
2397.000 0.043
2398.000 0.083
2399.000 0.092
2400.000 0.099
2401.000 0.028
2402.000 0.115
2403.000 0.104
2404.000 0.109
2405.000 0.110
2406.000 0.126
2407.000 0.141
2408.000 0.155
2409.000 0.130
2410.000 0.152
2411.000 0.100
2412.000 0.087
2413.000 0.096
2414.000 0.100
2415.000 0.090
2416.000 0.066
2417.000 0.067
2418.000 0.137
2419.000 0.229
2420.000 0.280
2421.000 0.184
2422.000 0.156
2423.000 0.155
2424.000 0.143
2425.000 0.216
2426.000 0.219
2427.000 0.214
2428.000 0.138
2429.000 0.175
2430.000 0.159
2431.000 0.131
2432.000 0.137
2433.000 0.095
2434.000 0.096
2435.000 0.116
2436.000 0.119
2437.000 0.106
2438.000 0.098
2439.000 0.130
2440.000 0.177
2441.000 0.179
2442.000 0.112
2443.000 0.155
2444.000 0.126
2445.000 0.256
2446.000 0.300
2447.000 0.239
2448.000 0.210
2449.000 0.173
2450.000 0.166
2451.000 0.365
2452.000 0.243
2453.000 0.104
2454.000 0.081
2455.000 0.076
2456.000 0.108
2457.000 0.135
2458.000 0.133
2459.000 0.134
2460.000 0.123
2461.000 0.231
2462.000 0.236
2463.000 0.333
2464.000 0.272
2465.000 0.131
2466.000 0.173
2467.000 0.215
2468.000 0.322
2469.000 0.283
2470.000 0.225
2471.000 0.332
2472.000 0.573
2473.000 0.659
2474.000 0.379
2475.000 0.344
2476.000 0.339
2477.000 0.319
2478.000 0.461
2479.000 0.549
2480.000 0.378
2481.000 0.291
2482.000 0.577
2483.000 0.362
2484.000 0.566
2485.000 0.471
2486.000 0.445
2487.000 0.472
2488.000 0.451
2489.000 0.615
2490.000 0.596
2491.000 0.529
2492.000 0.471
2493.000 0.427
2494.000 0.345
2495.000 0.397
2496.000 0.555
2497.000 0.379
2498.000 0.358
2499.000 0.293
2500.000 0.206
