391.000 0.079
392.000 0.086
393.000 0.087
394.000 0.082
395.000 0.082
396.000 0.080
397.000 0.076
398.000 0.084
399.000 0.080
400.000 0.078
401.000 0.086
402.000 0.082
403.000 0.081
404.000 0.083
405.000 0.084
406.000 0.083
407.000 0.082
408.000 0.081
409.000 0.083
410.000 0.083
411.000 0.084
412.000 0.088
413.000 0.088
414.000 0.087
415.000 0.086
416.000 0.084
417.000 0.080
418.000 0.080
419.000 0.085
420.000 0.090
421.000 0.091
422.000 0.092
423.000 0.092
424.000 0.084
425.000 0.084
426.000 0.087
427.000 0.086
428.000 0.084
429.000 0.087
430.000 0.092
431.000 0.092
432.000 0.090
433.000 0.088
434.000 0.090
435.000 0.089
436.000 0.088
437.000 0.088
438.000 0.089
439.000 0.090
440.000 0.089
441.000 0.089
442.000 0.090
443.000 0.092
444.000 0.092
445.000 0.090
446.000 0.089
447.000 0.090
448.000 0.091
449.000 0.091
450.000 0.089
451.000 0.092
452.000 0.097
453.000 0.095
454.000 0.090
455.000 0.090
456.000 0.094
457.000 0.094
458.000 0.095
459.000 0.096
460.000 0.094
461.000 0.090
462.000 0.090
463.000 0.093
464.000 0.092
465.000 0.094
466.000 0.095
467.000 0.094
468.000 0.095
469.000 0.096
470.000 0.096
471.000 0.096
472.000 0.096
473.000 0.096
474.000 0.096
475.000 0.097
476.000 0.096
477.000 0.096
478.000 0.097
479.000 0.095
480.000 0.095
481.000 0.096
482.000 0.095
483.000 0.096
484.000 0.098
485.000 0.100
486.000 0.099
487.000 0.099
488.000 0.100
489.000 0.098
490.000 0.100
491.000 0.101
492.000 0.099
493.000 0.098
494.000 0.102
495.000 0.102
496.000 0.098
497.000 0.100
498.000 0.100
499.000 0.100
500.000 0.102
501.000 0.104
502.000 0.104
503.000 0.104
504.000 0.106
505.000 0.106
506.000 0.107
507.000 0.109
508.000 0.111
509.000 0.110
510.000 0.110
511.000 0.112
512.000 0.113
513.000 0.114
514.000 0.116
515.000 0.117
516.000 0.119
517.000 0.122
518.000 0.125
519.000 0.125
520.000 0.128
521.000 0.132
522.000 0.135
523.000 0.139
524.000 0.141
525.000 0.143
526.000 0.145
527.000 0.148
528.000 0.150
529.000 0.152
530.000 0.153
531.000 0.155
532.000 0.157
533.000 0.158
534.000 0.159
535.000 0.161
536.000 0.163
537.000 0.164
538.000 0.164
539.000 0.164
540.000 0.165
541.000 0.166
542.000 0.166
543.000 0.167
544.000 0.165
545.000 0.167
546.000 0.167
547.000 0.168
548.000 0.168
549.000 0.168
550.000 0.168
551.000 0.169
552.000 0.169
553.000 0.169
554.000 0.170
555.000 0.169
556.000 0.167
557.000 0.167
558.000 0.167
559.000 0.166
560.000 0.165
561.000 0.165
562.000 0.165
563.000 0.163
564.000 0.162
565.000 0.160
566.000 0.158
567.000 0.156
568.000 0.154
569.000 0.154
570.000 0.153
571.000 0.151
572.000 0.150
573.000 0.148
574.000 0.147
575.000 0.146
576.000 0.145
577.000 0.143
578.000 0.142
579.000 0.142
580.000 0.141
581.000 0.142
582.000 0.142
583.000 0.138
584.000 0.138
585.000 0.138
586.000 0.138
587.000 0.138
588.000 0.136
589.000 0.135
590.000 0.137
591.000 0.135
592.000 0.134
593.000 0.133
594.000 0.132
595.000 0.132
596.000 0.133
597.000 0.132
598.000 0.134
599.000 0.133
600.000 0.132
601.000 0.132
602.000 0.131
603.000 0.132
604.000 0.133
605.000 0.133
606.000 0.133
607.000 0.133
608.000 0.132
609.000 0.130
610.000 0.129
611.000 0.128
612.000 0.129
613.000 0.130
614.000 0.128
615.000 0.127
616.000 0.128
617.000 0.125
618.000 0.125
619.000 0.128
620.000 0.129
621.000 0.127
622.000 0.126
623.000 0.127
624.000 0.128
625.000 0.129
626.000 0.129
627.000 0.129
628.000 0.127
629.000 0.126
630.000 0.127
631.000 0.126
632.000 0.126
633.000 0.127
634.000 0.128
635.000 0.127
636.000 0.127
637.000 0.127
638.000 0.127
639.000 0.127
640.000 0.129
641.000 0.127
642.000 0.125
643.000 0.124
644.000 0.124
645.000 0.123
646.000 0.123
647.000 0.125
648.000 0.125
649.000 0.123
650.000 0.123
651.000 0.124
652.000 0.124
653.000 0.125
654.000 0.125
655.000 0.123
656.000 0.124
657.000 0.127
658.000 0.128
659.000 0.124
660.000 0.128
661.000 0.129
662.000 0.126
663.000 0.127
664.000 0.127
665.000 0.128
666.000 0.131
667.000 0.129
668.000 0.131
669.000 0.132
670.000 0.131
671.000 0.133
672.000 0.133
673.000 0.133
674.000 0.137
675.000 0.137
676.000 0.137
677.000 0.140
678.000 0.144
679.000 0.144
680.000 0.144
681.000 0.146
682.000 0.146
683.000 0.146
684.000 0.147
685.000 0.150
686.000 0.150
687.000 0.149
688.000 0.151
689.000 0.152
690.000 0.152
691.000 0.155
692.000 0.158
693.000 0.161
694.000 0.164
695.000 0.168
696.000 0.174
697.000 0.179
698.000 0.185
699.000 0.192
700.000 0.198
701.000 0.204
702.000 0.211
703.000 0.218
704.000 0.225
705.000 0.231
706.000 0.236
707.000 0.243
708.000 0.249
709.000 0.255
710.000 0.261
711.000 0.266
712.000 0.272
713.000 0.276
714.000 0.282
715.000 0.287
716.000 0.291
717.000 0.295
718.000 0.300
719.000 0.305
720.000 0.310
721.000 0.315
722.000 0.319
723.000 0.323
724.000 0.327
725.000 0.331
726.000 0.335
727.000 0.338
728.000 0.343
729.000 0.345
730.000 0.349
731.000 0.353
732.000 0.357
733.000 0.361
734.000 0.364
735.000 0.367
736.000 0.369
737.000 0.372
738.000 0.375
739.000 0.377
740.000 0.380
741.000 0.382
742.000 0.384
743.000 0.387
744.000 0.388
745.000 0.390
746.000 0.392
747.000 0.393
748.000 0.395
749.000 0.396
750.000 0.397
751.000 0.398
752.000 0.399
753.000 0.401
754.000 0.401
755.000 0.402
756.000 0.403
757.000 0.404
758.000 0.404
759.000 0.403
760.000 0.401
761.000 0.399
762.000 0.398
763.000 0.399
764.000 0.400
765.000 0.403
766.000 0.405
767.000 0.406
768.000 0.408
769.000 0.409
770.000 0.410
771.000 0.411
772.000 0.411
773.000 0.412
774.000 0.412
775.000 0.412
776.000 0.413
777.000 0.413
778.000 0.414
779.000 0.414
780.000 0.414
781.000 0.414
782.000 0.415
783.000 0.415
784.000 0.415
785.000 0.415
786.000 0.415
787.000 0.415
788.000 0.415
789.000 0.415
790.000 0.414
791.000 0.415
792.000 0.416
793.000 0.416
794.000 0.417
795.000 0.417
796.000 0.417
797.000 0.417
798.000 0.417
799.000 0.417
800.000 0.418
801.000 0.418
802.000 0.418
803.000 0.418
804.000 0.419
805.000 0.419
806.000 0.420
807.000 0.420
808.000 0.420
809.000 0.420
810.000 0.420
811.000 0.419
812.000 0.418
813.000 0.418
814.000 0.416
815.000 0.415
816.000 0.415
817.000 0.415
818.000 0.416
819.000 0.417
820.000 0.418
821.000 0.418
822.000 0.419
823.000 0.419
824.000 0.419
825.000 0.420
826.000 0.420
827.000 0.421
828.000 0.421
829.000 0.421
830.000 0.421
831.000 0.422
832.000 0.423
833.000 0.424
834.000 0.424
835.000 0.425
836.000 0.425
837.000 0.426
838.000 0.426
839.000 0.427
840.000 0.427
841.000 0.428
842.000 0.429
843.000 0.429
844.000 0.430
845.000 0.430
846.000 0.430
847.000 0.430
848.000 0.431
849.000 0.431
850.000 0.431
851.000 0.431
852.000 0.432
853.000 0.431
854.000 0.432
855.000 0.432
856.000 0.433
857.000 0.433
858.000 0.433
859.000 0.433
860.000 0.433
861.000 0.434
862.000 0.434
863.000 0.434
864.000 0.435
865.000 0.435
866.000 0.435
867.000 0.435
868.000 0.435
869.000 0.435
870.000 0.436
871.000 0.436
872.000 0.436
873.000 0.436
874.000 0.436
875.000 0.436
876.000 0.436
877.000 0.437
878.000 0.437
879.000 0.437
880.000 0.437
881.000 0.438
882.000 0.438
883.000 0.438
884.000 0.439
885.000 0.438
886.000 0.438
887.000 0.439
888.000 0.438
889.000 0.439
890.000 0.438
891.000 0.438
892.000 0.438
893.000 0.437
894.000 0.436
895.000 0.436
896.000 0.435
897.000 0.434
898.000 0.433
899.000 0.433
900.000 0.433
901.000 0.433
902.000 0.434
903.000 0.434
904.000 0.434
905.000 0.434
906.000 0.434
907.000 0.434
908.000 0.434
909.000 0.434
910.000 0.433
911.000 0.432
912.000 0.432
913.000 0.432
914.000 0.432
915.000 0.433
916.000 0.434
917.000 0.434
918.000 0.434
919.000 0.435
920.000 0.436
921.000 0.437
922.000 0.438
923.000 0.437
924.000 0.437
925.000 0.436
926.000 0.435
927.000 0.434
928.000 0.431
929.000 0.430
930.000 0.429
931.000 0.426
932.000 0.424
933.000 0.420
934.000 0.417
935.000 0.415
936.000 0.416
937.000 0.417
938.000 0.416
939.000 0.415
940.000 0.418
941.000 0.418
942.000 0.417
943.000 0.417
944.000 0.417
945.000 0.417
946.000 0.419
947.000 0.420
948.000 0.419
949.000 0.419
950.000 0.419
951.000 0.421
952.000 0.421
953.000 0.420
954.000 0.420
955.000 0.421
956.000 0.422
957.000 0.421
958.000 0.421
959.000 0.425
960.000 0.428
961.000 0.428
962.000 0.428
963.000 0.430
964.000 0.432
965.000 0.430
966.000 0.431
967.000 0.434
968.000 0.436
969.000 0.436
970.000 0.435
971.000 0.435
972.000 0.438
973.000 0.439
974.000 0.440
975.000 0.439
976.000 0.438
977.000 0.439
978.000 0.440
979.000 0.439
980.000 0.440
981.000 0.443
982.000 0.445
983.000 0.445
984.000 0.443
985.000 0.444
986.000 0.447
987.000 0.448
988.000 0.446
989.000 0.447
990.000 0.449
991.000 0.451
992.000 0.452
993.000 0.449
994.000 0.450
995.000 0.452
996.000 0.451
997.000 0.452
998.000 0.452
999.000 0.452
1000.000 0.453
1001.000 0.456
1002.000 0.456
1003.000 0.457
1004.000 0.456
1005.000 0.457
1006.000 0.457
1007.000 0.458
1008.000 0.459
1009.000 0.459
1010.000 0.459
1011.000 0.458
1012.000 0.459
1013.000 0.459
1014.000 0.459
1015.000 0.460
1016.000 0.462
1017.000 0.462
1018.000 0.462
1019.000 0.463
1020.000 0.463
1021.000 0.463
1022.000 0.462
1023.000 0.461
1024.000 0.462
1025.000 0.462
1026.000 0.462
1027.000 0.463
1028.000 0.464
1029.000 0.465
1030.000 0.466
1031.000 0.466
1032.000 0.466
1033.000 0.466
1034.000 0.467
1035.000 0.467
1036.000 0.467
1037.000 0.467
1038.000 0.467
1039.000 0.467
1040.000 0.467
1041.000 0.467
1042.000 0.467
1043.000 0.467
1044.000 0.466
1045.000 0.467
1046.000 0.468
1047.000 0.468
1048.000 0.469
1049.000 0.469
1050.000 0.469
1051.000 0.470
1052.000 0.471
1053.000 0.470
1054.000 0.470
1055.000 0.470
1056.000 0.470
1057.000 0.471
1058.000 0.471
1059.000 0.471
1060.000 0.471
1061.000 0.471
1062.000 0.471
1063.000 0.472
1064.000 0.472
1065.000 0.472
1066.000 0.472
1067.000 0.472
1068.000 0.472
1069.000 0.472
1070.000 0.472
1071.000 0.473
1072.000 0.473
1073.000 0.473
1074.000 0.474
1075.000 0.473
1076.000 0.473
1077.000 0.473
1078.000 0.473
1079.000 0.473
1080.000 0.473
1081.000 0.473
1082.000 0.474
1083.000 0.474
1084.000 0.474
1085.000 0.474
1086.000 0.474
1087.000 0.474
1088.000 0.474
1089.000 0.474
1090.000 0.474
1091.000 0.474
1092.000 0.474
1093.000 0.473
1094.000 0.473
1095.000 0.472
1096.000 0.471
1097.000 0.471
1098.000 0.471
1099.000 0.471
1100.000 0.470
1101.000 0.470
1102.000 0.469
1103.000 0.469
1104.000 0.468
1105.000 0.468
1106.000 0.467
1107.000 0.467
1108.000 0.466
1109.000 0.465
1110.000 0.464
1111.000 0.463
1112.000 0.462
1113.000 0.461
1114.000 0.460
1115.000 0.458
1116.000 0.456
1117.000 0.454
1118.000 0.451
1119.000 0.448
1120.000 0.444
1121.000 0.444
1122.000 0.440
1123.000 0.437
1124.000 0.438
1125.000 0.438
1126.000 0.440
1127.000 0.442
1128.000 0.445
1129.000 0.446
1130.000 0.447
1131.000 0.446
1132.000 0.446
1133.000 0.447
1134.000 0.446
1135.000 0.448
1136.000 0.449
1137.000 0.449
1138.000 0.449
1139.000 0.449
1140.000 0.447
1141.000 0.444
1142.000 0.443
1143.000 0.442
1144.000 0.442
1145.000 0.443
1146.000 0.444
1147.000 0.444
1148.000 0.445
1149.000 0.445
1150.000 0.445
1151.000 0.445
1152.000 0.445
1153.000 0.446
1154.000 0.448
1155.000 0.449
1156.000 0.451
1157.000 0.452
1158.000 0.452
1159.000 0.453
1160.000 0.454
1161.000 0.456
1162.000 0.458
1163.000 0.459
1164.000 0.460
1165.000 0.461
1166.000 0.462
1167.000 0.462
1168.000 0.462
1169.000 0.463
1170.000 0.462
1171.000 0.462
1172.000 0.464
1173.000 0.464
1174.000 0.465
1175.000 0.466
1176.000 0.466
1177.000 0.467
1178.000 0.467
1179.000 0.467
1180.000 0.466
1181.000 0.466
1182.000 0.466
1183.000 0.466
1184.000 0.466
1185.000 0.466
1186.000 0.467
1187.000 0.467
1188.000 0.468
1189.000 0.468
1190.000 0.468
1191.000 0.468
1192.000 0.468
1193.000 0.469
1194.000 0.468
1195.000 0.469
1196.000 0.469
1197.000 0.470
1198.000 0.470
1199.000 0.470
1200.000 0.471
1201.000 0.471
1202.000 0.472
1203.000 0.472
1204.000 0.472
1205.000 0.472
1206.000 0.472
1207.000 0.472
1208.000 0.472
1209.000 0.473
1210.000 0.474
1211.000 0.474
1212.000 0.475
1213.000 0.475
1214.000 0.475
1215.000 0.476
1216.000 0.476
1217.000 0.477
1218.000 0.477
1219.000 0.477
1220.000 0.478
1221.000 0.478
1222.000 0.478
1223.000 0.479
1224.000 0.480
1225.000 0.481
1226.000 0.481
1227.000 0.482
1228.000 0.483
1229.000 0.483
1230.000 0.483
1231.000 0.483
1232.000 0.483
1233.000 0.484
1234.000 0.484
1235.000 0.484
1236.000 0.485
1237.000 0.485
1238.000 0.486
1239.000 0.487
1240.000 0.487
1241.000 0.487
1242.000 0.488
1243.000 0.488
1244.000 0.488
1245.000 0.488
1246.000 0.488
1247.000 0.488
1248.000 0.489
1249.000 0.489
1250.000 0.490
1251.000 0.491
1252.000 0.491
1253.000 0.492
1254.000 0.491
1255.000 0.491
1256.000 0.492
1257.000 0.491
1258.000 0.491
1259.000 0.491
1260.000 0.491
1261.000 0.492
1262.000 0.492
1263.000 0.491
1264.000 0.491
1265.000 0.491
1266.000 0.491
1267.000 0.491
1268.000 0.491
1269.000 0.491
1270.000 0.491
1271.000 0.492
1272.000 0.493
1273.000 0.492
1274.000 0.493
1275.000 0.494
1276.000 0.494
1277.000 0.495
1278.000 0.495
1279.000 0.496
1280.000 0.496
1281.000 0.496
1282.000 0.496
1283.000 0.496
1284.000 0.495
1285.000 0.495
1286.000 0.495
1287.000 0.495
1288.000 0.494
1289.000 0.494
1290.000 0.494
1291.000 0.494
1292.000 0.495
1293.000 0.495
1294.000 0.495
1295.000 0.495
1296.000 0.494
1297.000 0.494
1298.000 0.493
1299.000 0.493
1300.000 0.493
1301.000 0.492
1302.000 0.492
1303.000 0.491
1304.000 0.491
1305.000 0.490
1306.000 0.489
1307.000 0.488
1308.000 0.487
1309.000 0.487
1310.000 0.486
1311.000 0.485
1312.000 0.484
1313.000 0.482
1314.000 0.481
1315.000 0.480
1316.000 0.479
1317.000 0.479
1318.000 0.479
1319.000 0.478
1320.000 0.478
1321.000 0.477
1322.000 0.476
1323.000 0.475
1324.000 0.473
1325.000 0.472
1326.000 0.469
1327.000 0.468
1328.000 0.465
1329.000 0.464
1330.000 0.463
1331.000 0.462
1332.000 0.462
1333.000 0.461
1334.000 0.459
1335.000 0.457
1336.000 0.454
1337.000 0.453
1338.000 0.452
1339.000 0.451
1340.000 0.451
1341.000 0.450
1342.000 0.448
1343.000 0.447
1344.000 0.442
1345.000 0.439
1346.000 0.437
1347.000 0.434
1348.000 0.433
1349.000 0.438
1350.000 0.438
1351.000 0.435
1352.000 0.431
1353.000 0.424
1354.000 0.405
1355.000 0.378
1356.000 0.342
1357.000 0.293
1358.000 0.233
1359.000 0.231
1360.000 0.249
1361.000 0.266
1362.000 0.289
1363.000 0.236
1364.000 0.260
1365.000 0.303
1366.000 0.370
1367.000 0.428
1368.000 0.447
1369.000 0.467
1370.000 0.415
1371.000 0.210
1372.000 0.249
1373.000 0.315
1374.000 0.373
1375.000 0.414
1376.000 0.401
1377.000 0.343
1378.000 0.285
1379.000 0.206
1380.000 0.409
1381.000 0.423
1382.000 0.353
1383.000 0.394
1384.000 0.666
1385.000 0.596
1386.000 0.466
1387.000 0.772
1388.000 0.393
1389.000 0.374
1390.000 0.335
1391.000 0.387
1392.000 0.469
1393.000 0.375
1394.000 0.273
1395.000 0.368
1396.000 0.382
1397.000 0.402
1398.000 0.405
1399.000 0.415
1400.000 0.556
1401.000 0.560
1402.000 0.558
1403.000 0.539
1404.000 0.526
1405.000 0.516
1406.000 0.325
1407.000 0.297
1408.000 0.239
1409.000 0.263
1410.000 0.344
1411.000 0.302
1412.000 0.238
1413.000 0.421
1414.000 0.461
1415.000 0.432
1416.000 0.401
1417.000 0.258
1418.000 0.280
1419.000 0.279
1420.000 0.350
1421.000 0.327
1422.000 0.303
1423.000 0.265
1424.000 0.250
1425.000 0.218
1426.000 0.230
1427.000 0.320
1428.000 0.336
1429.000 0.418
1430.000 0.410
1431.000 0.351
1432.000 0.295
1433.000 0.268
1434.000 0.250
1435.000 0.233
1436.000 0.253
1437.000 0.238
1438.000 0.218
1439.000 0.210
1440.000 0.194
1441.000 0.173
1442.000 0.177
1443.000 0.202
1444.000 0.206
1445.000 0.203
1446.000 0.206
1447.000 0.197
1448.000 0.197
1449.000 0.209
1450.000 0.216
1451.000 0.206
1452.000 0.218
1453.000 0.218
1454.000 0.208
1455.000 0.212
1456.000 0.222
1457.000 0.228
1458.000 0.233
1459.000 0.234
1460.000 0.232
1461.000 0.229
1462.000 0.221
1463.000 0.219
1464.000 0.229
1465.000 0.230
1466.000 0.235
1467.000 0.230
1468.000 0.213
1469.000 0.209
1470.000 0.208
1471.000 0.206
1472.000 0.203
1473.000 0.203
1474.000 0.194
1475.000 0.195
1476.000 0.198
1477.000 0.203
1478.000 0.214
1479.000 0.221
1480.000 0.228
1481.000 0.232
1482.000 0.230
1483.000 0.232
1484.000 0.227
1485.000 0.232
1486.000 0.246
1487.000 0.253
1488.000 0.263
1489.000 0.268
1490.000 0.266
1491.000 0.266
1492.000 0.263
1493.000 0.264
1494.000 0.269
1495.000 0.272
1496.000 0.278
1497.000 0.282
1498.000 0.282
1499.000 0.282
1500.000 0.283
1501.000 0.283
1502.000 0.284
1503.000 0.286
1504.000 0.289
1505.000 0.291
1506.000 0.294
1507.000 0.297
1508.000 0.298
1509.000 0.297
1510.000 0.298
1511.000 0.302
1512.000 0.302
1513.000 0.303
1514.000 0.304
1515.000 0.301
1516.000 0.302
1517.000 0.304
1518.000 0.306
1519.000 0.308
1520.000 0.310
1521.000 0.311
1522.000 0.312
1523.000 0.312
1524.000 0.313
1525.000 0.315
1526.000 0.316
1527.000 0.319
1528.000 0.320
1529.000 0.321
1530.000 0.323
1531.000 0.325
1532.000 0.328
1533.000 0.331
1534.000 0.333
1535.000 0.334
1536.000 0.335
1537.000 0.335
1538.000 0.335
1539.000 0.334
1540.000 0.334
1541.000 0.337
1542.000 0.339
1543.000 0.341
1544.000 0.343
1545.000 0.343
1546.000 0.344
1547.000 0.345
1548.000 0.346
1549.000 0.349
1550.000 0.350
1551.000 0.352
1552.000 0.353
1553.000 0.352
1554.000 0.353
1555.000 0.353
1556.000 0.353
1557.000 0.353
1558.000 0.354
1559.000 0.355
1560.000 0.357
1561.000 0.360
1562.000 0.363
1563.000 0.365
1564.000 0.366
1565.000 0.367
1566.000 0.367
1567.000 0.366
1568.000 0.366
1569.000 0.367
1570.000 0.367
1571.000 0.367
1572.000 0.368
1573.000 0.369
1574.000 0.370
1575.000 0.371
1576.000 0.372
1577.000 0.373
1578.000 0.374
1579.000 0.375
1580.000 0.377
1581.000 0.378
1582.000 0.379
1583.000 0.381
1584.000 0.382
1585.000 0.383
1586.000 0.384
1587.000 0.387
1588.000 0.388
1589.000 0.388
1590.000 0.389
1591.000 0.387
1592.000 0.387
1593.000 0.388
1594.000 0.389
1595.000 0.391
1596.000 0.392
1597.000 0.392
1598.000 0.392
1599.000 0.392
1600.000 0.393
1601.000 0.394
1602.000 0.394
1603.000 0.393
1604.000 0.394
1605.000 0.396
1606.000 0.397
1607.000 0.400
1608.000 0.401
1609.000 0.402
1610.000 0.402
1611.000 0.401
1612.000 0.402
1613.000 0.402
1614.000 0.403
1615.000 0.403
1616.000 0.403
1617.000 0.401
1618.000 0.399
1619.000 0.399
1620.000 0.399
1621.000 0.401
1622.000 0.402
1623.000 0.405
1624.000 0.406
1625.000 0.406
1626.000 0.406
1627.000 0.405
1628.000 0.405
1629.000 0.406
1630.000 0.407
1631.000 0.408
1632.000 0.409
1633.000 0.410
1634.000 0.410
1635.000 0.410
1636.000 0.410
1637.000 0.409
1638.000 0.409
1639.000 0.408
1640.000 0.408
1641.000 0.410
1642.000 0.411
1643.000 0.412
1644.000 0.413
1645.000 0.415
1646.000 0.416
1647.000 0.416
1648.000 0.416
1649.000 0.415
1650.000 0.414
1651.000 0.416
1652.000 0.416
1653.000 0.417
1654.000 0.418
1655.000 0.419
1656.000 0.419
1657.000 0.418
1658.000 0.418
1659.000 0.416
1660.000 0.416
1661.000 0.418
1662.000 0.418
1663.000 0.419
1664.000 0.420
1665.000 0.419
1666.000 0.418
1667.000 0.418
1668.000 0.419
1669.000 0.421
1670.000 0.422
1671.000 0.422
1672.000 0.422
1673.000 0.420
1674.000 0.420
1675.000 0.421
1676.000 0.422
1677.000 0.424
1678.000 0.425
1679.000 0.425
1680.000 0.424
1681.000 0.423
1682.000 0.423
1683.000 0.424
1684.000 0.424
1685.000 0.424
1686.000 0.423
1687.000 0.421
1688.000 0.421
1689.000 0.420
1690.000 0.420
1691.000 0.420
1692.000 0.421
1693.000 0.424
1694.000 0.424
1695.000 0.423
1696.000 0.422
1697.000 0.420
1698.000 0.419
1699.000 0.418
1700.000 0.417
1701.000 0.416
1702.000 0.416
1703.000 0.416
1704.000 0.416
1705.000 0.416
1706.000 0.416
1707.000 0.417
1708.000 0.417
1709.000 0.417
1710.000 0.418
1711.000 0.418
1712.000 0.419
1713.000 0.418
1714.000 0.414
1715.000 0.412
1716.000 0.411
1717.000 0.412
1718.000 0.413
1719.000 0.413
1720.000 0.411
1721.000 0.409
1722.000 0.409
1723.000 0.410
1724.000 0.411
1725.000 0.411
1726.000 0.408
1727.000 0.407
1728.000 0.407
1729.000 0.407
1730.000 0.405
1731.000 0.403
1732.000 0.399
1733.000 0.398
1734.000 0.401
1735.000 0.401
1736.000 0.400
1737.000 0.400
1738.000 0.398
1739.000 0.397
1740.000 0.397
1741.000 0.397
1742.000 0.398
1743.000 0.399
1744.000 0.399
1745.000 0.399
1746.000 0.396
1747.000 0.395
1748.000 0.394
1749.000 0.391
1750.000 0.390
1751.000 0.387
1752.000 0.382
1753.000 0.379
1754.000 0.376
1755.000 0.375
1756.000 0.378
1757.000 0.378
1758.000 0.376
1759.000 0.376
1760.000 0.374
1761.000 0.375
1762.000 0.380
1763.000 0.383
1764.000 0.385
1765.000 0.382
1766.000 0.379
1767.000 0.375
1768.000 0.370
1769.000 0.371
1770.000 0.373
1771.000 0.376
1772.000 0.383
1773.000 0.386
1774.000 0.385
1775.000 0.383
1776.000 0.383
1777.000 0.376
1778.000 0.367
1779.000 0.359
1780.000 0.349
1781.000 0.342
1782.000 0.344
1783.000 0.341
1784.000 0.338
1785.000 0.332
1786.000 0.330
1787.000 0.337
1788.000 0.342
1789.000 0.349
1790.000 0.354
1791.000 0.345
1792.000 0.342
1793.000 0.337
1794.000 0.328
1795.000 0.345
1796.000 0.343
1797.000 0.328
1798.000 0.333
1799.000 0.321
1800.000 0.303
1801.000 0.371
1802.000 0.381
1803.000 0.381
1804.000 0.419
1805.000 0.412
1806.000 0.437
1807.000 0.481
1808.000 0.572
1809.000 0.604
1810.000 0.617
1811.000 0.599
1812.000 0.503
1813.000 0.477
1814.000 0.474
1815.000 0.524
1816.000 0.618
1817.000 0.510
1818.000 0.505
1819.000 0.565
1820.000 0.465
1821.000 0.433
1822.000 0.470
1823.000 0.543
1824.000 0.596
1825.000 0.581
1826.000 0.506
1827.000 0.473
1828.000 0.629
1829.000 0.591
1830.000 0.573
1831.000 0.460
1832.000 0.509
1833.000 0.550
1834.000 0.420
1835.000 0.494
1836.000 0.650
1837.000 0.557
1838.000 0.466
1839.000 0.402
1840.000 0.390
1841.000 0.399
1842.000 0.441
1843.000 0.384
1844.000 0.349
1845.000 0.455
1846.000 0.481
1847.000 0.526
1848.000 0.561
1849.000 0.578
1850.000 0.444
1851.000 0.369
1852.000 0.459
1853.000 0.543
1854.000 0.430
1855.000 0.417
1856.000 0.409
1857.000 0.318
1858.000 0.351
1859.000 0.336
1860.000 0.540
1861.000 0.509
1862.000 0.590
1863.000 0.688
1864.000 0.772
1865.000 0.662
1866.000 0.598
1867.000 0.511
1868.000 0.544
1869.000 0.540
1870.000 0.515
1871.000 0.361
1872.000 0.339
1873.000 0.433
1874.000 0.475
1875.000 0.605
1876.000 0.479
1877.000 0.326
1878.000 0.489
1879.000 0.512
1880.000 0.663
1881.000 0.749
1882.000 0.741
1883.000 0.674
1884.000 0.546
1885.000 0.708
1886.000 0.404
1887.000 0.667
1888.000 0.623
1889.000 0.378
1890.000 0.383
1891.000 0.375
1892.000 0.539
1893.000 0.684
1894.000 0.424
1895.000 0.383
1896.000 0.299
1897.000 0.289
1898.000 0.370
1899.000 0.490
1900.000 0.650
1901.000 0.318
1902.000 0.249
1903.000 0.223
1904.000 0.236
1905.000 0.221
1906.000 0.315
1907.000 0.376
1908.000 0.482
1909.000 0.473
1910.000 0.575
1911.000 0.445
1912.000 0.387
1913.000 0.417
1914.000 0.512
1915.000 0.384
1916.000 0.420
1917.000 0.475
1918.000 0.503
1919.000 0.726
1920.000 0.644
1921.000 0.606
1922.000 0.465
1923.000 0.439
1924.000 0.407
1925.000 0.429
1926.000 0.441
1927.000 0.505
1928.000 0.669
1929.000 0.620
1930.000 0.583
1931.000 0.565
1932.000 0.722
1933.000 0.709
1934.000 0.602
1935.000 0.658
1936.000 0.673
1937.000 0.546
1938.000 0.535
1939.000 0.492
1940.000 0.531
1941.000 0.424
1942.000 0.362
1943.000 0.519
1944.000 0.561
1945.000 0.550
1946.000 0.408
1947.000 0.379
1948.000 0.402
1949.000 0.459
1950.000 0.513
1951.000 0.480
1952.000 0.441
1953.000 0.344
1954.000 0.559
1955.000 0.291
1956.000 0.337
1957.000 0.401
1958.000 0.378
1959.000 0.475
1960.000 0.325
1961.000 0.308
1962.000 0.368
1963.000 0.398
1964.000 0.373
1965.000 0.326
1966.000 0.340
1967.000 0.353
1968.000 0.320
1969.000 0.280
1970.000 0.233
1971.000 0.202
1972.000 0.195
1973.000 0.184
1974.000 0.216
1975.000 0.214
1976.000 0.178
1977.000 0.177
1978.000 0.181
1979.000 0.190
1980.000 0.222
1981.000 0.241
1982.000 0.262
1983.000 0.263
1984.000 0.241
1985.000 0.248
1986.000 0.238
1987.000 0.216
1988.000 0.216
1989.000 0.230
1990.000 0.228
1991.000 0.222
1992.000 0.233
1993.000 0.223
1994.000 0.203
1995.000 0.195
1996.000 0.198
1997.000 0.218
1998.000 0.247
1999.000 0.256
2000.000 0.273
2001.000 0.287
2002.000 0.272
2003.000 0.278
2004.000 0.348
2005.000 0.365
2006.000 0.335
2007.000 0.320
2008.000 0.274
2009.000 0.257
2010.000 0.243
2011.000 0.247
2012.000 0.276
2013.000 0.280
2014.000 0.293
2015.000 0.317
2016.000 0.311
2017.000 0.274
2018.000 0.250
2019.000 0.241
2020.000 0.256
2021.000 0.253
2022.000 0.207
2023.000 0.193
2024.000 0.177
2025.000 0.170
2026.000 0.171
2027.000 0.176
2028.000 0.201
2029.000 0.210
2030.000 0.212
2031.000 0.223
2032.000 0.236
2033.000 0.241
2034.000 0.242
2035.000 0.259
2036.000 0.246
2037.000 0.240
2038.000 0.247
2039.000 0.235
2040.000 0.234
2041.000 0.241
2042.000 0.240
2043.000 0.233
2044.000 0.232
2045.000 0.233
2046.000 0.227
2047.000 0.218
2048.000 0.211
2049.000 0.194
2050.000 0.195
2051.000 0.208
2052.000 0.211
2053.000 0.225
2054.000 0.226
2055.000 0.226
2056.000 0.236
2057.000 0.234
2058.000 0.229
2059.000 0.227
2060.000 0.213
2061.000 0.212
2062.000 0.221
2063.000 0.229
2064.000 0.248
2065.000 0.262
2066.000 0.282
2067.000 0.292
2068.000 0.280
2069.000 0.275
2070.000 0.270
2071.000 0.254
2072.000 0.243
2073.000 0.237
2074.000 0.229
2075.000 0.217
2076.000 0.216
2077.000 0.218
2078.000 0.222
2079.000 0.234
2080.000 0.239
2081.000 0.236
2082.000 0.244
2083.000 0.247
2084.000 0.238
2085.000 0.239
2086.000 0.238
2087.000 0.237
2088.000 0.241
2089.000 0.241
2090.000 0.235
2091.000 0.237
2092.000 0.239
2093.000 0.245
2094.000 0.264
2095.000 0.271
2096.000 0.274
2097.000 0.275
2098.000 0.271
2099.000 0.263
2100.000 0.255
2101.000 0.246
2102.000 0.244
2103.000 0.244
2104.000 0.245
2105.000 0.255
2106.000 0.255
2107.000 0.249
2108.000 0.249
2109.000 0.246
2110.000 0.253
2111.000 0.277
2112.000 0.289
2113.000 0.305
2114.000 0.314
2115.000 0.314
2116.000 0.309
2117.000 0.296
2118.000 0.285
2119.000 0.276
2120.000 0.274
2121.000 0.281
2122.000 0.292
2123.000 0.294
2124.000 0.289
2125.000 0.290
2126.000 0.289
2127.000 0.288
2128.000 0.288
2129.000 0.290
2130.000 0.289
2131.000 0.289
2132.000 0.300
2133.000 0.300
2134.000 0.290
2135.000 0.286
2136.000 0.278
2137.000 0.268
2138.000 0.273
2139.000 0.280
2140.000 0.281
2141.000 0.288
2142.000 0.294
2143.000 0.298
2144.000 0.302
2145.000 0.314
2146.000 0.315
2147.000 0.311
2148.000 0.305
2149.000 0.288
2150.000 0.283
2151.000 0.276
2152.000 0.276
2153.000 0.287
2154.000 0.294
2155.000 0.303
2156.000 0.313
2157.000 0.313
2158.000 0.310
2159.000 0.300
2160.000 0.286
2161.000 0.280
2162.000 0.273
2163.000 0.275
2164.000 0.286
2165.000 0.289
2166.000 0.295
2167.000 0.300
2168.000 0.303
2169.000 0.306
2170.000 0.312
2171.000 0.312
2172.000 0.304
2173.000 0.302
2174.000 0.306
2175.000 0.302
2176.000 0.299
2177.000 0.287
2178.000 0.276
2179.000 0.273
2180.000 0.264
2181.000 0.263
2182.000 0.265
2183.000 0.262
2184.000 0.266
2185.000 0.283
2186.000 0.290
2187.000 0.297
2188.000 0.299
2189.000 0.300
2190.000 0.293
2191.000 0.276
2192.000 0.266
2193.000 0.250
2194.000 0.247
2195.000 0.254
2196.000 0.261
2197.000 0.276
2198.000 0.287
2199.000 0.300
2200.000 0.306
2201.000 0.309
2202.000 0.315
2203.000 0.311
2204.000 0.313
2205.000 0.324
2206.000 0.327
2207.000 0.326
2208.000 0.318
2209.000 0.305
2210.000 0.279
2211.000 0.274
2212.000 0.273
2213.000 0.273
2214.000 0.284
2215.000 0.288
2216.000 0.285
2217.000 0.290
2218.000 0.307
2219.000 0.311
2220.000 0.314
2221.000 0.313
2222.000 0.298
2223.000 0.290
2224.000 0.285
2225.000 0.283
2226.000 0.286
2227.000 0.289
2228.000 0.288
2229.000 0.291
2230.000 0.299
2231.000 0.300
2232.000 0.293
2233.000 0.284
2234.000 0.268
2235.000 0.257
2236.000 0.254
2237.000 0.259
2238.000 0.267
2239.000 0.286
2240.000 0.289
2241.000 0.285
2242.000 0.287
2243.000 0.282
2244.000 0.280
2245.000 0.285
2246.000 0.284
2247.000 0.270
2248.000 0.266
2249.000 0.269
2250.000 0.267
2251.000 0.264
2252.000 0.263
2253.000 0.260
2254.000 0.259
2255.000 0.259
2256.000 0.264
2257.000 0.274
2258.000 0.283
2259.000 0.297
2260.000 0.292
2261.000 0.281
2262.000 0.270
2263.000 0.253
2264.000 0.240
2265.000 0.232
2266.000 0.222
2267.000 0.225
2268.000 0.239
2269.000 0.254
2270.000 0.271
2271.000 0.286
2272.000 0.284
2273.000 0.288
2274.000 0.293
2275.000 0.295
2276.000 0.297
2277.000 0.291
2278.000 0.273
2279.000 0.263
2280.000 0.249
2281.000 0.244
2282.000 0.251
2283.000 0.246
2284.000 0.233
2285.000 0.230
2286.000 0.229
2287.000 0.228
2288.000 0.237
2289.000 0.244
2290.000 0.249
2291.000 0.252
2292.000 0.251
2293.000 0.252
2294.000 0.261
2295.000 0.262
2296.000 0.250
2297.000 0.259
2298.000 0.287
2299.000 0.277
2300.000 0.289
2301.000 0.299
2302.000 0.290
2303.000 0.279
2304.000 0.278
2305.000 0.287
2306.000 0.281
2307.000 0.283
2308.000 0.288
2309.000 0.283
2310.000 0.273
2311.000 0.258
2312.000 0.223
2313.000 0.211
2314.000 0.205
2315.000 0.191
2316.000 0.189
2317.000 0.183
2318.000 0.191
2319.000 0.184
2320.000 0.210
2321.000 0.225
2322.000 0.229
2323.000 0.227
2324.000 0.201
2325.000 0.193
2326.000 0.188
2327.000 0.175
2328.000 0.182
2329.000 0.208
2330.000 0.212
2331.000 0.208
2332.000 0.214
2333.000 0.247
2334.000 0.251
2335.000 0.289
2336.000 0.295
2337.000 0.240
2338.000 0.214
2339.000 0.185
2340.000 0.204
2341.000 0.237
2342.000 0.294
2343.000 0.360
2344.000 0.376
2345.000 0.232
2346.000 0.316
2347.000 0.315
2348.000 0.270
2349.000 0.330
2350.000 0.349
2351.000 0.305
2352.000 0.299
2353.000 0.230
2354.000 0.210
2355.000 0.204
2356.000 0.191
2357.000 0.196
2358.000 0.183
2359.000 0.132
2360.000 0.135
2361.000 0.119
2362.000 0.095
2363.000 0.102
2364.000 0.166
2365.000 0.287
2366.000 0.348
2367.000 0.146
2368.000 0.261
2369.000 0.233
2370.000 0.248
2371.000 0.256
2372.000 0.243
2373.000 0.379
2374.000 0.384
2375.000 0.308
2376.000 0.275
2377.000 0.274
2378.000 0.188
2379.000 0.214
2380.000 0.252
2381.000 0.380
2382.000 0.489
2383.000 0.223
2384.000 0.250
2385.000 0.196
2386.000 0.188
2387.000 0.317
2388.000 0.381
2389.000 0.453
2390.000 0.236
2391.000 0.300
2392.000 0.364
2393.000 0.266
2394.000 0.237
2395.000 0.271
2396.000 0.158
2397.000 0.204
2398.000 0.211
2399.000 0.205
2400.000 0.342
2401.000 0.381
2402.000 0.335
2403.000 0.564
2404.000 0.339
2405.000 0.236
2406.000 0.170
2407.000 0.219
2408.000 0.325
2409.000 0.435
2410.000 0.438
2411.000 0.393
2412.000 0.360
2413.000 0.397
2414.000 0.479
2415.000 0.110
2416.000 0.178
2417.000 0.198
2418.000 0.460
2419.000 0.321
2420.000 0.388
2421.000 0.579
2422.000 0.576
2423.000 0.596
2424.000 0.443
2425.000 0.316
2426.000 0.235
2427.000 0.263
2428.000 0.380
2429.000 0.411
2430.000 0.390
2431.000 0.331
2432.000 0.340
2433.000 0.340
2434.000 0.190
2435.000 0.227
2436.000 0.370
2437.000 0.378
2438.000 0.335
2439.000 0.277
2440.000 0.251
2441.000 0.291
2442.000 0.318
2443.000 0.311
2444.000 0.168
2445.000 0.173
2446.000 0.205
2447.000 0.193
2448.000 0.173
2449.000 0.290
2450.000 0.239
2451.000 0.194
2452.000 0.194
2453.000 0.178
2454.000 0.278
2455.000 0.461
2456.000 0.331
2457.000 0.306
2458.000 0.442
2459.000 0.352
2460.000 0.339
2461.000 0.112
2462.000 0.155
2463.000 0.246
2464.000 0.465
2465.000 0.221
2466.000 0.543
2467.000 0.463
2468.000 0.267
2469.000 0.171
2470.000 0.208
2471.000 0.328
2472.000 0.481
2473.000 0.517
2474.000 0.276
2475.000 0.142
2476.000 0.347
2477.000 0.458
2478.000 0.395
2479.000 0.373
2480.000 0.214
2481.000 0.283
2482.000 0.263
2483.000 0.351
2484.000 0.240
2485.000 0.619
2486.000 0.531
2487.000 0.169
2488.000 0.271
2489.000 0.378
2490.000 0.500
2491.000 0.569
2492.000 0.295
2493.000 0.471
2494.000 0.408
2495.000 0.250
2496.000 0.395
2497.000 0.410
2498.000 0.357
2499.000 0.377
2500.000 0.505
