391.000 0.036
392.000 0.040
393.000 0.042
394.000 0.043
395.000 0.045
396.000 0.041
397.000 0.035
398.000 0.041
399.000 0.041
400.000 0.041
401.000 0.044
402.000 0.041
403.000 0.040
404.000 0.043
405.000 0.045
406.000 0.044
407.000 0.042
408.000 0.042
409.000 0.043
410.000 0.042
411.000 0.044
412.000 0.049
413.000 0.047
414.000 0.046
415.000 0.046
416.000 0.044
417.000 0.041
418.000 0.042
419.000 0.045
420.000 0.049
421.000 0.048
422.000 0.049
423.000 0.051
424.000 0.045
425.000 0.046
426.000 0.048
427.000 0.047
428.000 0.044
429.000 0.046
430.000 0.050
431.000 0.051
432.000 0.049
433.000 0.048
434.000 0.051
435.000 0.048
436.000 0.047
437.000 0.047
438.000 0.048
439.000 0.048
440.000 0.048
441.000 0.049
442.000 0.050
443.000 0.050
444.000 0.050
445.000 0.049
446.000 0.048
447.000 0.049
448.000 0.050
449.000 0.050
450.000 0.050
451.000 0.052
452.000 0.055
453.000 0.054
454.000 0.051
455.000 0.051
456.000 0.053
457.000 0.053
458.000 0.053
459.000 0.054
460.000 0.055
461.000 0.051
462.000 0.051
463.000 0.053
464.000 0.053
465.000 0.054
466.000 0.055
467.000 0.054
468.000 0.055
469.000 0.056
470.000 0.056
471.000 0.056
472.000 0.055
473.000 0.056
474.000 0.057
475.000 0.056
476.000 0.056
477.000 0.057
478.000 0.058
479.000 0.056
480.000 0.055
481.000 0.056
482.000 0.056
483.000 0.057
484.000 0.059
485.000 0.059
486.000 0.057
487.000 0.058
488.000 0.060
489.000 0.060
490.000 0.060
491.000 0.059
492.000 0.059
493.000 0.059
494.000 0.061
495.000 0.062
496.000 0.060
497.000 0.059
498.000 0.059
499.000 0.060
500.000 0.062
501.000 0.064
502.000 0.063
503.000 0.062
504.000 0.064
505.000 0.064
506.000 0.064
507.000 0.066
508.000 0.067
509.000 0.066
510.000 0.065
511.000 0.067
512.000 0.067
513.000 0.068
514.000 0.069
515.000 0.070
516.000 0.070
517.000 0.071
518.000 0.073
519.000 0.073
520.000 0.073
521.000 0.076
522.000 0.078
523.000 0.079
524.000 0.080
525.000 0.081
526.000 0.083
527.000 0.084
528.000 0.084
529.000 0.085
530.000 0.086
531.000 0.087
532.000 0.088
533.000 0.089
534.000 0.090
535.000 0.090
536.000 0.091
537.000 0.092
538.000 0.093
539.000 0.093
540.000 0.094
541.000 0.094
542.000 0.095
543.000 0.094
544.000 0.094
545.000 0.094
546.000 0.095
547.000 0.096
548.000 0.096
549.000 0.096
550.000 0.096
551.000 0.097
552.000 0.097
553.000 0.097
554.000 0.098
555.000 0.097
556.000 0.096
557.000 0.096
558.000 0.097
559.000 0.096
560.000 0.096
561.000 0.096
562.000 0.096
563.000 0.096
564.000 0.095
565.000 0.095
566.000 0.094
567.000 0.093
568.000 0.093
569.000 0.093
570.000 0.092
571.000 0.092
572.000 0.092
573.000 0.091
574.000 0.090
575.000 0.090
576.000 0.090
577.000 0.090
578.000 0.090
579.000 0.090
580.000 0.089
581.000 0.089
582.000 0.090
583.000 0.088
584.000 0.088
585.000 0.089
586.000 0.089
587.000 0.090
588.000 0.089
589.000 0.089
590.000 0.089
591.000 0.090
592.000 0.089
593.000 0.088
594.000 0.089
595.000 0.089
596.000 0.090
597.000 0.089
598.000 0.090
599.000 0.090
600.000 0.090
601.000 0.091
602.000 0.090
603.000 0.090
604.000 0.091
605.000 0.092
606.000 0.092
607.000 0.092
608.000 0.091
609.000 0.092
610.000 0.091
611.000 0.091
612.000 0.092
613.000 0.092
614.000 0.092
615.000 0.092
616.000 0.092
617.000 0.092
618.000 0.092
619.000 0.095
620.000 0.095
621.000 0.094
622.000 0.094
623.000 0.095
624.000 0.095
625.000 0.096
626.000 0.097
627.000 0.097
628.000 0.096
629.000 0.095
630.000 0.096
631.000 0.096
632.000 0.096
633.000 0.097
634.000 0.099
635.000 0.098
636.000 0.099
637.000 0.100
638.000 0.099
639.000 0.100
640.000 0.101
641.000 0.101
642.000 0.101
643.000 0.100
644.000 0.100
645.000 0.100
646.000 0.101
647.000 0.102
648.000 0.103
649.000 0.102
650.000 0.103
651.000 0.104
652.000 0.103
653.000 0.105
654.000 0.105
655.000 0.104
656.000 0.104
657.000 0.106
658.000 0.106
659.000 0.106
660.000 0.109
661.000 0.110
662.000 0.108
663.000 0.109
664.000 0.110
665.000 0.111
666.000 0.112
667.000 0.112
668.000 0.113
669.000 0.114
670.000 0.113
671.000 0.115
672.000 0.116
673.000 0.115
674.000 0.118
675.000 0.118
676.000 0.119
677.000 0.121
678.000 0.122
679.000 0.123
680.000 0.122
681.000 0.123
682.000 0.124
683.000 0.124
684.000 0.125
685.000 0.126
686.000 0.126
687.000 0.125
688.000 0.126
689.000 0.126
690.000 0.127
691.000 0.128
692.000 0.128
693.000 0.129
694.000 0.131
695.000 0.133
696.000 0.135
697.000 0.137
698.000 0.139
699.000 0.143
700.000 0.146
701.000 0.149
702.000 0.153
703.000 0.157
704.000 0.161
705.000 0.165
706.000 0.169
707.000 0.173
708.000 0.178
709.000 0.183
710.000 0.188
711.000 0.192
712.000 0.196
713.000 0.201
714.000 0.206
715.000 0.210
716.000 0.215
717.000 0.220
718.000 0.226
719.000 0.231
720.000 0.236
721.000 0.242
722.000 0.246
723.000 0.250
724.000 0.255
725.000 0.261
726.000 0.266
727.000 0.270
728.000 0.275
729.000 0.279
730.000 0.283
731.000 0.289
732.000 0.293
733.000 0.297
734.000 0.300
735.000 0.304
736.000 0.308
737.000 0.312
738.000 0.315
739.000 0.319
740.000 0.321
741.000 0.325
742.000 0.327
743.000 0.330
744.000 0.333
745.000 0.335
746.000 0.338
747.000 0.340
748.000 0.342
749.000 0.344
750.000 0.346
751.000 0.347
752.000 0.349
753.000 0.350
754.000 0.352
755.000 0.354
756.000 0.355
757.000 0.356
758.000 0.358
759.000 0.358
760.000 0.358
761.000 0.358
762.000 0.359
763.000 0.360
764.000 0.361
765.000 0.363
766.000 0.364
767.000 0.365
768.000 0.366
769.000 0.367
770.000 0.368
771.000 0.369
772.000 0.369
773.000 0.370
774.000 0.371
775.000 0.372
776.000 0.372
777.000 0.373
778.000 0.373
779.000 0.374
780.000 0.375
781.000 0.376
782.000 0.376
783.000 0.376
784.000 0.377
785.000 0.378
786.000 0.378
787.000 0.379
788.000 0.379
789.000 0.380
790.000 0.380
791.000 0.381
792.000 0.382
793.000 0.382
794.000 0.383
795.000 0.384
796.000 0.384
797.000 0.384
798.000 0.385
799.000 0.386
800.000 0.386
801.000 0.387
802.000 0.387
803.000 0.388
804.000 0.388
805.000 0.389
806.000 0.390
807.000 0.390
808.000 0.391
809.000 0.391
810.000 0.392
811.000 0.392
812.000 0.392
813.000 0.393
814.000 0.393
815.000 0.394
816.000 0.394
817.000 0.395
818.000 0.395
819.000 0.396
820.000 0.397
821.000 0.397
822.000 0.397
823.000 0.398
824.000 0.399
825.000 0.399
826.000 0.399
827.000 0.400
828.000 0.400
829.000 0.401
830.000 0.401
831.000 0.402
832.000 0.403
833.000 0.403
834.000 0.404
835.000 0.404
836.000 0.405
837.000 0.405
838.000 0.405
839.000 0.406
840.000 0.407
841.000 0.407
842.000 0.408
843.000 0.409
844.000 0.409
845.000 0.410
846.000 0.410
847.000 0.410
848.000 0.411
849.000 0.411
850.000 0.412
851.000 0.412
852.000 0.413
853.000 0.413
854.000 0.413
855.000 0.414
856.000 0.414
857.000 0.415
858.000 0.416
859.000 0.416
860.000 0.416
861.000 0.416
862.000 0.417
863.000 0.417
864.000 0.418
865.000 0.418
866.000 0.419
867.000 0.419
868.000 0.419
869.000 0.420
870.000 0.420
871.000 0.421
872.000 0.421
873.000 0.422
874.000 0.422
875.000 0.422
876.000 0.423
877.000 0.423
878.000 0.423
879.000 0.424
880.000 0.424
881.000 0.425
882.000 0.426
883.000 0.426
884.000 0.426
885.000 0.427
886.000 0.427
887.000 0.427
888.000 0.428
889.000 0.428
890.000 0.429
891.000 0.429
892.000 0.429
893.000 0.430
894.000 0.430
895.000 0.430
896.000 0.430
897.000 0.430
898.000 0.430
899.000 0.431
900.000 0.431
901.000 0.431
902.000 0.432
903.000 0.433
904.000 0.433
905.000 0.433
906.000 0.433
907.000 0.434
908.000 0.434
909.000 0.435
910.000 0.435
911.000 0.435
912.000 0.435
913.000 0.435
914.000 0.435
915.000 0.436
916.000 0.437
917.000 0.437
918.000 0.438
919.000 0.439
920.000 0.438
921.000 0.440
922.000 0.440
923.000 0.439
924.000 0.440
925.000 0.440
926.000 0.440
927.000 0.441
928.000 0.439
929.000 0.439
930.000 0.438
931.000 0.438
932.000 0.436
933.000 0.434
934.000 0.431
935.000 0.430
936.000 0.433
937.000 0.435
938.000 0.434
939.000 0.434
940.000 0.435
941.000 0.436
942.000 0.435
943.000 0.434
944.000 0.433
945.000 0.435
946.000 0.437
947.000 0.437
948.000 0.436
949.000 0.436
950.000 0.437
951.000 0.437
952.000 0.436
953.000 0.435
954.000 0.435
955.000 0.437
956.000 0.437
957.000 0.435
958.000 0.435
959.000 0.438
960.000 0.440
961.000 0.439
962.000 0.439
963.000 0.440
964.000 0.442
965.000 0.440
966.000 0.439
967.000 0.443
968.000 0.443
969.000 0.442
970.000 0.442
971.000 0.442
972.000 0.445
973.000 0.445
974.000 0.446
975.000 0.446
976.000 0.443
977.000 0.444
978.000 0.445
979.000 0.445
980.000 0.444
981.000 0.447
982.000 0.448
983.000 0.448
984.000 0.446
985.000 0.447
986.000 0.449
987.000 0.450
988.000 0.448
989.000 0.449
990.000 0.451
991.000 0.453
992.000 0.453
993.000 0.452
994.000 0.452
995.000 0.453
996.000 0.453
997.000 0.454
998.000 0.454
999.000 0.454
1000.000 0.455
1001.000 0.457
1002.000 0.457
1003.000 0.458
1004.000 0.457
1005.000 0.458
1006.000 0.459
1007.000 0.460
1008.000 0.460
1009.000 0.461
1010.000 0.462
1011.000 0.461
1012.000 0.461
1013.000 0.462
1014.000 0.462
1015.000 0.463
1016.000 0.464
1017.000 0.464
1018.000 0.465
1019.000 0.466
1020.000 0.467
1021.000 0.467
1022.000 0.467
1023.000 0.466
1024.000 0.467
1025.000 0.467
1026.000 0.467
1027.000 0.468
1028.000 0.469
1029.000 0.470
1030.000 0.470
1031.000 0.471
1032.000 0.471
1033.000 0.472
1034.000 0.472
1035.000 0.473
1036.000 0.474
1037.000 0.474
1038.000 0.474
1039.000 0.474
1040.000 0.475
1041.000 0.475
1042.000 0.476
1043.000 0.475
1044.000 0.475
1045.000 0.475
1046.000 0.476
1047.000 0.477
1048.000 0.477
1049.000 0.478
1050.000 0.478
1051.000 0.479
1052.000 0.479
1053.000 0.479
1054.000 0.479
1055.000 0.479
1056.000 0.480
1057.000 0.481
1058.000 0.481
1059.000 0.481
1060.000 0.481
1061.000 0.481
1062.000 0.481
1063.000 0.481
1064.000 0.482
1065.000 0.483
1066.000 0.483
1067.000 0.483
1068.000 0.483
1069.000 0.483
1070.000 0.483
1071.000 0.484
1072.000 0.483
1073.000 0.483
1074.000 0.484
1075.000 0.484
1076.000 0.484
1077.000 0.485
1078.000 0.485
1079.000 0.485
1080.000 0.485
1081.000 0.486
1082.000 0.486
1083.000 0.486
1084.000 0.486
1085.000 0.487
1086.000 0.487
1087.000 0.488
1088.000 0.487
1089.000 0.488
1090.000 0.488
1091.000 0.488
1092.000 0.489
1093.000 0.489
1094.000 0.488
1095.000 0.488
1096.000 0.488
1097.000 0.488
1098.000 0.488
1099.000 0.488
1100.000 0.488
1101.000 0.487
1102.000 0.487
1103.000 0.488
1104.000 0.488
1105.000 0.488
1106.000 0.488
1107.000 0.488
1108.000 0.488
1109.000 0.488
1110.000 0.487
1111.000 0.487
1112.000 0.487
1113.000 0.487
1114.000 0.488
1115.000 0.488
1116.000 0.489
1117.000 0.489
1118.000 0.489
1119.000 0.486
1120.000 0.483
1121.000 0.481
1122.000 0.477
1123.000 0.475
1124.000 0.476
1125.000 0.477
1126.000 0.480
1127.000 0.482
1128.000 0.484
1129.000 0.484
1130.000 0.483
1131.000 0.483
1132.000 0.482
1133.000 0.481
1134.000 0.480
1135.000 0.481
1136.000 0.481
1137.000 0.479
1138.000 0.480
1139.000 0.477
1140.000 0.476
1141.000 0.473
1142.000 0.472
1143.000 0.469
1144.000 0.468
1145.000 0.469
1146.000 0.470
1147.000 0.471
1148.000 0.472
1149.000 0.472
1150.000 0.471
1151.000 0.471
1152.000 0.470
1153.000 0.470
1154.000 0.470
1155.000 0.470
1156.000 0.470
1157.000 0.469
1158.000 0.469
1159.000 0.469
1160.000 0.468
1161.000 0.469
1162.000 0.469
1163.000 0.470
1164.000 0.471
1165.000 0.471
1166.000 0.471
1167.000 0.470
1168.000 0.470
1169.000 0.470
1170.000 0.470
1171.000 0.470
1172.000 0.471
1173.000 0.472
1174.000 0.472
1175.000 0.472
1176.000 0.472
1177.000 0.472
1178.000 0.472
1179.000 0.471
1180.000 0.471
1181.000 0.471
1182.000 0.471
1183.000 0.471
1184.000 0.471
1185.000 0.471
1186.000 0.471
1187.000 0.471
1188.000 0.472
1189.000 0.472
1190.000 0.472
1191.000 0.473
1192.000 0.473
1193.000 0.473
1194.000 0.473
1195.000 0.473
1196.000 0.473
1197.000 0.473
1198.000 0.474
1199.000 0.475
1200.000 0.474
1201.000 0.474
1202.000 0.475
1203.000 0.474
1204.000 0.474
1205.000 0.475
1206.000 0.474
1207.000 0.475
1208.000 0.476
1209.000 0.476
1210.000 0.477
1211.000 0.478
1212.000 0.478
1213.000 0.478
1214.000 0.478
1215.000 0.479
1216.000 0.480
1217.000 0.480
1218.000 0.481
1219.000 0.480
1220.000 0.481
1221.000 0.481
1222.000 0.482
1223.000 0.482
1224.000 0.483
1225.000 0.484
1226.000 0.484
1227.000 0.485
1228.000 0.486
1229.000 0.486
1230.000 0.486
1231.000 0.487
1232.000 0.487
1233.000 0.487
1234.000 0.486
1235.000 0.487
1236.000 0.487
1237.000 0.488
1238.000 0.489
1239.000 0.490
1240.000 0.490
1241.000 0.490
1242.000 0.491
1243.000 0.491
1244.000 0.491
1245.000 0.492
1246.000 0.492
1247.000 0.492
1248.000 0.493
1249.000 0.493
1250.000 0.494
1251.000 0.494
1252.000 0.495
1253.000 0.495
1254.000 0.495
1255.000 0.495
1256.000 0.495
1257.000 0.496
1258.000 0.496
1259.000 0.496
1260.000 0.496
1261.000 0.497
1262.000 0.497
1263.000 0.497
1264.000 0.497
1265.000 0.497
1266.000 0.497
1267.000 0.497
1268.000 0.497
1269.000 0.498
1270.000 0.498
1271.000 0.499
1272.000 0.499
1273.000 0.499
1274.000 0.499
1275.000 0.499
1276.000 0.499
1277.000 0.500
1278.000 0.500
1279.000 0.500
1280.000 0.501
1281.000 0.501
1282.000 0.501
1283.000 0.501
1284.000 0.500
1285.000 0.500
1286.000 0.500
1287.000 0.500
1288.000 0.500
1289.000 0.500
1290.000 0.500
1291.000 0.501
1292.000 0.501
1293.000 0.502
1294.000 0.502
1295.000 0.501
1296.000 0.500
1297.000 0.500
1298.000 0.500
1299.000 0.500
1300.000 0.500
1301.000 0.500
1302.000 0.499
1303.000 0.499
1304.000 0.499
1305.000 0.498
1306.000 0.497
1307.000 0.496
1308.000 0.496
1309.000 0.496
1310.000 0.495
1311.000 0.494
1312.000 0.494
1313.000 0.492
1314.000 0.492
1315.000 0.491
1316.000 0.490
1317.000 0.490
1318.000 0.490
1319.000 0.489
1320.000 0.488
1321.000 0.488
1322.000 0.488
1323.000 0.487
1324.000 0.486
1325.000 0.486
1326.000 0.484
1327.000 0.482
1328.000 0.481
1329.000 0.480
1330.000 0.479
1331.000 0.478
1332.000 0.477
1333.000 0.475
1334.000 0.472
1335.000 0.471
1336.000 0.469
1337.000 0.468
1338.000 0.468
1339.000 0.468
1340.000 0.469
1341.000 0.468
1342.000 0.467
1343.000 0.465
1344.000 0.460
1345.000 0.458
1346.000 0.456
1347.000 0.454
1348.000 0.453
1349.000 0.459
1350.000 0.459
1351.000 0.456
1352.000 0.449
1353.000 0.432
1354.000 0.405
1355.000 0.367
1356.000 0.359
1357.000 0.319
1358.000 0.256
1359.000 0.244
1360.000 0.303
1361.000 0.336
1362.000 0.341
1363.000 0.288
1364.000 0.368
1365.000 0.339
1366.000 0.395
1367.000 0.437
1368.000 0.459
1369.000 0.473
1370.000 0.337
1371.000 0.267
1372.000 0.237
1373.000 0.342
1374.000 0.353
1375.000 0.358
1376.000 0.608
1377.000 0.513
1378.000 0.472
1379.000 0.450
1380.000 0.453
1381.000 0.388
1382.000 0.427
1383.000 0.407
1384.000 0.668
1385.000 0.644
1386.000 0.704
1387.000 0.674
1388.000 0.568
1389.000 0.483
1390.000 0.372
1391.000 0.360
1392.000 0.473
1393.000 0.549
1394.000 0.669
1395.000 0.491
1396.000 0.423
1397.000 0.474
1398.000 0.459
1399.000 0.574
1400.000 0.473
1401.000 0.408
1402.000 0.384
1403.000 0.328
1404.000 0.264
1405.000 0.269
1406.000 0.499
1407.000 0.498
1408.000 0.231
1409.000 0.281
1410.000 0.310
1411.000 0.328
1412.000 0.472
1413.000 0.477
1414.000 0.466
1415.000 0.456
1416.000 0.445
1417.000 0.453
1418.000 0.381
1419.000 0.371
1420.000 0.400
1421.000 0.429
1422.000 0.385
1423.000 0.365
1424.000 0.325
1425.000 0.288
1426.000 0.290
1427.000 0.421
1428.000 0.474
1429.000 0.488
1430.000 0.489
1431.000 0.418
1432.000 0.392
1433.000 0.343
1434.000 0.319
1435.000 0.296
1436.000 0.296
1437.000 0.327
1438.000 0.295
1439.000 0.284
1440.000 0.274
1441.000 0.258
1442.000 0.234
1443.000 0.252
1444.000 0.252
1445.000 0.250
1446.000 0.251
1447.000 0.226
1448.000 0.230
1449.000 0.238
1450.000 0.243
1451.000 0.236
1452.000 0.270
1453.000 0.270
1454.000 0.240
1455.000 0.243
1456.000 0.252
1457.000 0.254
1458.000 0.255
1459.000 0.255
1460.000 0.253
1461.000 0.255
1462.000 0.262
1463.000 0.265
1464.000 0.298
1465.000 0.299
1466.000 0.294
1467.000 0.290
1468.000 0.283
1469.000 0.277
1470.000 0.274
1471.000 0.268
1472.000 0.235
1473.000 0.231
1474.000 0.224
1475.000 0.224
1476.000 0.225
1477.000 0.231
1478.000 0.243
1479.000 0.249
1480.000 0.259
1481.000 0.262
1482.000 0.256
1483.000 0.258
1484.000 0.256
1485.000 0.260
1486.000 0.271
1487.000 0.277
1488.000 0.284
1489.000 0.287
1490.000 0.287
1491.000 0.287
1492.000 0.283
1493.000 0.284
1494.000 0.286
1495.000 0.288
1496.000 0.292
1497.000 0.295
1498.000 0.295
1499.000 0.296
1500.000 0.298
1501.000 0.299
1502.000 0.299
1503.000 0.301
1504.000 0.302
1505.000 0.305
1506.000 0.306
1507.000 0.307
1508.000 0.308
1509.000 0.307
1510.000 0.309
1511.000 0.311
1512.000 0.312
1513.000 0.312
1514.000 0.312
1515.000 0.311
1516.000 0.312
1517.000 0.315
1518.000 0.317
1519.000 0.319
1520.000 0.321
1521.000 0.321
1522.000 0.322
1523.000 0.322
1524.000 0.323
1525.000 0.323
1526.000 0.324
1527.000 0.325
1528.000 0.326
1529.000 0.328
1530.000 0.330
1531.000 0.331
1532.000 0.333
1533.000 0.336
1534.000 0.338
1535.000 0.340
1536.000 0.341
1537.000 0.340
1538.000 0.340
1539.000 0.338
1540.000 0.338
1541.000 0.340
1542.000 0.341
1543.000 0.344
1544.000 0.345
1545.000 0.347
1546.000 0.348
1547.000 0.349
1548.000 0.349
1549.000 0.351
1550.000 0.352
1551.000 0.352
1552.000 0.353
1553.000 0.352
1554.000 0.353
1555.000 0.355
1556.000 0.356
1557.000 0.356
1558.000 0.358
1559.000 0.358
1560.000 0.360
1561.000 0.363
1562.000 0.365
1563.000 0.365
1564.000 0.366
1565.000 0.365
1566.000 0.365
1567.000 0.365
1568.000 0.365
1569.000 0.365
1570.000 0.365
1571.000 0.366
1572.000 0.367
1573.000 0.367
1574.000 0.368
1575.000 0.368
1576.000 0.370
1577.000 0.372
1578.000 0.373
1579.000 0.374
1580.000 0.376
1581.000 0.377
1582.000 0.378
1583.000 0.379
1584.000 0.380
1585.000 0.380
1586.000 0.381
1587.000 0.383
1588.000 0.384
1589.000 0.384
1590.000 0.385
1591.000 0.384
1592.000 0.385
1593.000 0.385
1594.000 0.387
1595.000 0.387
1596.000 0.388
1597.000 0.388
1598.000 0.388
1599.000 0.388
1600.000 0.388
1601.000 0.390
1602.000 0.390
1603.000 0.391
1604.000 0.391
1605.000 0.393
1606.000 0.394
1607.000 0.396
1608.000 0.397
1609.000 0.397
1610.000 0.397
1611.000 0.397
1612.000 0.398
1613.000 0.398
1614.000 0.398
1615.000 0.399
1616.000 0.399
1617.000 0.398
1618.000 0.397
1619.000 0.398
1620.000 0.398
1621.000 0.399
1622.000 0.400
1623.000 0.401
1624.000 0.401
1625.000 0.402
1626.000 0.401
1627.000 0.400
1628.000 0.401
1629.000 0.403
1630.000 0.403
1631.000 0.404
1632.000 0.405
1633.000 0.405
1634.000 0.405
1635.000 0.405
1636.000 0.405
1637.000 0.405
1638.000 0.406
1639.000 0.406
1640.000 0.407
1641.000 0.407
1642.000 0.408
1643.000 0.408
1644.000 0.409
1645.000 0.411
1646.000 0.411
1647.000 0.412
1648.000 0.412
1649.000 0.410
1650.000 0.409
1651.000 0.410
1652.000 0.410
1653.000 0.410
1654.000 0.410
1655.000 0.410
1656.000 0.410
1657.000 0.411
1658.000 0.411
1659.000 0.411
1660.000 0.410
1661.000 0.410
1662.000 0.409
1663.000 0.410
1664.000 0.411
1665.000 0.410
1666.000 0.410
1667.000 0.410
1668.000 0.410
1669.000 0.413
1670.000 0.413
1671.000 0.412
1672.000 0.412
1673.000 0.411
1674.000 0.410
1675.000 0.411
1676.000 0.412
1677.000 0.414
1678.000 0.414
1679.000 0.413
1680.000 0.413
1681.000 0.412
1682.000 0.413
1683.000 0.414
1684.000 0.414
1685.000 0.413
1686.000 0.413
1687.000 0.413
1688.000 0.413
1689.000 0.413
1690.000 0.413
1691.000 0.412
1692.000 0.412
1693.000 0.413
1694.000 0.413
1695.000 0.411
1696.000 0.410
1697.000 0.409
1698.000 0.408
1699.000 0.407
1700.000 0.407
1701.000 0.407
1702.000 0.406
1703.000 0.406
1704.000 0.406
1705.000 0.406
1706.000 0.406
1707.000 0.407
1708.000 0.406
1709.000 0.405
1710.000 0.406
1711.000 0.406
1712.000 0.407
1713.000 0.408
1714.000 0.405
1715.000 0.403
1716.000 0.402
1717.000 0.402
1718.000 0.403
1719.000 0.403
1720.000 0.401
1721.000 0.399
1722.000 0.397
1723.000 0.398
1724.000 0.397
1725.000 0.397
1726.000 0.397
1727.000 0.396
1728.000 0.397
1729.000 0.398
1730.000 0.396
1731.000 0.395
1732.000 0.392
1733.000 0.390
1734.000 0.391
1735.000 0.391
1736.000 0.389
1737.000 0.389
1738.000 0.388
1739.000 0.388
1740.000 0.390
1741.000 0.391
1742.000 0.393
1743.000 0.394
1744.000 0.393
1745.000 0.393
1746.000 0.391
1747.000 0.389
1748.000 0.387
1749.000 0.384
1750.000 0.382
1751.000 0.380
1752.000 0.378
1753.000 0.378
1754.000 0.377
1755.000 0.377
1756.000 0.380
1757.000 0.380
1758.000 0.379
1759.000 0.378
1760.000 0.376
1761.000 0.376
1762.000 0.379
1763.000 0.382
1764.000 0.385
1765.000 0.384
1766.000 0.385
1767.000 0.381
1768.000 0.376
1769.000 0.377
1770.000 0.377
1771.000 0.377
1772.000 0.382
1773.000 0.384
1774.000 0.381
1775.000 0.379
1776.000 0.382
1777.000 0.379
1778.000 0.375
1779.000 0.371
1780.000 0.362
1781.000 0.357
1782.000 0.360
1783.000 0.359
1784.000 0.359
1785.000 0.353
1786.000 0.352
1787.000 0.362
1788.000 0.365
1789.000 0.370
1790.000 0.376
1791.000 0.372
1792.000 0.372
1793.000 0.374
1794.000 0.363
1795.000 0.368
1796.000 0.366
1797.000 0.353
1798.000 0.402
1799.000 0.405
1800.000 0.383
1801.000 0.395
1802.000 0.415
1803.000 0.433
1804.000 0.466
1805.000 0.498
1806.000 0.516
1807.000 0.469
1808.000 0.498
1809.000 0.517
1810.000 0.560
1811.000 0.596
1812.000 0.599
1813.000 0.647
1814.000 0.684
1815.000 0.729
1816.000 0.723
1817.000 0.549
1818.000 0.599
1819.000 0.598
1820.000 0.478
1821.000 0.543
1822.000 0.456
1823.000 0.623
1824.000 0.788
1825.000 0.690
1826.000 0.596
1827.000 0.498
1828.000 0.588
1829.000 0.550
1830.000 0.501
1831.000 0.419
1832.000 0.586
1833.000 0.421
1834.000 0.654
1835.000 0.652
1836.000 0.620
1837.000 0.525
1838.000 0.405
1839.000 0.517
1840.000 0.498
1841.000 0.439
1842.000 0.533
1843.000 0.461
1844.000 0.435
1845.000 0.458
1846.000 0.532
1847.000 0.572
1848.000 0.653
1849.000 0.663
1850.000 0.510
1851.000 0.375
1852.000 0.424
1853.000 0.706
1854.000 0.458
1855.000 0.402
1856.000 0.383
1857.000 0.291
1858.000 0.316
1859.000 0.434
1860.000 0.555
1861.000 0.483
1862.000 0.456
1863.000 0.450
1864.000 0.496
1865.000 0.451
1866.000 0.467
1867.000 0.550
1868.000 0.479
1869.000 0.416
1870.000 0.426
1871.000 0.436
1872.000 0.459
1873.000 0.453
1874.000 0.507
1875.000 0.489
1876.000 0.435
1877.000 0.324
1878.000 0.667
1879.000 0.695
1880.000 0.726
1881.000 0.753
1882.000 0.756
1883.000 0.548
1884.000 0.556
1885.000 0.542
1886.000 0.294
1887.000 0.554
1888.000 0.453
1889.000 0.297
1890.000 0.446
1891.000 0.458
1892.000 0.457
1893.000 0.507
1894.000 0.445
1895.000 0.404
1896.000 0.389
1897.000 0.371
1898.000 0.421
1899.000 0.440
1900.000 0.460
1901.000 0.368
1902.000 0.449
1903.000 0.467
1904.000 0.363
1905.000 0.386
1906.000 0.335
1907.000 0.263
1908.000 0.396
1909.000 0.422
1910.000 0.454
1911.000 0.367
1912.000 0.437
1913.000 0.358
1914.000 0.277
1915.000 0.181
1916.000 0.269
1917.000 0.402
1918.000 0.492
1919.000 0.585
1920.000 0.475
1921.000 0.538
1922.000 0.507
1923.000 0.355
1924.000 0.338
1925.000 0.320
1926.000 0.327
1927.000 0.336
1928.000 0.516
1929.000 0.404
1930.000 0.343
1931.000 0.463
1932.000 0.710
1933.000 0.736
1934.000 0.814
1935.000 0.672
1936.000 0.700
1937.000 0.773
1938.000 0.538
1939.000 0.490
1940.000 0.306
1941.000 0.217
1942.000 0.258
1943.000 0.317
1944.000 0.312
1945.000 0.441
1946.000 0.416
1947.000 0.309
1948.000 0.276
1949.000 0.424
1950.000 0.485
1951.000 0.538
1952.000 0.513
1953.000 0.468
1954.000 0.438
1955.000 0.451
1956.000 0.419
1957.000 0.371
1958.000 0.341
1959.000 0.365
1960.000 0.289
1961.000 0.393
1962.000 0.359
1963.000 0.444
1964.000 0.421
1965.000 0.417
1966.000 0.361
1967.000 0.326
1968.000 0.310
1969.000 0.307
1970.000 0.250
1971.000 0.227
1972.000 0.225
1973.000 0.244
1974.000 0.264
1975.000 0.265
1976.000 0.235
1977.000 0.236
1978.000 0.244
1979.000 0.250
1980.000 0.272
1981.000 0.283
1982.000 0.273
1983.000 0.250
1984.000 0.229
1985.000 0.212
1986.000 0.203
1987.000 0.212
1988.000 0.213
1989.000 0.209
1990.000 0.213
1991.000 0.225
1992.000 0.239
1993.000 0.236
1994.000 0.228
1995.000 0.217
1996.000 0.206
1997.000 0.207
1998.000 0.237
1999.000 0.250
2000.000 0.263
2001.000 0.276
2002.000 0.275
2003.000 0.274
2004.000 0.302
2005.000 0.300
2006.000 0.275
2007.000 0.274
2008.000 0.245
2009.000 0.236
2010.000 0.249
2011.000 0.266
2012.000 0.291
2013.000 0.326
2014.000 0.344
2015.000 0.363
2016.000 0.356
2017.000 0.332
2018.000 0.308
2019.000 0.263
2020.000 0.267
2021.000 0.263
2022.000 0.244
2023.000 0.233
2024.000 0.224
2025.000 0.213
2026.000 0.205
2027.000 0.206
2028.000 0.215
2029.000 0.222
2030.000 0.232
2031.000 0.239
2032.000 0.247
2033.000 0.252
2034.000 0.250
2035.000 0.259
2036.000 0.254
2037.000 0.251
2038.000 0.255
2039.000 0.247
2040.000 0.253
2041.000 0.261
2042.000 0.260
2043.000 0.253
2044.000 0.250
2045.000 0.245
2046.000 0.238
2047.000 0.231
2048.000 0.225
2049.000 0.209
2050.000 0.212
2051.000 0.226
2052.000 0.230
2053.000 0.240
2054.000 0.235
2055.000 0.224
2056.000 0.222
2057.000 0.219
2058.000 0.220
2059.000 0.221
2060.000 0.215
2061.000 0.217
2062.000 0.227
2063.000 0.233
2064.000 0.238
2065.000 0.248
2066.000 0.267
2067.000 0.276
2068.000 0.272
2069.000 0.280
2070.000 0.279
2071.000 0.268
2072.000 0.261
2073.000 0.255
2074.000 0.250
2075.000 0.241
2076.000 0.242
2077.000 0.253
2078.000 0.256
2079.000 0.259
2080.000 0.260
2081.000 0.255
2082.000 0.254
2083.000 0.257
2084.000 0.253
2085.000 0.257
2086.000 0.259
2087.000 0.258
2088.000 0.258
2089.000 0.256
2090.000 0.247
2091.000 0.246
2092.000 0.250
2093.000 0.250
2094.000 0.252
2095.000 0.255
2096.000 0.254
2097.000 0.255
2098.000 0.258
2099.000 0.262
2100.000 0.262
2101.000 0.260
2102.000 0.259
2103.000 0.261
2104.000 0.261
2105.000 0.261
2106.000 0.259
2107.000 0.253
2108.000 0.254
2109.000 0.254
2110.000 0.258
2111.000 0.273
2112.000 0.281
2113.000 0.290
2114.000 0.297
2115.000 0.305
2116.000 0.305
2117.000 0.300
2118.000 0.293
2119.000 0.281
2120.000 0.277
2121.000 0.282
2122.000 0.287
2123.000 0.290
2124.000 0.294
2125.000 0.296
2126.000 0.296
2127.000 0.295
2128.000 0.293
2129.000 0.292
2130.000 0.288
2131.000 0.287
2132.000 0.293
2133.000 0.295
2134.000 0.299
2135.000 0.296
2136.000 0.289
2137.000 0.280
2138.000 0.274
2139.000 0.270
2140.000 0.271
2141.000 0.280
2142.000 0.283
2143.000 0.287
2144.000 0.290
2145.000 0.292
2146.000 0.290
2147.000 0.286
2148.000 0.282
2149.000 0.274
2150.000 0.271
2151.000 0.269
2152.000 0.271
2153.000 0.279
2154.000 0.284
2155.000 0.291
2156.000 0.298
2157.000 0.296
2158.000 0.297
2159.000 0.294
2160.000 0.288
2161.000 0.286
2162.000 0.284
2163.000 0.286
2164.000 0.292
2165.000 0.294
2166.000 0.297
2167.000 0.298
2168.000 0.297
2169.000 0.295
2170.000 0.295
2171.000 0.293
2172.000 0.287
2173.000 0.287
2174.000 0.293
2175.000 0.295
2176.000 0.301
2177.000 0.296
2178.000 0.292
2179.000 0.290
2180.000 0.281
2181.000 0.281
2182.000 0.282
2183.000 0.281
2184.000 0.281
2185.000 0.285
2186.000 0.289
2187.000 0.294
2188.000 0.297
2189.000 0.304
2190.000 0.301
2191.000 0.291
2192.000 0.284
2193.000 0.273
2194.000 0.267
2195.000 0.266
2196.000 0.265
2197.000 0.263
2198.000 0.265
2199.000 0.271
2200.000 0.277
2201.000 0.287
2202.000 0.299
2203.000 0.303
2204.000 0.305
2205.000 0.309
2206.000 0.307
2207.000 0.304
2208.000 0.299
2209.000 0.292
2210.000 0.280
2211.000 0.278
2212.000 0.279
2213.000 0.279
2214.000 0.280
2215.000 0.283
2216.000 0.282
2217.000 0.287
2218.000 0.305
2219.000 0.312
2220.000 0.321
2221.000 0.321
2222.000 0.306
2223.000 0.298
2224.000 0.283
2225.000 0.279
2226.000 0.283
2227.000 0.290
2228.000 0.293
2229.000 0.297
2230.000 0.301
2231.000 0.297
2232.000 0.289
2233.000 0.282
2234.000 0.269
2235.000 0.258
2236.000 0.262
2237.000 0.265
2238.000 0.267
2239.000 0.276
2240.000 0.275
2241.000 0.263
2242.000 0.262
2243.000 0.262
2244.000 0.261
2245.000 0.267
2246.000 0.270
2247.000 0.269
2248.000 0.271
2249.000 0.274
2250.000 0.274
2251.000 0.274
2252.000 0.271
2253.000 0.262
2254.000 0.259
2255.000 0.255
2256.000 0.256
2257.000 0.264
2258.000 0.273
2259.000 0.287
2260.000 0.288
2261.000 0.282
2262.000 0.276
2263.000 0.261
2264.000 0.253
2265.000 0.240
2266.000 0.228
2267.000 0.226
2268.000 0.227
2269.000 0.241
2270.000 0.257
2271.000 0.265
2272.000 0.266
2273.000 0.269
2274.000 0.269
2275.000 0.274
2276.000 0.282
2277.000 0.282
2278.000 0.275
2279.000 0.272
2280.000 0.269
2281.000 0.265
2282.000 0.265
2283.000 0.261
2284.000 0.251
2285.000 0.245
2286.000 0.243
2287.000 0.241
2288.000 0.240
2289.000 0.238
2290.000 0.234
2291.000 0.228
2292.000 0.217
2293.000 0.215
2294.000 0.224
2295.000 0.229
2296.000 0.234
2297.000 0.255
2298.000 0.260
2299.000 0.261
2300.000 0.263
2301.000 0.261
2302.000 0.271
2303.000 0.265
2304.000 0.269
2305.000 0.282
2306.000 0.284
2307.000 0.288
2308.000 0.296
2309.000 0.302
2310.000 0.289
2311.000 0.264
2312.000 0.240
2313.000 0.224
2314.000 0.209
2315.000 0.202
2316.000 0.196
2317.000 0.187
2318.000 0.213
2319.000 0.192
2320.000 0.199
2321.000 0.234
2322.000 0.221
2323.000 0.227
2324.000 0.225
2325.000 0.242
2326.000 0.236
2327.000 0.212
2328.000 0.199
2329.000 0.203
2330.000 0.192
2331.000 0.190
2332.000 0.202
2333.000 0.216
2334.000 0.203
2335.000 0.232
2336.000 0.240
2337.000 0.225
2338.000 0.218
2339.000 0.210
2340.000 0.238
2341.000 0.258
2342.000 0.274
2343.000 0.308
2344.000 0.305
2345.000 0.227
2346.000 0.218
2347.000 0.190
2348.000 0.196
2349.000 0.229
2350.000 0.251
2351.000 0.219
2352.000 0.214
2353.000 0.173
2354.000 0.174
2355.000 0.190
2356.000 0.181
2357.000 0.164
2358.000 0.144
2359.000 0.141
2360.000 0.157
2361.000 0.190
2362.000 0.235
2363.000 0.228
2364.000 0.231
2365.000 0.267
2366.000 0.253
2367.000 0.245
2368.000 0.269
2369.000 0.320
2370.000 0.252
2371.000 0.252
2372.000 0.267
2373.000 0.334
2374.000 0.341
2375.000 0.348
2376.000 0.300
2377.000 0.304
2378.000 0.266
2379.000 0.236
2380.000 0.308
2381.000 0.447
2382.000 0.557
2383.000 0.449
2384.000 0.296
2385.000 0.284
2386.000 0.281
2387.000 0.284
2388.000 0.318
2389.000 0.306
2390.000 0.371
2391.000 0.200
2392.000 0.271
2393.000 0.198
2394.000 0.283
2395.000 0.304
2396.000 0.298
2397.000 0.271
2398.000 0.255
2399.000 0.293
2400.000 0.416
2401.000 0.349
2402.000 0.299
2403.000 0.421
2404.000 0.230
2405.000 0.244
2406.000 0.154
2407.000 0.161
2408.000 0.322
2409.000 0.327
2410.000 0.365
2411.000 0.345
2412.000 0.403
2413.000 0.311
2414.000 0.337
2415.000 0.129
2416.000 0.106
2417.000 0.227
2418.000 0.116
2419.000 0.223
2420.000 0.190
2421.000 0.374
2422.000 0.342
2423.000 0.378
2424.000 0.658
2425.000 0.448
2426.000 0.355
2427.000 0.363
2428.000 0.436
2429.000 0.460
2430.000 0.493
2431.000 0.411
2432.000 0.324
2433.000 0.273
2434.000 0.168
2435.000 0.223
2436.000 0.266
2437.000 0.300
2438.000 0.297
2439.000 0.166
2440.000 0.118
2441.000 0.257
2442.000 0.393
2443.000 0.522
2444.000 0.392
2445.000 0.471
2446.000 0.484
2447.000 0.500
2448.000 0.314
2449.000 0.266
2450.000 0.205
2451.000 0.186
2452.000 0.161
2453.000 0.139
2454.000 0.260
2455.000 0.347
2456.000 0.195
2457.000 0.142
2458.000 0.339
2459.000 0.304
2460.000 0.274
2461.000 0.204
2462.000 0.257
2463.000 0.412
2464.000 0.442
2465.000 0.476
2466.000 0.452
2467.000 0.382
2468.000 0.337
2469.000 0.237
2470.000 0.271
2471.000 0.369
2472.000 0.342
2473.000 0.491
2474.000 0.489
2475.000 0.298
2476.000 0.451
2477.000 0.415
2478.000 0.376
2479.000 0.344
2480.000 0.345
2481.000 0.243
2482.000 0.296
2483.000 0.141
2484.000 0.234
2485.000 0.309
2486.000 0.416
2487.000 0.395
2488.000 0.559
2489.000 0.477
2490.000 0.417
2491.000 0.435
2492.000 0.408
2493.000 0.445
2494.000 0.466
2495.000 0.287
2496.000 0.417
2497.000 0.242
2498.000 0.369
2499.000 0.665
2500.000 0.713
