391.000 0.024
392.000 0.024
393.000 0.025
394.000 0.023
395.000 0.025
396.000 0.024
397.000 0.019
398.000 0.019
399.000 0.021
400.000 0.022
401.000 0.023
402.000 0.022
403.000 0.020
404.000 0.022
405.000 0.027
406.000 0.026
407.000 0.023
408.000 0.020
409.000 0.020
410.000 0.021
411.000 0.023
412.000 0.025
413.000 0.024
414.000 0.024
415.000 0.024
416.000 0.025
417.000 0.024
418.000 0.022
419.000 0.021
420.000 0.023
421.000 0.023
422.000 0.023
423.000 0.025
424.000 0.023
425.000 0.022
426.000 0.023
427.000 0.025
428.000 0.023
429.000 0.022
430.000 0.024
431.000 0.025
432.000 0.025
433.000 0.024
434.000 0.022
435.000 0.023
436.000 0.024
437.000 0.024
438.000 0.025
439.000 0.024
440.000 0.023
441.000 0.023
442.000 0.023
443.000 0.024
444.000 0.024
445.000 0.024
446.000 0.025
447.000 0.024
448.000 0.024
449.000 0.023
450.000 0.025
451.000 0.025
452.000 0.024
453.000 0.026
454.000 0.025
455.000 0.024
456.000 0.025
457.000 0.026
458.000 0.025
459.000 0.024
460.000 0.025
461.000 0.025
462.000 0.023
463.000 0.024
464.000 0.027
465.000 0.026
466.000 0.025
467.000 0.027
468.000 0.026
469.000 0.026
470.000 0.026
471.000 0.025
472.000 0.024
473.000 0.024
474.000 0.023
475.000 0.026
476.000 0.026
477.000 0.025
478.000 0.025
479.000 0.025
480.000 0.025
481.000 0.026
482.000 0.025
483.000 0.027
484.000 0.026
485.000 0.025
486.000 0.026
487.000 0.027
488.000 0.026
489.000 0.025
490.000 0.026
491.000 0.026
492.000 0.026
493.000 0.027
494.000 0.027
495.000 0.028
496.000 0.028
497.000 0.026
498.000 0.027
499.000 0.028
500.000 0.027
501.000 0.029
502.000 0.029
503.000 0.030
504.000 0.031
505.000 0.032
506.000 0.031
507.000 0.031
508.000 0.033
509.000 0.033
510.000 0.034
511.000 0.035
512.000 0.035
513.000 0.037
514.000 0.039
515.000 0.040
516.000 0.040
517.000 0.042
518.000 0.043
519.000 0.045
520.000 0.046
521.000 0.047
522.000 0.049
523.000 0.051
524.000 0.052
525.000 0.054
526.000 0.055
527.000 0.056
528.000 0.057
529.000 0.059
530.000 0.060
531.000 0.062
532.000 0.063
533.000 0.063
534.000 0.063
535.000 0.065
536.000 0.065
537.000 0.065
538.000 0.066
539.000 0.066
540.000 0.066
541.000 0.067
542.000 0.067
543.000 0.067
544.000 0.067
545.000 0.068
546.000 0.069
547.000 0.069
548.000 0.069
549.000 0.069
550.000 0.069
551.000 0.069
552.000 0.068
553.000 0.068
554.000 0.068
555.000 0.069
556.000 0.069
557.000 0.068
558.000 0.068
559.000 0.067
560.000 0.067
561.000 0.067
562.000 0.066
563.000 0.065
564.000 0.064
565.000 0.064
566.000 0.063
567.000 0.061
568.000 0.061
569.000 0.059
570.000 0.058
571.000 0.057
572.000 0.056
573.000 0.056
574.000 0.056
575.000 0.055
576.000 0.053
577.000 0.052
578.000 0.052
579.000 0.051
580.000 0.051
581.000 0.051
582.000 0.051
583.000 0.050
584.000 0.051
585.000 0.051
586.000 0.050
587.000 0.049
588.000 0.049
589.000 0.049
590.000 0.048
591.000 0.046
592.000 0.048
593.000 0.048
594.000 0.046
595.000 0.045
596.000 0.045
597.000 0.046
598.000 0.046
599.000 0.045
600.000 0.045
601.000 0.044
602.000 0.046
603.000 0.046
604.000 0.045
605.000 0.044
606.000 0.045
607.000 0.045
608.000 0.044
609.000 0.044
610.000 0.044
611.000 0.042
612.000 0.044
613.000 0.043
614.000 0.043
615.000 0.042
616.000 0.042
617.000 0.043
618.000 0.043
619.000 0.042
620.000 0.041
621.000 0.041
622.000 0.042
623.000 0.041
624.000 0.042
625.000 0.043
626.000 0.042
627.000 0.041
628.000 0.041
629.000 0.042
630.000 0.042
631.000 0.042
632.000 0.041
633.000 0.041
634.000 0.041
635.000 0.041
636.000 0.041
637.000 0.040
638.000 0.041
639.000 0.040
640.000 0.040
641.000 0.040
642.000 0.039
643.000 0.039
644.000 0.040
645.000 0.039
646.000 0.037
647.000 0.037
648.000 0.039
649.000 0.037
650.000 0.038
651.000 0.038
652.000 0.037
653.000 0.038
654.000 0.037
655.000 0.038
656.000 0.039
657.000 0.038
658.000 0.037
659.000 0.039
660.000 0.038
661.000 0.039
662.000 0.038
663.000 0.037
664.000 0.036
665.000 0.037
666.000 0.038
667.000 0.037
668.000 0.037
669.000 0.037
670.000 0.039
671.000 0.038
672.000 0.038
673.000 0.039
674.000 0.040
675.000 0.038
676.000 0.038
677.000 0.039
678.000 0.042
679.000 0.042
680.000 0.041
681.000 0.041
682.000 0.042
683.000 0.043
684.000 0.043
685.000 0.044
686.000 0.043
687.000 0.045
688.000 0.049
689.000 0.050
690.000 0.051
691.000 0.053
692.000 0.056
693.000 0.058
694.000 0.061
695.000 0.065
696.000 0.068
697.000 0.073
698.000 0.078
699.000 0.083
700.000 0.087
701.000 0.092
702.000 0.098
703.000 0.105
704.000 0.110
705.000 0.116
706.000 0.122
707.000 0.129
708.000 0.135
709.000 0.142
710.000 0.147
711.000 0.154
712.000 0.160
713.000 0.166
714.000 0.173
715.000 0.180
716.000 0.187
717.000 0.193
718.000 0.200
719.000 0.207
720.000 0.216
721.000 0.223
722.000 0.229
723.000 0.235
724.000 0.241
725.000 0.249
726.000 0.256
727.000 0.261
728.000 0.268
729.000 0.273
730.000 0.279
731.000 0.285
732.000 0.290
733.000 0.296
734.000 0.301
735.000 0.304
736.000 0.310
737.000 0.314
738.000 0.318
739.000 0.322
740.000 0.327
741.000 0.330
742.000 0.333
743.000 0.337
744.000 0.340
745.000 0.343
746.000 0.345
747.000 0.347
748.000 0.350
749.000 0.353
750.000 0.354
751.000 0.357
752.000 0.358
753.000 0.360
754.000 0.361
755.000 0.363
756.000 0.364
757.000 0.366
758.000 0.366
759.000 0.367
760.000 0.367
761.000 0.369
762.000 0.369
763.000 0.370
764.000 0.371
765.000 0.372
766.000 0.373
767.000 0.375
768.000 0.375
769.000 0.377
770.000 0.378
771.000 0.378
772.000 0.379
773.000 0.380
774.000 0.381
775.000 0.381
776.000 0.382
777.000 0.382
778.000 0.383
779.000 0.383
780.000 0.384
781.000 0.385
782.000 0.386
783.000 0.386
784.000 0.386
785.000 0.387
786.000 0.387
787.000 0.388
788.000 0.388
789.000 0.388
790.000 0.389
791.000 0.390
792.000 0.391
793.000 0.391
794.000 0.392
795.000 0.393
796.000 0.393
797.000 0.393
798.000 0.393
799.000 0.394
800.000 0.395
801.000 0.395
802.000 0.396
803.000 0.396
804.000 0.397
805.000 0.398
806.000 0.398
807.000 0.398
808.000 0.399
809.000 0.400
810.000 0.400
811.000 0.400
812.000 0.400
813.000 0.400
814.000 0.400
815.000 0.401
816.000 0.401
817.000 0.401
818.000 0.402
819.000 0.403
820.000 0.403
821.000 0.404
822.000 0.405
823.000 0.405
824.000 0.406
825.000 0.407
826.000 0.407
827.000 0.407
828.000 0.408
829.000 0.408
830.000 0.408
831.000 0.409
832.000 0.410
833.000 0.410
834.000 0.411
835.000 0.412
836.000 0.412
837.000 0.413
838.000 0.414
839.000 0.414
840.000 0.415
841.000 0.415
842.000 0.416
843.000 0.417
844.000 0.417
845.000 0.417
846.000 0.418
847.000 0.419
848.000 0.419
849.000 0.419
850.000 0.420
851.000 0.420
852.000 0.420
853.000 0.421
854.000 0.421
855.000 0.422
856.000 0.422
857.000 0.423
858.000 0.423
859.000 0.423
860.000 0.424
861.000 0.424
862.000 0.424
863.000 0.425
864.000 0.425
865.000 0.426
866.000 0.426
867.000 0.426
868.000 0.427
869.000 0.427
870.000 0.427
871.000 0.428
872.000 0.429
873.000 0.429
874.000 0.430
875.000 0.430
876.000 0.430
877.000 0.430
878.000 0.430
879.000 0.431
880.000 0.431
881.000 0.432
882.000 0.432
883.000 0.433
884.000 0.432
885.000 0.433
886.000 0.434
887.000 0.434
888.000 0.434
889.000 0.435
890.000 0.435
891.000 0.435
892.000 0.436
893.000 0.436
894.000 0.436
895.000 0.435
896.000 0.435
897.000 0.436
898.000 0.435
899.000 0.435
900.000 0.437
901.000 0.437
902.000 0.436
903.000 0.437
904.000 0.437
905.000 0.438
906.000 0.438
907.000 0.439
908.000 0.439
909.000 0.439
910.000 0.438
911.000 0.439
912.000 0.439
913.000 0.439
914.000 0.439
915.000 0.440
916.000 0.440
917.000 0.441
918.000 0.441
919.000 0.441
920.000 0.443
921.000 0.442
922.000 0.443
923.000 0.443
924.000 0.442
925.000 0.442
926.000 0.442
927.000 0.442
928.000 0.440
929.000 0.441
930.000 0.441
931.000 0.438
932.000 0.439
933.000 0.435
934.000 0.431
935.000 0.429
936.000 0.435
937.000 0.433
938.000 0.431
939.000 0.433
940.000 0.432
941.000 0.432
942.000 0.433
943.000 0.435
944.000 0.429
945.000 0.429
946.000 0.432
947.000 0.434
948.000 0.432
949.000 0.432
950.000 0.432
951.000 0.430
952.000 0.432
953.000 0.430
954.000 0.430
955.000 0.431
956.000 0.428
957.000 0.431
958.000 0.433
959.000 0.432
960.000 0.432
961.000 0.433
962.000 0.435
963.000 0.438
964.000 0.436
965.000 0.437
966.000 0.438
967.000 0.437
968.000 0.440
969.000 0.440
970.000 0.440
971.000 0.441
972.000 0.437
973.000 0.436
974.000 0.438
975.000 0.443
976.000 0.442
977.000 0.439
978.000 0.440
979.000 0.444
980.000 0.440
981.000 0.442
982.000 0.443
983.000 0.442
984.000 0.443
985.000 0.447
986.000 0.448
987.000 0.446
988.000 0.447
989.000 0.448
990.000 0.449
991.000 0.449
992.000 0.448
993.000 0.448
994.000 0.449
995.000 0.450
996.000 0.451
997.000 0.452
998.000 0.450
999.000 0.452
1000.000 0.456
1001.000 0.458
1002.000 0.457
1003.000 0.457
1004.000 0.458
1005.000 0.459
1006.000 0.460
1007.000 0.462
1008.000 0.462
1009.000 0.462
1010.000 0.462
1011.000 0.462
1012.000 0.463
1013.000 0.464
1014.000 0.464
1015.000 0.465
1016.000 0.465
1017.000 0.466
1018.000 0.468
1019.000 0.469
1020.000 0.470
1021.000 0.470
1022.000 0.469
1023.000 0.471
1024.000 0.472
1025.000 0.472
1026.000 0.473
1027.000 0.472
1028.000 0.472
1029.000 0.471
1030.000 0.472
1031.000 0.473
1032.000 0.475
1033.000 0.475
1034.000 0.476
1035.000 0.475
1036.000 0.474
1037.000 0.476
1038.000 0.477
1039.000 0.477
1040.000 0.478
1041.000 0.479
1042.000 0.479
1043.000 0.479
1044.000 0.481
1045.000 0.482
1046.000 0.482
1047.000 0.482
1048.000 0.481
1049.000 0.482
1050.000 0.481
1051.000 0.482
1052.000 0.483
1053.000 0.484
1054.000 0.485
1055.000 0.486
1056.000 0.486
1057.000 0.486
1058.000 0.486
1059.000 0.486
1060.000 0.486
1061.000 0.485
1062.000 0.486
1063.000 0.486
1064.000 0.486
1065.000 0.487
1066.000 0.489
1067.000 0.489
1068.000 0.489
1069.000 0.490
1070.000 0.490
1071.000 0.490
1072.000 0.491
1073.000 0.492
1074.000 0.491
1075.000 0.491
1076.000 0.491
1077.000 0.491
1078.000 0.491
1079.000 0.491
1080.000 0.492
1081.000 0.492
1082.000 0.492
1083.000 0.492
1084.000 0.492
1085.000 0.492
1086.000 0.492
1087.000 0.493
1088.000 0.493
1089.000 0.493
1090.000 0.494
1091.000 0.494
1092.000 0.495
1093.000 0.496
1094.000 0.496
1095.000 0.495
1096.000 0.493
1097.000 0.493
1098.000 0.494
1099.000 0.494
1100.000 0.493
1101.000 0.494
1102.000 0.493
1103.000 0.493
1104.000 0.494
1105.000 0.493
1106.000 0.494
1107.000 0.493
1108.000 0.492
1109.000 0.493
1110.000 0.492
1111.000 0.492
1112.000 0.491
1113.000 0.490
1114.000 0.487
1115.000 0.484
1116.000 0.482
1117.000 0.481
1118.000 0.479
1119.000 0.482
1120.000 0.483
1121.000 0.486
1122.000 0.487
1123.000 0.485
1124.000 0.477
1125.000 0.477
1126.000 0.481
1127.000 0.478
1128.000 0.475
1129.000 0.472
1130.000 0.466
1131.000 0.462
1132.000 0.463
1133.000 0.470
1134.000 0.478
1135.000 0.481
1136.000 0.481
1137.000 0.481
1138.000 0.479
1139.000 0.477
1140.000 0.476
1141.000 0.476
1142.000 0.476
1143.000 0.474
1144.000 0.473
1145.000 0.477
1146.000 0.477
1147.000 0.475
1148.000 0.475
1149.000 0.475
1150.000 0.471
1151.000 0.467
1152.000 0.465
1153.000 0.461
1154.000 0.458
1155.000 0.456
1156.000 0.455
1157.000 0.455
1158.000 0.456
1159.000 0.456
1160.000 0.457
1161.000 0.457
1162.000 0.456
1163.000 0.456
1164.000 0.455
1165.000 0.455
1166.000 0.455
1167.000 0.456
1168.000 0.456
1169.000 0.457
1170.000 0.458
1171.000 0.459
1172.000 0.459
1173.000 0.459
1174.000 0.459
1175.000 0.458
1176.000 0.458
1177.000 0.458
1178.000 0.459
1179.000 0.459
1180.000 0.458
1181.000 0.458
1182.000 0.457
1183.000 0.456
1184.000 0.456
1185.000 0.458
1186.000 0.459
1187.000 0.459
1188.000 0.459
1189.000 0.459
1190.000 0.459
1191.000 0.459
1192.000 0.460
1193.000 0.460
1194.000 0.460
1195.000 0.460
1196.000 0.459
1197.000 0.459
1198.000 0.460
1199.000 0.460
1200.000 0.462
1201.000 0.462
1202.000 0.461
1203.000 0.461
1204.000 0.461
1205.000 0.461
1206.000 0.462
1207.000 0.464
1208.000 0.464
1209.000 0.465
1210.000 0.465
1211.000 0.464
1212.000 0.465
1213.000 0.465
1214.000 0.465
1215.000 0.466
1216.000 0.467
1217.000 0.468
1218.000 0.468
1219.000 0.467
1220.000 0.468
1221.000 0.467
1222.000 0.467
1223.000 0.468
1224.000 0.469
1225.000 0.471
1226.000 0.472
1227.000 0.472
1228.000 0.472
1229.000 0.473
1230.000 0.473
1231.000 0.474
1232.000 0.475
1233.000 0.476
1234.000 0.476
1235.000 0.477
1236.000 0.477
1237.000 0.477
1238.000 0.477
1239.000 0.477
1240.000 0.476
1241.000 0.476
1242.000 0.477
1243.000 0.478
1244.000 0.478
1245.000 0.479
1246.000 0.479
1247.000 0.479
1248.000 0.481
1249.000 0.482
1250.000 0.483
1251.000 0.484
1252.000 0.485
1253.000 0.485
1254.000 0.485
1255.000 0.486
1256.000 0.485
1257.000 0.485
1258.000 0.486
1259.000 0.486
1260.000 0.486
1261.000 0.486
1262.000 0.486
1263.000 0.486
1264.000 0.486
1265.000 0.486
1266.000 0.487
1267.000 0.487
1268.000 0.487
1269.000 0.486
1270.000 0.486
1271.000 0.486
1272.000 0.487
1273.000 0.488
1274.000 0.490
1275.000 0.491
1276.000 0.492
1277.000 0.492
1278.000 0.492
1279.000 0.491
1280.000 0.490
1281.000 0.490
1282.000 0.490
1283.000 0.489
1284.000 0.489
1285.000 0.489
1286.000 0.489
1287.000 0.489
1288.000 0.490
1289.000 0.489
1290.000 0.490
1291.000 0.490
1292.000 0.490
1293.000 0.490
1294.000 0.490
1295.000 0.489
1296.000 0.488
1297.000 0.488
1298.000 0.488
1299.000 0.486
1300.000 0.486
1301.000 0.485
1302.000 0.485
1303.000 0.485
1304.000 0.484
1305.000 0.483
1306.000 0.483
1307.000 0.483
1308.000 0.482
1309.000 0.482
1310.000 0.481
1311.000 0.479
1312.000 0.478
1313.000 0.476
1314.000 0.474
1315.000 0.474
1316.000 0.473
1317.000 0.473
1318.000 0.472
1319.000 0.471
1320.000 0.470
1321.000 0.469
1322.000 0.466
1323.000 0.465
1324.000 0.462
1325.000 0.459
1326.000 0.457
1327.000 0.455
1328.000 0.453
1329.000 0.451
1330.000 0.449
1331.000 0.449
1332.000 0.449
1333.000 0.449
1334.000 0.452
1335.000 0.452
1336.000 0.450
1337.000 0.448
1338.000 0.443
1339.000 0.441
1340.000 0.441
1341.000 0.441
1342.000 0.445
1343.000 0.449
1344.000 0.454
1345.000 0.460
1346.000 0.471
1347.000 0.477
1348.000 0.479
1349.000 0.473
1350.000 0.466
1351.000 0.428
1352.000 0.412
1353.000 0.429
1354.000 0.434
1355.000 0.551
1356.000 0.516
1357.000 0.593
1358.000 0.662
1359.000 0.578
1360.000 0.536
1361.000 0.479
1362.000 0.415
1363.000 0.468
1364.000 0.230
1365.000 0.417
1366.000 0.249
1367.000 0.536
1368.000 0.563
1369.000 0.385
1370.000 0.512
1371.000 0.388
1372.000 0.225
1373.000 0.425
1374.000 0.468
1375.000 0.727
1376.000 0.688
1377.000 0.599
1378.000 0.595
1379.000 0.752
1380.000 0.726
1381.000 0.690
1382.000 0.265
1383.000 0.332
1384.000 0.268
1385.000 0.379
1386.000 0.292
1387.000 0.264
1388.000 0.252
1389.000 0.126
1390.000 0.314
1391.000 0.354
1392.000 0.300
1393.000 0.299
1394.000 0.577
1395.000 0.337
1396.000 0.123
1397.000 0.274
1398.000 0.295
1399.000 0.407
1400.000 0.480
1401.000 0.443
1402.000 0.633
1403.000 0.496
1404.000 0.328
1405.000 0.482
1406.000 0.366
1407.000 0.315
1408.000 0.288
1409.000 0.241
1410.000 0.165
1411.000 0.419
1412.000 0.388
1413.000 0.283
1414.000 0.257
1415.000 0.234
1416.000 0.326
1417.000 0.296
1418.000 0.276
1419.000 0.102
1420.000 0.120
1421.000 0.268
1422.000 0.444
1423.000 0.592
1424.000 0.341
1425.000 0.300
1426.000 0.264
1427.000 0.343
1428.000 0.261
1429.000 0.285
1430.000 0.337
1431.000 0.325
1432.000 0.316
1433.000 0.296
1434.000 0.270
1435.000 0.348
1436.000 0.208
1437.000 0.374
1438.000 0.322
1439.000 0.396
1440.000 0.419
1441.000 0.410
1442.000 0.369
1443.000 0.345
1444.000 0.315
1445.000 0.247
1446.000 0.228
1447.000 0.193
1448.000 0.209
1449.000 0.172
1450.000 0.170
1451.000 0.192
1452.000 0.212
1453.000 0.227
1454.000 0.249
1455.000 0.250
1456.000 0.226
1457.000 0.215
1458.000 0.203
1459.000 0.193
1460.000 0.198
1461.000 0.174
1462.000 0.159
1463.000 0.152
1464.000 0.158
1465.000 0.170
1466.000 0.190
1467.000 0.199
1468.000 0.220
1469.000 0.228
1470.000 0.204
1471.000 0.208
1472.000 0.241
1473.000 0.245
1474.000 0.255
1475.000 0.234
1476.000 0.183
1477.000 0.173
1478.000 0.175
1479.000 0.169
1480.000 0.165
1481.000 0.166
1482.000 0.159
1483.000 0.162
1484.000 0.179
1485.000 0.188
1486.000 0.203
1487.000 0.204
1488.000 0.191
1489.000 0.190
1490.000 0.188
1491.000 0.189
1492.000 0.199
1493.000 0.204
1494.000 0.205
1495.000 0.206
1496.000 0.206
1497.000 0.206
1498.000 0.208
1499.000 0.207
1500.000 0.209
1501.000 0.211
1502.000 0.213
1503.000 0.211
1504.000 0.209
1505.000 0.207
1506.000 0.207
1507.000 0.206
1508.000 0.208
1509.000 0.214
1510.000 0.216
1511.000 0.219
1512.000 0.220
1513.000 0.217
1514.000 0.219
1515.000 0.224
1516.000 0.226
1517.000 0.229
1518.000 0.229
1519.000 0.225
1520.000 0.226
1521.000 0.227
1522.000 0.230
1523.000 0.236
1524.000 0.239
1525.000 0.240
1526.000 0.241
1527.000 0.239
1528.000 0.240
1529.000 0.240
1530.000 0.242
1531.000 0.245
1532.000 0.247
1533.000 0.248
1534.000 0.250
1535.000 0.249
1536.000 0.250
1537.000 0.253
1538.000 0.255
1539.000 0.257
1540.000 0.260
1541.000 0.261
1542.000 0.261
1543.000 0.260
1544.000 0.260
1545.000 0.260
1546.000 0.261
1547.000 0.264
1548.000 0.266
1549.000 0.269
1550.000 0.271
1551.000 0.274
1552.000 0.275
1553.000 0.275
1554.000 0.276
1555.000 0.277
1556.000 0.277
1557.000 0.279
1558.000 0.280
1559.000 0.278
1560.000 0.279
1561.000 0.281
1562.000 0.283
1563.000 0.285
1564.000 0.287
1565.000 0.288
1566.000 0.288
1567.000 0.287
1568.000 0.288
1569.000 0.289
1570.000 0.290
1571.000 0.292
1572.000 0.294
1573.000 0.294
1574.000 0.295
1575.000 0.296
1576.000 0.297
1577.000 0.298
1578.000 0.298
1579.000 0.298
1580.000 0.298
1581.000 0.299
1582.000 0.300
1583.000 0.301
1584.000 0.303
1585.000 0.305
1586.000 0.306
1587.000 0.307
1588.000 0.307
1589.000 0.305
1590.000 0.305
1591.000 0.304
1592.000 0.304
1593.000 0.308
1594.000 0.309
1595.000 0.310
1596.000 0.311
1597.000 0.312
1598.000 0.312
1599.000 0.312
1600.000 0.312
1601.000 0.311
1602.000 0.311
1603.000 0.315
1604.000 0.317
1605.000 0.321
1606.000 0.322
1607.000 0.319
1608.000 0.320
1609.000 0.322
1610.000 0.323
1611.000 0.328
1612.000 0.329
1613.000 0.327
1614.000 0.325
1615.000 0.322
1616.000 0.320
1617.000 0.322
1618.000 0.323
1619.000 0.326
1620.000 0.327
1621.000 0.328
1622.000 0.329
1623.000 0.329
1624.000 0.328
1625.000 0.328
1626.000 0.328
1627.000 0.330
1628.000 0.331
1629.000 0.334
1630.000 0.336
1631.000 0.338
1632.000 0.339
1633.000 0.336
1634.000 0.335
1635.000 0.332
1636.000 0.332
1637.000 0.334
1638.000 0.335
1639.000 0.340
1640.000 0.342
1641.000 0.345
1642.000 0.345
1643.000 0.342
1644.000 0.340
1645.000 0.338
1646.000 0.336
1647.000 0.339
1648.000 0.340
1649.000 0.340
1650.000 0.341
1651.000 0.342
1652.000 0.342
1653.000 0.344
1654.000 0.344
1655.000 0.342
1656.000 0.341
1657.000 0.338
1658.000 0.338
1659.000 0.338
1660.000 0.339
1661.000 0.343
1662.000 0.344
1663.000 0.345
1664.000 0.344
1665.000 0.341
1666.000 0.340
1667.000 0.340
1668.000 0.340
1669.000 0.341
1670.000 0.342
1671.000 0.343
1672.000 0.344
1673.000 0.344
1674.000 0.344
1675.000 0.343
1676.000 0.342
1677.000 0.341
1678.000 0.341
1679.000 0.341
1680.000 0.341
1681.000 0.343
1682.000 0.343
1683.000 0.344
1684.000 0.345
1685.000 0.347
1686.000 0.346
1687.000 0.344
1688.000 0.341
1689.000 0.338
1690.000 0.338
1691.000 0.338
1692.000 0.339
1693.000 0.340
1694.000 0.340
1695.000 0.340
1696.000 0.340
1697.000 0.341
1698.000 0.339
1699.000 0.337
1700.000 0.336
1701.000 0.335
1702.000 0.335
1703.000 0.338
1704.000 0.339
1705.000 0.341
1706.000 0.341
1707.000 0.342
1708.000 0.342
1709.000 0.340
1710.000 0.340
1711.000 0.340
1712.000 0.336
1713.000 0.332
1714.000 0.330
1715.000 0.330
1716.000 0.331
1717.000 0.335
1718.000 0.338
1719.000 0.337
1720.000 0.334
1721.000 0.330
1722.000 0.324
1723.000 0.321
1724.000 0.322
1725.000 0.322
1726.000 0.323
1727.000 0.324
1728.000 0.322
1729.000 0.321
1730.000 0.322
1731.000 0.321
1732.000 0.321
1733.000 0.324
1734.000 0.326
1735.000 0.325
1736.000 0.332
1737.000 0.332
1738.000 0.328
1739.000 0.327
1740.000 0.325
1741.000 0.323
1742.000 0.327
1743.000 0.324
1744.000 0.314
1745.000 0.312
1746.000 0.314
1747.000 0.314
1748.000 0.321
1749.000 0.321
1750.000 0.312
1751.000 0.310
1752.000 0.310
1753.000 0.308
1754.000 0.305
1755.000 0.305
1756.000 0.302
1757.000 0.301
1758.000 0.304
1759.000 0.304
1760.000 0.307
1761.000 0.314
1762.000 0.314
1763.000 0.310
1764.000 0.308
1765.000 0.299
1766.000 0.292
1767.000 0.293
1768.000 0.294
1769.000 0.298
1770.000 0.305
1771.000 0.304
1772.000 0.298
1773.000 0.299
1774.000 0.300
1775.000 0.303
1776.000 0.309
1777.000 0.308
1778.000 0.307
1779.000 0.305
1780.000 0.302
1781.000 0.313
1782.000 0.314
1783.000 0.308
1784.000 0.311
1785.000 0.296
1786.000 0.293
1787.000 0.298
1788.000 0.302
1789.000 0.318
1790.000 0.315
1791.000 0.306
1792.000 0.300
1793.000 0.285
1794.000 0.315
1795.000 0.346
1796.000 0.391
1797.000 0.481
1798.000 0.507
1799.000 0.497
1800.000 0.481
1801.000 0.484
1802.000 0.410
1803.000 0.427
1804.000 0.448
1805.000 0.477
1806.000 0.544
1807.000 0.485
1808.000 0.415
1809.000 0.402
1810.000 0.495
1811.000 0.578
1812.000 0.447
1813.000 0.421
1814.000 0.424
1815.000 0.403
1816.000 0.394
1817.000 0.497
1818.000 0.538
1819.000 0.542
1820.000 0.584
1821.000 0.567
1822.000 0.479
1823.000 0.533
1824.000 0.563
1825.000 0.339
1826.000 0.516
1827.000 0.471
1828.000 0.654
1829.000 0.534
1830.000 0.416
1831.000 0.286
1832.000 0.169
1833.000 0.130
1834.000 0.380
1835.000 0.581
1836.000 0.553
1837.000 0.523
1838.000 0.632
1839.000 0.525
1840.000 0.395
1841.000 0.369
1842.000 0.377
1843.000 0.271
1844.000 0.485
1845.000 0.518
1846.000 0.541
1847.000 0.632
1848.000 0.635
1849.000 0.456
1850.000 0.361
1851.000 0.276
1852.000 0.337
1853.000 0.283
1854.000 0.313
1855.000 0.342
1856.000 0.624
1857.000 0.713
1858.000 0.604
1859.000 0.610
1860.000 0.709
1861.000 0.813
1862.000 0.841
1863.000 0.578
1864.000 0.466
1865.000 0.454
1866.000 0.631
1867.000 0.618
1868.000 0.627
1869.000 0.611
1870.000 0.517
1871.000 0.539
1872.000 0.526
1873.000 0.334
1874.000 0.353
1875.000 0.312
1876.000 0.318
1877.000 0.442
1878.000 0.343
1879.000 0.489
1880.000 0.672
1881.000 0.809
1882.000 0.807
1883.000 0.796
1884.000 0.686
1885.000 0.850
1886.000 0.834
1887.000 0.833
1888.000 0.826
1889.000 0.550
1890.000 0.476
1891.000 0.474
1892.000 0.527
1893.000 0.566
1894.000 0.574
1895.000 0.429
1896.000 0.248
1897.000 0.378
1898.000 0.537
1899.000 0.494
1900.000 0.376
1901.000 0.478
1902.000 0.538
1903.000 0.399
1904.000 0.204
1905.000 0.233
1906.000 0.237
1907.000 0.263
1908.000 0.377
1909.000 0.330
1910.000 0.329
1911.000 0.467
1912.000 0.555
1913.000 0.657
1914.000 0.615
1915.000 0.676
1916.000 0.666
1917.000 0.606
1918.000 0.598
1919.000 0.756
1920.000 0.687
1921.000 0.674
1922.000 0.713
1923.000 0.674
1924.000 0.614
1925.000 0.545
1926.000 0.443
1927.000 0.403
1928.000 0.345
1929.000 0.352
1930.000 0.277
1931.000 0.227
1932.000 0.205
1933.000 0.181
1934.000 0.175
1935.000 0.173
1936.000 0.192
1937.000 0.268
1938.000 0.496
1939.000 0.656
1940.000 0.373
1941.000 0.385
1942.000 0.368
1943.000 0.342
1944.000 0.285
1945.000 0.424
1946.000 0.555
1947.000 0.457
1948.000 0.693
1949.000 0.616
1950.000 0.566
1951.000 0.527
1952.000 0.399
1953.000 0.236
1954.000 0.728
1955.000 0.314
1956.000 0.356
1957.000 0.449
1958.000 0.307
1959.000 0.161
1960.000 0.343
1961.000 0.346
1962.000 0.309
1963.000 0.218
1964.000 0.191
1965.000 0.201
1966.000 0.305
1967.000 0.398
1968.000 0.482
1969.000 0.351
1970.000 0.315
1971.000 0.306
1972.000 0.302
1973.000 0.348
1974.000 0.317
1975.000 0.303
1976.000 0.240
1977.000 0.205
1978.000 0.195
1979.000 0.235
1980.000 0.172
1981.000 0.163
1982.000 0.133
1983.000 0.122
1984.000 0.128
1985.000 0.153
1986.000 0.171
1987.000 0.211
1988.000 0.238
1989.000 0.250
1990.000 0.270
1991.000 0.265
1992.000 0.270
1993.000 0.289
1994.000 0.262
1995.000 0.314
1996.000 0.339
1997.000 0.291
1998.000 0.247
1999.000 0.214
2000.000 0.212
2001.000 0.219
2002.000 0.253
2003.000 0.267
2004.000 0.227
2005.000 0.260
2006.000 0.266
2007.000 0.341
2008.000 0.374
2009.000 0.320
2010.000 0.290
2011.000 0.265
2012.000 0.282
2013.000 0.267
2014.000 0.250
2015.000 0.248
2016.000 0.229
2017.000 0.204
2018.000 0.219
2019.000 0.209
2020.000 0.195
2021.000 0.190
2022.000 0.191
2023.000 0.201
2024.000 0.209
2025.000 0.188
2026.000 0.178
2027.000 0.175
2028.000 0.198
2029.000 0.203
2030.000 0.216
2031.000 0.217
2032.000 0.196
2033.000 0.187
2034.000 0.186
2035.000 0.180
2036.000 0.178
2037.000 0.166
2038.000 0.158
2039.000 0.157
2040.000 0.162
2041.000 0.168
2042.000 0.168
2043.000 0.170
2044.000 0.173
2045.000 0.178
2046.000 0.174
2047.000 0.166
2048.000 0.157
2049.000 0.136
2050.000 0.133
2051.000 0.141
2052.000 0.135
2053.000 0.148
2054.000 0.158
2055.000 0.188
2056.000 0.207
2057.000 0.181
2058.000 0.165
2059.000 0.165
2060.000 0.187
2061.000 0.187
2062.000 0.171
2063.000 0.175
2064.000 0.175
2065.000 0.184
2066.000 0.211
2067.000 0.231
2068.000 0.233
2069.000 0.240
2070.000 0.218
2071.000 0.210
2072.000 0.207
2073.000 0.198
2074.000 0.202
2075.000 0.228
2076.000 0.229
2077.000 0.218
2078.000 0.214
2079.000 0.203
2080.000 0.193
2081.000 0.180
2082.000 0.181
2083.000 0.195
2084.000 0.200
2085.000 0.204
2086.000 0.220
2087.000 0.217
2088.000 0.191
2089.000 0.186
2090.000 0.181
2091.000 0.183
2092.000 0.195
2093.000 0.202
2094.000 0.212
2095.000 0.218
2096.000 0.216
2097.000 0.220
2098.000 0.232
2099.000 0.232
2100.000 0.233
2101.000 0.251
2102.000 0.246
2103.000 0.245
2104.000 0.247
2105.000 0.256
2106.000 0.249
2107.000 0.231
2108.000 0.223
2109.000 0.206
2110.000 0.199
2111.000 0.207
2112.000 0.205
2113.000 0.198
2114.000 0.196
2115.000 0.193
2116.000 0.193
2117.000 0.201
2118.000 0.202
2119.000 0.203
2120.000 0.217
2121.000 0.212
2122.000 0.213
2123.000 0.213
2124.000 0.206
2125.000 0.203
2126.000 0.205
2127.000 0.206
2128.000 0.204
2129.000 0.205
2130.000 0.207
2131.000 0.208
2132.000 0.204
2133.000 0.204
2134.000 0.207
2135.000 0.207
2136.000 0.211
2137.000 0.208
2138.000 0.199
2139.000 0.200
2140.000 0.199
2141.000 0.196
2142.000 0.198
2143.000 0.205
2144.000 0.206
2145.000 0.208
2146.000 0.207
2147.000 0.200
2148.000 0.200
2149.000 0.202
2150.000 0.203
2151.000 0.204
2152.000 0.205
2153.000 0.206
2154.000 0.207
2155.000 0.207
2156.000 0.210
2157.000 0.213
2158.000 0.209
2159.000 0.214
2160.000 0.215
2161.000 0.211
2162.000 0.201
2163.000 0.196
2164.000 0.183
2165.000 0.186
2166.000 0.204
2167.000 0.208
2168.000 0.212
2169.000 0.220
2170.000 0.223
2171.000 0.229
2172.000 0.248
2173.000 0.254
2174.000 0.244
2175.000 0.243
2176.000 0.242
2177.000 0.242
2178.000 0.236
2179.000 0.227
2180.000 0.219
2181.000 0.215
2182.000 0.215
2183.000 0.222
2184.000 0.225
2185.000 0.224
2186.000 0.230
2187.000 0.252
2188.000 0.252
2189.000 0.239
2190.000 0.230
2191.000 0.210
2192.000 0.197
2193.000 0.183
2194.000 0.179
2195.000 0.174
2196.000 0.180
2197.000 0.211
2198.000 0.224
2199.000 0.230
2200.000 0.235
2201.000 0.214
2202.000 0.214
2203.000 0.229
2204.000 0.241
2205.000 0.269
2206.000 0.273
2207.000 0.262
2208.000 0.259
2209.000 0.251
2210.000 0.232
2211.000 0.229
2212.000 0.234
2213.000 0.231
2214.000 0.230
2215.000 0.231
2216.000 0.225
2217.000 0.228
2218.000 0.243
2219.000 0.252
2220.000 0.258
2221.000 0.263
2222.000 0.267
2223.000 0.267
2224.000 0.264
2225.000 0.259
2226.000 0.253
2227.000 0.240
2228.000 0.227
2229.000 0.237
2230.000 0.238
2231.000 0.235
2232.000 0.238
2233.000 0.214
2234.000 0.212
2235.000 0.214
2236.000 0.208
2237.000 0.230
2238.000 0.232
2239.000 0.225
2240.000 0.225
2241.000 0.222
2242.000 0.214
2243.000 0.205
2244.000 0.196
2245.000 0.184
2246.000 0.176
2247.000 0.175
2248.000 0.173
2249.000 0.168
2250.000 0.167
2251.000 0.173
2252.000 0.179
2253.000 0.193
2254.000 0.204
2255.000 0.225
2256.000 0.237
2257.000 0.241
2258.000 0.233
2259.000 0.238
2260.000 0.231
2261.000 0.228
2262.000 0.242
2263.000 0.241
2264.000 0.255
2265.000 0.246
2266.000 0.231
2267.000 0.222
2268.000 0.209
2269.000 0.188
2270.000 0.190
2271.000 0.189
2272.000 0.184
2273.000 0.191
2274.000 0.212
2275.000 0.210
2276.000 0.217
2277.000 0.210
2278.000 0.195
2279.000 0.191
2280.000 0.187
2281.000 0.175
2282.000 0.175
2283.000 0.146
2284.000 0.152
2285.000 0.157
2286.000 0.191
2287.000 0.213
2288.000 0.213
2289.000 0.227
2290.000 0.256
2291.000 0.263
2292.000 0.273
2293.000 0.274
2294.000 0.219
2295.000 0.210
2296.000 0.200
2297.000 0.208
2298.000 0.254
2299.000 0.260
2300.000 0.269
2301.000 0.269
2302.000 0.230
2303.000 0.212
2304.000 0.216
2305.000 0.218
2306.000 0.245
2307.000 0.271
2308.000 0.293
2309.000 0.260
2310.000 0.275
2311.000 0.256
2312.000 0.227
2313.000 0.211
2314.000 0.192
2315.000 0.193
2316.000 0.171
2317.000 0.167
2318.000 0.191
2319.000 0.202
2320.000 0.257
2321.000 0.284
2322.000 0.209
2323.000 0.186
2324.000 0.173
2325.000 0.142
2326.000 0.132
2327.000 0.180
2328.000 0.196
2329.000 0.204
2330.000 0.202
2331.000 0.170
2332.000 0.159
2333.000 0.159
2334.000 0.205
2335.000 0.165
2336.000 0.164
2337.000 0.151
2338.000 0.147
2339.000 0.163
2340.000 0.138
2341.000 0.189
2342.000 0.240
2343.000 0.311
2344.000 0.321
2345.000 0.410
2346.000 0.419
2347.000 0.361
2348.000 0.399
2349.000 0.406
2350.000 0.261
2351.000 0.405
2352.000 0.326
2353.000 0.396
2354.000 0.283
2355.000 0.250
2356.000 0.260
2357.000 0.234
2358.000 0.177
2359.000 0.162
2360.000 0.173
2361.000 0.154
2362.000 0.249
2363.000 0.252
2364.000 0.235
2365.000 0.301
2366.000 0.353
2367.000 0.200
2368.000 0.202
2369.000 0.196
2370.000 0.151
2371.000 0.232
2372.000 0.460
2373.000 0.275
2374.000 0.163
2375.000 0.161
2376.000 0.319
2377.000 0.333
2378.000 0.352
2379.000 0.385
2380.000 0.288
2381.000 0.359
2382.000 0.282
2383.000 0.330
2384.000 0.629
2385.000 0.528
2386.000 0.465
2387.000 0.661
2388.000 0.391
2389.000 0.430
2390.000 0.293
2391.000 0.380
2392.000 0.293
2393.000 0.127
2394.000 0.273
2395.000 0.124
2396.000 0.144
2397.000 0.162
2398.000 0.222
2399.000 0.293
2400.000 0.433
2401.000 0.206
2402.000 0.298
2403.000 0.541
2404.000 0.498
2405.000 0.325
2406.000 0.250
2407.000 0.450
2408.000 0.531
2409.000 0.121
2410.000 0.393
2411.000 0.201
2412.000 0.113
2413.000 0.169
2414.000 0.248
2415.000 0.503
2416.000 0.271
2417.000 0.429
2418.000 0.676
2419.000 0.406
2420.000 0.403
2421.000 0.423
2422.000 0.459
2423.000 0.366
2424.000 0.356
2425.000 0.411
2426.000 0.476
2427.000 0.268
2428.000 0.354
2429.000 0.346
2430.000 0.204
2431.000 0.519
2432.000 0.448
2433.000 0.417
2434.000 0.455
2435.000 0.432
2436.000 0.473
2437.000 0.177
2438.000 0.526
2439.000 0.436
2440.000 0.314
2441.000 0.385
2442.000 0.454
2443.000 0.553
2444.000 0.330
2445.000 0.206
2446.000 0.357
2447.000 0.516
2448.000 0.638
2449.000 0.406
2450.000 0.497
2451.000 0.450
2452.000 0.514
2453.000 0.384
2454.000 0.624
2455.000 0.464
2456.000 0.405
2457.000 0.258
2458.000 0.149
2459.000 0.297
2460.000 0.263
2461.000 0.366
2462.000 0.478
2463.000 0.380
2464.000 0.263
2465.000 0.205
2466.000 0.694
2467.000 0.525
2468.000 0.562
2469.000 0.454
2470.000 0.495
2471.000 0.284
2472.000 0.061
2473.000 0.305
2474.000 0.354
2475.000 0.661
2476.000 0.511
2477.000 0.338
2478.000 0.328
2479.000 0.588
2480.000 0.583
2481.000 0.703
2482.000 0.338
2483.000 0.400
2484.000 0.265
2485.000 0.359
2486.000 0.645
2487.000 0.445
2488.000 0.447
2489.000 0.313
2490.000 0.258
2491.000 0.268
2492.000 0.329
2493.000 0.644
2494.000 0.564
2495.000 0.458
2496.000 0.491
2497.000 0.449
2498.000 0.378
2499.000 0.447
2500.000 0.424
