391.000 0.057
392.000 0.059
393.000 0.060
394.000 0.063
395.000 0.062
396.000 0.059
397.000 0.058
398.000 0.061
399.000 0.060
400.000 0.059
401.000 0.061
402.000 0.059
403.000 0.058
404.000 0.059
405.000 0.059
406.000 0.061
407.000 0.061
408.000 0.060
409.000 0.062
410.000 0.060
411.000 0.059
412.000 0.062
413.000 0.063
414.000 0.063
415.000 0.063
416.000 0.061
417.000 0.056
418.000 0.057
419.000 0.062
420.000 0.065
421.000 0.064
422.000 0.066
423.000 0.067
424.000 0.061
425.000 0.061
426.000 0.064
427.000 0.063
428.000 0.061
429.000 0.062
430.000 0.066
431.000 0.067
432.000 0.066
433.000 0.065
434.000 0.065
435.000 0.065
436.000 0.064
437.000 0.063
438.000 0.064
439.000 0.064
440.000 0.064
441.000 0.065
442.000 0.065
443.000 0.065
444.000 0.065
445.000 0.064
446.000 0.064
447.000 0.064
448.000 0.065
449.000 0.065
450.000 0.065
451.000 0.067
452.000 0.069
453.000 0.068
454.000 0.066
455.000 0.066
456.000 0.068
457.000 0.068
458.000 0.068
459.000 0.068
460.000 0.069
461.000 0.066
462.000 0.066
463.000 0.068
464.000 0.068
465.000 0.069
466.000 0.069
467.000 0.068
468.000 0.069
469.000 0.069
470.000 0.069
471.000 0.070
472.000 0.069
473.000 0.069
474.000 0.069
475.000 0.070
476.000 0.069
477.000 0.069
478.000 0.070
479.000 0.069
480.000 0.068
481.000 0.069
482.000 0.068
483.000 0.070
484.000 0.072
485.000 0.072
486.000 0.071
487.000 0.070
488.000 0.071
489.000 0.070
490.000 0.072
491.000 0.072
492.000 0.071
493.000 0.072
494.000 0.073
495.000 0.073
496.000 0.072
497.000 0.072
498.000 0.071
499.000 0.071
500.000 0.074
501.000 0.075
502.000 0.074
503.000 0.074
504.000 0.077
505.000 0.076
506.000 0.076
507.000 0.078
508.000 0.079
509.000 0.079
510.000 0.078
511.000 0.080
512.000 0.081
513.000 0.082
514.000 0.083
515.000 0.085
516.000 0.086
517.000 0.087
518.000 0.090
519.000 0.090
520.000 0.092
521.000 0.095
522.000 0.098
523.000 0.101
524.000 0.102
525.000 0.103
526.000 0.106
527.000 0.108
528.000 0.109
529.000 0.111
530.000 0.112
531.000 0.114
532.000 0.115
533.000 0.116
534.000 0.117
535.000 0.119
536.000 0.120
537.000 0.121
538.000 0.121
539.000 0.121
540.000 0.122
541.000 0.123
542.000 0.123
543.000 0.123
544.000 0.122
545.000 0.123
546.000 0.124
547.000 0.124
548.000 0.124
549.000 0.124
550.000 0.124
551.000 0.125
552.000 0.125
553.000 0.125
554.000 0.126
555.000 0.125
556.000 0.123
557.000 0.123
558.000 0.123
559.000 0.122
560.000 0.121
561.000 0.121
562.000 0.121
563.000 0.120
564.000 0.119
565.000 0.118
566.000 0.116
567.000 0.114
568.000 0.113
569.000 0.113
570.000 0.112
571.000 0.110
572.000 0.109
573.000 0.108
574.000 0.106
575.000 0.106
576.000 0.105
577.000 0.104
578.000 0.104
579.000 0.103
580.000 0.102
581.000 0.102
582.000 0.101
583.000 0.100
584.000 0.100
585.000 0.100
586.000 0.100
587.000 0.100
588.000 0.099
589.000 0.098
590.000 0.098
591.000 0.098
592.000 0.097
593.000 0.096
594.000 0.096
595.000 0.096
596.000 0.096
597.000 0.096
598.000 0.096
599.000 0.096
600.000 0.095
601.000 0.096
602.000 0.095
603.000 0.095
604.000 0.096
605.000 0.095
606.000 0.096
607.000 0.096
608.000 0.094
609.000 0.094
610.000 0.094
611.000 0.093
612.000 0.093
613.000 0.093
614.000 0.092
615.000 0.091
616.000 0.092
617.000 0.091
618.000 0.091
619.000 0.093
620.000 0.093
621.000 0.092
622.000 0.091
623.000 0.092
624.000 0.092
625.000 0.093
626.000 0.092
627.000 0.093
628.000 0.092
629.000 0.092
630.000 0.092
631.000 0.091
632.000 0.091
633.000 0.092
634.000 0.093
635.000 0.092
636.000 0.092
637.000 0.092
638.000 0.092
639.000 0.092
640.000 0.093
641.000 0.092
642.000 0.090
643.000 0.090
644.000 0.090
645.000 0.089
646.000 0.089
647.000 0.090
648.000 0.091
649.000 0.090
650.000 0.090
651.000 0.090
652.000 0.090
653.000 0.091
654.000 0.091
655.000 0.090
656.000 0.090
657.000 0.092
658.000 0.092
659.000 0.092
660.000 0.094
661.000 0.094
662.000 0.092
663.000 0.093
664.000 0.095
665.000 0.096
666.000 0.096
667.000 0.096
668.000 0.097
669.000 0.097
670.000 0.097
671.000 0.098
672.000 0.098
673.000 0.098
674.000 0.101
675.000 0.101
676.000 0.102
677.000 0.104
678.000 0.106
679.000 0.106
680.000 0.105
681.000 0.106
682.000 0.108
683.000 0.108
684.000 0.109
685.000 0.110
686.000 0.110
687.000 0.110
688.000 0.112
689.000 0.112
690.000 0.113
691.000 0.115
692.000 0.116
693.000 0.119
694.000 0.122
695.000 0.126
696.000 0.130
697.000 0.134
698.000 0.139
699.000 0.144
700.000 0.150
701.000 0.155
702.000 0.162
703.000 0.168
704.000 0.174
705.000 0.180
706.000 0.186
707.000 0.192
708.000 0.198
709.000 0.205
710.000 0.211
711.000 0.216
712.000 0.222
713.000 0.228
714.000 0.234
715.000 0.239
716.000 0.245
717.000 0.250
718.000 0.257
719.000 0.264
720.000 0.270
721.000 0.276
722.000 0.281
723.000 0.285
724.000 0.291
725.000 0.297
726.000 0.302
727.000 0.307
728.000 0.312
729.000 0.316
730.000 0.321
731.000 0.326
732.000 0.330
733.000 0.334
734.000 0.338
735.000 0.342
736.000 0.345
737.000 0.349
738.000 0.352
739.000 0.356
740.000 0.358
741.000 0.362
742.000 0.364
743.000 0.367
744.000 0.369
745.000 0.371
746.000 0.373
747.000 0.376
748.000 0.378
749.000 0.379
750.000 0.381
751.000 0.382
752.000 0.383
753.000 0.385
754.000 0.386
755.000 0.387
756.000 0.389
757.000 0.389
758.000 0.390
759.000 0.390
760.000 0.390
761.000 0.390
762.000 0.389
763.000 0.390
764.000 0.391
765.000 0.393
766.000 0.394
767.000 0.395
768.000 0.397
769.000 0.397
770.000 0.398
771.000 0.399
772.000 0.399
773.000 0.400
774.000 0.400
775.000 0.400
776.000 0.401
777.000 0.401
778.000 0.402
779.000 0.402
780.000 0.403
781.000 0.403
782.000 0.403
783.000 0.403
784.000 0.404
785.000 0.404
786.000 0.404
787.000 0.404
788.000 0.405
789.000 0.405
790.000 0.405
791.000 0.406
792.000 0.406
793.000 0.407
794.000 0.407
795.000 0.407
796.000 0.408
797.000 0.408
798.000 0.408
799.000 0.409
800.000 0.409
801.000 0.409
802.000 0.409
803.000 0.409
804.000 0.410
805.000 0.411
806.000 0.411
807.000 0.411
808.000 0.412
809.000 0.412
810.000 0.412
811.000 0.412
812.000 0.411
813.000 0.412
814.000 0.411
815.000 0.411
816.000 0.411
817.000 0.412
818.000 0.412
819.000 0.413
820.000 0.414
821.000 0.414
822.000 0.414
823.000 0.415
824.000 0.415
825.000 0.415
826.000 0.415
827.000 0.416
828.000 0.416
829.000 0.416
830.000 0.417
831.000 0.418
832.000 0.418
833.000 0.419
834.000 0.419
835.000 0.419
836.000 0.420
837.000 0.420
838.000 0.421
839.000 0.421
840.000 0.421
841.000 0.422
842.000 0.423
843.000 0.423
844.000 0.423
845.000 0.424
846.000 0.424
847.000 0.424
848.000 0.424
849.000 0.425
850.000 0.425
851.000 0.425
852.000 0.426
853.000 0.425
854.000 0.426
855.000 0.427
856.000 0.427
857.000 0.427
858.000 0.427
859.000 0.427
860.000 0.427
861.000 0.428
862.000 0.428
863.000 0.428
864.000 0.429
865.000 0.430
866.000 0.429
867.000 0.429
868.000 0.429
869.000 0.430
870.000 0.430
871.000 0.430
872.000 0.431
873.000 0.431
874.000 0.431
875.000 0.431
876.000 0.432
877.000 0.432
878.000 0.432
879.000 0.432
880.000 0.433
881.000 0.433
882.000 0.434
883.000 0.434
884.000 0.434
885.000 0.434
886.000 0.434
887.000 0.435
888.000 0.435
889.000 0.435
890.000 0.435
891.000 0.435
892.000 0.435
893.000 0.435
894.000 0.435
895.000 0.435
896.000 0.434
897.000 0.434
898.000 0.434
899.000 0.434
900.000 0.435
901.000 0.435
902.000 0.435
903.000 0.436
904.000 0.435
905.000 0.435
906.000 0.436
907.000 0.436
908.000 0.436
909.000 0.436
910.000 0.436
911.000 0.436
912.000 0.436
913.000 0.436
914.000 0.436
915.000 0.437
916.000 0.438
917.000 0.438
918.000 0.438
919.000 0.438
920.000 0.438
921.000 0.439
922.000 0.440
923.000 0.439
924.000 0.440
925.000 0.439
926.000 0.439
927.000 0.439
928.000 0.437
929.000 0.436
930.000 0.436
931.000 0.435
932.000 0.435
933.000 0.432
934.000 0.429
935.000 0.428
936.000 0.430
937.000 0.430
938.000 0.428
939.000 0.427
940.000 0.429
941.000 0.430
942.000 0.428
943.000 0.429
944.000 0.429
945.000 0.430
946.000 0.431
947.000 0.431
948.000 0.430
949.000 0.430
950.000 0.431
951.000 0.432
952.000 0.430
953.000 0.429
954.000 0.430
955.000 0.431
956.000 0.431
957.000 0.430
958.000 0.430
959.000 0.433
960.000 0.435
961.000 0.435
962.000 0.434
963.000 0.436
964.000 0.437
965.000 0.436
966.000 0.436
967.000 0.438
968.000 0.439
969.000 0.438
970.000 0.438
971.000 0.437
972.000 0.440
973.000 0.441
974.000 0.442
975.000 0.442
976.000 0.440
977.000 0.441
978.000 0.442
979.000 0.441
980.000 0.440
981.000 0.443
982.000 0.445
983.000 0.444
984.000 0.443
985.000 0.444
986.000 0.446
987.000 0.446
988.000 0.445
989.000 0.446
990.000 0.447
991.000 0.449
992.000 0.450
993.000 0.448
994.000 0.449
995.000 0.451
996.000 0.450
997.000 0.450
998.000 0.451
999.000 0.451
1000.000 0.452
1001.000 0.455
1002.000 0.455
1003.000 0.455
1004.000 0.455
1005.000 0.456
1006.000 0.457
1007.000 0.458
1008.000 0.458
1009.000 0.459
1010.000 0.459
1011.000 0.458
1012.000 0.459
1013.000 0.459
1014.000 0.459
1015.000 0.460
1016.000 0.461
1017.000 0.461
1018.000 0.461
1019.000 0.462
1020.000 0.462
1021.000 0.463
1022.000 0.462
1023.000 0.461
1024.000 0.462
1025.000 0.462
1026.000 0.463
1027.000 0.464
1028.000 0.464
1029.000 0.465
1030.000 0.466
1031.000 0.466
1032.000 0.466
1033.000 0.467
1034.000 0.467
1035.000 0.468
1036.000 0.468
1037.000 0.468
1038.000 0.468
1039.000 0.469
1040.000 0.469
1041.000 0.469
1042.000 0.469
1043.000 0.469
1044.000 0.468
1045.000 0.469
1046.000 0.470
1047.000 0.470
1048.000 0.471
1049.000 0.471
1050.000 0.471
1051.000 0.472
1052.000 0.472
1053.000 0.472
1054.000 0.472
1055.000 0.472
1056.000 0.472
1057.000 0.473
1058.000 0.474
1059.000 0.474
1060.000 0.474
1061.000 0.474
1062.000 0.474
1063.000 0.474
1064.000 0.475
1065.000 0.475
1066.000 0.475
1067.000 0.475
1068.000 0.475
1069.000 0.475
1070.000 0.476
1071.000 0.476
1072.000 0.476
1073.000 0.476
1074.000 0.477
1075.000 0.477
1076.000 0.477
1077.000 0.477
1078.000 0.477
1079.000 0.477
1080.000 0.478
1081.000 0.478
1082.000 0.479
1083.000 0.479
1084.000 0.479
1085.000 0.479
1086.000 0.479
1087.000 0.480
1088.000 0.480
1089.000 0.480
1090.000 0.480
1091.000 0.480
1092.000 0.480
1093.000 0.480
1094.000 0.479
1095.000 0.479
1096.000 0.479
1097.000 0.479
1098.000 0.479
1099.000 0.479
1100.000 0.479
1101.000 0.478
1102.000 0.478
1103.000 0.478
1104.000 0.478
1105.000 0.478
1106.000 0.477
1107.000 0.478
1108.000 0.477
1109.000 0.477
1110.000 0.476
1111.000 0.476
1112.000 0.475
1113.000 0.475
1114.000 0.475
1115.000 0.475
1116.000 0.475
1117.000 0.476
1118.000 0.475
1119.000 0.472
1120.000 0.469
1121.000 0.468
1122.000 0.463
1123.000 0.460
1124.000 0.463
1125.000 0.463
1126.000 0.464
1127.000 0.465
1128.000 0.467
1129.000 0.468
1130.000 0.469
1131.000 0.469
1132.000 0.468
1133.000 0.468
1134.000 0.467
1135.000 0.467
1136.000 0.467
1137.000 0.466
1138.000 0.466
1139.000 0.465
1140.000 0.464
1141.000 0.462
1142.000 0.460
1143.000 0.457
1144.000 0.457
1145.000 0.458
1146.000 0.458
1147.000 0.459
1148.000 0.460
1149.000 0.459
1150.000 0.458
1151.000 0.458
1152.000 0.457
1153.000 0.456
1154.000 0.457
1155.000 0.457
1156.000 0.458
1157.000 0.458
1158.000 0.458
1159.000 0.459
1160.000 0.459
1161.000 0.460
1162.000 0.461
1163.000 0.461
1164.000 0.461
1165.000 0.462
1166.000 0.462
1167.000 0.462
1168.000 0.461
1169.000 0.461
1170.000 0.461
1171.000 0.461
1172.000 0.462
1173.000 0.463
1174.000 0.464
1175.000 0.464
1176.000 0.464
1177.000 0.465
1178.000 0.465
1179.000 0.464
1180.000 0.464
1181.000 0.463
1182.000 0.463
1183.000 0.463
1184.000 0.464
1185.000 0.464
1186.000 0.464
1187.000 0.464
1188.000 0.465
1189.000 0.465
1190.000 0.465
1191.000 0.465
1192.000 0.465
1193.000 0.466
1194.000 0.465
1195.000 0.466
1196.000 0.466
1197.000 0.466
1198.000 0.467
1199.000 0.467
1200.000 0.467
1201.000 0.467
1202.000 0.468
1203.000 0.468
1204.000 0.468
1205.000 0.468
1206.000 0.468
1207.000 0.469
1208.000 0.469
1209.000 0.470
1210.000 0.470
1211.000 0.471
1212.000 0.471
1213.000 0.471
1214.000 0.471
1215.000 0.472
1216.000 0.473
1217.000 0.473
1218.000 0.474
1219.000 0.474
1220.000 0.474
1221.000 0.474
1222.000 0.475
1223.000 0.475
1224.000 0.476
1225.000 0.476
1226.000 0.477
1227.000 0.478
1228.000 0.479
1229.000 0.479
1230.000 0.479
1231.000 0.479
1232.000 0.479
1233.000 0.479
1234.000 0.479
1235.000 0.480
1236.000 0.480
1237.000 0.481
1238.000 0.482
1239.000 0.483
1240.000 0.483
1241.000 0.483
1242.000 0.484
1243.000 0.483
1244.000 0.484
1245.000 0.484
1246.000 0.485
1247.000 0.485
1248.000 0.485
1249.000 0.486
1250.000 0.487
1251.000 0.487
1252.000 0.488
1253.000 0.488
1254.000 0.488
1255.000 0.488
1256.000 0.488
1257.000 0.488
1258.000 0.488
1259.000 0.488
1260.000 0.488
1261.000 0.489
1262.000 0.489
1263.000 0.488
1264.000 0.489
1265.000 0.488
1266.000 0.488
1267.000 0.489
1268.000 0.489
1269.000 0.489
1270.000 0.490
1271.000 0.490
1272.000 0.491
1273.000 0.491
1274.000 0.491
1275.000 0.491
1276.000 0.492
1277.000 0.492
1278.000 0.492
1279.000 0.492
1280.000 0.493
1281.000 0.493
1282.000 0.493
1283.000 0.493
1284.000 0.493
1285.000 0.493
1286.000 0.493
1287.000 0.493
1288.000 0.492
1289.000 0.492
1290.000 0.492
1291.000 0.492
1292.000 0.493
1293.000 0.494
1294.000 0.493
1295.000 0.493
1296.000 0.492
1297.000 0.492
1298.000 0.492
1299.000 0.492
1300.000 0.492
1301.000 0.492
1302.000 0.491
1303.000 0.490
1304.000 0.490
1305.000 0.489
1306.000 0.488
1307.000 0.488
1308.000 0.487
1309.000 0.487
1310.000 0.486
1311.000 0.485
1312.000 0.484
1313.000 0.483
1314.000 0.482
1315.000 0.481
1316.000 0.481
1317.000 0.480
1318.000 0.480
1319.000 0.479
1320.000 0.478
1321.000 0.478
1322.000 0.477
1323.000 0.475
1324.000 0.474
1325.000 0.473
1326.000 0.472
1327.000 0.471
1328.000 0.468
1329.000 0.467
1330.000 0.466
1331.000 0.465
1332.000 0.464
1333.000 0.462
1334.000 0.459
1335.000 0.457
1336.000 0.456
1337.000 0.454
1338.000 0.453
1339.000 0.453
1340.000 0.453
1341.000 0.452
1342.000 0.451
1343.000 0.451
1344.000 0.447
1345.000 0.444
1346.000 0.442
1347.000 0.439
1348.000 0.438
1349.000 0.441
1350.000 0.440
1351.000 0.438
1352.000 0.432
1353.000 0.413
1354.000 0.391
1355.000 0.361
1356.000 0.339
1357.000 0.325
1358.000 0.277
1359.000 0.269
1360.000 0.284
1361.000 0.338
1362.000 0.367
1363.000 0.304
1364.000 0.343
1365.000 0.388
1366.000 0.477
1367.000 0.535
1368.000 0.590
1369.000 0.595
1370.000 0.506
1371.000 0.285
1372.000 0.303
1373.000 0.340
1374.000 0.388
1375.000 0.448
1376.000 0.535
1377.000 0.487
1378.000 0.341
1379.000 0.224
1380.000 0.449
1381.000 0.449
1382.000 0.330
1383.000 0.376
1384.000 0.742
1385.000 0.706
1386.000 0.665
1387.000 0.707
1388.000 0.514
1389.000 0.460
1390.000 0.392
1391.000 0.485
1392.000 0.571
1393.000 0.536
1394.000 0.421
1395.000 0.497
1396.000 0.424
1397.000 0.397
1398.000 0.372
1399.000 0.488
1400.000 0.604
1401.000 0.565
1402.000 0.527
1403.000 0.513
1404.000 0.456
1405.000 0.442
1406.000 0.423
1407.000 0.446
1408.000 0.335
1409.000 0.377
1410.000 0.424
1411.000 0.386
1412.000 0.321
1413.000 0.453
1414.000 0.571
1415.000 0.547
1416.000 0.491
1417.000 0.329
1418.000 0.333
1419.000 0.311
1420.000 0.338
1421.000 0.348
1422.000 0.313
1423.000 0.275
1424.000 0.249
1425.000 0.237
1426.000 0.241
1427.000 0.360
1428.000 0.376
1429.000 0.434
1430.000 0.434
1431.000 0.354
1432.000 0.307
1433.000 0.328
1434.000 0.318
1435.000 0.309
1436.000 0.330
1437.000 0.303
1438.000 0.266
1439.000 0.251
1440.000 0.221
1441.000 0.193
1442.000 0.182
1443.000 0.210
1444.000 0.213
1445.000 0.208
1446.000 0.212
1447.000 0.206
1448.000 0.208
1449.000 0.211
1450.000 0.208
1451.000 0.196
1452.000 0.209
1453.000 0.207
1454.000 0.192
1455.000 0.195
1456.000 0.200
1457.000 0.204
1458.000 0.210
1459.000 0.211
1460.000 0.211
1461.000 0.210
1462.000 0.205
1463.000 0.205
1464.000 0.225
1465.000 0.225
1466.000 0.225
1467.000 0.218
1468.000 0.201
1469.000 0.196
1470.000 0.196
1471.000 0.196
1472.000 0.191
1473.000 0.192
1474.000 0.185
1475.000 0.186
1476.000 0.184
1477.000 0.188
1478.000 0.199
1479.000 0.206
1480.000 0.215
1481.000 0.219
1482.000 0.218
1483.000 0.219
1484.000 0.215
1485.000 0.218
1486.000 0.227
1487.000 0.232
1488.000 0.239
1489.000 0.243
1490.000 0.242
1491.000 0.242
1492.000 0.239
1493.000 0.239
1494.000 0.242
1495.000 0.244
1496.000 0.249
1497.000 0.252
1498.000 0.253
1499.000 0.255
1500.000 0.256
1501.000 0.257
1502.000 0.258
1503.000 0.260
1504.000 0.262
1505.000 0.264
1506.000 0.265
1507.000 0.267
1508.000 0.267
1509.000 0.267
1510.000 0.269
1511.000 0.272
1512.000 0.273
1513.000 0.275
1514.000 0.276
1515.000 0.276
1516.000 0.277
1517.000 0.278
1518.000 0.280
1519.000 0.282
1520.000 0.283
1521.000 0.285
1522.000 0.286
1523.000 0.288
1524.000 0.289
1525.000 0.289
1526.000 0.291
1527.000 0.291
1528.000 0.293
1529.000 0.295
1530.000 0.297
1531.000 0.299
1532.000 0.301
1533.000 0.304
1534.000 0.305
1535.000 0.307
1536.000 0.307
1537.000 0.308
1538.000 0.307
1539.000 0.307
1540.000 0.307
1541.000 0.309
1542.000 0.311
1543.000 0.313
1544.000 0.315
1545.000 0.316
1546.000 0.317
1547.000 0.318
1548.000 0.319
1549.000 0.321
1550.000 0.322
1551.000 0.323
1552.000 0.325
1553.000 0.324
1554.000 0.326
1555.000 0.327
1556.000 0.329
1557.000 0.330
1558.000 0.331
1559.000 0.332
1560.000 0.334
1561.000 0.336
1562.000 0.337
1563.000 0.338
1564.000 0.339
1565.000 0.339
1566.000 0.339
1567.000 0.340
1568.000 0.340
1569.000 0.342
1570.000 0.342
1571.000 0.343
1572.000 0.345
1573.000 0.345
1574.000 0.346
1575.000 0.347
1576.000 0.348
1577.000 0.349
1578.000 0.351
1579.000 0.352
1580.000 0.353
1581.000 0.354
1582.000 0.355
1583.000 0.356
1584.000 0.357
1585.000 0.358
1586.000 0.359
1587.000 0.361
1588.000 0.362
1589.000 0.362
1590.000 0.363
1591.000 0.362
1592.000 0.362
1593.000 0.363
1594.000 0.364
1595.000 0.365
1596.000 0.366
1597.000 0.366
1598.000 0.367
1599.000 0.367
1600.000 0.368
1601.000 0.370
1602.000 0.370
1603.000 0.371
1604.000 0.372
1605.000 0.373
1606.000 0.374
1607.000 0.376
1608.000 0.377
1609.000 0.378
1610.000 0.378
1611.000 0.378
1612.000 0.379
1613.000 0.379
1614.000 0.379
1615.000 0.380
1616.000 0.380
1617.000 0.379
1618.000 0.379
1619.000 0.379
1620.000 0.379
1621.000 0.380
1622.000 0.381
1623.000 0.383
1624.000 0.384
1625.000 0.385
1626.000 0.385
1627.000 0.385
1628.000 0.385
1629.000 0.386
1630.000 0.387
1631.000 0.388
1632.000 0.389
1633.000 0.390
1634.000 0.390
1635.000 0.390
1636.000 0.389
1637.000 0.390
1638.000 0.390
1639.000 0.391
1640.000 0.391
1641.000 0.392
1642.000 0.392
1643.000 0.392
1644.000 0.392
1645.000 0.393
1646.000 0.394
1647.000 0.395
1648.000 0.395
1649.000 0.393
1650.000 0.393
1651.000 0.394
1652.000 0.394
1653.000 0.394
1654.000 0.395
1655.000 0.395
1656.000 0.395
1657.000 0.396
1658.000 0.396
1659.000 0.396
1660.000 0.396
1661.000 0.397
1662.000 0.397
1663.000 0.397
1664.000 0.397
1665.000 0.396
1666.000 0.396
1667.000 0.396
1668.000 0.396
1669.000 0.398
1670.000 0.399
1671.000 0.398
1672.000 0.398
1673.000 0.398
1674.000 0.398
1675.000 0.399
1676.000 0.399
1677.000 0.399
1678.000 0.400
1679.000 0.400
1680.000 0.400
1681.000 0.400
1682.000 0.400
1683.000 0.401
1684.000 0.400
1685.000 0.400
1686.000 0.400
1687.000 0.400
1688.000 0.399
1689.000 0.399
1690.000 0.399
1691.000 0.398
1692.000 0.397
1693.000 0.398
1694.000 0.398
1695.000 0.397
1696.000 0.397
1697.000 0.397
1698.000 0.396
1699.000 0.395
1700.000 0.395
1701.000 0.394
1702.000 0.393
1703.000 0.394
1704.000 0.394
1705.000 0.394
1706.000 0.394
1707.000 0.394
1708.000 0.393
1709.000 0.391
1710.000 0.392
1711.000 0.392
1712.000 0.392
1713.000 0.393
1714.000 0.392
1715.000 0.390
1716.000 0.390
1717.000 0.391
1718.000 0.392
1719.000 0.392
1720.000 0.390
1721.000 0.388
1722.000 0.385
1723.000 0.386
1724.000 0.386
1725.000 0.386
1726.000 0.384
1727.000 0.383
1728.000 0.383
1729.000 0.384
1730.000 0.383
1731.000 0.382
1732.000 0.379
1733.000 0.376
1734.000 0.377
1735.000 0.377
1736.000 0.376
1737.000 0.376
1738.000 0.376
1739.000 0.376
1740.000 0.378
1741.000 0.378
1742.000 0.379
1743.000 0.379
1744.000 0.378
1745.000 0.378
1746.000 0.376
1747.000 0.374
1748.000 0.372
1749.000 0.370
1750.000 0.369
1751.000 0.367
1752.000 0.364
1753.000 0.363
1754.000 0.361
1755.000 0.361
1756.000 0.362
1757.000 0.361
1758.000 0.359
1759.000 0.359
1760.000 0.358
1761.000 0.358
1762.000 0.362
1763.000 0.362
1764.000 0.363
1765.000 0.363
1766.000 0.362
1767.000 0.360
1768.000 0.356
1769.000 0.356
1770.000 0.356
1771.000 0.355
1772.000 0.358
1773.000 0.360
1774.000 0.358
1775.000 0.358
1776.000 0.361
1777.000 0.359
1778.000 0.353
1779.000 0.348
1780.000 0.338
1781.000 0.334
1782.000 0.339
1783.000 0.342
1784.000 0.348
1785.000 0.344
1786.000 0.342
1787.000 0.339
1788.000 0.338
1789.000 0.342
1790.000 0.346
1791.000 0.344
1792.000 0.344
1793.000 0.343
1794.000 0.332
1795.000 0.342
1796.000 0.342
1797.000 0.327
1798.000 0.355
1799.000 0.349
1800.000 0.333
1801.000 0.400
1802.000 0.421
1803.000 0.451
1804.000 0.473
1805.000 0.488
1806.000 0.524
1807.000 0.541
1808.000 0.565
1809.000 0.626
1810.000 0.618
1811.000 0.601
1812.000 0.553
1813.000 0.528
1814.000 0.518
1815.000 0.607
1816.000 0.725
1817.000 0.480
1818.000 0.461
1819.000 0.463
1820.000 0.393
1821.000 0.510
1822.000 0.497
1823.000 0.586
1824.000 0.677
1825.000 0.595
1826.000 0.573
1827.000 0.506
1828.000 0.654
1829.000 0.634
1830.000 0.593
1831.000 0.489
1832.000 0.577
1833.000 0.547
1834.000 0.438
1835.000 0.568
1836.000 0.747
1837.000 0.552
1838.000 0.419
1839.000 0.456
1840.000 0.442
1841.000 0.451
1842.000 0.472
1843.000 0.443
1844.000 0.395
1845.000 0.451
1846.000 0.495
1847.000 0.559
1848.000 0.569
1849.000 0.618
1850.000 0.485
1851.000 0.356
1852.000 0.458
1853.000 0.652
1854.000 0.484
1855.000 0.428
1856.000 0.409
1857.000 0.311
1858.000 0.319
1859.000 0.378
1860.000 0.493
1861.000 0.438
1862.000 0.503
1863.000 0.633
1864.000 0.756
1865.000 0.630
1866.000 0.549
1867.000 0.498
1868.000 0.533
1869.000 0.565
1870.000 0.467
1871.000 0.323
1872.000 0.319
1873.000 0.355
1874.000 0.413
1875.000 0.557
1876.000 0.389
1877.000 0.250
1878.000 0.473
1879.000 0.577
1880.000 0.731
1881.000 0.825
1882.000 0.797
1883.000 0.707
1884.000 0.672
1885.000 0.726
1886.000 0.286
1887.000 0.722
1888.000 0.604
1889.000 0.355
1890.000 0.414
1891.000 0.330
1892.000 0.537
1893.000 0.630
1894.000 0.443
1895.000 0.392
1896.000 0.342
1897.000 0.293
1898.000 0.331
1899.000 0.440
1900.000 0.532
1901.000 0.412
1902.000 0.337
1903.000 0.309
1904.000 0.341
1905.000 0.311
1906.000 0.296
1907.000 0.320
1908.000 0.424
1909.000 0.351
1910.000 0.436
1911.000 0.427
1912.000 0.423
1913.000 0.427
1914.000 0.543
1915.000 0.384
1916.000 0.451
1917.000 0.505
1918.000 0.578
1919.000 0.685
1920.000 0.625
1921.000 0.592
1922.000 0.514
1923.000 0.478
1924.000 0.440
1925.000 0.440
1926.000 0.473
1927.000 0.524
1928.000 0.707
1929.000 0.623
1930.000 0.590
1931.000 0.540
1932.000 0.764
1933.000 0.759
1934.000 0.691
1935.000 0.644
1936.000 0.664
1937.000 0.624
1938.000 0.587
1939.000 0.537
1940.000 0.395
1941.000 0.301
1942.000 0.310
1943.000 0.407
1944.000 0.487
1945.000 0.463
1946.000 0.436
1947.000 0.357
1948.000 0.328
1949.000 0.400
1950.000 0.495
1951.000 0.419
1952.000 0.366
1953.000 0.429
1954.000 0.502
1955.000 0.417
1956.000 0.367
1957.000 0.407
1958.000 0.412
1959.000 0.471
1960.000 0.357
1961.000 0.345
1962.000 0.372
1963.000 0.421
1964.000 0.391
1965.000 0.351
1966.000 0.316
1967.000 0.274
1968.000 0.278
1969.000 0.271
1970.000 0.233
1971.000 0.192
1972.000 0.189
1973.000 0.187
1974.000 0.208
1975.000 0.210
1976.000 0.197
1977.000 0.194
1978.000 0.197
1979.000 0.189
1980.000 0.199
1981.000 0.210
1982.000 0.212
1983.000 0.227
1984.000 0.234
1985.000 0.222
1986.000 0.206
1987.000 0.197
1988.000 0.191
1989.000 0.191
1990.000 0.192
1991.000 0.198
1992.000 0.210
1993.000 0.210
1994.000 0.197
1995.000 0.186
1996.000 0.187
1997.000 0.205
1998.000 0.231
1999.000 0.241
2000.000 0.259
2001.000 0.268
2002.000 0.267
2003.000 0.256
2004.000 0.272
2005.000 0.273
2006.000 0.252
2007.000 0.254
2008.000 0.251
2009.000 0.246
2010.000 0.278
2011.000 0.282
2012.000 0.287
2013.000 0.282
2014.000 0.291
2015.000 0.287
2016.000 0.272
2017.000 0.258
2018.000 0.232
2019.000 0.205
2020.000 0.211
2021.000 0.213
2022.000 0.184
2023.000 0.178
2024.000 0.174
2025.000 0.168
2026.000 0.172
2027.000 0.175
2028.000 0.184
2029.000 0.190
2030.000 0.193
2031.000 0.199
2032.000 0.211
2033.000 0.215
2034.000 0.217
2035.000 0.226
2036.000 0.220
2037.000 0.214
2038.000 0.216
2039.000 0.210
2040.000 0.209
2041.000 0.213
2042.000 0.213
2043.000 0.210
2044.000 0.208
2045.000 0.207
2046.000 0.203
2047.000 0.193
2048.000 0.188
2049.000 0.179
2050.000 0.186
2051.000 0.196
2052.000 0.198
2053.000 0.202
2054.000 0.196
2055.000 0.191
2056.000 0.193
2057.000 0.190
2058.000 0.188
2059.000 0.188
2060.000 0.184
2061.000 0.185
2062.000 0.190
2063.000 0.196
2064.000 0.205
2065.000 0.212
2066.000 0.223
2067.000 0.233
2068.000 0.228
2069.000 0.223
2070.000 0.223
2071.000 0.218
2072.000 0.213
2073.000 0.210
2074.000 0.209
2075.000 0.204
2076.000 0.206
2077.000 0.218
2078.000 0.223
2079.000 0.223
2080.000 0.224
2081.000 0.220
2082.000 0.221
2083.000 0.223
2084.000 0.222
2085.000 0.224
2086.000 0.222
2087.000 0.222
2088.000 0.225
2089.000 0.226
2090.000 0.224
2091.000 0.224
2092.000 0.222
2093.000 0.223
2094.000 0.227
2095.000 0.231
2096.000 0.237
2097.000 0.241
2098.000 0.242
2099.000 0.245
2100.000 0.240
2101.000 0.233
2102.000 0.227
2103.000 0.223
2104.000 0.223
2105.000 0.230
2106.000 0.230
2107.000 0.229
2108.000 0.231
2109.000 0.234
2110.000 0.238
2111.000 0.250
2112.000 0.256
2113.000 0.260
2114.000 0.263
2115.000 0.265
2116.000 0.263
2117.000 0.259
2118.000 0.255
2119.000 0.251
2120.000 0.251
2121.000 0.254
2122.000 0.259
2123.000 0.261
2124.000 0.262
2125.000 0.262
2126.000 0.260
2127.000 0.260
2128.000 0.258
2129.000 0.258
2130.000 0.260
2131.000 0.261
2132.000 0.268
2133.000 0.269
2134.000 0.266
2135.000 0.262
2136.000 0.253
2137.000 0.245
2138.000 0.243
2139.000 0.243
2140.000 0.243
2141.000 0.251
2142.000 0.254
2143.000 0.257
2144.000 0.260
2145.000 0.266
2146.000 0.267
2147.000 0.267
2148.000 0.265
2149.000 0.258
2150.000 0.255
2151.000 0.251
2152.000 0.252
2153.000 0.260
2154.000 0.265
2155.000 0.273
2156.000 0.277
2157.000 0.272
2158.000 0.268
2159.000 0.257
2160.000 0.250
2161.000 0.247
2162.000 0.245
2163.000 0.247
2164.000 0.255
2165.000 0.258
2166.000 0.260
2167.000 0.264
2168.000 0.265
2169.000 0.266
2170.000 0.271
2171.000 0.271
2172.000 0.266
2173.000 0.264
2174.000 0.260
2175.000 0.257
2176.000 0.258
2177.000 0.254
2178.000 0.254
2179.000 0.259
2180.000 0.259
2181.000 0.260
2182.000 0.258
2183.000 0.256
2184.000 0.255
2185.000 0.255
2186.000 0.258
2187.000 0.262
2188.000 0.263
2189.000 0.267
2190.000 0.263
2191.000 0.250
2192.000 0.245
2193.000 0.238
2194.000 0.236
2195.000 0.241
2196.000 0.245
2197.000 0.249
2198.000 0.254
2199.000 0.261
2200.000 0.266
2201.000 0.270
2202.000 0.277
2203.000 0.275
2204.000 0.277
2205.000 0.284
2206.000 0.283
2207.000 0.282
2208.000 0.275
2209.000 0.268
2210.000 0.254
2211.000 0.250
2212.000 0.250
2213.000 0.251
2214.000 0.257
2215.000 0.260
2216.000 0.262
2217.000 0.265
2218.000 0.273
2219.000 0.274
2220.000 0.273
2221.000 0.271
2222.000 0.258
2223.000 0.253
2224.000 0.248
2225.000 0.249
2226.000 0.256
2227.000 0.265
2228.000 0.272
2229.000 0.278
2230.000 0.279
2231.000 0.274
2232.000 0.266
2233.000 0.259
2234.000 0.250
2235.000 0.245
2236.000 0.242
2237.000 0.242
2238.000 0.243
2239.000 0.247
2240.000 0.245
2241.000 0.241
2242.000 0.242
2243.000 0.242
2244.000 0.240
2245.000 0.242
2246.000 0.244
2247.000 0.241
2248.000 0.241
2249.000 0.248
2250.000 0.246
2251.000 0.240
2252.000 0.237
2253.000 0.230
2254.000 0.230
2255.000 0.236
2256.000 0.241
2257.000 0.252
2258.000 0.263
2259.000 0.273
2260.000 0.273
2261.000 0.265
2262.000 0.259
2263.000 0.243
2264.000 0.232
2265.000 0.226
2266.000 0.216
2267.000 0.220
2268.000 0.225
2269.000 0.232
2270.000 0.243
2271.000 0.250
2272.000 0.258
2273.000 0.261
2274.000 0.263
2275.000 0.264
2276.000 0.259
2277.000 0.253
2278.000 0.242
2279.000 0.237
2280.000 0.231
2281.000 0.225
2282.000 0.225
2283.000 0.221
2284.000 0.211
2285.000 0.209
2286.000 0.215
2287.000 0.216
2288.000 0.218
2289.000 0.223
2290.000 0.228
2291.000 0.229
2292.000 0.229
2293.000 0.230
2294.000 0.224
2295.000 0.221
2296.000 0.216
2297.000 0.224
2298.000 0.234
2299.000 0.230
2300.000 0.229
2301.000 0.223
2302.000 0.219
2303.000 0.214
2304.000 0.221
2305.000 0.238
2306.000 0.237
2307.000 0.240
2308.000 0.240
2309.000 0.237
2310.000 0.235
2311.000 0.230
2312.000 0.222
2313.000 0.217
2314.000 0.207
2315.000 0.205
2316.000 0.194
2317.000 0.182
2318.000 0.190
2319.000 0.161
2320.000 0.180
2321.000 0.186
2322.000 0.184
2323.000 0.192
2324.000 0.184
2325.000 0.184
2326.000 0.181
2327.000 0.161
2328.000 0.166
2329.000 0.195
2330.000 0.193
2331.000 0.183
2332.000 0.176
2333.000 0.184
2334.000 0.174
2335.000 0.204
2336.000 0.219
2337.000 0.215
2338.000 0.213
2339.000 0.206
2340.000 0.232
2341.000 0.250
2342.000 0.266
2343.000 0.284
2344.000 0.290
2345.000 0.218
2346.000 0.247
2347.000 0.239
2348.000 0.219
2349.000 0.252
2350.000 0.267
2351.000 0.225
2352.000 0.218
2353.000 0.176
2354.000 0.165
2355.000 0.158
2356.000 0.151
2357.000 0.140
2358.000 0.125
2359.000 0.115
2360.000 0.118
2361.000 0.120
2362.000 0.135
2363.000 0.129
2364.000 0.158
2365.000 0.236
2366.000 0.239
2367.000 0.133
2368.000 0.173
2369.000 0.201
2370.000 0.215
2371.000 0.213
2372.000 0.252
2373.000 0.297
2374.000 0.281
2375.000 0.289
2376.000 0.213
2377.000 0.248
2378.000 0.219
2379.000 0.213
2380.000 0.198
2381.000 0.333
2382.000 0.463
2383.000 0.275
2384.000 0.222
2385.000 0.207
2386.000 0.229
2387.000 0.295
2388.000 0.278
2389.000 0.275
2390.000 0.245
2391.000 0.221
2392.000 0.296
2393.000 0.238
2394.000 0.254
2395.000 0.246
2396.000 0.164
2397.000 0.175
2398.000 0.201
2399.000 0.198
2400.000 0.303
2401.000 0.280
2402.000 0.243
2403.000 0.345
2404.000 0.180
2405.000 0.175
2406.000 0.148
2407.000 0.183
2408.000 0.280
2409.000 0.317
2410.000 0.323
2411.000 0.325
2412.000 0.291
2413.000 0.267
2414.000 0.285
2415.000 0.127
2416.000 0.122
2417.000 0.123
2418.000 0.197
2419.000 0.269
2420.000 0.349
2421.000 0.552
2422.000 0.525
2423.000 0.514
2424.000 0.463
2425.000 0.347
2426.000 0.293
2427.000 0.350
2428.000 0.435
2429.000 0.488
2430.000 0.381
2431.000 0.281
2432.000 0.241
2433.000 0.226
2434.000 0.119
2435.000 0.136
2436.000 0.233
2437.000 0.258
2438.000 0.236
2439.000 0.191
2440.000 0.188
2441.000 0.294
2442.000 0.422
2443.000 0.454
2444.000 0.244
2445.000 0.241
2446.000 0.272
2447.000 0.329
2448.000 0.282
2449.000 0.269
2450.000 0.222
2451.000 0.168
2452.000 0.154
2453.000 0.139
2454.000 0.244
2455.000 0.345
2456.000 0.223
2457.000 0.284
2458.000 0.349
2459.000 0.261
2460.000 0.248
2461.000 0.121
2462.000 0.209
2463.000 0.392
2464.000 0.609
2465.000 0.251
2466.000 0.428
2467.000 0.407
2468.000 0.300
2469.000 0.222
2470.000 0.232
2471.000 0.348
2472.000 0.468
2473.000 0.532
2474.000 0.404
2475.000 0.205
2476.000 0.301
2477.000 0.388
2478.000 0.446
2479.000 0.483
2480.000 0.346
2481.000 0.323
2482.000 0.309
2483.000 0.423
2484.000 0.245
2485.000 0.442
2486.000 0.603
2487.000 0.238
2488.000 0.308
2489.000 0.385
2490.000 0.344
2491.000 0.398
2492.000 0.308
2493.000 0.499
2494.000 0.427
2495.000 0.287
2496.000 0.468
2497.000 0.363
2498.000 0.416
2499.000 0.538
2500.000 0.587
