391.000 0.042
392.000 0.042
393.000 0.043
394.000 0.042
395.000 0.044
396.000 0.044
397.000 0.041
398.000 0.042
399.000 0.044
400.000 0.045
401.000 0.044
402.000 0.045
403.000 0.046
404.000 0.046
405.000 0.044
406.000 0.044
407.000 0.045
408.000 0.046
409.000 0.045
410.000 0.043
411.000 0.043
412.000 0.045
413.000 0.046
414.000 0.046
415.000 0.046
416.000 0.045
417.000 0.043
418.000 0.044
419.000 0.046
420.000 0.046
421.000 0.046
422.000 0.045
423.000 0.045
424.000 0.047
425.000 0.045
426.000 0.044
427.000 0.045
428.000 0.045
429.000 0.045
430.000 0.044
431.000 0.044
432.000 0.045
433.000 0.046
434.000 0.045
435.000 0.044
436.000 0.044
437.000 0.044
438.000 0.044
439.000 0.045
440.000 0.045
441.000 0.045
442.000 0.045
443.000 0.045
444.000 0.044
445.000 0.045
446.000 0.044
447.000 0.046
448.000 0.047
449.000 0.045
450.000 0.046
451.000 0.045
452.000 0.044
453.000 0.045
454.000 0.046
455.000 0.046
456.000 0.045
457.000 0.045
458.000 0.045
459.000 0.046
460.000 0.045
461.000 0.046
462.000 0.045
463.000 0.044
464.000 0.046
465.000 0.046
466.000 0.045
467.000 0.044
468.000 0.045
469.000 0.045
470.000 0.044
471.000 0.045
472.000 0.046
473.000 0.046
474.000 0.046
475.000 0.045
476.000 0.046
477.000 0.045
478.000 0.044
479.000 0.046
480.000 0.047
481.000 0.046
482.000 0.045
483.000 0.046
484.000 0.046
485.000 0.046
486.000 0.047
487.000 0.046
488.000 0.046
489.000 0.045
490.000 0.045
491.000 0.046
492.000 0.046
493.000 0.046
494.000 0.046
495.000 0.047
496.000 0.047
497.000 0.048
498.000 0.047
499.000 0.047
500.000 0.048
501.000 0.049
502.000 0.050
503.000 0.050
504.000 0.052
505.000 0.052
506.000 0.052
507.000 0.053
508.000 0.053
509.000 0.055
510.000 0.057
511.000 0.057
512.000 0.058
513.000 0.061
514.000 0.063
515.000 0.065
516.000 0.067
517.000 0.069
518.000 0.071
519.000 0.074
520.000 0.077
521.000 0.080
522.000 0.082
523.000 0.085
524.000 0.088
525.000 0.090
526.000 0.092
527.000 0.095
528.000 0.098
529.000 0.101
530.000 0.103
531.000 0.104
532.000 0.106
533.000 0.107
534.000 0.109
535.000 0.110
536.000 0.111
537.000 0.112
538.000 0.113
539.000 0.114
540.000 0.115
541.000 0.115
542.000 0.115
543.000 0.116
544.000 0.117
545.000 0.117
546.000 0.117
547.000 0.117
548.000 0.117
549.000 0.117
550.000 0.118
551.000 0.118
552.000 0.118
553.000 0.118
554.000 0.118
555.000 0.117
556.000 0.116
557.000 0.116
558.000 0.116
559.000 0.114
560.000 0.113
561.000 0.113
562.000 0.111
563.000 0.109
564.000 0.107
565.000 0.106
566.000 0.104
567.000 0.102
568.000 0.100
569.000 0.099
570.000 0.097
571.000 0.094
572.000 0.093
573.000 0.091
574.000 0.090
575.000 0.088
576.000 0.088
577.000 0.086
578.000 0.084
579.000 0.083
580.000 0.082
581.000 0.081
582.000 0.080
583.000 0.080
584.000 0.078
585.000 0.077
586.000 0.076
587.000 0.076
588.000 0.076
589.000 0.075
590.000 0.074
591.000 0.073
592.000 0.073
593.000 0.073
594.000 0.072
595.000 0.071
596.000 0.071
597.000 0.072
598.000 0.071
599.000 0.071
600.000 0.070
601.000 0.070
602.000 0.070
603.000 0.070
604.000 0.069
605.000 0.068
606.000 0.067
607.000 0.066
608.000 0.066
609.000 0.066
610.000 0.066
611.000 0.065
612.000 0.065
613.000 0.064
614.000 0.063
615.000 0.062
616.000 0.062
617.000 0.060
618.000 0.060
619.000 0.061
620.000 0.060
621.000 0.059
622.000 0.059
623.000 0.060
624.000 0.059
625.000 0.059
626.000 0.059
627.000 0.059
628.000 0.059
629.000 0.060
630.000 0.059
631.000 0.059
632.000 0.059
633.000 0.059
634.000 0.058
635.000 0.058
636.000 0.057
637.000 0.056
638.000 0.056
639.000 0.055
640.000 0.054
641.000 0.053
642.000 0.053
643.000 0.052
644.000 0.052
645.000 0.053
646.000 0.051
647.000 0.049
648.000 0.051
649.000 0.049
650.000 0.049
651.000 0.050
652.000 0.051
653.000 0.049
654.000 0.049
655.000 0.049
656.000 0.049
657.000 0.048
658.000 0.048
659.000 0.049
660.000 0.049
661.000 0.049
662.000 0.049
663.000 0.049
664.000 0.049
665.000 0.049
666.000 0.049
667.000 0.048
668.000 0.049
669.000 0.049
670.000 0.049
671.000 0.050
672.000 0.050
673.000 0.050
674.000 0.051
675.000 0.052
676.000 0.052
677.000 0.053
678.000 0.055
679.000 0.055
680.000 0.054
681.000 0.056
682.000 0.056
683.000 0.057
684.000 0.060
685.000 0.060
686.000 0.062
687.000 0.064
688.000 0.066
689.000 0.067
690.000 0.069
691.000 0.072
692.000 0.076
693.000 0.080
694.000 0.085
695.000 0.091
696.000 0.096
697.000 0.104
698.000 0.111
699.000 0.119
700.000 0.128
701.000 0.138
702.000 0.148
703.000 0.157
704.000 0.166
705.000 0.176
706.000 0.186
707.000 0.196
708.000 0.206
709.000 0.217
710.000 0.227
711.000 0.238
712.000 0.248
713.000 0.258
714.000 0.269
715.000 0.280
716.000 0.291
717.000 0.302
718.000 0.314
719.000 0.327
720.000 0.339
721.000 0.350
722.000 0.359
723.000 0.370
724.000 0.380
725.000 0.391
726.000 0.402
727.000 0.412
728.000 0.422
729.000 0.432
730.000 0.441
731.000 0.450
732.000 0.458
733.000 0.466
734.000 0.473
735.000 0.480
736.000 0.487
737.000 0.494
738.000 0.500
739.000 0.506
740.000 0.511
741.000 0.517
742.000 0.521
743.000 0.526
744.000 0.530
745.000 0.534
746.000 0.538
747.000 0.541
748.000 0.544
749.000 0.547
750.000 0.549
751.000 0.552
752.000 0.554
753.000 0.556
754.000 0.558
755.000 0.560
756.000 0.561
757.000 0.563
758.000 0.564
759.000 0.565
760.000 0.566
761.000 0.567
762.000 0.567
763.000 0.567
764.000 0.569
765.000 0.570
766.000 0.571
767.000 0.571
768.000 0.572
769.000 0.573
770.000 0.574
771.000 0.574
772.000 0.575
773.000 0.576
774.000 0.576
775.000 0.576
776.000 0.576
777.000 0.577
778.000 0.577
779.000 0.578
780.000 0.579
781.000 0.578
782.000 0.578
783.000 0.579
784.000 0.579
785.000 0.580
786.000 0.580
787.000 0.580
788.000 0.580
789.000 0.580
790.000 0.580
791.000 0.581
792.000 0.581
793.000 0.582
794.000 0.582
795.000 0.582
796.000 0.582
797.000 0.583
798.000 0.583
799.000 0.583
800.000 0.583
801.000 0.583
802.000 0.584
803.000 0.584
804.000 0.584
805.000 0.585
806.000 0.585
807.000 0.586
808.000 0.586
809.000 0.586
810.000 0.586
811.000 0.586
812.000 0.586
813.000 0.586
814.000 0.586
815.000 0.586
816.000 0.586
817.000 0.587
818.000 0.588
819.000 0.588
820.000 0.588
821.000 0.588
822.000 0.589
823.000 0.589
824.000 0.589
825.000 0.589
826.000 0.589
827.000 0.589
828.000 0.590
829.000 0.590
830.000 0.590
831.000 0.590
832.000 0.590
833.000 0.590
834.000 0.591
835.000 0.591
836.000 0.591
837.000 0.591
838.000 0.592
839.000 0.592
840.000 0.592
841.000 0.592
842.000 0.593
843.000 0.593
844.000 0.593
845.000 0.593
846.000 0.593
847.000 0.594
848.000 0.594
849.000 0.594
850.000 0.594
851.000 0.595
852.000 0.595
853.000 0.595
854.000 0.595
855.000 0.595
856.000 0.595
857.000 0.596
858.000 0.596
859.000 0.596
860.000 0.596
861.000 0.596
862.000 0.596
863.000 0.597
864.000 0.597
865.000 0.596
866.000 0.597
867.000 0.597
868.000 0.597
869.000 0.597
870.000 0.598
871.000 0.598
872.000 0.598
873.000 0.598
874.000 0.598
875.000 0.598
876.000 0.598
877.000 0.599
878.000 0.599
879.000 0.599
880.000 0.599
881.000 0.599
882.000 0.599
883.000 0.600
884.000 0.600
885.000 0.600
886.000 0.599
887.000 0.600
888.000 0.601
889.000 0.600
890.000 0.600
891.000 0.601
892.000 0.601
893.000 0.601
894.000 0.601
895.000 0.601
896.000 0.601
897.000 0.601
898.000 0.601
899.000 0.601
900.000 0.601
901.000 0.601
902.000 0.601
903.000 0.601
904.000 0.602
905.000 0.603
906.000 0.602
907.000 0.602
908.000 0.602
909.000 0.603
910.000 0.602
911.000 0.602
912.000 0.602
913.000 0.603
914.000 0.603
915.000 0.603
916.000 0.603
917.000 0.602
918.000 0.604
919.000 0.603
920.000 0.604
921.000 0.604
922.000 0.604
923.000 0.604
924.000 0.603
925.000 0.604
926.000 0.603
927.000 0.602
928.000 0.603
929.000 0.602
930.000 0.601
931.000 0.602
932.000 0.600
933.000 0.601
934.000 0.600
935.000 0.596
936.000 0.599
937.000 0.601
938.000 0.600
939.000 0.598
940.000 0.599
941.000 0.599
942.000 0.598
943.000 0.598
944.000 0.596
945.000 0.595
946.000 0.594
947.000 0.594
948.000 0.594
949.000 0.594
950.000 0.593
951.000 0.591
952.000 0.593
953.000 0.590
954.000 0.589
955.000 0.590
956.000 0.588
957.000 0.586
958.000 0.586
959.000 0.585
960.000 0.585
961.000 0.585
962.000 0.586
963.000 0.585
964.000 0.586
965.000 0.586
966.000 0.585
967.000 0.586
968.000 0.587
969.000 0.587
970.000 0.586
971.000 0.587
972.000 0.587
973.000 0.586
974.000 0.586
975.000 0.586
976.000 0.587
977.000 0.587
978.000 0.587
979.000 0.588
980.000 0.588
981.000 0.588
982.000 0.588
983.000 0.587
984.000 0.588
985.000 0.589
986.000 0.590
987.000 0.590
988.000 0.590
989.000 0.590
990.000 0.591
991.000 0.592
992.000 0.592
993.000 0.593
994.000 0.592
995.000 0.592
996.000 0.594
997.000 0.595
998.000 0.595
999.000 0.595
1000.000 0.596
1001.000 0.598
1002.000 0.598
1003.000 0.599
1004.000 0.599
1005.000 0.600
1006.000 0.600
1007.000 0.600
1008.000 0.601
1009.000 0.601
1010.000 0.602
1011.000 0.603
1012.000 0.603
1013.000 0.604
1014.000 0.605
1015.000 0.606
1016.000 0.606
1017.000 0.606
1018.000 0.607
1019.000 0.608
1020.000 0.608
1021.000 0.609
1022.000 0.609
1023.000 0.610
1024.000 0.610
1025.000 0.610
1026.000 0.611
1027.000 0.611
1028.000 0.612
1029.000 0.613
1030.000 0.614
1031.000 0.614
1032.000 0.615
1033.000 0.615
1034.000 0.616
1035.000 0.616
1036.000 0.617
1037.000 0.617
1038.000 0.617
1039.000 0.618
1040.000 0.618
1041.000 0.619
1042.000 0.620
1043.000 0.620
1044.000 0.619
1045.000 0.619
1046.000 0.620
1047.000 0.620
1048.000 0.621
1049.000 0.621
1050.000 0.621
1051.000 0.621
1052.000 0.622
1053.000 0.622
1054.000 0.622
1055.000 0.622
1056.000 0.622
1057.000 0.623
1058.000 0.623
1059.000 0.623
1060.000 0.624
1061.000 0.624
1062.000 0.624
1063.000 0.624
1064.000 0.624
1065.000 0.624
1066.000 0.624
1067.000 0.624
1068.000 0.624
1069.000 0.625
1070.000 0.625
1071.000 0.625
1072.000 0.626
1073.000 0.626
1074.000 0.626
1075.000 0.626
1076.000 0.626
1077.000 0.626
1078.000 0.626
1079.000 0.626
1080.000 0.627
1081.000 0.627
1082.000 0.627
1083.000 0.627
1084.000 0.628
1085.000 0.627
1086.000 0.627
1087.000 0.627
1088.000 0.627
1089.000 0.628
1090.000 0.628
1091.000 0.628
1092.000 0.628
1093.000 0.627
1094.000 0.627
1095.000 0.627
1096.000 0.627
1097.000 0.627
1098.000 0.626
1099.000 0.626
1100.000 0.625
1101.000 0.625
1102.000 0.624
1103.000 0.624
1104.000 0.624
1105.000 0.624
1106.000 0.623
1107.000 0.623
1108.000 0.623
1109.000 0.623
1110.000 0.622
1111.000 0.622
1112.000 0.622
1113.000 0.621
1114.000 0.620
1115.000 0.621
1116.000 0.620
1117.000 0.620
1118.000 0.620
1119.000 0.618
1120.000 0.618
1121.000 0.619
1122.000 0.619
1123.000 0.619
1124.000 0.618
1125.000 0.616
1126.000 0.611
1127.000 0.611
1128.000 0.610
1129.000 0.611
1130.000 0.613
1131.000 0.616
1132.000 0.616
1133.000 0.615
1134.000 0.614
1135.000 0.613
1136.000 0.611
1137.000 0.611
1138.000 0.608
1139.000 0.607
1140.000 0.605
1141.000 0.603
1142.000 0.601
1143.000 0.602
1144.000 0.601
1145.000 0.599
1146.000 0.596
1147.000 0.593
1148.000 0.589
1149.000 0.587
1150.000 0.585
1151.000 0.583
1152.000 0.582
1153.000 0.581
1154.000 0.580
1155.000 0.578
1156.000 0.577
1157.000 0.576
1158.000 0.574
1159.000 0.573
1160.000 0.574
1161.000 0.573
1162.000 0.574
1163.000 0.574
1164.000 0.573
1165.000 0.572
1166.000 0.572
1167.000 0.571
1168.000 0.571
1169.000 0.571
1170.000 0.572
1171.000 0.573
1172.000 0.573
1173.000 0.573
1174.000 0.573
1175.000 0.572
1176.000 0.572
1177.000 0.572
1178.000 0.571
1179.000 0.572
1180.000 0.571
1181.000 0.571
1182.000 0.571
1183.000 0.570
1184.000 0.570
1185.000 0.570
1186.000 0.570
1187.000 0.569
1188.000 0.569
1189.000 0.569
1190.000 0.569
1191.000 0.570
1192.000 0.570
1193.000 0.571
1194.000 0.571
1195.000 0.571
1196.000 0.571
1197.000 0.571
1198.000 0.571
1199.000 0.571
1200.000 0.571
1201.000 0.572
1202.000 0.572
1203.000 0.572
1204.000 0.573
1205.000 0.573
1206.000 0.572
1207.000 0.571
1208.000 0.572
1209.000 0.572
1210.000 0.573
1211.000 0.573
1212.000 0.574
1213.000 0.574
1214.000 0.575
1215.000 0.575
1216.000 0.575
1217.000 0.576
1218.000 0.576
1219.000 0.576
1220.000 0.577
1221.000 0.577
1222.000 0.578
1223.000 0.578
1224.000 0.578
1225.000 0.579
1226.000 0.579
1227.000 0.579
1228.000 0.580
1229.000 0.581
1230.000 0.581
1231.000 0.582
1232.000 0.582
1233.000 0.583
1234.000 0.583
1235.000 0.584
1236.000 0.584
1237.000 0.584
1238.000 0.585
1239.000 0.585
1240.000 0.585
1241.000 0.586
1242.000 0.585
1243.000 0.586
1244.000 0.586
1245.000 0.587
1246.000 0.588
1247.000 0.588
1248.000 0.589
1249.000 0.590
1250.000 0.590
1251.000 0.590
1252.000 0.590
1253.000 0.590
1254.000 0.590
1255.000 0.591
1256.000 0.590
1257.000 0.591
1258.000 0.591
1259.000 0.592
1260.000 0.591
1261.000 0.592
1262.000 0.592
1263.000 0.592
1264.000 0.592
1265.000 0.591
1266.000 0.591
1267.000 0.592
1268.000 0.592
1269.000 0.593
1270.000 0.593
1271.000 0.593
1272.000 0.593
1273.000 0.594
1274.000 0.594
1275.000 0.594
1276.000 0.594
1277.000 0.594
1278.000 0.593
1279.000 0.593
1280.000 0.593
1281.000 0.593
1282.000 0.592
1283.000 0.592
1284.000 0.592
1285.000 0.592
1286.000 0.591
1287.000 0.591
1288.000 0.591
1289.000 0.591
1290.000 0.591
1291.000 0.590
1292.000 0.589
1293.000 0.589
1294.000 0.588
1295.000 0.587
1296.000 0.586
1297.000 0.586
1298.000 0.585
1299.000 0.584
1300.000 0.584
1301.000 0.583
1302.000 0.582
1303.000 0.581
1304.000 0.580
1305.000 0.578
1306.000 0.577
1307.000 0.576
1308.000 0.575
1309.000 0.574
1310.000 0.574
1311.000 0.572
1312.000 0.571
1313.000 0.570
1314.000 0.568
1315.000 0.566
1316.000 0.564
1317.000 0.563
1318.000 0.561
1319.000 0.561
1320.000 0.560
1321.000 0.559
1322.000 0.558
1323.000 0.556
1324.000 0.553
1325.000 0.551
1326.000 0.550
1327.000 0.548
1328.000 0.548
1329.000 0.545
1330.000 0.543
1331.000 0.540
1332.000 0.537
1333.000 0.534
1334.000 0.532
1335.000 0.529
1336.000 0.526
1337.000 0.525
1338.000 0.523
1339.000 0.522
1340.000 0.521
1341.000 0.521
1342.000 0.520
1343.000 0.520
1344.000 0.520
1345.000 0.519
1346.000 0.516
1347.000 0.513
1348.000 0.508
1349.000 0.503
1350.000 0.497
1351.000 0.490
1352.000 0.481
1353.000 0.472
1354.000 0.455
1355.000 0.420
1356.000 0.378
1357.000 0.346
1358.000 0.265
1359.000 0.352
1360.000 0.353
1361.000 0.402
1362.000 0.335
1363.000 0.457
1364.000 0.383
1365.000 0.287
1366.000 0.523
1367.000 0.401
1368.000 0.433
1369.000 0.412
1370.000 0.363
1371.000 0.258
1372.000 0.304
1373.000 0.585
1374.000 0.658
1375.000 0.813
1376.000 0.386
1377.000 0.472
1378.000 0.361
1379.000 0.573
1380.000 0.511
1381.000 0.541
1382.000 0.547
1383.000 0.515
1384.000 0.399
1385.000 0.272
1386.000 0.447
1387.000 0.437
1388.000 0.589
1389.000 0.560
1390.000 0.460
1391.000 0.492
1392.000 0.667
1393.000 0.682
1394.000 0.540
1395.000 0.480
1396.000 0.456
1397.000 0.627
1398.000 0.514
1399.000 0.314
1400.000 0.386
1401.000 0.444
1402.000 0.387
1403.000 0.234
1404.000 0.248
1405.000 0.299
1406.000 0.345
1407.000 0.537
1408.000 0.549
1409.000 0.423
1410.000 0.397
1411.000 0.243
1412.000 0.337
1413.000 0.227
1414.000 0.468
1415.000 0.329
1416.000 0.318
1417.000 0.441
1418.000 0.444
1419.000 0.477
1420.000 0.421
1421.000 0.355
1422.000 0.333
1423.000 0.247
1424.000 0.266
1425.000 0.213
1426.000 0.175
1427.000 0.202
1428.000 0.196
1429.000 0.178
1430.000 0.178
1431.000 0.168
1432.000 0.167
1433.000 0.157
1434.000 0.154
1435.000 0.166
1436.000 0.166
1437.000 0.145
1438.000 0.172
1439.000 0.151
1440.000 0.159
1441.000 0.163
1442.000 0.165
1443.000 0.172
1444.000 0.176
1445.000 0.178
1446.000 0.182
1447.000 0.182
1448.000 0.187
1449.000 0.181
1450.000 0.199
1451.000 0.209
1452.000 0.214
1453.000 0.212
1454.000 0.205
1455.000 0.202
1456.000 0.194
1457.000 0.192
1458.000 0.192
1459.000 0.193
1460.000 0.197
1461.000 0.197
1462.000 0.196
1463.000 0.200
1464.000 0.206
1465.000 0.209
1466.000 0.216
1467.000 0.217
1468.000 0.208
1469.000 0.207
1470.000 0.209
1471.000 0.211
1472.000 0.215
1473.000 0.215
1474.000 0.218
1475.000 0.213
1476.000 0.202
1477.000 0.199
1478.000 0.196
1479.000 0.195
1480.000 0.199
1481.000 0.202
1482.000 0.203
1483.000 0.204
1484.000 0.206
1485.000 0.208
1486.000 0.208
1487.000 0.210
1488.000 0.214
1489.000 0.216
1490.000 0.217
1491.000 0.218
1492.000 0.218
1493.000 0.219
1494.000 0.219
1495.000 0.219
1496.000 0.219
1497.000 0.220
1498.000 0.222
1499.000 0.225
1500.000 0.225
1501.000 0.227
1502.000 0.228
1503.000 0.228
1504.000 0.230
1505.000 0.231
1506.000 0.232
1507.000 0.232
1508.000 0.234
1509.000 0.236
1510.000 0.239
1511.000 0.243
1512.000 0.245
1513.000 0.247
1514.000 0.249
1515.000 0.250
1516.000 0.252
1517.000 0.255
1518.000 0.257
1519.000 0.259
1520.000 0.260
1521.000 0.262
1522.000 0.263
1523.000 0.263
1524.000 0.264
1525.000 0.266
1526.000 0.268
1527.000 0.270
1528.000 0.271
1529.000 0.272
1530.000 0.274
1531.000 0.275
1532.000 0.276
1533.000 0.277
1534.000 0.279
1535.000 0.280
1536.000 0.282
1537.000 0.284
1538.000 0.286
1539.000 0.289
1540.000 0.291
1541.000 0.292
1542.000 0.294
1543.000 0.294
1544.000 0.296
1545.000 0.298
1546.000 0.300
1547.000 0.302
1548.000 0.304
1549.000 0.303
1550.000 0.305
1551.000 0.306
1552.000 0.307
1553.000 0.309
1554.000 0.311
1555.000 0.311
1556.000 0.312
1557.000 0.315
1558.000 0.316
1559.000 0.319
1560.000 0.321
1561.000 0.322
1562.000 0.324
1563.000 0.325
1564.000 0.326
1565.000 0.327
1566.000 0.329
1567.000 0.329
1568.000 0.330
1569.000 0.332
1570.000 0.333
1571.000 0.333
1572.000 0.334
1573.000 0.335
1574.000 0.337
1575.000 0.341
1576.000 0.343
1577.000 0.344
1578.000 0.345
1579.000 0.347
1580.000 0.348
1581.000 0.350
1582.000 0.352
1583.000 0.353
1584.000 0.353
1585.000 0.355
1586.000 0.356
1587.000 0.357
1588.000 0.357
1589.000 0.357
1590.000 0.358
1591.000 0.361
1592.000 0.363
1593.000 0.365
1594.000 0.366
1595.000 0.364
1596.000 0.364
1597.000 0.364
1598.000 0.364
1599.000 0.366
1600.000 0.368
1601.000 0.369
1602.000 0.371
1603.000 0.374
1604.000 0.375
1605.000 0.375
1606.000 0.376
1607.000 0.376
1608.000 0.377
1609.000 0.378
1610.000 0.379
1611.000 0.382
1612.000 0.383
1613.000 0.384
1614.000 0.385
1615.000 0.384
1616.000 0.384
1617.000 0.385
1618.000 0.385
1619.000 0.386
1620.000 0.387
1621.000 0.387
1622.000 0.389
1623.000 0.390
1624.000 0.391
1625.000 0.392
1626.000 0.393
1627.000 0.392
1628.000 0.393
1629.000 0.394
1630.000 0.394
1631.000 0.396
1632.000 0.396
1633.000 0.396
1634.000 0.396
1635.000 0.396
1636.000 0.397
1637.000 0.397
1638.000 0.398
1639.000 0.399
1640.000 0.400
1641.000 0.400
1642.000 0.400
1643.000 0.400
1644.000 0.401
1645.000 0.403
1646.000 0.403
1647.000 0.404
1648.000 0.404
1649.000 0.403
1650.000 0.404
1651.000 0.405
1652.000 0.406
1653.000 0.407
1654.000 0.407
1655.000 0.407
1656.000 0.407
1657.000 0.408
1658.000 0.408
1659.000 0.409
1660.000 0.409
1661.000 0.409
1662.000 0.409
1663.000 0.408
1664.000 0.407
1665.000 0.408
1666.000 0.408
1667.000 0.409
1668.000 0.409
1669.000 0.409
1670.000 0.409
1671.000 0.408
1672.000 0.408
1673.000 0.409
1674.000 0.409
1675.000 0.409
1676.000 0.409
1677.000 0.408
1678.000 0.408
1679.000 0.407
1680.000 0.407
1681.000 0.407
1682.000 0.407
1683.000 0.408
1684.000 0.408
1685.000 0.408
1686.000 0.408
1687.000 0.408
1688.000 0.409
1689.000 0.409
1690.000 0.409
1691.000 0.410
1692.000 0.410
1693.000 0.409
1694.000 0.408
1695.000 0.407
1696.000 0.406
1697.000 0.407
1698.000 0.407
1699.000 0.405
1700.000 0.404
1701.000 0.403
1702.000 0.403
1703.000 0.403
1704.000 0.404
1705.000 0.404
1706.000 0.404
1707.000 0.405
1708.000 0.404
1709.000 0.402
1710.000 0.401
1711.000 0.399
1712.000 0.400
1713.000 0.399
1714.000 0.399
1715.000 0.400
1716.000 0.399
1717.000 0.399
1718.000 0.397
1719.000 0.394
1720.000 0.393
1721.000 0.392
1722.000 0.392
1723.000 0.393
1724.000 0.393
1725.000 0.394
1726.000 0.396
1727.000 0.397
1728.000 0.399
1729.000 0.399
1730.000 0.397
1731.000 0.395
1732.000 0.392
1733.000 0.390
1734.000 0.390
1735.000 0.389
1736.000 0.388
1737.000 0.387
1738.000 0.387
1739.000 0.386
1740.000 0.386
1741.000 0.385
1742.000 0.380
1743.000 0.380
1744.000 0.383
1745.000 0.383
1746.000 0.386
1747.000 0.386
1748.000 0.381
1749.000 0.378
1750.000 0.377
1751.000 0.375
1752.000 0.375
1753.000 0.373
1754.000 0.370
1755.000 0.369
1756.000 0.368
1757.000 0.367
1758.000 0.368
1759.000 0.368
1760.000 0.367
1761.000 0.365
1762.000 0.360
1763.000 0.358
1764.000 0.356
1765.000 0.356
1766.000 0.360
1767.000 0.364
1768.000 0.365
1769.000 0.362
1770.000 0.359
1771.000 0.357
1772.000 0.354
1773.000 0.354
1774.000 0.355
1775.000 0.352
1776.000 0.355
1777.000 0.360
1778.000 0.358
1779.000 0.358
1780.000 0.359
1781.000 0.358
1782.000 0.357
1783.000 0.357
1784.000 0.354
1785.000 0.349
1786.000 0.347
1787.000 0.344
1788.000 0.341
1789.000 0.338
1790.000 0.336
1791.000 0.337
1792.000 0.339
1793.000 0.342
1794.000 0.342
1795.000 0.328
1796.000 0.322
1797.000 0.326
1798.000 0.327
1799.000 0.349
1800.000 0.370
1801.000 0.549
1802.000 0.553
1803.000 0.607
1804.000 0.612
1805.000 0.612
1806.000 0.708
1807.000 0.698
1808.000 0.651
1809.000 0.664
1810.000 0.678
1811.000 0.695
1812.000 0.697
1813.000 0.496
1814.000 0.362
1815.000 0.474
1816.000 0.562
1817.000 0.610
1818.000 0.589
1819.000 0.557
1820.000 0.542
1821.000 0.514
1822.000 0.496
1823.000 0.385
1824.000 0.366
1825.000 0.374
1826.000 0.408
1827.000 0.496
1828.000 0.397
1829.000 0.441
1830.000 0.669
1831.000 0.497
1832.000 0.333
1833.000 0.292
1834.000 0.370
1835.000 0.292
1836.000 0.194
1837.000 0.407
1838.000 0.493
1839.000 0.518
1840.000 0.554
1841.000 0.529
1842.000 0.530
1843.000 0.540
1844.000 0.433
1845.000 0.443
1846.000 0.449
1847.000 0.571
1848.000 0.521
1849.000 0.433
1850.000 0.356
1851.000 0.302
1852.000 0.239
1853.000 0.297
1854.000 0.601
1855.000 0.689
1856.000 0.673
1857.000 0.617
1858.000 0.690
1859.000 0.563
1860.000 0.611
1861.000 0.598
1862.000 0.635
1863.000 0.560
1864.000 0.550
1865.000 0.518
1866.000 0.579
1867.000 0.514
1868.000 0.492
1869.000 0.532
1870.000 0.593
1871.000 0.610
1872.000 0.617
1873.000 0.291
1874.000 0.277
1875.000 0.378
1876.000 0.435
1877.000 0.403
1878.000 0.413
1879.000 0.504
1880.000 0.513
1881.000 0.288
1882.000 0.254
1883.000 0.202
1884.000 0.215
1885.000 0.459
1886.000 0.560
1887.000 0.370
1888.000 0.408
1889.000 0.340
1890.000 0.309
1891.000 0.322
1892.000 0.295
1893.000 0.289
1894.000 0.300
1895.000 0.321
1896.000 0.352
1897.000 0.281
1898.000 0.316
1899.000 0.656
1900.000 0.560
1901.000 0.552
1902.000 0.434
1903.000 0.621
1904.000 0.335
1905.000 0.699
1906.000 0.436
1907.000 0.529
1908.000 0.437
1909.000 0.425
1910.000 0.568
1911.000 0.610
1912.000 0.626
1913.000 0.581
1914.000 0.604
1915.000 0.390
1916.000 0.419
1917.000 0.378
1918.000 0.408
1919.000 0.779
1920.000 0.708
1921.000 0.580
1922.000 0.427
1923.000 0.464
1924.000 0.747
1925.000 0.640
1926.000 0.557
1927.000 0.403
1928.000 0.344
1929.000 0.421
1930.000 0.399
1931.000 0.267
1932.000 0.371
1933.000 0.415
1934.000 0.447
1935.000 0.313
1936.000 0.226
1937.000 0.371
1938.000 0.363
1939.000 0.477
1940.000 0.525
1941.000 0.561
1942.000 0.439
1943.000 0.282
1944.000 0.496
1945.000 0.395
1946.000 0.496
1947.000 0.492
1948.000 0.540
1949.000 0.612
1950.000 0.584
1951.000 0.588
1952.000 0.537
1953.000 0.425
1954.000 0.509
1955.000 0.613
1956.000 0.526
1957.000 0.499
1958.000 0.374
1959.000 0.364
1960.000 0.385
1961.000 0.310
1962.000 0.365
1963.000 0.437
1964.000 0.372
1965.000 0.343
1966.000 0.318
1967.000 0.345
1968.000 0.270
1969.000 0.239
1970.000 0.227
1971.000 0.233
1972.000 0.240
1973.000 0.243
1974.000 0.228
1975.000 0.211
1976.000 0.198
1977.000 0.176
1978.000 0.174
1979.000 0.199
1980.000 0.212
1981.000 0.197
1982.000 0.172
1983.000 0.157
1984.000 0.133
1985.000 0.145
1986.000 0.147
1987.000 0.151
1988.000 0.167
1989.000 0.184
1990.000 0.181
1991.000 0.166
1992.000 0.154
1993.000 0.154
1994.000 0.178
1995.000 0.207
1996.000 0.233
1997.000 0.268
1998.000 0.273
1999.000 0.277
2000.000 0.239
2001.000 0.227
2002.000 0.233
2003.000 0.239
2004.000 0.240
2005.000 0.251
2006.000 0.290
2007.000 0.302
2008.000 0.320
2009.000 0.354
2010.000 0.340
2011.000 0.351
2012.000 0.331
2013.000 0.299
2014.000 0.308
2015.000 0.300
2016.000 0.286
2017.000 0.288
2018.000 0.253
2019.000 0.240
2020.000 0.217
2021.000 0.212
2022.000 0.210
2023.000 0.224
2024.000 0.221
2025.000 0.209
2026.000 0.194
2027.000 0.189
2028.000 0.188
2029.000 0.188
2030.000 0.194
2031.000 0.194
2032.000 0.194
2033.000 0.188
2034.000 0.175
2035.000 0.174
2036.000 0.168
2037.000 0.159
2038.000 0.157
2039.000 0.156
2040.000 0.155
2041.000 0.155
2042.000 0.155
2043.000 0.153
2044.000 0.155
2045.000 0.160
2046.000 0.165
2047.000 0.174
2048.000 0.181
2049.000 0.183
2050.000 0.190
2051.000 0.192
2052.000 0.193
2053.000 0.203
2054.000 0.216
2055.000 0.227
2056.000 0.225
2057.000 0.224
2058.000 0.209
2059.000 0.203
2060.000 0.204
2061.000 0.202
2062.000 0.195
2063.000 0.193
2064.000 0.184
2065.000 0.183
2066.000 0.188
2067.000 0.185
2068.000 0.190
2069.000 0.193
2070.000 0.186
2071.000 0.184
2072.000 0.183
2073.000 0.181
2074.000 0.183
2075.000 0.189
2076.000 0.193
2077.000 0.199
2078.000 0.202
2079.000 0.199
2080.000 0.203
2081.000 0.206
2082.000 0.215
2083.000 0.218
2084.000 0.219
2085.000 0.218
2086.000 0.209
2087.000 0.207
2088.000 0.209
2089.000 0.207
2090.000 0.206
2091.000 0.201
2092.000 0.190
2093.000 0.187
2094.000 0.183
2095.000 0.181
2096.000 0.189
2097.000 0.192
2098.000 0.193
2099.000 0.193
2100.000 0.191
2101.000 0.190
2102.000 0.190
2103.000 0.194
2104.000 0.197
2105.000 0.198
2106.000 0.201
2107.000 0.203
2108.000 0.206
2109.000 0.209
2110.000 0.210
2111.000 0.207
2112.000 0.209
2113.000 0.212
2114.000 0.214
2115.000 0.218
2116.000 0.221
2117.000 0.223
2118.000 0.229
2119.000 0.230
2120.000 0.231
2121.000 0.232
2122.000 0.226
2123.000 0.223
2124.000 0.220
2125.000 0.220
2126.000 0.219
2127.000 0.221
2128.000 0.230
2129.000 0.231
2130.000 0.228
2131.000 0.228
2132.000 0.225
2133.000 0.224
2134.000 0.225
2135.000 0.225
2136.000 0.227
2137.000 0.225
2138.000 0.223
2139.000 0.224
2140.000 0.223
2141.000 0.223
2142.000 0.224
2143.000 0.228
2144.000 0.228
2145.000 0.228
2146.000 0.228
2147.000 0.225
2148.000 0.225
2149.000 0.228
2150.000 0.230
2151.000 0.233
2152.000 0.239
2153.000 0.251
2154.000 0.258
2155.000 0.265
2156.000 0.271
2157.000 0.265
2158.000 0.262
2159.000 0.264
2160.000 0.264
2161.000 0.262
2162.000 0.260
2163.000 0.256
2164.000 0.247
2165.000 0.241
2166.000 0.239
2167.000 0.237
2168.000 0.236
2169.000 0.236
2170.000 0.238
2171.000 0.240
2172.000 0.238
2173.000 0.241
2174.000 0.246
2175.000 0.250
2176.000 0.257
2177.000 0.260
2178.000 0.262
2179.000 0.270
2180.000 0.267
2181.000 0.267
2182.000 0.264
2183.000 0.253
2184.000 0.249
2185.000 0.248
2186.000 0.248
2187.000 0.250
2188.000 0.252
2189.000 0.255
2190.000 0.257
2191.000 0.260
2192.000 0.262
2193.000 0.266
2194.000 0.266
2195.000 0.263
2196.000 0.259
2197.000 0.253
2198.000 0.249
2199.000 0.246
2200.000 0.244
2201.000 0.240
2202.000 0.240
2203.000 0.243
2204.000 0.248
2205.000 0.256
2206.000 0.261
2207.000 0.259
2208.000 0.258
2209.000 0.257
2210.000 0.251
2211.000 0.249
2212.000 0.248
2213.000 0.247
2214.000 0.247
2215.000 0.246
2216.000 0.246
2217.000 0.245
2218.000 0.240
2219.000 0.239
2220.000 0.240
2221.000 0.243
2222.000 0.254
2223.000 0.258
2224.000 0.261
2225.000 0.262
2226.000 0.258
2227.000 0.251
2228.000 0.261
2229.000 0.264
2230.000 0.266
2231.000 0.279
2232.000 0.274
2233.000 0.270
2234.000 0.265
2235.000 0.249
2236.000 0.242
2237.000 0.238
2238.000 0.238
2239.000 0.243
2240.000 0.246
2241.000 0.252
2242.000 0.254
2243.000 0.257
2244.000 0.255
2245.000 0.245
2246.000 0.241
2247.000 0.237
2248.000 0.232
2249.000 0.230
2250.000 0.227
2251.000 0.223
2252.000 0.222
2253.000 0.224
2254.000 0.225
2255.000 0.225
2256.000 0.226
2257.000 0.227
2258.000 0.233
2259.000 0.232
2260.000 0.236
2261.000 0.234
2262.000 0.218
2263.000 0.218
2264.000 0.218
2265.000 0.216
2266.000 0.233
2267.000 0.239
2268.000 0.237
2269.000 0.243
2270.000 0.242
2271.000 0.244
2272.000 0.240
2273.000 0.237
2274.000 0.230
2275.000 0.228
2276.000 0.226
2277.000 0.228
2278.000 0.234
2279.000 0.238
2280.000 0.243
2281.000 0.244
2282.000 0.240
2283.000 0.241
2284.000 0.242
2285.000 0.246
2286.000 0.261
2287.000 0.266
2288.000 0.263
2289.000 0.263
2290.000 0.256
2291.000 0.251
2292.000 0.247
2293.000 0.241
2294.000 0.226
2295.000 0.222
2296.000 0.226
2297.000 0.229
2298.000 0.233
2299.000 0.241
2300.000 0.240
2301.000 0.233
2302.000 0.227
2303.000 0.227
2304.000 0.220
2305.000 0.208
2306.000 0.199
2307.000 0.203
2308.000 0.199
2309.000 0.209
2310.000 0.215
2311.000 0.227
2312.000 0.227
2313.000 0.221
2314.000 0.218
2315.000 0.222
2316.000 0.222
2317.000 0.230
2318.000 0.215
2319.000 0.191
2320.000 0.181
2321.000 0.179
2322.000 0.181
2323.000 0.206
2324.000 0.193
2325.000 0.179
2326.000 0.188
2327.000 0.177
2328.000 0.183
2329.000 0.199
2330.000 0.201
2331.000 0.172
2332.000 0.199
2333.000 0.211
2334.000 0.217
2335.000 0.247
2336.000 0.231
2337.000 0.199
2338.000 0.183
2339.000 0.154
2340.000 0.147
2341.000 0.141
2342.000 0.151
2343.000 0.195
2344.000 0.214
2345.000 0.264
2346.000 0.295
2347.000 0.241
2348.000 0.250
2349.000 0.270
2350.000 0.263
2351.000 0.333
2352.000 0.315
2353.000 0.263
2354.000 0.211
2355.000 0.162
2356.000 0.160
2357.000 0.174
2358.000 0.214
2359.000 0.239
2360.000 0.201
2361.000 0.211
2362.000 0.212
2363.000 0.191
2364.000 0.211
2365.000 0.203
2366.000 0.191
2367.000 0.168
2368.000 0.166
2369.000 0.247
2370.000 0.213
2371.000 0.253
2372.000 0.298
2373.000 0.263
2374.000 0.353
2375.000 0.445
2376.000 0.345
2377.000 0.356
2378.000 0.322
2379.000 0.241
2380.000 0.282
2381.000 0.306
2382.000 0.293
2383.000 0.372
2384.000 0.461
2385.000 0.339
2386.000 0.268
2387.000 0.250
2388.000 0.179
2389.000 0.159
2390.000 0.240
2391.000 0.159
2392.000 0.282
2393.000 0.185
2394.000 0.274
2395.000 0.331
2396.000 0.402
2397.000 0.335
2398.000 0.353
2399.000 0.285
2400.000 0.269
2401.000 0.264
2402.000 0.334
2403.000 0.312
2404.000 0.438
2405.000 0.715
2406.000 0.628
2407.000 0.664
2408.000 0.487
2409.000 0.383
2410.000 0.356
2411.000 0.335
2412.000 0.433
2413.000 0.319
2414.000 0.281
2415.000 0.238
2416.000 0.231
2417.000 0.217
2418.000 0.557
2419.000 0.511
2420.000 0.337
2421.000 0.361
2422.000 0.498
2423.000 0.277
2424.000 0.152
2425.000 0.097
2426.000 0.095
2427.000 0.115
2428.000 0.238
2429.000 0.264
2430.000 0.295
2431.000 0.366
2432.000 0.327
2433.000 0.310
2434.000 0.582
2435.000 0.676
2436.000 0.489
2437.000 0.605
2438.000 0.356
2439.000 0.343
2440.000 0.483
2441.000 0.608
2442.000 0.716
2443.000 0.682
2444.000 0.426
2445.000 0.574
2446.000 0.490
2447.000 0.488
2448.000 0.502
2449.000 0.345
2450.000 0.276
2451.000 0.342
2452.000 0.466
2453.000 0.482
2454.000 0.456
2455.000 0.423
2456.000 0.365
2457.000 0.303
2458.000 0.245
2459.000 0.349
2460.000 0.246
2461.000 0.315
2462.000 0.370
2463.000 0.492
2464.000 0.590
2465.000 0.470
2466.000 0.604
2467.000 0.550
2468.000 0.352
2469.000 0.377
2470.000 0.582
2471.000 0.448
2472.000 0.611
2473.000 0.715
2474.000 0.460
2475.000 0.516
2476.000 0.510
2477.000 0.527
2478.000 0.451
2479.000 0.460
2480.000 0.513
2481.000 0.454
2482.000 0.433
2483.000 0.354
2484.000 0.317
2485.000 0.332
2486.000 0.619
2487.000 0.366
2488.000 0.311
2489.000 0.239
2490.000 0.272
2491.000 0.225
2492.000 0.223
2493.000 0.241
2494.000 0.545
2495.000 0.404
2496.000 0.403
2497.000 0.404
2498.000 0.255
2499.000 0.489
2500.000 0.516
