391.000 0.075
392.000 0.080
393.000 0.083
394.000 0.076
395.000 0.074
396.000 0.074
397.000 0.075
398.000 0.085
399.000 0.081
400.000 0.078
401.000 0.083
402.000 0.080
403.000 0.080
404.000 0.083
405.000 0.082
406.000 0.082
407.000 0.080
408.000 0.079
409.000 0.078
410.000 0.078
411.000 0.082
412.000 0.087
413.000 0.083
414.000 0.079
415.000 0.080
416.000 0.082
417.000 0.079
418.000 0.079
419.000 0.082
420.000 0.081
421.000 0.082
422.000 0.085
423.000 0.088
424.000 0.082
425.000 0.081
426.000 0.084
427.000 0.081
428.000 0.080
429.000 0.082
430.000 0.086
431.000 0.088
432.000 0.085
433.000 0.083
434.000 0.082
435.000 0.082
436.000 0.082
437.000 0.083
438.000 0.083
439.000 0.085
440.000 0.085
441.000 0.083
442.000 0.082
443.000 0.084
444.000 0.085
445.000 0.083
446.000 0.082
447.000 0.085
448.000 0.087
449.000 0.086
450.000 0.082
451.000 0.084
452.000 0.088
453.000 0.086
454.000 0.084
455.000 0.085
456.000 0.087
457.000 0.087
458.000 0.087
459.000 0.087
460.000 0.087
461.000 0.084
462.000 0.084
463.000 0.086
464.000 0.084
465.000 0.086
466.000 0.088
467.000 0.086
468.000 0.087
469.000 0.089
470.000 0.089
471.000 0.088
472.000 0.087
473.000 0.087
474.000 0.087
475.000 0.088
476.000 0.088
477.000 0.088
478.000 0.089
479.000 0.087
480.000 0.087
481.000 0.088
482.000 0.087
483.000 0.088
484.000 0.089
485.000 0.089
486.000 0.089
487.000 0.089
488.000 0.091
489.000 0.089
490.000 0.089
491.000 0.090
492.000 0.091
493.000 0.089
494.000 0.091
495.000 0.092
496.000 0.090
497.000 0.092
498.000 0.091
499.000 0.091
500.000 0.092
501.000 0.093
502.000 0.094
503.000 0.094
504.000 0.096
505.000 0.096
506.000 0.097
507.000 0.098
508.000 0.099
509.000 0.099
510.000 0.100
511.000 0.103
512.000 0.104
513.000 0.105
514.000 0.107
515.000 0.109
516.000 0.111
517.000 0.114
518.000 0.118
519.000 0.119
520.000 0.121
521.000 0.124
522.000 0.129
523.000 0.133
524.000 0.136
525.000 0.138
526.000 0.141
527.000 0.144
528.000 0.147
529.000 0.148
530.000 0.150
531.000 0.153
532.000 0.155
533.000 0.157
534.000 0.158
535.000 0.160
536.000 0.161
537.000 0.163
538.000 0.164
539.000 0.164
540.000 0.164
541.000 0.165
542.000 0.165
543.000 0.165
544.000 0.166
545.000 0.166
546.000 0.166
547.000 0.167
548.000 0.168
549.000 0.167
550.000 0.167
551.000 0.168
552.000 0.168
553.000 0.168
554.000 0.168
555.000 0.167
556.000 0.166
557.000 0.165
558.000 0.165
559.000 0.163
560.000 0.162
561.000 0.162
562.000 0.161
563.000 0.159
564.000 0.157
565.000 0.155
566.000 0.153
567.000 0.150
568.000 0.148
569.000 0.148
570.000 0.146
571.000 0.144
572.000 0.142
573.000 0.139
574.000 0.138
575.000 0.136
576.000 0.136
577.000 0.134
578.000 0.132
579.000 0.132
580.000 0.130
581.000 0.130
582.000 0.130
583.000 0.128
584.000 0.127
585.000 0.125
586.000 0.124
587.000 0.125
588.000 0.124
589.000 0.123
590.000 0.123
591.000 0.121
592.000 0.120
593.000 0.119
594.000 0.119
595.000 0.119
596.000 0.118
597.000 0.118
598.000 0.119
599.000 0.119
600.000 0.118
601.000 0.117
602.000 0.116
603.000 0.117
604.000 0.118
605.000 0.118
606.000 0.117
607.000 0.116
608.000 0.115
609.000 0.115
610.000 0.113
611.000 0.113
612.000 0.113
613.000 0.112
614.000 0.112
615.000 0.111
616.000 0.111
617.000 0.110
618.000 0.109
619.000 0.110
620.000 0.110
621.000 0.109
622.000 0.109
623.000 0.109
624.000 0.109
625.000 0.109
626.000 0.110
627.000 0.110
628.000 0.109
629.000 0.108
630.000 0.107
631.000 0.106
632.000 0.108
633.000 0.109
634.000 0.107
635.000 0.108
636.000 0.108
637.000 0.107
638.000 0.107
639.000 0.107
640.000 0.106
641.000 0.106
642.000 0.106
643.000 0.105
644.000 0.103
645.000 0.104
646.000 0.102
647.000 0.101
648.000 0.102
649.000 0.101
650.000 0.101
651.000 0.102
652.000 0.103
653.000 0.103
654.000 0.103
655.000 0.101
656.000 0.100
657.000 0.102
658.000 0.104
659.000 0.103
660.000 0.106
661.000 0.106
662.000 0.104
663.000 0.104
664.000 0.103
665.000 0.103
666.000 0.106
667.000 0.105
668.000 0.106
669.000 0.108
670.000 0.106
671.000 0.108
672.000 0.110
673.000 0.109
674.000 0.110
675.000 0.111
676.000 0.113
677.000 0.114
678.000 0.116
679.000 0.118
680.000 0.118
681.000 0.118
682.000 0.118
683.000 0.119
684.000 0.121
685.000 0.121
686.000 0.123
687.000 0.124
688.000 0.125
689.000 0.125
690.000 0.127
691.000 0.128
692.000 0.130
693.000 0.133
694.000 0.137
695.000 0.141
696.000 0.150
697.000 0.155
698.000 0.160
699.000 0.167
700.000 0.176
701.000 0.184
702.000 0.191
703.000 0.200
704.000 0.209
705.000 0.217
706.000 0.225
707.000 0.233
708.000 0.242
709.000 0.251
710.000 0.259
711.000 0.267
712.000 0.276
713.000 0.284
714.000 0.292
715.000 0.300
716.000 0.306
717.000 0.312
718.000 0.320
719.000 0.328
720.000 0.338
721.000 0.348
722.000 0.357
723.000 0.364
724.000 0.370
725.000 0.378
726.000 0.386
727.000 0.393
728.000 0.401
729.000 0.408
730.000 0.415
731.000 0.423
732.000 0.432
733.000 0.440
734.000 0.446
735.000 0.453
736.000 0.458
737.000 0.464
738.000 0.469
739.000 0.475
740.000 0.480
741.000 0.485
742.000 0.490
743.000 0.494
744.000 0.498
745.000 0.501
746.000 0.504
747.000 0.507
748.000 0.510
749.000 0.513
750.000 0.514
751.000 0.516
752.000 0.518
753.000 0.520
754.000 0.521
755.000 0.523
756.000 0.524
757.000 0.525
758.000 0.525
759.000 0.523
760.000 0.518
761.000 0.512
762.000 0.510
763.000 0.511
764.000 0.514
765.000 0.519
766.000 0.524
767.000 0.527
768.000 0.530
769.000 0.532
770.000 0.533
771.000 0.534
772.000 0.535
773.000 0.535
774.000 0.536
775.000 0.536
776.000 0.536
777.000 0.537
778.000 0.537
779.000 0.537
780.000 0.538
781.000 0.538
782.000 0.537
783.000 0.538
784.000 0.538
785.000 0.537
786.000 0.536
787.000 0.536
788.000 0.535
789.000 0.534
790.000 0.534
791.000 0.534
792.000 0.535
793.000 0.536
794.000 0.537
795.000 0.536
796.000 0.535
797.000 0.535
798.000 0.536
799.000 0.535
800.000 0.535
801.000 0.535
802.000 0.535
803.000 0.536
804.000 0.536
805.000 0.537
806.000 0.538
807.000 0.538
808.000 0.538
809.000 0.537
810.000 0.535
811.000 0.534
812.000 0.531
813.000 0.529
814.000 0.526
815.000 0.524
816.000 0.522
817.000 0.522
818.000 0.523
819.000 0.525
820.000 0.527
821.000 0.528
822.000 0.528
823.000 0.528
824.000 0.529
825.000 0.530
826.000 0.531
827.000 0.530
828.000 0.531
829.000 0.530
830.000 0.531
831.000 0.531
832.000 0.533
833.000 0.533
834.000 0.534
835.000 0.536
836.000 0.537
837.000 0.538
838.000 0.539
839.000 0.540
840.000 0.540
841.000 0.541
842.000 0.542
843.000 0.543
844.000 0.543
845.000 0.543
846.000 0.544
847.000 0.544
848.000 0.545
849.000 0.545
850.000 0.545
851.000 0.544
852.000 0.545
853.000 0.545
854.000 0.545
855.000 0.545
856.000 0.546
857.000 0.546
858.000 0.546
859.000 0.546
860.000 0.546
861.000 0.547
862.000 0.547
863.000 0.547
864.000 0.547
865.000 0.548
866.000 0.548
867.000 0.548
868.000 0.548
869.000 0.548
870.000 0.547
871.000 0.548
872.000 0.548
873.000 0.548
874.000 0.548
875.000 0.548
876.000 0.548
877.000 0.548
878.000 0.548
879.000 0.548
880.000 0.548
881.000 0.548
882.000 0.548
883.000 0.548
884.000 0.548
885.000 0.548
886.000 0.548
887.000 0.547
888.000 0.547
889.000 0.547
890.000 0.546
891.000 0.545
892.000 0.544
893.000 0.542
894.000 0.539
895.000 0.537
896.000 0.535
897.000 0.532
898.000 0.530
899.000 0.529
900.000 0.528
901.000 0.529
902.000 0.530
903.000 0.530
904.000 0.531
905.000 0.531
906.000 0.530
907.000 0.529
908.000 0.529
909.000 0.527
910.000 0.525
911.000 0.524
912.000 0.524
913.000 0.523
914.000 0.523
915.000 0.523
916.000 0.524
917.000 0.525
918.000 0.526
919.000 0.527
920.000 0.530
921.000 0.530
922.000 0.530
923.000 0.529
924.000 0.528
925.000 0.527
926.000 0.525
927.000 0.520
928.000 0.516
929.000 0.514
930.000 0.510
931.000 0.505
932.000 0.496
933.000 0.492
934.000 0.488
935.000 0.484
936.000 0.484
937.000 0.483
938.000 0.484
939.000 0.485
940.000 0.486
941.000 0.485
942.000 0.484
943.000 0.484
944.000 0.482
945.000 0.482
946.000 0.483
947.000 0.485
948.000 0.486
949.000 0.484
950.000 0.481
951.000 0.480
952.000 0.484
953.000 0.482
954.000 0.481
955.000 0.484
956.000 0.482
957.000 0.485
958.000 0.488
959.000 0.488
960.000 0.488
961.000 0.491
962.000 0.494
963.000 0.496
964.000 0.500
965.000 0.502
966.000 0.502
967.000 0.503
968.000 0.509
969.000 0.509
970.000 0.509
971.000 0.510
972.000 0.511
973.000 0.512
974.000 0.512
975.000 0.511
976.000 0.513
977.000 0.513
978.000 0.514
979.000 0.514
980.000 0.515
981.000 0.519
982.000 0.521
983.000 0.521
984.000 0.523
985.000 0.525
986.000 0.526
987.000 0.527
988.000 0.528
989.000 0.529
990.000 0.531
991.000 0.533
992.000 0.532
993.000 0.532
994.000 0.533
995.000 0.534
996.000 0.535
997.000 0.534
998.000 0.536
999.000 0.537
1000.000 0.536
1001.000 0.540
1002.000 0.540
1003.000 0.541
1004.000 0.540
1005.000 0.539
1006.000 0.540
1007.000 0.540
1008.000 0.542
1009.000 0.543
1010.000 0.543
1011.000 0.544
1012.000 0.544
1013.000 0.545
1014.000 0.545
1015.000 0.545
1016.000 0.546
1017.000 0.547
1018.000 0.549
1019.000 0.549
1020.000 0.549
1021.000 0.549
1022.000 0.548
1023.000 0.548
1024.000 0.548
1025.000 0.548
1026.000 0.549
1027.000 0.549
1028.000 0.550
1029.000 0.552
1030.000 0.552
1031.000 0.553
1032.000 0.554
1033.000 0.554
1034.000 0.555
1035.000 0.555
1036.000 0.555
1037.000 0.554
1038.000 0.555
1039.000 0.555
1040.000 0.556
1041.000 0.556
1042.000 0.557
1043.000 0.557
1044.000 0.556
1045.000 0.556
1046.000 0.557
1047.000 0.557
1048.000 0.557
1049.000 0.557
1050.000 0.558
1051.000 0.559
1052.000 0.558
1053.000 0.559
1054.000 0.559
1055.000 0.559
1056.000 0.559
1057.000 0.558
1058.000 0.558
1059.000 0.558
1060.000 0.559
1061.000 0.559
1062.000 0.559
1063.000 0.560
1064.000 0.560
1065.000 0.559
1066.000 0.559
1067.000 0.559
1068.000 0.558
1069.000 0.559
1070.000 0.559
1071.000 0.559
1072.000 0.559
1073.000 0.559
1074.000 0.559
1075.000 0.558
1076.000 0.558
1077.000 0.558
1078.000 0.557
1079.000 0.557
1080.000 0.557
1081.000 0.558
1082.000 0.557
1083.000 0.556
1084.000 0.556
1085.000 0.555
1086.000 0.555
1087.000 0.555
1088.000 0.555
1089.000 0.553
1090.000 0.553
1091.000 0.552
1092.000 0.552
1093.000 0.551
1094.000 0.550
1095.000 0.549
1096.000 0.547
1097.000 0.545
1098.000 0.544
1099.000 0.543
1100.000 0.541
1101.000 0.539
1102.000 0.537
1103.000 0.536
1104.000 0.534
1105.000 0.533
1106.000 0.532
1107.000 0.530
1108.000 0.529
1109.000 0.527
1110.000 0.525
1111.000 0.523
1112.000 0.520
1113.000 0.515
1114.000 0.511
1115.000 0.507
1116.000 0.502
1117.000 0.495
1118.000 0.491
1119.000 0.485
1120.000 0.479
1121.000 0.475
1122.000 0.471
1123.000 0.467
1124.000 0.463
1125.000 0.460
1126.000 0.457
1127.000 0.455
1128.000 0.453
1129.000 0.456
1130.000 0.460
1131.000 0.464
1132.000 0.468
1133.000 0.468
1134.000 0.470
1135.000 0.472
1136.000 0.473
1137.000 0.473
1138.000 0.472
1139.000 0.469
1140.000 0.467
1141.000 0.465
1142.000 0.464
1143.000 0.463
1144.000 0.463
1145.000 0.464
1146.000 0.464
1147.000 0.465
1148.000 0.463
1149.000 0.463
1150.000 0.463
1151.000 0.462
1152.000 0.464
1153.000 0.466
1154.000 0.469
1155.000 0.472
1156.000 0.473
1157.000 0.475
1158.000 0.476
1159.000 0.477
1160.000 0.479
1161.000 0.482
1162.000 0.485
1163.000 0.487
1164.000 0.488
1165.000 0.490
1166.000 0.491
1167.000 0.492
1168.000 0.493
1169.000 0.494
1170.000 0.494
1171.000 0.496
1172.000 0.497
1173.000 0.497
1174.000 0.498
1175.000 0.498
1176.000 0.499
1177.000 0.499
1178.000 0.499
1179.000 0.500
1180.000 0.499
1181.000 0.498
1182.000 0.497
1183.000 0.496
1184.000 0.495
1185.000 0.496
1186.000 0.497
1187.000 0.497
1188.000 0.498
1189.000 0.498
1190.000 0.498
1191.000 0.499
1192.000 0.499
1193.000 0.500
1194.000 0.500
1195.000 0.501
1196.000 0.501
1197.000 0.502
1198.000 0.503
1199.000 0.504
1200.000 0.504
1201.000 0.504
1202.000 0.504
1203.000 0.504
1204.000 0.503
1205.000 0.503
1206.000 0.502
1207.000 0.502
1208.000 0.502
1209.000 0.503
1210.000 0.503
1211.000 0.504
1212.000 0.505
1213.000 0.505
1214.000 0.506
1215.000 0.506
1216.000 0.507
1217.000 0.508
1218.000 0.508
1219.000 0.509
1220.000 0.509
1221.000 0.509
1222.000 0.509
1223.000 0.511
1224.000 0.511
1225.000 0.512
1226.000 0.513
1227.000 0.514
1228.000 0.514
1229.000 0.515
1230.000 0.516
1231.000 0.516
1232.000 0.517
1233.000 0.518
1234.000 0.519
1235.000 0.519
1236.000 0.519
1237.000 0.519
1238.000 0.520
1239.000 0.520
1240.000 0.520
1241.000 0.520
1242.000 0.520
1243.000 0.520
1244.000 0.521
1245.000 0.521
1246.000 0.522
1247.000 0.522
1248.000 0.523
1249.000 0.524
1250.000 0.524
1251.000 0.524
1252.000 0.524
1253.000 0.524
1254.000 0.523
1255.000 0.524
1256.000 0.523
1257.000 0.522
1258.000 0.522
1259.000 0.522
1260.000 0.521
1261.000 0.522
1262.000 0.521
1263.000 0.521
1264.000 0.520
1265.000 0.520
1266.000 0.520
1267.000 0.519
1268.000 0.519
1269.000 0.519
1270.000 0.519
1271.000 0.520
1272.000 0.521
1273.000 0.522
1274.000 0.522
1275.000 0.522
1276.000 0.523
1277.000 0.523
1278.000 0.523
1279.000 0.523
1280.000 0.523
1281.000 0.523
1282.000 0.523
1283.000 0.523
1284.000 0.522
1285.000 0.522
1286.000 0.521
1287.000 0.520
1288.000 0.520
1289.000 0.519
1290.000 0.519
1291.000 0.518
1292.000 0.517
1293.000 0.515
1294.000 0.514
1295.000 0.514
1296.000 0.512
1297.000 0.512
1298.000 0.511
1299.000 0.510
1300.000 0.509
1301.000 0.507
1302.000 0.506
1303.000 0.504
1304.000 0.503
1305.000 0.501
1306.000 0.500
1307.000 0.498
1308.000 0.497
1309.000 0.496
1310.000 0.494
1311.000 0.492
1312.000 0.490
1313.000 0.487
1314.000 0.484
1315.000 0.483
1316.000 0.481
1317.000 0.481
1318.000 0.479
1319.000 0.477
1320.000 0.476
1321.000 0.473
1322.000 0.472
1323.000 0.470
1324.000 0.466
1325.000 0.463
1326.000 0.459
1327.000 0.456
1328.000 0.453
1329.000 0.450
1330.000 0.447
1331.000 0.445
1332.000 0.444
1333.000 0.441
1334.000 0.440
1335.000 0.437
1336.000 0.434
1337.000 0.432
1338.000 0.430
1339.000 0.428
1340.000 0.427
1341.000 0.428
1342.000 0.426
1343.000 0.423
1344.000 0.418
1345.000 0.414
1346.000 0.409
1347.000 0.403
1348.000 0.396
1349.000 0.391
1350.000 0.383
1351.000 0.368
1352.000 0.355
1353.000 0.354
1354.000 0.334
1355.000 0.315
1356.000 0.297
1357.000 0.255
1358.000 0.218
1359.000 0.342
1360.000 0.332
1361.000 0.301
1362.000 0.288
1363.000 0.240
1364.000 0.246
1365.000 0.306
1366.000 0.304
1367.000 0.243
1368.000 0.225
1369.000 0.271
1370.000 0.237
1371.000 0.199
1372.000 0.211
1373.000 0.635
1374.000 0.609
1375.000 0.565
1376.000 0.549
1377.000 0.453
1378.000 0.419
1379.000 0.480
1380.000 0.512
1381.000 0.543
1382.000 0.385
1383.000 0.309
1384.000 0.261
1385.000 0.225
1386.000 0.338
1387.000 0.257
1388.000 0.261
1389.000 0.250
1390.000 0.293
1391.000 0.250
1392.000 0.221
1393.000 0.331
1394.000 0.483
1395.000 0.476
1396.000 0.481
1397.000 0.509
1398.000 0.529
1399.000 0.581
1400.000 0.350
1401.000 0.437
1402.000 0.382
1403.000 0.336
1404.000 0.293
1405.000 0.300
1406.000 0.477
1407.000 0.538
1408.000 0.213
1409.000 0.180
1410.000 0.206
1411.000 0.208
1412.000 0.241
1413.000 0.338
1414.000 0.333
1415.000 0.298
1416.000 0.356
1417.000 0.280
1418.000 0.263
1419.000 0.391
1420.000 0.409
1421.000 0.370
1422.000 0.352
1423.000 0.289
1424.000 0.256
1425.000 0.209
1426.000 0.168
1427.000 0.215
1428.000 0.210
1429.000 0.189
1430.000 0.172
1431.000 0.217
1432.000 0.218
1433.000 0.188
1434.000 0.154
1435.000 0.154
1436.000 0.140
1437.000 0.124
1438.000 0.132
1439.000 0.127
1440.000 0.136
1441.000 0.148
1442.000 0.157
1443.000 0.157
1444.000 0.161
1445.000 0.174
1446.000 0.174
1447.000 0.147
1448.000 0.143
1449.000 0.152
1450.000 0.156
1451.000 0.153
1452.000 0.154
1453.000 0.155
1454.000 0.151
1455.000 0.152
1456.000 0.159
1457.000 0.159
1458.000 0.154
1459.000 0.153
1460.000 0.148
1461.000 0.148
1462.000 0.150
1463.000 0.154
1464.000 0.161
1465.000 0.167
1466.000 0.178
1467.000 0.180
1468.000 0.174
1469.000 0.170
1470.000 0.158
1471.000 0.156
1472.000 0.162
1473.000 0.162
1474.000 0.163
1475.000 0.162
1476.000 0.156
1477.000 0.156
1478.000 0.159
1479.000 0.161
1480.000 0.163
1481.000 0.166
1482.000 0.169
1483.000 0.172
1484.000 0.176
1485.000 0.180
1486.000 0.185
1487.000 0.190
1488.000 0.197
1489.000 0.201
1490.000 0.204
1491.000 0.205
1492.000 0.205
1493.000 0.205
1494.000 0.205
1495.000 0.206
1496.000 0.207
1497.000 0.208
1498.000 0.211
1499.000 0.213
1500.000 0.215
1501.000 0.218
1502.000 0.220
1503.000 0.221
1504.000 0.223
1505.000 0.225
1506.000 0.227
1507.000 0.229
1508.000 0.230
1509.000 0.232
1510.000 0.234
1511.000 0.236
1512.000 0.236
1513.000 0.236
1514.000 0.236
1515.000 0.235
1516.000 0.236
1517.000 0.239
1518.000 0.242
1519.000 0.246
1520.000 0.248
1521.000 0.249
1522.000 0.250
1523.000 0.249
1524.000 0.250
1525.000 0.253
1526.000 0.254
1527.000 0.256
1528.000 0.257
1529.000 0.258
1530.000 0.260
1531.000 0.261
1532.000 0.263
1533.000 0.267
1534.000 0.269
1535.000 0.271
1536.000 0.273
1537.000 0.273
1538.000 0.274
1539.000 0.275
1540.000 0.276
1541.000 0.278
1542.000 0.280
1543.000 0.281
1544.000 0.282
1545.000 0.283
1546.000 0.284
1547.000 0.285
1548.000 0.287
1549.000 0.289
1550.000 0.291
1551.000 0.293
1552.000 0.295
1553.000 0.295
1554.000 0.295
1555.000 0.294
1556.000 0.295
1557.000 0.296
1558.000 0.297
1559.000 0.299
1560.000 0.301
1561.000 0.301
1562.000 0.303
1563.000 0.305
1564.000 0.307
1565.000 0.309
1566.000 0.310
1567.000 0.309
1568.000 0.310
1569.000 0.311
1570.000 0.312
1571.000 0.313
1572.000 0.315
1573.000 0.316
1574.000 0.317
1575.000 0.318
1576.000 0.320
1577.000 0.321
1578.000 0.322
1579.000 0.322
1580.000 0.323
1581.000 0.324
1582.000 0.325
1583.000 0.326
1584.000 0.327
1585.000 0.328
1586.000 0.330
1587.000 0.333
1588.000 0.334
1589.000 0.335
1590.000 0.336
1591.000 0.336
1592.000 0.337
1593.000 0.339
1594.000 0.339
1595.000 0.338
1596.000 0.338
1597.000 0.337
1598.000 0.336
1599.000 0.337
1600.000 0.338
1601.000 0.337
1602.000 0.338
1603.000 0.339
1604.000 0.341
1605.000 0.343
1606.000 0.345
1607.000 0.345
1608.000 0.346
1609.000 0.347
1610.000 0.348
1611.000 0.350
1612.000 0.350
1613.000 0.351
1614.000 0.351
1615.000 0.350
1616.000 0.350
1617.000 0.349
1618.000 0.348
1619.000 0.348
1620.000 0.348
1621.000 0.351
1622.000 0.353
1623.000 0.355
1624.000 0.357
1625.000 0.356
1626.000 0.356
1627.000 0.355
1628.000 0.355
1629.000 0.356
1630.000 0.356
1631.000 0.358
1632.000 0.359
1633.000 0.359
1634.000 0.359
1635.000 0.358
1636.000 0.359
1637.000 0.358
1638.000 0.358
1639.000 0.359
1640.000 0.360
1641.000 0.360
1642.000 0.362
1643.000 0.362
1644.000 0.362
1645.000 0.365
1646.000 0.365
1647.000 0.365
1648.000 0.366
1649.000 0.363
1650.000 0.362
1651.000 0.364
1652.000 0.365
1653.000 0.367
1654.000 0.368
1655.000 0.367
1656.000 0.366
1657.000 0.365
1658.000 0.364
1659.000 0.363
1660.000 0.364
1661.000 0.367
1662.000 0.368
1663.000 0.367
1664.000 0.367
1665.000 0.367
1666.000 0.367
1667.000 0.368
1668.000 0.369
1669.000 0.369
1670.000 0.368
1671.000 0.368
1672.000 0.368
1673.000 0.367
1674.000 0.367
1675.000 0.368
1676.000 0.369
1677.000 0.371
1678.000 0.372
1679.000 0.372
1680.000 0.371
1681.000 0.370
1682.000 0.369
1683.000 0.369
1684.000 0.369
1685.000 0.368
1686.000 0.369
1687.000 0.369
1688.000 0.370
1689.000 0.370
1690.000 0.370
1691.000 0.371
1692.000 0.371
1693.000 0.372
1694.000 0.371
1695.000 0.368
1696.000 0.368
1697.000 0.368
1698.000 0.367
1699.000 0.365
1700.000 0.364
1701.000 0.363
1702.000 0.363
1703.000 0.364
1704.000 0.364
1705.000 0.364
1706.000 0.365
1707.000 0.368
1708.000 0.368
1709.000 0.367
1710.000 0.366
1711.000 0.364
1712.000 0.363
1713.000 0.362
1714.000 0.359
1715.000 0.358
1716.000 0.358
1717.000 0.359
1718.000 0.359
1719.000 0.358
1720.000 0.356
1721.000 0.355
1722.000 0.354
1723.000 0.354
1724.000 0.355
1725.000 0.355
1726.000 0.355
1727.000 0.354
1728.000 0.354
1729.000 0.353
1730.000 0.352
1731.000 0.352
1732.000 0.349
1733.000 0.347
1734.000 0.347
1735.000 0.347
1736.000 0.345
1737.000 0.344
1738.000 0.343
1739.000 0.341
1740.000 0.341
1741.000 0.341
1742.000 0.340
1743.000 0.340
1744.000 0.342
1745.000 0.343
1746.000 0.345
1747.000 0.343
1748.000 0.338
1749.000 0.335
1750.000 0.330
1751.000 0.327
1752.000 0.326
1753.000 0.324
1754.000 0.321
1755.000 0.319
1756.000 0.318
1757.000 0.317
1758.000 0.316
1759.000 0.313
1760.000 0.313
1761.000 0.312
1762.000 0.310
1763.000 0.311
1764.000 0.310
1765.000 0.312
1766.000 0.315
1767.000 0.313
1768.000 0.313
1769.000 0.313
1770.000 0.310
1771.000 0.315
1772.000 0.319
1773.000 0.319
1774.000 0.316
1775.000 0.309
1776.000 0.310
1777.000 0.310
1778.000 0.311
1779.000 0.312
1780.000 0.305
1781.000 0.299
1782.000 0.294
1783.000 0.289
1784.000 0.279
1785.000 0.277
1786.000 0.275
1787.000 0.279
1788.000 0.283
1789.000 0.285
1790.000 0.283
1791.000 0.277
1792.000 0.265
1793.000 0.248
1794.000 0.239
1795.000 0.241
1796.000 0.244
1797.000 0.239
1798.000 0.229
1799.000 0.234
1800.000 0.239
1801.000 0.313
1802.000 0.314
1803.000 0.331
1804.000 0.355
1805.000 0.406
1806.000 0.503
1807.000 0.476
1808.000 0.486
1809.000 0.531
1810.000 0.547
1811.000 0.579
1812.000 0.564
1813.000 0.439
1814.000 0.268
1815.000 0.288
1816.000 0.266
1817.000 0.446
1818.000 0.610
1819.000 0.731
1820.000 0.824
1821.000 0.711
1822.000 0.544
1823.000 0.505
1824.000 0.466
1825.000 0.446
1826.000 0.313
1827.000 0.238
1828.000 0.394
1829.000 0.464
1830.000 0.514
1831.000 0.488
1832.000 0.388
1833.000 0.411
1834.000 0.362
1835.000 0.301
1836.000 0.231
1837.000 0.332
1838.000 0.323
1839.000 0.307
1840.000 0.287
1841.000 0.305
1842.000 0.302
1843.000 0.324
1844.000 0.319
1845.000 0.262
1846.000 0.277
1847.000 0.290
1848.000 0.364
1849.000 0.351
1850.000 0.345
1851.000 0.379
1852.000 0.309
1853.000 0.334
1854.000 0.289
1855.000 0.329
1856.000 0.297
1857.000 0.313
1858.000 0.462
1859.000 0.519
1860.000 0.498
1861.000 0.564
1862.000 0.562
1863.000 0.562
1864.000 0.414
1865.000 0.341
1866.000 0.378
1867.000 0.388
1868.000 0.407
1869.000 0.369
1870.000 0.545
1871.000 0.455
1872.000 0.465
1873.000 0.484
1874.000 0.381
1875.000 0.602
1876.000 0.454
1877.000 0.315
1878.000 0.281
1879.000 0.446
1880.000 0.394
1881.000 0.399
1882.000 0.327
1883.000 0.329
1884.000 0.384
1885.000 0.393
1886.000 0.518
1887.000 0.302
1888.000 0.459
1889.000 0.433
1890.000 0.530
1891.000 0.549
1892.000 0.485
1893.000 0.431
1894.000 0.364
1895.000 0.272
1896.000 0.387
1897.000 0.378
1898.000 0.255
1899.000 0.556
1900.000 0.621
1901.000 0.631
1902.000 0.606
1903.000 0.630
1904.000 0.592
1905.000 0.538
1906.000 0.465
1907.000 0.425
1908.000 0.386
1909.000 0.342
1910.000 0.444
1911.000 0.393
1912.000 0.502
1913.000 0.560
1914.000 0.545
1915.000 0.467
1916.000 0.483
1917.000 0.512
1918.000 0.605
1919.000 0.624
1920.000 0.577
1921.000 0.682
1922.000 0.540
1923.000 0.485
1924.000 0.536
1925.000 0.499
1926.000 0.514
1927.000 0.530
1928.000 0.527
1929.000 0.531
1930.000 0.488
1931.000 0.206
1932.000 0.263
1933.000 0.400
1934.000 0.304
1935.000 0.377
1936.000 0.395
1937.000 0.452
1938.000 0.502
1939.000 0.514
1940.000 0.588
1941.000 0.560
1942.000 0.420
1943.000 0.448
1944.000 0.444
1945.000 0.547
1946.000 0.615
1947.000 0.561
1948.000 0.716
1949.000 0.698
1950.000 0.563
1951.000 0.411
1952.000 0.359
1953.000 0.600
1954.000 0.611
1955.000 0.631
1956.000 0.611
1957.000 0.329
1958.000 0.364
1959.000 0.343
1960.000 0.462
1961.000 0.433
1962.000 0.429
1963.000 0.478
1964.000 0.488
1965.000 0.545
1966.000 0.410
1967.000 0.433
1968.000 0.375
1969.000 0.325
1970.000 0.289
1971.000 0.284
1972.000 0.328
1973.000 0.352
1974.000 0.346
1975.000 0.314
1976.000 0.206
1977.000 0.206
1978.000 0.205
1979.000 0.268
1980.000 0.292
1981.000 0.303
1982.000 0.275
1983.000 0.243
1984.000 0.210
1985.000 0.207
1986.000 0.185
1987.000 0.166
1988.000 0.204
1989.000 0.260
1990.000 0.277
1991.000 0.263
1992.000 0.214
1993.000 0.208
1994.000 0.191
1995.000 0.219
1996.000 0.233
1997.000 0.263
1998.000 0.269
1999.000 0.257
2000.000 0.251
2001.000 0.258
2002.000 0.291
2003.000 0.312
2004.000 0.355
2005.000 0.392
2006.000 0.445
2007.000 0.446
2008.000 0.429
2009.000 0.444
2010.000 0.390
2011.000 0.391
2012.000 0.348
2013.000 0.356
2014.000 0.337
2015.000 0.378
2016.000 0.362
2017.000 0.337
2018.000 0.316
2019.000 0.282
2020.000 0.246
2021.000 0.234
2022.000 0.222
2023.000 0.227
2024.000 0.215
2025.000 0.196
2026.000 0.182
2027.000 0.183
2028.000 0.209
2029.000 0.213
2030.000 0.218
2031.000 0.217
2032.000 0.215
2033.000 0.203
2034.000 0.188
2035.000 0.187
2036.000 0.179
2037.000 0.159
2038.000 0.170
2039.000 0.173
2040.000 0.177
2041.000 0.185
2042.000 0.183
2043.000 0.168
2044.000 0.166
2045.000 0.161
2046.000 0.159
2047.000 0.167
2048.000 0.167
2049.000 0.161
2050.000 0.157
2051.000 0.153
2052.000 0.152
2053.000 0.173
2054.000 0.192
2055.000 0.206
2056.000 0.217
2057.000 0.217
2058.000 0.200
2059.000 0.190
2060.000 0.172
2061.000 0.169
2062.000 0.174
2063.000 0.177
2064.000 0.186
2065.000 0.198
2066.000 0.220
2067.000 0.226
2068.000 0.221
2069.000 0.226
2070.000 0.211
2071.000 0.197
2072.000 0.191
2073.000 0.195
2074.000 0.192
2075.000 0.189
2076.000 0.188
2077.000 0.186
2078.000 0.183
2079.000 0.182
2080.000 0.182
2081.000 0.177
2082.000 0.181
2083.000 0.182
2084.000 0.182
2085.000 0.191
2086.000 0.197
2087.000 0.195
2088.000 0.194
2089.000 0.188
2090.000 0.168
2091.000 0.166
2092.000 0.173
2093.000 0.176
2094.000 0.184
2095.000 0.191
2096.000 0.203
2097.000 0.204
2098.000 0.204
2099.000 0.197
2100.000 0.181
2101.000 0.174
2102.000 0.179
2103.000 0.192
2104.000 0.198
2105.000 0.206
2106.000 0.209
2107.000 0.205
2108.000 0.204
2109.000 0.205
2110.000 0.208
2111.000 0.213
2112.000 0.216
2113.000 0.220
2114.000 0.224
2115.000 0.228
2116.000 0.229
2117.000 0.227
2118.000 0.233
2119.000 0.231
2120.000 0.228
2121.000 0.230
2122.000 0.225
2123.000 0.222
2124.000 0.215
2125.000 0.215
2126.000 0.217
2127.000 0.222
2128.000 0.235
2129.000 0.239
2130.000 0.242
2131.000 0.241
2132.000 0.232
2133.000 0.229
2134.000 0.225
2135.000 0.221
2136.000 0.220
2137.000 0.216
2138.000 0.219
2139.000 0.218
2140.000 0.216
2141.000 0.224
2142.000 0.228
2143.000 0.231
2144.000 0.232
2145.000 0.229
2146.000 0.227
2147.000 0.224
2148.000 0.222
2149.000 0.223
2150.000 0.221
2151.000 0.212
2152.000 0.211
2153.000 0.213
2154.000 0.216
2155.000 0.223
2156.000 0.233
2157.000 0.240
2158.000 0.236
2159.000 0.240
2160.000 0.241
2161.000 0.239
2162.000 0.236
2163.000 0.233
2164.000 0.223
2165.000 0.222
2166.000 0.227
2167.000 0.230
2168.000 0.242
2169.000 0.242
2170.000 0.235
2171.000 0.232
2172.000 0.221
2173.000 0.221
2174.000 0.233
2175.000 0.234
2176.000 0.235
2177.000 0.231
2178.000 0.222
2179.000 0.221
2180.000 0.218
2181.000 0.223
2182.000 0.222
2183.000 0.220
2184.000 0.224
2185.000 0.232
2186.000 0.237
2187.000 0.251
2188.000 0.253
2189.000 0.249
2190.000 0.245
2191.000 0.235
2192.000 0.229
2193.000 0.222
2194.000 0.221
2195.000 0.223
2196.000 0.224
2197.000 0.225
2198.000 0.229
2199.000 0.237
2200.000 0.240
2201.000 0.239
2202.000 0.246
2203.000 0.252
2204.000 0.252
2205.000 0.262
2206.000 0.271
2207.000 0.263
2208.000 0.250
2209.000 0.241
2210.000 0.222
2211.000 0.219
2212.000 0.226
2213.000 0.227
2214.000 0.233
2215.000 0.238
2216.000 0.240
2217.000 0.243
2218.000 0.256
2219.000 0.258
2220.000 0.253
2221.000 0.250
2222.000 0.238
2223.000 0.233
2224.000 0.229
2225.000 0.230
2226.000 0.236
2227.000 0.244
2228.000 0.257
2229.000 0.267
2230.000 0.269
2231.000 0.272
2232.000 0.257
2233.000 0.239
2234.000 0.228
2235.000 0.216
2236.000 0.214
2237.000 0.220
2238.000 0.224
2239.000 0.232
2240.000 0.231
2241.000 0.221
2242.000 0.221
2243.000 0.223
2244.000 0.224
2245.000 0.232
2246.000 0.237
2247.000 0.235
2248.000 0.235
2249.000 0.242
2250.000 0.243
2251.000 0.241
2252.000 0.237
2253.000 0.227
2254.000 0.218
2255.000 0.205
2256.000 0.200
2257.000 0.198
2258.000 0.202
2259.000 0.222
2260.000 0.230
2261.000 0.234
2262.000 0.225
2263.000 0.211
2264.000 0.198
2265.000 0.182
2266.000 0.182
2267.000 0.189
2268.000 0.201
2269.000 0.214
2270.000 0.218
2271.000 0.218
2272.000 0.193
2273.000 0.187
2274.000 0.188
2275.000 0.188
2276.000 0.196
2277.000 0.199
2278.000 0.196
2279.000 0.196
2280.000 0.197
2281.000 0.197
2282.000 0.198
2283.000 0.200
2284.000 0.196
2285.000 0.202
2286.000 0.225
2287.000 0.231
2288.000 0.235
2289.000 0.237
2290.000 0.229
2291.000 0.226
2292.000 0.217
2293.000 0.224
2294.000 0.255
2295.000 0.265
2296.000 0.273
2297.000 0.245
2298.000 0.257
2299.000 0.246
2300.000 0.265
2301.000 0.280
2302.000 0.268
2303.000 0.256
2304.000 0.240
2305.000 0.231
2306.000 0.232
2307.000 0.271
2308.000 0.250
2309.000 0.249
2310.000 0.226
2311.000 0.241
2312.000 0.235
2313.000 0.230
2314.000 0.243
2315.000 0.231
2316.000 0.243
2317.000 0.247
2318.000 0.222
2319.000 0.212
2320.000 0.191
2321.000 0.204
2322.000 0.220
2323.000 0.227
2324.000 0.222
2325.000 0.229
2326.000 0.251
2327.000 0.206
2328.000 0.200
2329.000 0.172
2330.000 0.148
2331.000 0.121
2332.000 0.132
2333.000 0.128
2334.000 0.135
2335.000 0.215
2336.000 0.211
2337.000 0.179
2338.000 0.177
2339.000 0.137
2340.000 0.143
2341.000 0.190
2342.000 0.216
2343.000 0.225
2344.000 0.276
2345.000 0.288
2346.000 0.265
2347.000 0.274
2348.000 0.262
2349.000 0.220
2350.000 0.208
2351.000 0.232
2352.000 0.242
2353.000 0.210
2354.000 0.179
2355.000 0.206
2356.000 0.220
2357.000 0.184
2358.000 0.128
2359.000 0.118
2360.000 0.137
2361.000 0.155
2362.000 0.141
2363.000 0.223
2364.000 0.243
2365.000 0.290
2366.000 0.250
2367.000 0.181
2368.000 0.177
2369.000 0.292
2370.000 0.277
2371.000 0.310
2372.000 0.444
2373.000 0.413
2374.000 0.357
2375.000 0.525
2376.000 0.417
2377.000 0.540
2378.000 0.577
2379.000 0.498
2380.000 0.417
2381.000 0.403
2382.000 0.533
2383.000 0.423
2384.000 0.700
2385.000 0.444
2386.000 0.393
2387.000 0.528
2388.000 0.329
2389.000 0.322
2390.000 0.528
2391.000 0.431
2392.000 0.617
2393.000 0.411
2394.000 0.409
2395.000 0.403
2396.000 0.518
2397.000 0.416
2398.000 0.352
2399.000 0.304
2400.000 0.333
2401.000 0.510
2402.000 0.545
2403.000 0.408
2404.000 0.393
2405.000 0.507
2406.000 0.496
2407.000 0.570
2408.000 0.482
2409.000 0.351
2410.000 0.429
2411.000 0.422
2412.000 0.486
2413.000 0.500
2414.000 0.533
2415.000 0.600
2416.000 0.422
2417.000 0.408
2418.000 0.399
2419.000 0.452
2420.000 0.198
2421.000 0.221
2422.000 0.465
2423.000 0.341
2424.000 0.276
2425.000 0.224
2426.000 0.200
2427.000 0.288
2428.000 0.395
2429.000 0.459
2430.000 0.521
2431.000 0.337
2432.000 0.461
2433.000 0.574
2434.000 0.510
2435.000 0.565
2436.000 0.424
2437.000 0.652
2438.000 0.375
2439.000 0.322
2440.000 0.349
2441.000 0.410
2442.000 0.448
2443.000 0.378
2444.000 0.352
2445.000 0.259
2446.000 0.291
2447.000 0.382
2448.000 0.508
2449.000 0.291
2450.000 0.456
2451.000 0.504
2452.000 0.523
2453.000 0.354
2454.000 0.341
2455.000 0.252
2456.000 0.315
2457.000 0.441
2458.000 0.294
2459.000 0.587
2460.000 0.469
2461.000 0.289
2462.000 0.447
2463.000 0.518
2464.000 0.391
2465.000 0.199
2466.000 0.435
2467.000 0.526
2468.000 0.458
2469.000 0.376
2470.000 0.445
2471.000 0.498
2472.000 0.510
2473.000 0.509
2474.000 0.440
2475.000 0.453
2476.000 0.596
2477.000 0.562
2478.000 0.593
2479.000 0.416
2480.000 0.496
2481.000 0.404
2482.000 0.341
2483.000 0.271
2484.000 0.488
2485.000 0.501
2486.000 0.499
2487.000 0.697
2488.000 0.440
2489.000 0.309
2490.000 0.187
2491.000 0.418
2492.000 0.390
2493.000 0.307
2494.000 0.338
2495.000 0.427
2496.000 0.377
2497.000 0.466
2498.000 0.358
2499.000 0.418
2500.000 0.523
