391.000 0.031
392.000 0.031
393.000 0.033
394.000 0.049
395.000 0.036
396.000 0.031
397.000 0.042
398.000 0.031
399.000 0.037
400.000 0.042
401.000 0.035
402.000 0.030
403.000 0.030
404.000 0.029
405.000 0.026
406.000 0.034
407.000 0.035
408.000 0.028
409.000 0.037
410.000 0.032
411.000 0.025
412.000 0.025
413.000 0.031
414.000 0.036
415.000 0.036
416.000 0.030
417.000 0.025
418.000 0.028
419.000 0.035
420.000 0.036
421.000 0.032
422.000 0.032
423.000 0.038
424.000 0.035
425.000 0.037
426.000 0.039
427.000 0.034
428.000 0.027
429.000 0.029
430.000 0.036
431.000 0.038
432.000 0.037
433.000 0.036
434.000 0.035
435.000 0.037
436.000 0.037
437.000 0.035
438.000 0.031
439.000 0.031
440.000 0.034
441.000 0.036
442.000 0.035
443.000 0.036
444.000 0.034
445.000 0.030
446.000 0.033
447.000 0.033
448.000 0.033
449.000 0.035
450.000 0.038
451.000 0.038
452.000 0.037
453.000 0.035
454.000 0.038
455.000 0.038
456.000 0.037
457.000 0.036
458.000 0.037
459.000 0.038
460.000 0.038
461.000 0.038
462.000 0.038
463.000 0.039
464.000 0.038
465.000 0.039
466.000 0.038
467.000 0.038
468.000 0.039
469.000 0.037
470.000 0.037
471.000 0.041
472.000 0.037
473.000 0.036
474.000 0.039
475.000 0.039
476.000 0.038
477.000 0.039
478.000 0.041
479.000 0.038
480.000 0.037
481.000 0.038
482.000 0.039
483.000 0.040
484.000 0.041
485.000 0.041
486.000 0.040
487.000 0.037
488.000 0.036
489.000 0.039
490.000 0.038
491.000 0.039
492.000 0.040
493.000 0.042
494.000 0.041
495.000 0.043
496.000 0.044
497.000 0.040
498.000 0.038
499.000 0.039
500.000 0.041
501.000 0.041
502.000 0.039
503.000 0.039
504.000 0.042
505.000 0.041
506.000 0.040
507.000 0.042
508.000 0.041
509.000 0.043
510.000 0.043
511.000 0.041
512.000 0.042
513.000 0.044
514.000 0.046
515.000 0.048
516.000 0.046
517.000 0.044
518.000 0.047
519.000 0.046
520.000 0.048
521.000 0.051
522.000 0.053
523.000 0.053
524.000 0.054
525.000 0.054
526.000 0.056
527.000 0.057
528.000 0.058
529.000 0.060
530.000 0.061
531.000 0.061
532.000 0.061
533.000 0.062
534.000 0.063
535.000 0.064
536.000 0.063
537.000 0.064
538.000 0.065
539.000 0.065
540.000 0.066
541.000 0.067
542.000 0.067
543.000 0.066
544.000 0.067
545.000 0.066
546.000 0.066
547.000 0.067
548.000 0.066
549.000 0.066
550.000 0.066
551.000 0.067
552.000 0.067
553.000 0.067
554.000 0.068
555.000 0.068
556.000 0.067
557.000 0.066
558.000 0.066
559.000 0.065
560.000 0.065
561.000 0.064
562.000 0.065
563.000 0.064
564.000 0.064
565.000 0.064
566.000 0.063
567.000 0.062
568.000 0.061
569.000 0.060
570.000 0.060
571.000 0.059
572.000 0.057
573.000 0.057
574.000 0.057
575.000 0.057
576.000 0.057
577.000 0.057
578.000 0.057
579.000 0.057
580.000 0.057
581.000 0.054
582.000 0.052
583.000 0.051
584.000 0.052
585.000 0.053
586.000 0.055
587.000 0.054
588.000 0.055
589.000 0.054
590.000 0.053
591.000 0.054
592.000 0.053
593.000 0.053
594.000 0.054
595.000 0.053
596.000 0.052
597.000 0.052
598.000 0.051
599.000 0.050
600.000 0.051
601.000 0.052
602.000 0.052
603.000 0.051
604.000 0.050
605.000 0.052
606.000 0.053
607.000 0.053
608.000 0.050
609.000 0.051
610.000 0.052
611.000 0.053
612.000 0.051
613.000 0.052
614.000 0.050
615.000 0.048
616.000 0.051
617.000 0.050
618.000 0.050
619.000 0.049
620.000 0.049
621.000 0.051
622.000 0.052
623.000 0.050
624.000 0.051
625.000 0.050
626.000 0.050
627.000 0.051
628.000 0.051
629.000 0.051
630.000 0.052
631.000 0.050
632.000 0.051
633.000 0.052
634.000 0.051
635.000 0.049
636.000 0.050
637.000 0.053
638.000 0.053
639.000 0.053
640.000 0.051
641.000 0.051
642.000 0.052
643.000 0.051
644.000 0.050
645.000 0.049
646.000 0.049
647.000 0.050
648.000 0.051
649.000 0.051
650.000 0.051
651.000 0.050
652.000 0.052
653.000 0.051
654.000 0.050
655.000 0.051
656.000 0.052
657.000 0.052
658.000 0.051
659.000 0.052
660.000 0.054
661.000 0.054
662.000 0.053
663.000 0.056
664.000 0.059
665.000 0.059
666.000 0.056
667.000 0.057
668.000 0.055
669.000 0.054
670.000 0.060
671.000 0.060
672.000 0.059
673.000 0.060
674.000 0.060
675.000 0.062
676.000 0.063
677.000 0.062
678.000 0.062
679.000 0.061
680.000 0.060
681.000 0.060
682.000 0.064
683.000 0.065
684.000 0.064
685.000 0.064
686.000 0.064
687.000 0.064
688.000 0.064
689.000 0.064
690.000 0.066
691.000 0.067
692.000 0.066
693.000 0.068
694.000 0.072
695.000 0.074
696.000 0.076
697.000 0.077
698.000 0.080
699.000 0.080
700.000 0.084
701.000 0.089
702.000 0.094
703.000 0.097
704.000 0.101
705.000 0.105
706.000 0.109
707.000 0.115
708.000 0.119
709.000 0.124
710.000 0.129
711.000 0.133
712.000 0.138
713.000 0.143
714.000 0.147
715.000 0.153
716.000 0.158
717.000 0.162
718.000 0.168
719.000 0.174
720.000 0.179
721.000 0.185
722.000 0.190
723.000 0.195
724.000 0.201
725.000 0.206
726.000 0.211
727.000 0.216
728.000 0.222
729.000 0.227
730.000 0.231
731.000 0.236
732.000 0.242
733.000 0.246
734.000 0.250
735.000 0.254
736.000 0.258
737.000 0.262
738.000 0.266
739.000 0.270
740.000 0.273
741.000 0.276
742.000 0.279
743.000 0.282
744.000 0.285
745.000 0.288
746.000 0.291
747.000 0.293
748.000 0.295
749.000 0.297
750.000 0.299
751.000 0.301
752.000 0.302
753.000 0.304
754.000 0.305
755.000 0.307
756.000 0.309
757.000 0.310
758.000 0.311
759.000 0.311
760.000 0.311
761.000 0.310
762.000 0.311
763.000 0.312
764.000 0.313
765.000 0.315
766.000 0.316
767.000 0.318
768.000 0.319
769.000 0.320
770.000 0.321
771.000 0.322
772.000 0.322
773.000 0.323
774.000 0.323
775.000 0.324
776.000 0.325
777.000 0.325
778.000 0.326
779.000 0.326
780.000 0.327
781.000 0.327
782.000 0.328
783.000 0.328
784.000 0.329
785.000 0.329
786.000 0.330
787.000 0.331
788.000 0.330
789.000 0.331
790.000 0.332
791.000 0.332
792.000 0.333
793.000 0.334
794.000 0.334
795.000 0.334
796.000 0.334
797.000 0.335
798.000 0.336
799.000 0.336
800.000 0.337
801.000 0.337
802.000 0.337
803.000 0.338
804.000 0.339
805.000 0.339
806.000 0.340
807.000 0.340
808.000 0.341
809.000 0.341
810.000 0.341
811.000 0.341
812.000 0.342
813.000 0.342
814.000 0.342
815.000 0.342
816.000 0.342
817.000 0.343
818.000 0.343
819.000 0.344
820.000 0.345
821.000 0.346
822.000 0.346
823.000 0.346
824.000 0.347
825.000 0.347
826.000 0.348
827.000 0.348
828.000 0.349
829.000 0.349
830.000 0.349
831.000 0.350
832.000 0.350
833.000 0.351
834.000 0.351
835.000 0.352
836.000 0.353
837.000 0.353
838.000 0.354
839.000 0.354
840.000 0.355
841.000 0.355
842.000 0.356
843.000 0.356
844.000 0.357
845.000 0.357
846.000 0.357
847.000 0.358
848.000 0.359
849.000 0.359
850.000 0.359
851.000 0.359
852.000 0.360
853.000 0.360
854.000 0.360
855.000 0.361
856.000 0.361
857.000 0.362
858.000 0.362
859.000 0.363
860.000 0.363
861.000 0.363
862.000 0.364
863.000 0.364
864.000 0.365
865.000 0.365
866.000 0.365
867.000 0.365
868.000 0.365
869.000 0.366
870.000 0.367
871.000 0.367
872.000 0.367
873.000 0.368
874.000 0.368
875.000 0.368
876.000 0.369
877.000 0.369
878.000 0.369
879.000 0.370
880.000 0.370
881.000 0.370
882.000 0.371
883.000 0.372
884.000 0.372
885.000 0.372
886.000 0.373
887.000 0.373
888.000 0.373
889.000 0.373
890.000 0.374
891.000 0.374
892.000 0.375
893.000 0.375
894.000 0.374
895.000 0.374
896.000 0.374
897.000 0.374
898.000 0.374
899.000 0.375
900.000 0.375
901.000 0.375
902.000 0.375
903.000 0.377
904.000 0.377
905.000 0.377
906.000 0.377
907.000 0.377
908.000 0.378
909.000 0.377
910.000 0.378
911.000 0.378
912.000 0.378
913.000 0.379
914.000 0.380
915.000 0.379
916.000 0.379
917.000 0.379
918.000 0.380
919.000 0.381
920.000 0.382
921.000 0.383
922.000 0.383
923.000 0.383
924.000 0.382
925.000 0.382
926.000 0.382
927.000 0.384
928.000 0.382
929.000 0.380
930.000 0.379
931.000 0.379
932.000 0.376
933.000 0.374
934.000 0.370
935.000 0.368
936.000 0.369
937.000 0.373
938.000 0.374
939.000 0.373
940.000 0.375
941.000 0.376
942.000 0.373
943.000 0.371
944.000 0.375
945.000 0.375
946.000 0.374
947.000 0.373
948.000 0.373
949.000 0.374
950.000 0.375
951.000 0.376
952.000 0.373
953.000 0.372
954.000 0.374
955.000 0.377
956.000 0.376
957.000 0.372
958.000 0.371
959.000 0.373
960.000 0.374
961.000 0.375
962.000 0.375
963.000 0.376
964.000 0.377
965.000 0.377
966.000 0.378
967.000 0.379
968.000 0.379
969.000 0.379
970.000 0.379
971.000 0.378
972.000 0.381
973.000 0.382
974.000 0.382
975.000 0.382
976.000 0.380
977.000 0.380
978.000 0.382
979.000 0.382
980.000 0.381
981.000 0.383
982.000 0.385
983.000 0.384
984.000 0.383
985.000 0.385
986.000 0.386
987.000 0.387
988.000 0.387
989.000 0.385
990.000 0.387
991.000 0.390
992.000 0.390
993.000 0.389
994.000 0.390
995.000 0.392
996.000 0.391
997.000 0.392
998.000 0.391
999.000 0.392
1000.000 0.394
1001.000 0.391
1002.000 0.391
1003.000 0.391
1004.000 0.392
1005.000 0.394
1006.000 0.395
1007.000 0.396
1008.000 0.396
1009.000 0.397
1010.000 0.397
1011.000 0.397
1012.000 0.398
1013.000 0.398
1014.000 0.399
1015.000 0.399
1016.000 0.400
1017.000 0.401
1018.000 0.401
1019.000 0.401
1020.000 0.401
1021.000 0.402
1022.000 0.402
1023.000 0.402
1024.000 0.402
1025.000 0.403
1026.000 0.404
1027.000 0.405
1028.000 0.406
1029.000 0.406
1030.000 0.407
1031.000 0.407
1032.000 0.408
1033.000 0.408
1034.000 0.409
1035.000 0.410
1036.000 0.410
1037.000 0.411
1038.000 0.411
1039.000 0.411
1040.000 0.412
1041.000 0.413
1042.000 0.414
1043.000 0.414
1044.000 0.414
1045.000 0.413
1046.000 0.414
1047.000 0.414
1048.000 0.414
1049.000 0.414
1050.000 0.414
1051.000 0.415
1052.000 0.415
1053.000 0.415
1054.000 0.416
1055.000 0.416
1056.000 0.417
1057.000 0.418
1058.000 0.418
1059.000 0.419
1060.000 0.419
1061.000 0.418
1062.000 0.419
1063.000 0.418
1064.000 0.419
1065.000 0.420
1066.000 0.420
1067.000 0.421
1068.000 0.420
1069.000 0.420
1070.000 0.420
1071.000 0.421
1072.000 0.421
1073.000 0.421
1074.000 0.422
1075.000 0.422
1076.000 0.422
1077.000 0.422
1078.000 0.423
1079.000 0.423
1080.000 0.424
1081.000 0.424
1082.000 0.424
1083.000 0.423
1084.000 0.424
1085.000 0.424
1086.000 0.424
1087.000 0.424
1088.000 0.424
1089.000 0.425
1090.000 0.425
1091.000 0.425
1092.000 0.425
1093.000 0.425
1094.000 0.425
1095.000 0.424
1096.000 0.425
1097.000 0.425
1098.000 0.425
1099.000 0.425
1100.000 0.424
1101.000 0.424
1102.000 0.423
1103.000 0.423
1104.000 0.423
1105.000 0.423
1106.000 0.423
1107.000 0.423
1108.000 0.423
1109.000 0.423
1110.000 0.424
1111.000 0.423
1112.000 0.423
1113.000 0.423
1114.000 0.423
1115.000 0.424
1116.000 0.425
1117.000 0.426
1118.000 0.427
1119.000 0.424
1120.000 0.420
1121.000 0.418
1122.000 0.413
1123.000 0.411
1124.000 0.411
1125.000 0.411
1126.000 0.412
1127.000 0.413
1128.000 0.417
1129.000 0.418
1130.000 0.417
1131.000 0.417
1132.000 0.416
1133.000 0.413
1134.000 0.411
1135.000 0.411
1136.000 0.409
1137.000 0.406
1138.000 0.407
1139.000 0.406
1140.000 0.406
1141.000 0.405
1142.000 0.404
1143.000 0.401
1144.000 0.399
1145.000 0.398
1146.000 0.397
1147.000 0.397
1148.000 0.397
1149.000 0.396
1150.000 0.395
1151.000 0.395
1152.000 0.393
1153.000 0.392
1154.000 0.393
1155.000 0.392
1156.000 0.392
1157.000 0.392
1158.000 0.393
1159.000 0.393
1160.000 0.393
1161.000 0.393
1162.000 0.392
1163.000 0.393
1164.000 0.393
1165.000 0.393
1166.000 0.393
1167.000 0.392
1168.000 0.392
1169.000 0.392
1170.000 0.392
1171.000 0.393
1172.000 0.393
1173.000 0.394
1174.000 0.394
1175.000 0.393
1176.000 0.394
1177.000 0.394
1178.000 0.394
1179.000 0.394
1180.000 0.393
1181.000 0.393
1182.000 0.393
1183.000 0.393
1184.000 0.393
1185.000 0.393
1186.000 0.393
1187.000 0.393
1188.000 0.393
1189.000 0.394
1190.000 0.394
1191.000 0.394
1192.000 0.395
1193.000 0.394
1194.000 0.394
1195.000 0.394
1196.000 0.394
1197.000 0.394
1198.000 0.394
1199.000 0.395
1200.000 0.395
1201.000 0.395
1202.000 0.395
1203.000 0.395
1204.000 0.396
1205.000 0.396
1206.000 0.396
1207.000 0.397
1208.000 0.398
1209.000 0.398
1210.000 0.398
1211.000 0.399
1212.000 0.399
1213.000 0.399
1214.000 0.400
1215.000 0.400
1216.000 0.401
1217.000 0.401
1218.000 0.401
1219.000 0.401
1220.000 0.402
1221.000 0.403
1222.000 0.403
1223.000 0.403
1224.000 0.404
1225.000 0.405
1226.000 0.406
1227.000 0.406
1228.000 0.407
1229.000 0.408
1230.000 0.408
1231.000 0.409
1232.000 0.408
1233.000 0.409
1234.000 0.409
1235.000 0.409
1236.000 0.410
1237.000 0.411
1238.000 0.412
1239.000 0.412
1240.000 0.412
1241.000 0.413
1242.000 0.413
1243.000 0.414
1244.000 0.413
1245.000 0.414
1246.000 0.414
1247.000 0.415
1248.000 0.415
1249.000 0.416
1250.000 0.417
1251.000 0.417
1252.000 0.418
1253.000 0.418
1254.000 0.418
1255.000 0.418
1256.000 0.418
1257.000 0.418
1258.000 0.418
1259.000 0.419
1260.000 0.419
1261.000 0.419
1262.000 0.419
1263.000 0.419
1264.000 0.419
1265.000 0.420
1266.000 0.420
1267.000 0.420
1268.000 0.420
1269.000 0.421
1270.000 0.422
1271.000 0.422
1272.000 0.423
1273.000 0.423
1274.000 0.422
1275.000 0.423
1276.000 0.422
1277.000 0.423
1278.000 0.423
1279.000 0.423
1280.000 0.423
1281.000 0.423
1282.000 0.423
1283.000 0.423
1284.000 0.423
1285.000 0.423
1286.000 0.423
1287.000 0.422
1288.000 0.423
1289.000 0.422
1290.000 0.422
1291.000 0.422
1292.000 0.422
1293.000 0.422
1294.000 0.421
1295.000 0.420
1296.000 0.420
1297.000 0.419
1298.000 0.419
1299.000 0.419
1300.000 0.419
1301.000 0.419
1302.000 0.418
1303.000 0.418
1304.000 0.417
1305.000 0.415
1306.000 0.414
1307.000 0.414
1308.000 0.413
1309.000 0.413
1310.000 0.412
1311.000 0.411
1312.000 0.410
1313.000 0.409
1314.000 0.408
1315.000 0.408
1316.000 0.407
1317.000 0.407
1318.000 0.407
1319.000 0.406
1320.000 0.404
1321.000 0.403
1322.000 0.402
1323.000 0.401
1324.000 0.399
1325.000 0.398
1326.000 0.398
1327.000 0.396
1328.000 0.394
1329.000 0.392
1330.000 0.390
1331.000 0.388
1332.000 0.386
1333.000 0.384
1334.000 0.381
1335.000 0.380
1336.000 0.379
1337.000 0.379
1338.000 0.378
1339.000 0.377
1340.000 0.377
1341.000 0.377
1342.000 0.377
1343.000 0.377
1344.000 0.374
1345.000 0.372
1346.000 0.369
1347.000 0.366
1348.000 0.363
1349.000 0.364
1350.000 0.364
1351.000 0.365
1352.000 0.362
1353.000 0.353
1354.000 0.346
1355.000 0.333
1356.000 0.323
1357.000 0.365
1358.000 0.411
1359.000 0.404
1360.000 0.538
1361.000 0.499
1362.000 0.445
1363.000 0.305
1364.000 0.257
1365.000 0.255
1366.000 0.373
1367.000 0.308
1368.000 0.280
1369.000 0.288
1370.000 0.371
1371.000 0.265
1372.000 0.287
1373.000 0.520
1374.000 0.404
1375.000 0.454
1376.000 0.580
1377.000 0.591
1378.000 0.671
1379.000 0.714
1380.000 0.431
1381.000 0.353
1382.000 0.195
1383.000 0.138
1384.000 0.631
1385.000 0.572
1386.000 0.514
1387.000 0.669
1388.000 0.596
1389.000 0.530
1390.000 0.448
1391.000 0.446
1392.000 0.602
1393.000 0.495
1394.000 0.869
1395.000 0.545
1396.000 0.507
1397.000 0.485
1398.000 0.505
1399.000 0.318
1400.000 0.561
1401.000 0.576
1402.000 0.524
1403.000 0.426
1404.000 0.309
1405.000 0.318
1406.000 0.508
1407.000 0.574
1408.000 0.473
1409.000 0.345
1410.000 0.162
1411.000 0.298
1412.000 0.425
1413.000 0.506
1414.000 0.563
1415.000 0.746
1416.000 0.824
1417.000 0.581
1418.000 0.510
1419.000 0.260
1420.000 0.252
1421.000 0.326
1422.000 0.304
1423.000 0.301
1424.000 0.290
1425.000 0.223
1426.000 0.221
1427.000 0.247
1428.000 0.275
1429.000 0.353
1430.000 0.333
1431.000 0.343
1432.000 0.327
1433.000 0.241
1434.000 0.201
1435.000 0.169
1436.000 0.160
1437.000 0.184
1438.000 0.194
1439.000 0.228
1440.000 0.235
1441.000 0.261
1442.000 0.264
1443.000 0.235
1444.000 0.229
1445.000 0.211
1446.000 0.204
1447.000 0.176
1448.000 0.169
1449.000 0.138
1450.000 0.140
1451.000 0.136
1452.000 0.130
1453.000 0.136
1454.000 0.144
1455.000 0.148
1456.000 0.154
1457.000 0.157
1458.000 0.157
1459.000 0.157
1460.000 0.156
1461.000 0.157
1462.000 0.163
1463.000 0.160
1464.000 0.156
1465.000 0.152
1466.000 0.142
1467.000 0.138
1468.000 0.144
1469.000 0.144
1470.000 0.141
1471.000 0.140
1472.000 0.137
1473.000 0.137
1474.000 0.138
1475.000 0.141
1476.000 0.144
1477.000 0.149
1478.000 0.160
1479.000 0.166
1480.000 0.173
1481.000 0.178
1482.000 0.179
1483.000 0.180
1484.000 0.180
1485.000 0.178
1486.000 0.173
1487.000 0.173
1488.000 0.176
1489.000 0.176
1490.000 0.179
1491.000 0.179
1492.000 0.171
1493.000 0.170
1494.000 0.169
1495.000 0.170
1496.000 0.175
1497.000 0.179
1498.000 0.181
1499.000 0.182
1500.000 0.184
1501.000 0.184
1502.000 0.183
1503.000 0.185
1504.000 0.185
1505.000 0.184
1506.000 0.184
1507.000 0.185
1508.000 0.187
1509.000 0.189
1510.000 0.191
1511.000 0.194
1512.000 0.196
1513.000 0.198
1514.000 0.200
1515.000 0.201
1516.000 0.202
1517.000 0.203
1518.000 0.205
1519.000 0.206
1520.000 0.208
1521.000 0.210
1522.000 0.211
1523.000 0.210
1524.000 0.210
1525.000 0.209
1526.000 0.209
1527.000 0.211
1528.000 0.212
1529.000 0.215
1530.000 0.216
1531.000 0.217
1532.000 0.218
1533.000 0.218
1534.000 0.219
1535.000 0.222
1536.000 0.223
1537.000 0.221
1538.000 0.222
1539.000 0.221
1540.000 0.222
1541.000 0.224
1542.000 0.226
1543.000 0.227
1544.000 0.229
1545.000 0.230
1546.000 0.232
1547.000 0.233
1548.000 0.234
1549.000 0.234
1550.000 0.235
1551.000 0.237
1552.000 0.238
1553.000 0.240
1554.000 0.241
1555.000 0.242
1556.000 0.243
1557.000 0.245
1558.000 0.246
1559.000 0.248
1560.000 0.249
1561.000 0.251
1562.000 0.252
1563.000 0.252
1564.000 0.251
1565.000 0.250
1566.000 0.250
1567.000 0.252
1568.000 0.254
1569.000 0.256
1570.000 0.257
1571.000 0.258
1572.000 0.259
1573.000 0.261
1574.000 0.262
1575.000 0.263
1576.000 0.263
1577.000 0.263
1578.000 0.264
1579.000 0.264
1580.000 0.265
1581.000 0.265
1582.000 0.266
1583.000 0.267
1584.000 0.268
1585.000 0.270
1586.000 0.271
1587.000 0.272
1588.000 0.273
1589.000 0.272
1590.000 0.272
1591.000 0.272
1592.000 0.272
1593.000 0.273
1594.000 0.274
1595.000 0.272
1596.000 0.271
1597.000 0.273
1598.000 0.274
1599.000 0.276
1600.000 0.277
1601.000 0.278
1602.000 0.280
1603.000 0.281
1604.000 0.281
1605.000 0.283
1606.000 0.284
1607.000 0.284
1608.000 0.284
1609.000 0.285
1610.000 0.286
1611.000 0.287
1612.000 0.287
1613.000 0.287
1614.000 0.286
1615.000 0.287
1616.000 0.288
1617.000 0.290
1618.000 0.291
1619.000 0.292
1620.000 0.292
1621.000 0.291
1622.000 0.291
1623.000 0.292
1624.000 0.293
1625.000 0.294
1626.000 0.295
1627.000 0.295
1628.000 0.296
1629.000 0.298
1630.000 0.299
1631.000 0.299
1632.000 0.300
1633.000 0.301
1634.000 0.301
1635.000 0.300
1636.000 0.300
1637.000 0.300
1638.000 0.300
1639.000 0.302
1640.000 0.303
1641.000 0.304
1642.000 0.304
1643.000 0.303
1644.000 0.303
1645.000 0.303
1646.000 0.304
1647.000 0.305
1648.000 0.305
1649.000 0.305
1650.000 0.304
1651.000 0.303
1652.000 0.301
1653.000 0.301
1654.000 0.300
1655.000 0.299
1656.000 0.299
1657.000 0.300
1658.000 0.301
1659.000 0.304
1660.000 0.305
1661.000 0.305
1662.000 0.305
1663.000 0.304
1664.000 0.303
1665.000 0.304
1666.000 0.304
1667.000 0.305
1668.000 0.306
1669.000 0.307
1670.000 0.308
1671.000 0.306
1672.000 0.306
1673.000 0.305
1674.000 0.305
1675.000 0.306
1676.000 0.306
1677.000 0.305
1678.000 0.304
1679.000 0.302
1680.000 0.302
1681.000 0.302
1682.000 0.303
1683.000 0.305
1684.000 0.305
1685.000 0.304
1686.000 0.305
1687.000 0.308
1688.000 0.308
1689.000 0.308
1690.000 0.308
1691.000 0.306
1692.000 0.304
1693.000 0.302
1694.000 0.302
1695.000 0.302
1696.000 0.302
1697.000 0.305
1698.000 0.305
1699.000 0.303
1700.000 0.302
1701.000 0.300
1702.000 0.299
1703.000 0.300
1704.000 0.300
1705.000 0.301
1706.000 0.301
1707.000 0.301
1708.000 0.300
1709.000 0.298
1710.000 0.298
1711.000 0.299
1712.000 0.299
1713.000 0.300
1714.000 0.299
1715.000 0.298
1716.000 0.298
1717.000 0.298
1718.000 0.301
1719.000 0.300
1720.000 0.300
1721.000 0.297
1722.000 0.293
1723.000 0.291
1724.000 0.290
1725.000 0.289
1726.000 0.289
1727.000 0.288
1728.000 0.289
1729.000 0.290
1730.000 0.290
1731.000 0.290
1732.000 0.288
1733.000 0.284
1734.000 0.284
1735.000 0.285
1736.000 0.284
1737.000 0.285
1738.000 0.287
1739.000 0.288
1740.000 0.290
1741.000 0.290
1742.000 0.287
1743.000 0.287
1744.000 0.288
1745.000 0.288
1746.000 0.289
1747.000 0.288
1748.000 0.284
1749.000 0.283
1750.000 0.283
1751.000 0.280
1752.000 0.277
1753.000 0.277
1754.000 0.276
1755.000 0.275
1756.000 0.279
1757.000 0.279
1758.000 0.275
1759.000 0.273
1760.000 0.275
1761.000 0.277
1762.000 0.279
1763.000 0.282
1764.000 0.283
1765.000 0.283
1766.000 0.287
1767.000 0.288
1768.000 0.289
1769.000 0.286
1770.000 0.280
1771.000 0.276
1772.000 0.273
1773.000 0.271
1774.000 0.271
1775.000 0.269
1776.000 0.273
1777.000 0.279
1778.000 0.281
1779.000 0.281
1780.000 0.277
1781.000 0.270
1782.000 0.271
1783.000 0.279
1784.000 0.290
1785.000 0.296
1786.000 0.296
1787.000 0.284
1788.000 0.279
1789.000 0.276
1790.000 0.277
1791.000 0.282
1792.000 0.281
1793.000 0.284
1794.000 0.271
1795.000 0.286
1796.000 0.297
1797.000 0.301
1798.000 0.326
1799.000 0.314
1800.000 0.306
1801.000 0.394
1802.000 0.424
1803.000 0.477
1804.000 0.497
1805.000 0.511
1806.000 0.506
1807.000 0.593
1808.000 0.581
1809.000 0.680
1810.000 0.718
1811.000 0.742
1812.000 0.722
1813.000 0.676
1814.000 0.669
1815.000 0.788
1816.000 0.713
1817.000 0.485
1818.000 0.449
1819.000 0.588
1820.000 0.576
1821.000 0.458
1822.000 0.484
1823.000 0.888
1824.000 0.801
1825.000 0.752
1826.000 0.796
1827.000 0.636
1828.000 0.543
1829.000 0.503
1830.000 0.462
1831.000 0.485
1832.000 0.550
1833.000 0.419
1834.000 0.631
1835.000 0.759
1836.000 0.489
1837.000 0.387
1838.000 0.362
1839.000 0.536
1840.000 0.524
1841.000 0.491
1842.000 0.487
1843.000 0.409
1844.000 0.337
1845.000 0.287
1846.000 0.405
1847.000 0.460
1848.000 0.559
1849.000 0.613
1850.000 0.582
1851.000 0.584
1852.000 0.726
1853.000 0.843
1854.000 0.469
1855.000 0.482
1856.000 0.450
1857.000 0.383
1858.000 0.418
1859.000 0.466
1860.000 0.519
1861.000 0.505
1862.000 0.624
1863.000 0.615
1864.000 0.584
1865.000 0.444
1866.000 0.381
1867.000 0.431
1868.000 0.504
1869.000 0.428
1870.000 0.419
1871.000 0.410
1872.000 0.398
1873.000 0.385
1874.000 0.480
1875.000 0.287
1876.000 0.452
1877.000 0.459
1878.000 0.648
1879.000 0.640
1880.000 0.644
1881.000 0.607
1882.000 0.576
1883.000 0.448
1884.000 0.478
1885.000 0.573
1886.000 0.504
1887.000 0.566
1888.000 0.694
1889.000 0.718
1890.000 0.773
1891.000 0.465
1892.000 0.568
1893.000 0.527
1894.000 0.534
1895.000 0.606
1896.000 0.490
1897.000 0.372
1898.000 0.464
1899.000 0.495
1900.000 0.482
1901.000 0.409
1902.000 0.492
1903.000 0.566
1904.000 0.584
1905.000 0.571
1906.000 0.483
1907.000 0.609
1908.000 0.656
1909.000 0.624
1910.000 0.715
1911.000 0.692
1912.000 0.719
1913.000 0.734
1914.000 0.751
1915.000 0.768
1916.000 0.714
1917.000 0.655
1918.000 0.560
1919.000 0.812
1920.000 0.739
1921.000 0.578
1922.000 0.448
1923.000 0.406
1924.000 0.422
1925.000 0.477
1926.000 0.597
1927.000 0.582
1928.000 0.563
1929.000 0.482
1930.000 0.433
1931.000 0.570
1932.000 0.780
1933.000 0.589
1934.000 0.534
1935.000 0.473
1936.000 0.499
1937.000 0.659
1938.000 0.453
1939.000 0.402
1940.000 0.360
1941.000 0.353
1942.000 0.328
1943.000 0.368
1944.000 0.450
1945.000 0.550
1946.000 0.350
1947.000 0.456
1948.000 0.581
1949.000 0.726
1950.000 0.392
1951.000 0.808
1952.000 0.787
1953.000 0.860
1954.000 0.774
1955.000 0.727
1956.000 0.649
1957.000 0.550
1958.000 0.490
1959.000 0.437
1960.000 0.407
1961.000 0.501
1962.000 0.521
1963.000 0.606
1964.000 0.586
1965.000 0.523
1966.000 0.448
1967.000 0.371
1968.000 0.251
1969.000 0.259
1970.000 0.287
1971.000 0.265
1972.000 0.203
1973.000 0.293
1974.000 0.248
1975.000 0.238
1976.000 0.244
1977.000 0.217
1978.000 0.195
1979.000 0.194
1980.000 0.195
1981.000 0.205
1982.000 0.216
1983.000 0.257
1984.000 0.322
1985.000 0.325
1986.000 0.300
1987.000 0.223
1988.000 0.193
1989.000 0.148
1990.000 0.147
1991.000 0.170
1992.000 0.203
1993.000 0.235
1994.000 0.237
1995.000 0.222
1996.000 0.259
1997.000 0.252
1998.000 0.313
1999.000 0.338
2000.000 0.346
2001.000 0.351
2002.000 0.300
2003.000 0.277
2004.000 0.259
2005.000 0.273
2006.000 0.316
2007.000 0.399
2008.000 0.344
2009.000 0.367
2010.000 0.234
2011.000 0.209
2012.000 0.170
2013.000 0.155
2014.000 0.161
2015.000 0.191
2016.000 0.182
2017.000 0.176
2018.000 0.180
2019.000 0.173
2020.000 0.159
2021.000 0.179
2022.000 0.176
2023.000 0.162
2024.000 0.175
2025.000 0.164
2026.000 0.173
2027.000 0.179
2028.000 0.191
2029.000 0.187
2030.000 0.179
2031.000 0.177
2032.000 0.173
2033.000 0.171
2034.000 0.174
2035.000 0.171
2036.000 0.176
2037.000 0.176
2038.000 0.171
2039.000 0.171
2040.000 0.167
2041.000 0.155
2042.000 0.152
2043.000 0.155
2044.000 0.156
2045.000 0.159
2046.000 0.161
2047.000 0.157
2048.000 0.158
2049.000 0.159
2050.000 0.169
2051.000 0.176
2052.000 0.194
2053.000 0.198
2054.000 0.183
2055.000 0.177
2056.000 0.172
2057.000 0.171
2058.000 0.184
2059.000 0.183
2060.000 0.174
2061.000 0.169
2062.000 0.156
2063.000 0.151
2064.000 0.151
2065.000 0.150
2066.000 0.143
2067.000 0.149
2068.000 0.163
2069.000 0.168
2070.000 0.187
2071.000 0.198
2072.000 0.198
2073.000 0.182
2074.000 0.178
2075.000 0.164
2076.000 0.166
2077.000 0.194
2078.000 0.202
2079.000 0.213
2080.000 0.211
2081.000 0.194
2082.000 0.179
2083.000 0.169
2084.000 0.158
2085.000 0.159
2086.000 0.157
2087.000 0.158
2088.000 0.169
2089.000 0.175
2090.000 0.182
2091.000 0.185
2092.000 0.186
2093.000 0.183
2094.000 0.168
2095.000 0.166
2096.000 0.167
2097.000 0.170
2098.000 0.182
2099.000 0.193
2100.000 0.196
2101.000 0.191
2102.000 0.175
2103.000 0.164
2104.000 0.161
2105.000 0.160
2106.000 0.163
2107.000 0.178
2108.000 0.183
2109.000 0.183
2110.000 0.184
2111.000 0.183
2112.000 0.181
2113.000 0.176
2114.000 0.177
2115.000 0.180
2116.000 0.184
2117.000 0.194
2118.000 0.202
2119.000 0.201
2120.000 0.204
2121.000 0.207
2122.000 0.210
2123.000 0.208
2124.000 0.210
2125.000 0.204
2126.000 0.185
2127.000 0.180
2128.000 0.182
2129.000 0.183
2130.000 0.196
2131.000 0.198
2132.000 0.191
2133.000 0.190
2134.000 0.192
2135.000 0.190
2136.000 0.186
2137.000 0.184
2138.000 0.180
2139.000 0.177
2140.000 0.183
2141.000 0.196
2142.000 0.200
2143.000 0.198
2144.000 0.200
2145.000 0.199
2146.000 0.197
2147.000 0.199
2148.000 0.198
2149.000 0.188
2150.000 0.186
2151.000 0.188
2152.000 0.190
2153.000 0.200
2154.000 0.200
2155.000 0.196
2156.000 0.188
2157.000 0.172
2158.000 0.167
2159.000 0.168
2160.000 0.171
2161.000 0.178
2162.000 0.194
2163.000 0.200
2164.000 0.206
2165.000 0.211
2166.000 0.208
2167.000 0.211
2168.000 0.220
2169.000 0.222
2170.000 0.226
2171.000 0.226
2172.000 0.216
2173.000 0.212
2174.000 0.211
2175.000 0.209
2176.000 0.205
2177.000 0.208
2178.000 0.212
2179.000 0.211
2180.000 0.221
2181.000 0.223
2182.000 0.214
2183.000 0.212
2184.000 0.210
2185.000 0.203
2186.000 0.202
2187.000 0.207
2188.000 0.206
2189.000 0.208
2190.000 0.204
2191.000 0.194
2192.000 0.189
2193.000 0.181
2194.000 0.177
2195.000 0.178
2196.000 0.175
2197.000 0.168
2198.000 0.165
2199.000 0.160
2200.000 0.162
2201.000 0.174
2202.000 0.187
2203.000 0.197
2204.000 0.206
2205.000 0.213
2206.000 0.215
2207.000 0.224
2208.000 0.221
2209.000 0.215
2210.000 0.205
2211.000 0.198
2212.000 0.185
2213.000 0.186
2214.000 0.194
2215.000 0.200
2216.000 0.216
2217.000 0.225
2218.000 0.229
2219.000 0.228
2220.000 0.223
2221.000 0.218
2222.000 0.206
2223.000 0.200
2224.000 0.192
2225.000 0.191
2226.000 0.195
2227.000 0.199
2228.000 0.213
2229.000 0.226
2230.000 0.230
2231.000 0.229
2232.000 0.213
2233.000 0.199
2234.000 0.191
2235.000 0.186
2236.000 0.191
2237.000 0.194
2238.000 0.191
2239.000 0.187
2240.000 0.183
2241.000 0.174
2242.000 0.170
2243.000 0.171
2244.000 0.167
2245.000 0.157
2246.000 0.159
2247.000 0.163
2248.000 0.167
2249.000 0.181
2250.000 0.187
2251.000 0.189
2252.000 0.191
2253.000 0.191
2254.000 0.192
2255.000 0.186
2256.000 0.188
2257.000 0.199
2258.000 0.201
2259.000 0.211
2260.000 0.224
2261.000 0.218
2262.000 0.219
2263.000 0.205
2264.000 0.192
2265.000 0.188
2266.000 0.197
2267.000 0.177
2268.000 0.177
2269.000 0.172
2270.000 0.183
2271.000 0.188
2272.000 0.200
2273.000 0.199
2274.000 0.188
2275.000 0.206
2276.000 0.188
2277.000 0.187
2278.000 0.188
2279.000 0.193
2280.000 0.204
2281.000 0.196
2282.000 0.167
2283.000 0.156
2284.000 0.142
2285.000 0.141
2286.000 0.158
2287.000 0.166
2288.000 0.178
2289.000 0.188
2290.000 0.197
2291.000 0.204
2292.000 0.232
2293.000 0.245
2294.000 0.221
2295.000 0.219
2296.000 0.229
2297.000 0.216
2298.000 0.197
2299.000 0.186
2300.000 0.153
2301.000 0.139
2302.000 0.146
2303.000 0.143
2304.000 0.145
2305.000 0.154
2306.000 0.172
2307.000 0.177
2308.000 0.189
2309.000 0.191
2310.000 0.190
2311.000 0.165
2312.000 0.194
2313.000 0.199
2314.000 0.170
2315.000 0.160
2316.000 0.170
2317.000 0.154
2318.000 0.122
2319.000 0.114
2320.000 0.110
2321.000 0.121
2322.000 0.134
2323.000 0.143
2324.000 0.154
2325.000 0.157
2326.000 0.149
2327.000 0.162
2328.000 0.160
2329.000 0.147
2330.000 0.132
2331.000 0.119
2332.000 0.131
2333.000 0.091
2334.000 0.102
2335.000 0.108
2336.000 0.110
2337.000 0.204
2338.000 0.236
2339.000 0.231
2340.000 0.252
2341.000 0.249
2342.000 0.214
2343.000 0.213
2344.000 0.206
2345.000 0.210
2346.000 0.166
2347.000 0.146
2348.000 0.129
2349.000 0.172
2350.000 0.148
2351.000 0.164
2352.000 0.139
2353.000 0.112
2354.000 0.119
2355.000 0.122
2356.000 0.129
2357.000 0.150
2358.000 0.125
2359.000 0.164
2360.000 0.189
2361.000 0.229
2362.000 0.431
2363.000 0.296
2364.000 0.215
2365.000 0.194
2366.000 0.134
2367.000 0.163
2368.000 0.175
2369.000 0.284
2370.000 0.276
2371.000 0.293
2372.000 0.293
2373.000 0.407
2374.000 0.259
2375.000 0.246
2376.000 0.233
2377.000 0.240
2378.000 0.245
2379.000 0.263
2380.000 0.261
2381.000 0.357
2382.000 0.329
2383.000 0.334
2384.000 0.217
2385.000 0.137
2386.000 0.182
2387.000 0.209
2388.000 0.258
2389.000 0.294
2390.000 0.266
2391.000 0.204
2392.000 0.235
2393.000 0.136
2394.000 0.116
2395.000 0.384
2396.000 0.448
2397.000 0.380
2398.000 0.241
2399.000 0.450
2400.000 0.475
2401.000 0.257
2402.000 0.238
2403.000 0.276
2404.000 0.413
2405.000 0.488
2406.000 0.374
2407.000 0.373
2408.000 0.608
2409.000 0.622
2410.000 0.485
2411.000 0.478
2412.000 0.293
2413.000 0.390
2414.000 0.363
2415.000 0.297
2416.000 0.184
2417.000 0.291
2418.000 0.414
2419.000 0.443
2420.000 0.427
2421.000 0.500
2422.000 0.504
2423.000 0.527
2424.000 0.675
2425.000 0.384
2426.000 0.508
2427.000 0.552
2428.000 0.496
2429.000 0.432
2430.000 0.386
2431.000 0.365
2432.000 0.172
2433.000 0.171
2434.000 0.263
2435.000 0.245
2436.000 0.246
2437.000 0.361
2438.000 0.191
2439.000 0.154
2440.000 0.211
2441.000 0.255
2442.000 0.254
2443.000 0.353
2444.000 0.257
2445.000 0.474
2446.000 0.605
2447.000 0.417
2448.000 0.386
2449.000 0.295
2450.000 0.205
2451.000 0.224
2452.000 0.431
2453.000 0.379
2454.000 0.388
2455.000 0.293
2456.000 0.225
2457.000 0.283
2458.000 0.449
2459.000 0.275
2460.000 0.217
2461.000 0.299
2462.000 0.380
2463.000 0.430
2464.000 0.724
2465.000 0.678
2466.000 0.508
2467.000 0.392
2468.000 0.546
2469.000 0.513
2470.000 0.509
2471.000 0.666
2472.000 0.289
2473.000 0.370
2474.000 0.314
2475.000 0.257
2476.000 0.634
2477.000 0.657
2478.000 0.676
2479.000 0.515
2480.000 0.348
2481.000 0.492
2482.000 0.787
2483.000 0.360
2484.000 0.520
2485.000 0.521
2486.000 0.415
2487.000 0.517
2488.000 0.742
2489.000 0.440
2490.000 0.326
2491.000 0.237
2492.000 0.202
2493.000 0.244
2494.000 0.376
2495.000 0.411
2496.000 0.458
2497.000 0.477
2498.000 0.293
2499.000 0.515
2500.000 0.518
