391.000 0.026
392.000 0.027
393.000 0.034
394.000 0.031
395.000 0.029
396.000 0.035
397.000 0.043
398.000 0.043
399.000 0.037
400.000 0.033
401.000 0.034
402.000 0.037
403.000 0.035
404.000 0.030
405.000 0.031
406.000 0.031
407.000 0.031
408.000 0.033
409.000 0.034
410.000 0.035
411.000 0.036
412.000 0.036
413.000 0.034
414.000 0.034
415.000 0.035
416.000 0.035
417.000 0.036
418.000 0.038
419.000 0.037
420.000 0.034
421.000 0.034
422.000 0.035
423.000 0.035
424.000 0.032
425.000 0.033
426.000 0.034
427.000 0.032
428.000 0.035
429.000 0.038
430.000 0.037
431.000 0.039
432.000 0.037
433.000 0.034
434.000 0.034
435.000 0.037
436.000 0.036
437.000 0.033
438.000 0.033
439.000 0.034
440.000 0.035
441.000 0.037
442.000 0.038
443.000 0.038
444.000 0.037
445.000 0.036
446.000 0.035
447.000 0.035
448.000 0.036
449.000 0.037
450.000 0.039
451.000 0.039
452.000 0.038
453.000 0.036
454.000 0.034
455.000 0.034
456.000 0.037
457.000 0.038
458.000 0.038
459.000 0.036
460.000 0.034
461.000 0.035
462.000 0.037
463.000 0.037
464.000 0.037
465.000 0.035
466.000 0.035
467.000 0.039
468.000 0.037
469.000 0.036
470.000 0.037
471.000 0.037
472.000 0.035
473.000 0.036
474.000 0.038
475.000 0.039
476.000 0.038
477.000 0.036
478.000 0.035
479.000 0.033
480.000 0.035
481.000 0.039
482.000 0.039
483.000 0.039
484.000 0.039
485.000 0.039
486.000 0.038
487.000 0.038
488.000 0.038
489.000 0.037
490.000 0.038
491.000 0.037
492.000 0.037
493.000 0.040
494.000 0.039
495.000 0.039
496.000 0.040
497.000 0.040
498.000 0.041
499.000 0.041
500.000 0.040
501.000 0.039
502.000 0.038
503.000 0.038
504.000 0.038
505.000 0.039
506.000 0.042
507.000 0.047
508.000 0.044
509.000 0.043
510.000 0.044
511.000 0.043
512.000 0.044
513.000 0.046
514.000 0.046
515.000 0.046
516.000 0.049
517.000 0.050
518.000 0.051
519.000 0.052
520.000 0.053
521.000 0.054
522.000 0.054
523.000 0.056
524.000 0.057
525.000 0.057
526.000 0.059
527.000 0.061
528.000 0.063
529.000 0.065
530.000 0.064
531.000 0.064
532.000 0.066
533.000 0.067
534.000 0.067
535.000 0.068
536.000 0.069
537.000 0.069
538.000 0.070
539.000 0.071
540.000 0.072
541.000 0.072
542.000 0.073
543.000 0.074
544.000 0.072
545.000 0.071
546.000 0.070
547.000 0.070
548.000 0.073
549.000 0.073
550.000 0.072
551.000 0.072
552.000 0.072
553.000 0.073
554.000 0.072
555.000 0.073
556.000 0.074
557.000 0.073
558.000 0.072
559.000 0.070
560.000 0.070
561.000 0.071
562.000 0.070
563.000 0.069
564.000 0.068
565.000 0.067
566.000 0.067
567.000 0.067
568.000 0.066
569.000 0.065
570.000 0.064
571.000 0.064
572.000 0.062
573.000 0.062
574.000 0.062
575.000 0.061
576.000 0.059
577.000 0.060
578.000 0.059
579.000 0.057
580.000 0.059
581.000 0.059
582.000 0.058
583.000 0.058
584.000 0.057
585.000 0.057
586.000 0.058
587.000 0.058
588.000 0.056
589.000 0.056
590.000 0.057
591.000 0.056
592.000 0.055
593.000 0.055
594.000 0.054
595.000 0.055
596.000 0.056
597.000 0.057
598.000 0.055
599.000 0.054
600.000 0.054
601.000 0.053
602.000 0.052
603.000 0.052
604.000 0.053
605.000 0.053
606.000 0.054
607.000 0.053
608.000 0.053
609.000 0.055
610.000 0.057
611.000 0.055
612.000 0.055
613.000 0.052
614.000 0.051
615.000 0.051
616.000 0.051
617.000 0.051
618.000 0.051
619.000 0.053
620.000 0.053
621.000 0.052
622.000 0.050
623.000 0.052
624.000 0.053
625.000 0.052
626.000 0.053
627.000 0.054
628.000 0.053
629.000 0.052
630.000 0.050
631.000 0.050
632.000 0.050
633.000 0.051
634.000 0.051
635.000 0.051
636.000 0.051
637.000 0.052
638.000 0.050
639.000 0.049
640.000 0.050
641.000 0.052
642.000 0.050
643.000 0.050
644.000 0.051
645.000 0.051
646.000 0.050
647.000 0.050
648.000 0.051
649.000 0.050
650.000 0.051
651.000 0.052
652.000 0.051
653.000 0.050
654.000 0.050
655.000 0.051
656.000 0.051
657.000 0.051
658.000 0.052
659.000 0.053
660.000 0.054
661.000 0.053
662.000 0.050
663.000 0.050
664.000 0.050
665.000 0.050
666.000 0.051
667.000 0.052
668.000 0.053
669.000 0.053
670.000 0.051
671.000 0.053
672.000 0.052
673.000 0.049
674.000 0.049
675.000 0.054
676.000 0.057
677.000 0.054
678.000 0.055
679.000 0.055
680.000 0.054
681.000 0.054
682.000 0.055
683.000 0.057
684.000 0.059
685.000 0.060
686.000 0.058
687.000 0.058
688.000 0.059
689.000 0.061
690.000 0.063
691.000 0.066
692.000 0.066
693.000 0.067
694.000 0.069
695.000 0.072
696.000 0.078
697.000 0.083
698.000 0.086
699.000 0.087
700.000 0.091
701.000 0.096
702.000 0.101
703.000 0.105
704.000 0.110
705.000 0.114
706.000 0.119
707.000 0.124
708.000 0.128
709.000 0.132
710.000 0.137
711.000 0.142
712.000 0.147
713.000 0.153
714.000 0.157
715.000 0.161
716.000 0.165
717.000 0.168
718.000 0.173
719.000 0.178
720.000 0.183
721.000 0.189
722.000 0.194
723.000 0.198
724.000 0.201
725.000 0.206
726.000 0.210
727.000 0.214
728.000 0.218
729.000 0.223
730.000 0.228
731.000 0.233
732.000 0.238
733.000 0.242
734.000 0.246
735.000 0.249
736.000 0.253
737.000 0.257
738.000 0.259
739.000 0.263
740.000 0.266
741.000 0.269
742.000 0.273
743.000 0.275
744.000 0.277
745.000 0.280
746.000 0.282
747.000 0.283
748.000 0.285
749.000 0.287
750.000 0.289
751.000 0.290
752.000 0.292
753.000 0.293
754.000 0.294
755.000 0.295
756.000 0.296
757.000 0.297
758.000 0.297
759.000 0.296
760.000 0.293
761.000 0.289
762.000 0.287
763.000 0.288
764.000 0.290
765.000 0.293
766.000 0.297
767.000 0.299
768.000 0.302
769.000 0.304
770.000 0.305
771.000 0.305
772.000 0.306
773.000 0.306
774.000 0.307
775.000 0.307
776.000 0.308
777.000 0.309
778.000 0.309
779.000 0.309
780.000 0.309
781.000 0.309
782.000 0.310
783.000 0.310
784.000 0.310
785.000 0.311
786.000 0.311
787.000 0.311
788.000 0.310
789.000 0.310
790.000 0.311
791.000 0.311
792.000 0.311
793.000 0.312
794.000 0.313
795.000 0.313
796.000 0.312
797.000 0.313
798.000 0.313
799.000 0.313
800.000 0.313
801.000 0.313
802.000 0.313
803.000 0.314
804.000 0.314
805.000 0.315
806.000 0.316
807.000 0.316
808.000 0.317
809.000 0.316
810.000 0.316
811.000 0.315
812.000 0.314
813.000 0.312
814.000 0.311
815.000 0.310
816.000 0.310
817.000 0.309
818.000 0.310
819.000 0.311
820.000 0.313
821.000 0.313
822.000 0.313
823.000 0.314
824.000 0.315
825.000 0.316
826.000 0.317
827.000 0.318
828.000 0.317
829.000 0.317
830.000 0.317
831.000 0.318
832.000 0.319
833.000 0.320
834.000 0.321
835.000 0.321
836.000 0.323
837.000 0.323
838.000 0.324
839.000 0.325
840.000 0.325
841.000 0.326
842.000 0.326
843.000 0.327
844.000 0.328
845.000 0.328
846.000 0.329
847.000 0.329
848.000 0.329
849.000 0.330
850.000 0.330
851.000 0.330
852.000 0.330
853.000 0.331
854.000 0.331
855.000 0.332
856.000 0.332
857.000 0.332
858.000 0.333
859.000 0.333
860.000 0.333
861.000 0.333
862.000 0.333
863.000 0.334
864.000 0.334
865.000 0.335
866.000 0.334
867.000 0.334
868.000 0.335
869.000 0.335
870.000 0.336
871.000 0.336
872.000 0.336
873.000 0.337
874.000 0.337
875.000 0.337
876.000 0.337
877.000 0.337
878.000 0.337
879.000 0.338
880.000 0.338
881.000 0.339
882.000 0.338
883.000 0.338
884.000 0.339
885.000 0.339
886.000 0.339
887.000 0.339
888.000 0.339
889.000 0.339
890.000 0.339
891.000 0.339
892.000 0.338
893.000 0.337
894.000 0.336
895.000 0.334
896.000 0.332
897.000 0.332
898.000 0.330
899.000 0.329
900.000 0.331
901.000 0.332
902.000 0.331
903.000 0.331
904.000 0.332
905.000 0.333
906.000 0.333
907.000 0.333
908.000 0.331
909.000 0.330
910.000 0.329
911.000 0.329
912.000 0.330
913.000 0.330
914.000 0.330
915.000 0.330
916.000 0.330
917.000 0.331
918.000 0.332
919.000 0.332
920.000 0.332
921.000 0.335
922.000 0.335
923.000 0.335
924.000 0.336
925.000 0.334
926.000 0.333
927.000 0.331
928.000 0.327
929.000 0.325
930.000 0.324
931.000 0.320
932.000 0.314
933.000 0.311
934.000 0.307
935.000 0.304
936.000 0.304
937.000 0.304
938.000 0.307
939.000 0.311
940.000 0.311
941.000 0.309
942.000 0.310
943.000 0.312
944.000 0.312
945.000 0.312
946.000 0.309
947.000 0.307
948.000 0.307
949.000 0.305
950.000 0.305
951.000 0.308
952.000 0.311
953.000 0.309
954.000 0.309
955.000 0.317
956.000 0.322
957.000 0.318
958.000 0.315
959.000 0.318
960.000 0.317
961.000 0.315
962.000 0.318
963.000 0.321
964.000 0.319
965.000 0.323
966.000 0.325
967.000 0.325
968.000 0.331
969.000 0.332
970.000 0.329
971.000 0.329
972.000 0.333
973.000 0.334
974.000 0.333
975.000 0.333
976.000 0.335
977.000 0.335
978.000 0.336
979.000 0.338
980.000 0.340
981.000 0.341
982.000 0.342
983.000 0.344
984.000 0.343
985.000 0.343
986.000 0.342
987.000 0.343
988.000 0.348
989.000 0.349
990.000 0.348
991.000 0.348
992.000 0.346
993.000 0.347
994.000 0.349
995.000 0.353
996.000 0.355
997.000 0.353
998.000 0.353
999.000 0.355
1000.000 0.356
1001.000 0.357
1002.000 0.358
1003.000 0.358
1004.000 0.360
1005.000 0.361
1006.000 0.362
1007.000 0.362
1008.000 0.363
1009.000 0.362
1010.000 0.362
1011.000 0.362
1012.000 0.362
1013.000 0.362
1014.000 0.364
1015.000 0.365
1016.000 0.366
1017.000 0.366
1018.000 0.366
1019.000 0.367
1020.000 0.368
1021.000 0.368
1022.000 0.367
1023.000 0.367
1024.000 0.367
1025.000 0.368
1026.000 0.369
1027.000 0.369
1028.000 0.369
1029.000 0.370
1030.000 0.370
1031.000 0.371
1032.000 0.372
1033.000 0.371
1034.000 0.371
1035.000 0.371
1036.000 0.372
1037.000 0.373
1038.000 0.373
1039.000 0.373
1040.000 0.372
1041.000 0.372
1042.000 0.373
1043.000 0.373
1044.000 0.375
1045.000 0.376
1046.000 0.377
1047.000 0.376
1048.000 0.376
1049.000 0.375
1050.000 0.373
1051.000 0.374
1052.000 0.373
1053.000 0.375
1054.000 0.378
1055.000 0.379
1056.000 0.379
1057.000 0.379
1058.000 0.377
1059.000 0.376
1060.000 0.376
1061.000 0.376
1062.000 0.377
1063.000 0.378
1064.000 0.378
1065.000 0.378
1066.000 0.378
1067.000 0.378
1068.000 0.379
1069.000 0.379
1070.000 0.379
1071.000 0.379
1072.000 0.379
1073.000 0.378
1074.000 0.378
1075.000 0.379
1076.000 0.379
1077.000 0.380
1078.000 0.380
1079.000 0.380
1080.000 0.380
1081.000 0.380
1082.000 0.380
1083.000 0.379
1084.000 0.379
1085.000 0.377
1086.000 0.377
1087.000 0.377
1088.000 0.377
1089.000 0.378
1090.000 0.377
1091.000 0.376
1092.000 0.376
1093.000 0.376
1094.000 0.374
1095.000 0.374
1096.000 0.373
1097.000 0.372
1098.000 0.372
1099.000 0.372
1100.000 0.373
1101.000 0.372
1102.000 0.371
1103.000 0.369
1104.000 0.367
1105.000 0.366
1106.000 0.364
1107.000 0.363
1108.000 0.362
1109.000 0.361
1110.000 0.360
1111.000 0.359
1112.000 0.357
1113.000 0.354
1114.000 0.354
1115.000 0.352
1116.000 0.350
1117.000 0.350
1118.000 0.348
1119.000 0.349
1120.000 0.345
1121.000 0.341
1122.000 0.341
1123.000 0.338
1124.000 0.334
1125.000 0.333
1126.000 0.332
1127.000 0.330
1128.000 0.330
1129.000 0.331
1130.000 0.329
1131.000 0.328
1132.000 0.329
1133.000 0.331
1134.000 0.329
1135.000 0.330
1136.000 0.330
1137.000 0.331
1138.000 0.333
1139.000 0.335
1140.000 0.336
1141.000 0.337
1142.000 0.337
1143.000 0.337
1144.000 0.336
1145.000 0.331
1146.000 0.329
1147.000 0.327
1148.000 0.329
1149.000 0.332
1150.000 0.334
1151.000 0.337
1152.000 0.337
1153.000 0.336
1154.000 0.336
1155.000 0.338
1156.000 0.336
1157.000 0.337
1158.000 0.340
1159.000 0.341
1160.000 0.342
1161.000 0.344
1162.000 0.344
1163.000 0.346
1164.000 0.348
1165.000 0.350
1166.000 0.350
1167.000 0.351
1168.000 0.351
1169.000 0.351
1170.000 0.352
1171.000 0.353
1172.000 0.354
1173.000 0.355
1174.000 0.356
1175.000 0.357
1176.000 0.358
1177.000 0.357
1178.000 0.357
1179.000 0.357
1180.000 0.357
1181.000 0.355
1182.000 0.354
1183.000 0.354
1184.000 0.353
1185.000 0.354
1186.000 0.355
1187.000 0.356
1188.000 0.357
1189.000 0.357
1190.000 0.358
1191.000 0.357
1192.000 0.357
1193.000 0.357
1194.000 0.357
1195.000 0.357
1196.000 0.357
1197.000 0.357
1198.000 0.360
1199.000 0.360
1200.000 0.362
1201.000 0.363
1202.000 0.364
1203.000 0.364
1204.000 0.363
1205.000 0.363
1206.000 0.363
1207.000 0.363
1208.000 0.364
1209.000 0.365
1210.000 0.366
1211.000 0.367
1212.000 0.367
1213.000 0.366
1214.000 0.366
1215.000 0.365
1216.000 0.365
1217.000 0.365
1218.000 0.365
1219.000 0.367
1220.000 0.367
1221.000 0.367
1222.000 0.368
1223.000 0.368
1224.000 0.369
1225.000 0.371
1226.000 0.372
1227.000 0.373
1228.000 0.374
1229.000 0.374
1230.000 0.374
1231.000 0.374
1232.000 0.375
1233.000 0.375
1234.000 0.376
1235.000 0.377
1236.000 0.378
1237.000 0.379
1238.000 0.379
1239.000 0.379
1240.000 0.380
1241.000 0.380
1242.000 0.380
1243.000 0.380
1244.000 0.380
1245.000 0.379
1246.000 0.379
1247.000 0.379
1248.000 0.380
1249.000 0.380
1250.000 0.380
1251.000 0.381
1252.000 0.381
1253.000 0.381
1254.000 0.381
1255.000 0.381
1256.000 0.382
1257.000 0.382
1258.000 0.382
1259.000 0.383
1260.000 0.383
1261.000 0.383
1262.000 0.383
1263.000 0.383
1264.000 0.383
1265.000 0.383
1266.000 0.383
1267.000 0.381
1268.000 0.381
1269.000 0.381
1270.000 0.381
1271.000 0.382
1272.000 0.383
1273.000 0.384
1274.000 0.385
1275.000 0.386
1276.000 0.386
1277.000 0.386
1278.000 0.386
1279.000 0.387
1280.000 0.388
1281.000 0.388
1282.000 0.387
1283.000 0.387
1284.000 0.388
1285.000 0.387
1286.000 0.387
1287.000 0.387
1288.000 0.386
1289.000 0.386
1290.000 0.387
1291.000 0.387
1292.000 0.386
1293.000 0.385
1294.000 0.384
1295.000 0.382
1296.000 0.380
1297.000 0.380
1298.000 0.380
1299.000 0.380
1300.000 0.380
1301.000 0.380
1302.000 0.380
1303.000 0.379
1304.000 0.377
1305.000 0.375
1306.000 0.372
1307.000 0.370
1308.000 0.369
1309.000 0.368
1310.000 0.367
1311.000 0.368
1312.000 0.367
1313.000 0.366
1314.000 0.365
1315.000 0.362
1316.000 0.360
1317.000 0.359
1318.000 0.358
1319.000 0.357
1320.000 0.355
1321.000 0.355
1322.000 0.354
1323.000 0.353
1324.000 0.352
1325.000 0.350
1326.000 0.347
1327.000 0.346
1328.000 0.345
1329.000 0.343
1330.000 0.343
1331.000 0.342
1332.000 0.343
1333.000 0.342
1334.000 0.341
1335.000 0.338
1336.000 0.333
1337.000 0.330
1338.000 0.326
1339.000 0.324
1340.000 0.323
1341.000 0.323
1342.000 0.325
1343.000 0.326
1344.000 0.329
1345.000 0.330
1346.000 0.332
1347.000 0.336
1348.000 0.340
1349.000 0.346
1350.000 0.354
1351.000 0.371
1352.000 0.397
1353.000 0.444
1354.000 0.322
1355.000 0.417
1356.000 0.491
1357.000 0.565
1358.000 0.665
1359.000 0.741
1360.000 0.804
1361.000 0.846
1362.000 0.192
1363.000 0.521
1364.000 0.470
1365.000 0.205
1366.000 0.268
1367.000 0.214
1368.000 0.229
1369.000 0.246
1370.000 0.409
1371.000 0.530
1372.000 0.575
1373.000 0.556
1374.000 0.518
1375.000 0.282
1376.000 0.256
1377.000 0.241
1378.000 0.180
1379.000 0.171
1380.000 0.480
1381.000 0.674
1382.000 0.481
1383.000 0.411
1384.000 0.306
1385.000 0.298
1386.000 0.350
1387.000 0.517
1388.000 0.258
1389.000 0.355
1390.000 0.459
1391.000 0.560
1392.000 0.462
1393.000 0.395
1394.000 0.343
1395.000 0.283
1396.000 0.516
1397.000 0.470
1398.000 0.493
1399.000 0.560
1400.000 0.601
1401.000 0.613
1402.000 0.518
1403.000 0.555
1404.000 0.458
1405.000 0.506
1406.000 0.499
1407.000 0.518
1408.000 0.515
1409.000 0.595
1410.000 0.675
1411.000 0.571
1412.000 0.637
1413.000 0.703
1414.000 0.702
1415.000 0.267
1416.000 0.307
1417.000 0.261
1418.000 0.210
1419.000 0.363
1420.000 0.261
1421.000 0.248
1422.000 0.223
1423.000 0.203
1424.000 0.174
1425.000 0.323
1426.000 0.257
1427.000 0.210
1428.000 0.234
1429.000 0.303
1430.000 0.469
1431.000 0.509
1432.000 0.407
1433.000 0.403
1434.000 0.480
1435.000 0.452
1436.000 0.417
1437.000 0.327
1438.000 0.313
1439.000 0.306
1440.000 0.263
1441.000 0.225
1442.000 0.378
1443.000 0.301
1444.000 0.344
1445.000 0.412
1446.000 0.357
1447.000 0.302
1448.000 0.311
1449.000 0.273
1450.000 0.244
1451.000 0.203
1452.000 0.170
1453.000 0.176
1454.000 0.188
1455.000 0.196
1456.000 0.224
1457.000 0.235
1458.000 0.235
1459.000 0.224
1460.000 0.218
1461.000 0.207
1462.000 0.198
1463.000 0.195
1464.000 0.204
1465.000 0.208
1466.000 0.273
1467.000 0.273
1468.000 0.196
1469.000 0.194
1470.000 0.182
1471.000 0.183
1472.000 0.241
1473.000 0.209
1474.000 0.222
1475.000 0.222
1476.000 0.205
1477.000 0.197
1478.000 0.193
1479.000 0.166
1480.000 0.162
1481.000 0.164
1482.000 0.168
1483.000 0.171
1484.000 0.173
1485.000 0.178
1486.000 0.185
1487.000 0.190
1488.000 0.200
1489.000 0.202
1490.000 0.199
1491.000 0.195
1492.000 0.182
1493.000 0.177
1494.000 0.173
1495.000 0.171
1496.000 0.172
1497.000 0.174
1498.000 0.176
1499.000 0.181
1500.000 0.185
1501.000 0.185
1502.000 0.187
1503.000 0.186
1504.000 0.185
1505.000 0.190
1506.000 0.192
1507.000 0.193
1508.000 0.194
1509.000 0.195
1510.000 0.196
1511.000 0.197
1512.000 0.197
1513.000 0.196
1514.000 0.197
1515.000 0.199
1516.000 0.200
1517.000 0.203
1518.000 0.203
1519.000 0.200
1520.000 0.201
1521.000 0.205
1522.000 0.207
1523.000 0.214
1524.000 0.216
1525.000 0.216
1526.000 0.215
1527.000 0.212
1528.000 0.213
1529.000 0.216
1530.000 0.217
1531.000 0.218
1532.000 0.220
1533.000 0.218
1534.000 0.219
1535.000 0.220
1536.000 0.221
1537.000 0.221
1538.000 0.222
1539.000 0.224
1540.000 0.226
1541.000 0.227
1542.000 0.227
1543.000 0.225
1544.000 0.225
1545.000 0.226
1546.000 0.227
1547.000 0.230
1548.000 0.231
1549.000 0.234
1550.000 0.234
1551.000 0.234
1552.000 0.235
1553.000 0.236
1554.000 0.237
1555.000 0.239
1556.000 0.240
1557.000 0.241
1558.000 0.240
1559.000 0.239
1560.000 0.239
1561.000 0.239
1562.000 0.239
1563.000 0.239
1564.000 0.240
1565.000 0.243
1566.000 0.244
1567.000 0.246
1568.000 0.247
1569.000 0.247
1570.000 0.247
1571.000 0.250
1572.000 0.251
1573.000 0.250
1574.000 0.251
1575.000 0.248
1576.000 0.248
1577.000 0.250
1578.000 0.252
1579.000 0.259
1580.000 0.260
1581.000 0.258
1582.000 0.257
1583.000 0.256
1584.000 0.256
1585.000 0.259
1586.000 0.261
1587.000 0.261
1588.000 0.263
1589.000 0.264
1590.000 0.266
1591.000 0.269
1592.000 0.270
1593.000 0.271
1594.000 0.271
1595.000 0.269
1596.000 0.269
1597.000 0.268
1598.000 0.269
1599.000 0.271
1600.000 0.273
1601.000 0.276
1602.000 0.278
1603.000 0.278
1604.000 0.278
1605.000 0.277
1606.000 0.277
1607.000 0.277
1608.000 0.278
1609.000 0.278
1610.000 0.278
1611.000 0.277
1612.000 0.277
1613.000 0.278
1614.000 0.278
1615.000 0.280
1616.000 0.281
1617.000 0.284
1618.000 0.286
1619.000 0.287
1620.000 0.290
1621.000 0.292
1622.000 0.293
1623.000 0.293
1624.000 0.293
1625.000 0.288
1626.000 0.287
1627.000 0.285
1628.000 0.285
1629.000 0.286
1630.000 0.288
1631.000 0.288
1632.000 0.289
1633.000 0.287
1634.000 0.287
1635.000 0.291
1636.000 0.293
1637.000 0.294
1638.000 0.296
1639.000 0.296
1640.000 0.295
1641.000 0.297
1642.000 0.298
1643.000 0.299
1644.000 0.299
1645.000 0.298
1646.000 0.297
1647.000 0.293
1648.000 0.292
1649.000 0.295
1650.000 0.295
1651.000 0.296
1652.000 0.295
1653.000 0.292
1654.000 0.290
1655.000 0.288
1656.000 0.287
1657.000 0.288
1658.000 0.288
1659.000 0.288
1660.000 0.290
1661.000 0.294
1662.000 0.296
1663.000 0.299
1664.000 0.299
1665.000 0.297
1666.000 0.296
1667.000 0.293
1668.000 0.293
1669.000 0.294
1670.000 0.294
1671.000 0.294
1672.000 0.295
1673.000 0.294
1674.000 0.295
1675.000 0.298
1676.000 0.299
1677.000 0.300
1678.000 0.301
1679.000 0.299
1680.000 0.299
1681.000 0.300
1682.000 0.298
1683.000 0.297
1684.000 0.295
1685.000 0.293
1686.000 0.292
1687.000 0.292
1688.000 0.293
1689.000 0.296
1690.000 0.298
1691.000 0.303
1692.000 0.304
1693.000 0.298
1694.000 0.297
1695.000 0.294
1696.000 0.294
1697.000 0.298
1698.000 0.301
1699.000 0.305
1700.000 0.306
1701.000 0.308
1702.000 0.306
1703.000 0.298
1704.000 0.295
1705.000 0.293
1706.000 0.292
1707.000 0.293
1708.000 0.293
1709.000 0.291
1710.000 0.290
1711.000 0.289
1712.000 0.286
1713.000 0.283
1714.000 0.281
1715.000 0.281
1716.000 0.284
1717.000 0.288
1718.000 0.292
1719.000 0.294
1720.000 0.292
1721.000 0.290
1722.000 0.290
1723.000 0.292
1724.000 0.297
1725.000 0.305
1726.000 0.311
1727.000 0.312
1728.000 0.308
1729.000 0.302
1730.000 0.299
1731.000 0.296
1732.000 0.294
1733.000 0.295
1734.000 0.291
1735.000 0.288
1736.000 0.286
1737.000 0.283
1738.000 0.280
1739.000 0.277
1740.000 0.276
1741.000 0.277
1742.000 0.281
1743.000 0.284
1744.000 0.292
1745.000 0.296
1746.000 0.298
1747.000 0.294
1748.000 0.283
1749.000 0.278
1750.000 0.269
1751.000 0.267
1752.000 0.271
1753.000 0.272
1754.000 0.274
1755.000 0.275
1756.000 0.274
1757.000 0.275
1758.000 0.273
1759.000 0.277
1760.000 0.277
1761.000 0.271
1762.000 0.272
1763.000 0.272
1764.000 0.267
1765.000 0.271
1766.000 0.273
1767.000 0.272
1768.000 0.273
1769.000 0.276
1770.000 0.273
1771.000 0.271
1772.000 0.269
1773.000 0.268
1774.000 0.273
1775.000 0.275
1776.000 0.274
1777.000 0.269
1778.000 0.258
1779.000 0.248
1780.000 0.244
1781.000 0.242
1782.000 0.240
1783.000 0.240
1784.000 0.235
1785.000 0.237
1786.000 0.231
1787.000 0.217
1788.000 0.217
1789.000 0.223
1790.000 0.224
1791.000 0.246
1792.000 0.244
1793.000 0.235
1794.000 0.235
1795.000 0.225
1796.000 0.232
1797.000 0.248
1798.000 0.269
1799.000 0.298
1800.000 0.353
1801.000 0.465
1802.000 0.497
1803.000 0.557
1804.000 0.594
1805.000 0.616
1806.000 0.635
1807.000 0.677
1808.000 0.615
1809.000 0.558
1810.000 0.665
1811.000 0.651
1812.000 0.633
1813.000 0.632
1814.000 0.634
1815.000 0.654
1816.000 0.668
1817.000 0.797
1818.000 0.792
1819.000 0.759
1820.000 0.752
1821.000 0.725
1822.000 0.607
1823.000 0.606
1824.000 0.466
1825.000 0.490
1826.000 0.727
1827.000 0.760
1828.000 0.678
1829.000 0.565
1830.000 0.552
1831.000 0.522
1832.000 0.495
1833.000 0.530
1834.000 0.629
1835.000 0.525
1836.000 0.566
1837.000 0.556
1838.000 0.677
1839.000 0.656
1840.000 0.648
1841.000 0.692
1842.000 0.662
1843.000 0.533
1844.000 0.406
1845.000 0.270
1846.000 0.515
1847.000 0.729
1848.000 0.591
1849.000 0.749
1850.000 0.708
1851.000 0.679
1852.000 0.587
1853.000 0.590
1854.000 0.538
1855.000 0.611
1856.000 0.672
1857.000 0.707
1858.000 0.759
1859.000 0.755
1860.000 0.826
1861.000 0.673
1862.000 0.690
1863.000 0.687
1864.000 0.731
1865.000 0.710
1866.000 0.742
1867.000 0.751
1868.000 0.763
1869.000 0.773
1870.000 0.788
1871.000 0.689
1872.000 0.706
1873.000 0.623
1874.000 0.678
1875.000 0.656
1876.000 0.684
1877.000 0.725
1878.000 0.765
1879.000 0.662
1880.000 0.667
1881.000 0.628
1882.000 0.577
1883.000 0.543
1884.000 0.501
1885.000 0.481
1886.000 0.474
1887.000 0.407
1888.000 0.391
1889.000 0.425
1890.000 0.557
1891.000 0.535
1892.000 0.435
1893.000 0.488
1894.000 0.420
1895.000 0.502
1896.000 0.499
1897.000 0.458
1898.000 0.464
1899.000 0.454
1900.000 0.598
1901.000 0.640
1902.000 0.542
1903.000 0.486
1904.000 0.608
1905.000 0.241
1906.000 0.579
1907.000 0.444
1908.000 0.458
1909.000 0.538
1910.000 0.678
1911.000 0.673
1912.000 0.690
1913.000 0.710
1914.000 0.723
1915.000 0.749
1916.000 0.722
1917.000 0.689
1918.000 0.683
1919.000 0.678
1920.000 0.581
1921.000 0.417
1922.000 0.410
1923.000 0.435
1924.000 0.543
1925.000 0.322
1926.000 0.446
1927.000 0.422
1928.000 0.346
1929.000 0.404
1930.000 0.590
1931.000 0.704
1932.000 0.701
1933.000 0.481
1934.000 0.586
1935.000 0.570
1936.000 0.605
1937.000 0.717
1938.000 0.734
1939.000 0.573
1940.000 0.481
1941.000 0.456
1942.000 0.522
1943.000 0.514
1944.000 0.618
1945.000 0.589
1946.000 0.562
1947.000 0.511
1948.000 0.433
1949.000 0.412
1950.000 0.417
1951.000 0.394
1952.000 0.483
1953.000 0.500
1954.000 0.463
1955.000 0.441
1956.000 0.454
1957.000 0.355
1958.000 0.442
1959.000 0.437
1960.000 0.319
1961.000 0.326
1962.000 0.362
1963.000 0.360
1964.000 0.398
1965.000 0.482
1966.000 0.508
1967.000 0.482
1968.000 0.461
1969.000 0.335
1970.000 0.318
1971.000 0.289
1972.000 0.269
1973.000 0.253
1974.000 0.223
1975.000 0.216
1976.000 0.219
1977.000 0.216
1978.000 0.241
1979.000 0.248
1980.000 0.274
1981.000 0.287
1982.000 0.272
1983.000 0.255
1984.000 0.237
1985.000 0.217
1986.000 0.218
1987.000 0.241
1988.000 0.243
1989.000 0.246
1990.000 0.253
1991.000 0.246
1992.000 0.252
1993.000 0.279
1994.000 0.310
1995.000 0.384
1996.000 0.455
1997.000 0.485
1998.000 0.518
1999.000 0.493
2000.000 0.479
2001.000 0.457
2002.000 0.338
2003.000 0.386
2004.000 0.590
2005.000 0.594
2006.000 0.756
2007.000 0.770
2008.000 0.702
2009.000 0.519
2010.000 0.406
2011.000 0.323
2012.000 0.331
2013.000 0.349
2014.000 0.337
2015.000 0.263
2016.000 0.245
2017.000 0.216
2018.000 0.211
2019.000 0.250
2020.000 0.276
2021.000 0.321
2022.000 0.314
2023.000 0.262
2024.000 0.265
2025.000 0.254
2026.000 0.256
2027.000 0.246
2028.000 0.218
2029.000 0.213
2030.000 0.209
2031.000 0.209
2032.000 0.227
2033.000 0.229
2034.000 0.221
2035.000 0.226
2036.000 0.234
2037.000 0.237
2038.000 0.234
2039.000 0.209
2040.000 0.211
2041.000 0.201
2042.000 0.202
2043.000 0.220
2044.000 0.204
2045.000 0.225
2046.000 0.231
2047.000 0.224
2048.000 0.227
2049.000 0.237
2050.000 0.225
2051.000 0.215
2052.000 0.225
2053.000 0.216
2054.000 0.216
2055.000 0.234
2056.000 0.242
2057.000 0.247
2058.000 0.252
2059.000 0.257
2060.000 0.259
2061.000 0.250
2062.000 0.223
2063.000 0.231
2064.000 0.227
2065.000 0.227
2066.000 0.274
2067.000 0.284
2068.000 0.277
2069.000 0.320
2070.000 0.281
2071.000 0.235
2072.000 0.234
2073.000 0.241
2074.000 0.245
2075.000 0.265
2076.000 0.298
2077.000 0.271
2078.000 0.264
2079.000 0.246
2080.000 0.220
2081.000 0.238
2082.000 0.258
2083.000 0.280
2084.000 0.297
2085.000 0.282
2086.000 0.267
2087.000 0.254
2088.000 0.233
2089.000 0.225
2090.000 0.224
2091.000 0.219
2092.000 0.208
2093.000 0.213
2094.000 0.234
2095.000 0.244
2096.000 0.266
2097.000 0.276
2098.000 0.275
2099.000 0.253
2100.000 0.246
2101.000 0.245
2102.000 0.243
2103.000 0.250
2104.000 0.252
2105.000 0.260
2106.000 0.256
2107.000 0.246
2108.000 0.240
2109.000 0.225
2110.000 0.227
2111.000 0.246
2112.000 0.246
2113.000 0.247
2114.000 0.244
2115.000 0.227
2116.000 0.217
2117.000 0.212
2118.000 0.201
2119.000 0.187
2120.000 0.181
2121.000 0.176
2122.000 0.185
2123.000 0.190
2124.000 0.197
2125.000 0.203
2126.000 0.219
2127.000 0.222
2128.000 0.221
2129.000 0.219
2130.000 0.205
2131.000 0.196
2132.000 0.194
2133.000 0.189
2134.000 0.180
2135.000 0.180
2136.000 0.180
2137.000 0.187
2138.000 0.198
2139.000 0.215
2140.000 0.229
2141.000 0.223
2142.000 0.225
2143.000 0.226
2144.000 0.220
2145.000 0.212
2146.000 0.208
2147.000 0.200
2148.000 0.197
2149.000 0.204
2150.000 0.204
2151.000 0.197
2152.000 0.200
2153.000 0.213
2154.000 0.218
2155.000 0.228
2156.000 0.242
2157.000 0.229
2158.000 0.216
2159.000 0.222
2160.000 0.224
2161.000 0.221
2162.000 0.215
2163.000 0.217
2164.000 0.215
2165.000 0.220
2166.000 0.238
2167.000 0.249
2168.000 0.254
2169.000 0.257
2170.000 0.273
2171.000 0.266
2172.000 0.233
2173.000 0.218
2174.000 0.194
2175.000 0.189
2176.000 0.203
2177.000 0.216
2178.000 0.219
2179.000 0.231
2180.000 0.238
2181.000 0.236
2182.000 0.233
2183.000 0.232
2184.000 0.234
2185.000 0.229
2186.000 0.236
2187.000 0.263
2188.000 0.264
2189.000 0.255
2190.000 0.248
2191.000 0.222
2192.000 0.221
2193.000 0.236
2194.000 0.243
2195.000 0.271
2196.000 0.276
2197.000 0.260
2198.000 0.248
2199.000 0.221
2200.000 0.208
2201.000 0.204
2202.000 0.196
2203.000 0.198
2204.000 0.239
2205.000 0.262
2206.000 0.279
2207.000 0.250
2208.000 0.247
2209.000 0.239
2210.000 0.213
2211.000 0.205
2212.000 0.196
2213.000 0.203
2214.000 0.240
2215.000 0.244
2216.000 0.253
2217.000 0.249
2218.000 0.213
2219.000 0.203
2220.000 0.199
2221.000 0.198
2222.000 0.198
2223.000 0.204
2224.000 0.227
2225.000 0.239
2226.000 0.255
2227.000 0.269
2228.000 0.247
2229.000 0.240
2230.000 0.227
2231.000 0.213
2232.000 0.214
2233.000 0.207
2234.000 0.214
2235.000 0.225
2236.000 0.215
2237.000 0.216
2238.000 0.212
2239.000 0.198
2240.000 0.193
2241.000 0.190
2242.000 0.193
2243.000 0.202
2244.000 0.210
2245.000 0.232
2246.000 0.235
2247.000 0.228
2248.000 0.224
2249.000 0.211
2250.000 0.208
2251.000 0.214
2252.000 0.217
2253.000 0.228
2254.000 0.224
2255.000 0.198
2256.000 0.189
2257.000 0.173
2258.000 0.176
2259.000 0.213
2260.000 0.182
2261.000 0.196
2262.000 0.210
2263.000 0.208
2264.000 0.222
2265.000 0.224
2266.000 0.223
2267.000 0.222
2268.000 0.218
2269.000 0.202
2270.000 0.187
2271.000 0.192
2272.000 0.236
2273.000 0.247
2274.000 0.271
2275.000 0.260
2276.000 0.194
2277.000 0.208
2278.000 0.175
2279.000 0.188
2280.000 0.213
2281.000 0.213
2282.000 0.183
2283.000 0.187
2284.000 0.258
2285.000 0.270
2286.000 0.259
2287.000 0.260
2288.000 0.237
2289.000 0.201
2290.000 0.190
2291.000 0.184
2292.000 0.196
2293.000 0.191
2294.000 0.177
2295.000 0.173
2296.000 0.226
2297.000 0.242
2298.000 0.252
2299.000 0.189
2300.000 0.196
2301.000 0.190
2302.000 0.195
2303.000 0.222
2304.000 0.218
2305.000 0.231
2306.000 0.248
2307.000 0.242
2308.000 0.258
2309.000 0.255
2310.000 0.285
2311.000 0.271
2312.000 0.269
2313.000 0.219
2314.000 0.188
2315.000 0.156
2316.000 0.163
2317.000 0.182
2318.000 0.207
2319.000 0.209
2320.000 0.277
2321.000 0.290
2322.000 0.256
2323.000 0.336
2324.000 0.432
2325.000 0.322
2326.000 0.222
2327.000 0.218
2328.000 0.236
2329.000 0.228
2330.000 0.249
2331.000 0.345
2332.000 0.376
2333.000 0.340
2334.000 0.351
2335.000 0.244
2336.000 0.211
2337.000 0.291
2338.000 0.325
2339.000 0.317
2340.000 0.313
2341.000 0.381
2342.000 0.396
2343.000 0.479
2344.000 0.508
2345.000 0.357
2346.000 0.415
2347.000 0.271
2348.000 0.269
2349.000 0.409
2350.000 0.421
2351.000 0.543
2352.000 0.461
2353.000 0.183
2354.000 0.181
2355.000 0.206
2356.000 0.217
2357.000 0.211
2358.000 0.244
2359.000 0.252
2360.000 0.240
2361.000 0.307
2362.000 0.328
2363.000 0.206
2364.000 0.277
2365.000 0.308
2366.000 0.353
2367.000 0.310
2368.000 0.277
2369.000 0.224
2370.000 0.345
2371.000 0.319
2372.000 0.337
2373.000 0.615
2374.000 0.644
2375.000 0.601
2376.000 0.365
2377.000 0.219
2378.000 0.212
2379.000 0.236
2380.000 0.321
2381.000 0.257
2382.000 0.223
2383.000 0.291
2384.000 0.355
2385.000 0.429
2386.000 0.358
2387.000 0.504
2388.000 0.640
2389.000 0.324
2390.000 0.330
2391.000 0.358
2392.000 0.382
2393.000 0.346
2394.000 0.223
2395.000 0.151
2396.000 0.305
2397.000 0.365
2398.000 0.429
2399.000 0.343
2400.000 0.351
2401.000 0.658
2402.000 0.474
2403.000 0.465
2404.000 0.187
2405.000 0.256
2406.000 0.230
2407.000 0.239
2408.000 0.192
2409.000 0.205
2410.000 0.391
2411.000 0.805
2412.000 0.774
2413.000 0.783
2414.000 0.804
2415.000 0.773
2416.000 0.589
2417.000 0.415
2418.000 0.560
2419.000 0.528
2420.000 0.139
2421.000 0.183
2422.000 0.232
2423.000 0.358
2424.000 0.419
2425.000 0.639
2426.000 0.559
2427.000 0.581
2428.000 0.839
2429.000 0.752
2430.000 0.653
2431.000 0.676
2432.000 0.510
2433.000 0.487
2434.000 0.457
2435.000 0.468
2436.000 0.504
2437.000 0.544
2438.000 0.622
2439.000 0.555
2440.000 0.534
2441.000 0.371
2442.000 0.385
2443.000 0.478
2444.000 0.476
2445.000 0.574
2446.000 0.329
2447.000 0.336
2448.000 0.239
2449.000 0.271
2450.000 0.239
2451.000 0.413
2452.000 0.651
2453.000 0.647
2454.000 0.769
2455.000 0.654
2456.000 0.622
2457.000 0.298
2458.000 0.317
2459.000 0.394
2460.000 0.311
2461.000 0.722
2462.000 0.595
2463.000 0.400
2464.000 0.187
2465.000 0.533
2466.000 0.382
2467.000 0.302
2468.000 0.277
2469.000 0.334
2470.000 0.425
2471.000 0.713
2472.000 0.192
2473.000 0.203
2474.000 0.303
2475.000 0.218
2476.000 0.531
2477.000 0.227
2478.000 0.727
2479.000 0.288
2480.000 0.240
2481.000 0.205
2482.000 0.361
2483.000 0.465
2484.000 0.227
2485.000 0.203
2486.000 0.259
2487.000 0.529
2488.000 0.758
2489.000 0.615
2490.000 0.470
2491.000 0.561
2492.000 0.340
2493.000 0.271
2494.000 0.276
2495.000 0.424
2496.000 0.384
2497.000 0.705
2498.000 0.457
2499.000 0.225
2500.000 0.174
