391.000 0.043
392.000 0.038
393.000 0.040
394.000 0.044
395.000 0.045
396.000 0.048
397.000 0.051
398.000 0.048
399.000 0.045
400.000 0.045
401.000 0.045
402.000 0.047
403.000 0.044
404.000 0.039
405.000 0.040
406.000 0.040
407.000 0.042
408.000 0.046
409.000 0.044
410.000 0.044
411.000 0.045
412.000 0.046
413.000 0.043
414.000 0.044
415.000 0.047
416.000 0.045
417.000 0.045
418.000 0.045
419.000 0.044
420.000 0.042
421.000 0.043
422.000 0.044
423.000 0.041
424.000 0.040
425.000 0.042
426.000 0.043
427.000 0.042
428.000 0.045
429.000 0.046
430.000 0.046
431.000 0.046
432.000 0.045
433.000 0.043
434.000 0.043
435.000 0.046
436.000 0.044
437.000 0.041
438.000 0.039
439.000 0.040
440.000 0.042
441.000 0.043
442.000 0.043
443.000 0.043
444.000 0.043
445.000 0.043
446.000 0.042
447.000 0.042
448.000 0.043
449.000 0.044
450.000 0.045
451.000 0.046
452.000 0.044
453.000 0.043
454.000 0.042
455.000 0.041
456.000 0.042
457.000 0.044
458.000 0.044
459.000 0.043
460.000 0.043
461.000 0.043
462.000 0.043
463.000 0.043
464.000 0.044
465.000 0.043
466.000 0.043
467.000 0.044
468.000 0.043
469.000 0.043
470.000 0.044
471.000 0.043
472.000 0.043
473.000 0.043
474.000 0.043
475.000 0.045
476.000 0.044
477.000 0.044
478.000 0.044
479.000 0.042
480.000 0.043
481.000 0.045
482.000 0.045
483.000 0.043
484.000 0.043
485.000 0.045
486.000 0.044
487.000 0.044
488.000 0.044
489.000 0.043
490.000 0.044
491.000 0.044
492.000 0.044
493.000 0.045
494.000 0.045
495.000 0.044
496.000 0.043
497.000 0.046
498.000 0.047
499.000 0.046
500.000 0.046
501.000 0.046
502.000 0.046
503.000 0.046
504.000 0.046
505.000 0.048
506.000 0.050
507.000 0.053
508.000 0.051
509.000 0.052
510.000 0.054
511.000 0.054
512.000 0.056
513.000 0.057
514.000 0.057
515.000 0.059
516.000 0.062
517.000 0.065
518.000 0.067
519.000 0.069
520.000 0.071
521.000 0.073
522.000 0.076
523.000 0.077
524.000 0.080
525.000 0.083
526.000 0.085
527.000 0.088
528.000 0.091
529.000 0.094
530.000 0.094
531.000 0.096
532.000 0.098
533.000 0.100
534.000 0.101
535.000 0.102
536.000 0.104
537.000 0.105
538.000 0.106
539.000 0.107
540.000 0.108
541.000 0.108
542.000 0.110
543.000 0.110
544.000 0.110
545.000 0.109
546.000 0.108
547.000 0.109
548.000 0.111
549.000 0.112
550.000 0.111
551.000 0.111
552.000 0.111
553.000 0.110
554.000 0.110
555.000 0.111
556.000 0.110
557.000 0.110
558.000 0.109
559.000 0.107
560.000 0.105
561.000 0.105
562.000 0.103
563.000 0.102
564.000 0.100
565.000 0.099
566.000 0.098
567.000 0.096
568.000 0.094
569.000 0.091
570.000 0.090
571.000 0.089
572.000 0.086
573.000 0.085
574.000 0.084
575.000 0.083
576.000 0.081
577.000 0.079
578.000 0.078
579.000 0.076
580.000 0.077
581.000 0.076
582.000 0.075
583.000 0.075
584.000 0.073
585.000 0.073
586.000 0.073
587.000 0.072
588.000 0.070
589.000 0.071
590.000 0.072
591.000 0.069
592.000 0.068
593.000 0.068
594.000 0.067
595.000 0.068
596.000 0.068
597.000 0.067
598.000 0.066
599.000 0.065
600.000 0.065
601.000 0.065
602.000 0.065
603.000 0.064
604.000 0.063
605.000 0.063
606.000 0.063
607.000 0.062
608.000 0.061
609.000 0.064
610.000 0.065
611.000 0.063
612.000 0.062
613.000 0.059
614.000 0.058
615.000 0.059
616.000 0.059
617.000 0.057
618.000 0.058
619.000 0.059
620.000 0.058
621.000 0.057
622.000 0.055
623.000 0.057
624.000 0.057
625.000 0.056
626.000 0.056
627.000 0.056
628.000 0.057
629.000 0.056
630.000 0.055
631.000 0.055
632.000 0.056
633.000 0.056
634.000 0.055
635.000 0.054
636.000 0.054
637.000 0.054
638.000 0.051
639.000 0.051
640.000 0.053
641.000 0.053
642.000 0.050
643.000 0.050
644.000 0.051
645.000 0.050
646.000 0.050
647.000 0.049
648.000 0.049
649.000 0.050
650.000 0.051
651.000 0.051
652.000 0.049
653.000 0.048
654.000 0.048
655.000 0.050
656.000 0.050
657.000 0.050
658.000 0.050
659.000 0.050
660.000 0.052
661.000 0.052
662.000 0.050
663.000 0.048
664.000 0.047
665.000 0.047
666.000 0.049
667.000 0.048
668.000 0.049
669.000 0.049
670.000 0.048
671.000 0.050
672.000 0.051
673.000 0.048
674.000 0.047
675.000 0.051
676.000 0.054
677.000 0.054
678.000 0.055
679.000 0.054
680.000 0.054
681.000 0.055
682.000 0.054
683.000 0.056
684.000 0.059
685.000 0.060
686.000 0.061
687.000 0.063
688.000 0.064
689.000 0.064
690.000 0.067
691.000 0.071
692.000 0.074
693.000 0.076
694.000 0.081
695.000 0.086
696.000 0.093
697.000 0.101
698.000 0.109
699.000 0.116
700.000 0.126
701.000 0.135
702.000 0.145
703.000 0.155
704.000 0.166
705.000 0.176
706.000 0.187
707.000 0.198
708.000 0.209
709.000 0.220
710.000 0.233
711.000 0.245
712.000 0.257
713.000 0.270
714.000 0.283
715.000 0.296
716.000 0.309
717.000 0.324
718.000 0.341
719.000 0.358
720.000 0.373
721.000 0.385
722.000 0.397
723.000 0.410
724.000 0.426
725.000 0.441
726.000 0.456
727.000 0.469
728.000 0.481
729.000 0.495
730.000 0.508
731.000 0.486
732.000 0.495
733.000 0.504
734.000 0.511
735.000 0.520
736.000 0.529
737.000 0.538
738.000 0.545
739.000 0.551
740.000 0.558
741.000 0.564
742.000 0.570
743.000 0.575
744.000 0.579
745.000 0.585
746.000 0.589
747.000 0.593
748.000 0.597
749.000 0.601
750.000 0.573
751.000 0.576
752.000 0.578
753.000 0.581
754.000 0.583
755.000 0.585
756.000 0.587
757.000 0.589
758.000 0.592
759.000 0.595
760.000 0.601
761.000 0.611
762.000 0.616
763.000 0.616
764.000 0.615
765.000 0.612
766.000 0.608
767.000 0.606
768.000 0.605
769.000 0.604
770.000 0.604
771.000 0.604
772.000 0.605
773.000 0.605
774.000 0.605
775.000 0.606
776.000 0.606
777.000 0.607
778.000 0.607
779.000 0.608
780.000 0.608
781.000 0.608
782.000 0.609
783.000 0.609
784.000 0.610
785.000 0.611
786.000 0.612
787.000 0.613
788.000 0.614
789.000 0.615
790.000 0.615
791.000 0.616
792.000 0.616
793.000 0.616
794.000 0.616
795.000 0.617
796.000 0.618
797.000 0.619
798.000 0.619
799.000 0.619
800.000 0.620
801.000 0.620
802.000 0.621
803.000 0.621
804.000 0.622
805.000 0.622
806.000 0.621
807.000 0.622
808.000 0.622
809.000 0.623
810.000 0.625
811.000 0.626
812.000 0.629
813.000 0.631
814.000 0.634
815.000 0.636
816.000 0.638
817.000 0.638
818.000 0.637
819.000 0.636
820.000 0.636
821.000 0.635
822.000 0.636
823.000 0.637
824.000 0.636
825.000 0.636
826.000 0.635
827.000 0.636
828.000 0.637
829.000 0.637
830.000 0.636
831.000 0.637
832.000 0.636
833.000 0.636
834.000 0.636
835.000 0.635
836.000 0.635
837.000 0.635
838.000 0.634
839.000 0.634
840.000 0.633
841.000 0.634
842.000 0.634
843.000 0.633
844.000 0.633
845.000 0.634
846.000 0.633
847.000 0.633
848.000 0.634
849.000 0.634
850.000 0.634
851.000 0.634
852.000 0.635
853.000 0.635
854.000 0.635
855.000 0.636
856.000 0.636
857.000 0.636
858.000 0.636
859.000 0.636
860.000 0.637
861.000 0.637
862.000 0.637
863.000 0.637
864.000 0.638
865.000 0.638
866.000 0.638
867.000 0.638
868.000 0.638
869.000 0.638
870.000 0.639
871.000 0.639
872.000 0.639
873.000 0.640
874.000 0.640
875.000 0.640
876.000 0.640
877.000 0.641
878.000 0.641
879.000 0.641
880.000 0.642
881.000 0.643
882.000 0.643
883.000 0.643
884.000 0.644
885.000 0.644
886.000 0.644
887.000 0.645
888.000 0.645
889.000 0.646
890.000 0.647
891.000 0.648
892.000 0.649
893.000 0.651
894.000 0.653
895.000 0.655
896.000 0.657
897.000 0.660
898.000 0.661
899.000 0.663
900.000 0.665
901.000 0.665
902.000 0.663
903.000 0.662
904.000 0.663
905.000 0.664
906.000 0.665
907.000 0.667
908.000 0.667
909.000 0.668
910.000 0.669
911.000 0.670
912.000 0.671
913.000 0.673
914.000 0.674
915.000 0.673
916.000 0.672
917.000 0.671
918.000 0.670
919.000 0.669
920.000 0.668
921.000 0.669
922.000 0.669
923.000 0.668
924.000 0.670
925.000 0.670
926.000 0.673
927.000 0.676
928.000 0.677
929.000 0.680
930.000 0.577
931.000 0.579
932.000 0.579
933.000 0.580
934.000 0.583
935.000 0.584
936.000 0.583
937.000 0.580
938.000 0.579
939.000 0.584
940.000 0.586
941.000 0.580
942.000 0.578
943.000 0.583
944.000 0.582
945.000 0.578
946.000 0.579
947.000 0.583
948.000 0.580
949.000 0.577
950.000 0.574
951.000 0.573
952.000 0.574
953.000 0.570
954.000 0.570
955.000 0.576
956.000 0.575
957.000 0.570
958.000 0.569
959.000 0.572
960.000 0.570
961.000 0.649
962.000 0.676
963.000 0.677
964.000 0.671
965.000 0.670
966.000 0.668
967.000 0.664
968.000 0.668
969.000 0.662
970.000 0.658
971.000 0.661
972.000 0.663
973.000 0.662
974.000 0.660
975.000 0.659
976.000 0.662
977.000 0.661
978.000 0.660
979.000 0.661
980.000 0.662
981.000 0.660
982.000 0.658
983.000 0.656
984.000 0.653
985.000 0.652
986.000 0.652
987.000 0.651
988.000 0.654
989.000 0.653
990.000 0.653
991.000 0.652
992.000 0.648
993.000 0.652
994.000 0.653
995.000 0.653
996.000 0.655
997.000 0.655
998.000 0.653
999.000 0.653
1000.000 0.655
1001.000 0.658
1002.000 0.658
1003.000 0.659
1004.000 0.661
1005.000 0.662
1006.000 0.662
1007.000 0.663
1008.000 0.663
1009.000 0.663
1010.000 0.664
1011.000 0.664
1012.000 0.664
1013.000 0.665
1014.000 0.666
1015.000 0.666
1016.000 0.668
1017.000 0.669
1018.000 0.669
1019.000 0.670
1020.000 0.671
1021.000 0.670
1022.000 0.670
1023.000 0.670
1024.000 0.670
1025.000 0.671
1026.000 0.672
1027.000 0.672
1028.000 0.673
1029.000 0.674
1030.000 0.674
1031.000 0.675
1032.000 0.675
1033.000 0.676
1034.000 0.676
1035.000 0.678
1036.000 0.679
1037.000 0.679
1038.000 0.678
1039.000 0.678
1040.000 0.677
1041.000 0.677
1042.000 0.679
1043.000 0.679
1044.000 0.678
1045.000 0.679
1046.000 0.680
1047.000 0.680
1048.000 0.679
1049.000 0.680
1050.000 0.680
1051.000 0.680
1052.000 0.679
1053.000 0.681
1054.000 0.684
1055.000 0.685
1056.000 0.685
1057.000 0.685
1058.000 0.683
1059.000 0.682
1060.000 0.682
1061.000 0.682
1062.000 0.683
1063.000 0.685
1064.000 0.685
1065.000 0.684
1066.000 0.684
1067.000 0.685
1068.000 0.685
1069.000 0.686
1070.000 0.685
1071.000 0.685
1072.000 0.685
1073.000 0.685
1074.000 0.686
1075.000 0.688
1076.000 0.689
1077.000 0.689
1078.000 0.689
1079.000 0.690
1080.000 0.689
1081.000 0.690
1082.000 0.690
1083.000 0.689
1084.000 0.689
1085.000 0.689
1086.000 0.689
1087.000 0.689
1088.000 0.691
1089.000 0.693
1090.000 0.692
1091.000 0.693
1092.000 0.694
1093.000 0.695
1094.000 0.696
1095.000 0.698
1096.000 0.698
1097.000 0.700
1098.000 0.701
1099.000 0.674
1100.000 0.594
1101.000 0.593
1102.000 0.594
1103.000 0.594
1104.000 0.593
1105.000 0.595
1106.000 0.595
1107.000 0.595
1108.000 0.595
1109.000 0.594
1110.000 0.593
1111.000 0.593
1112.000 0.593
1113.000 0.594
1114.000 0.597
1115.000 0.596
1116.000 0.598
1117.000 0.602
1118.000 0.605
1119.000 0.610
1120.000 0.610
1121.000 0.608
1122.000 0.611
1123.000 0.611
1124.000 0.610
1125.000 0.611
1126.000 0.610
1127.000 0.609
1128.000 0.608
1129.000 0.610
1130.000 0.606
1131.000 0.598
1132.000 0.595
1133.000 0.592
1134.000 0.588
1135.000 0.588
1136.000 0.587
1137.000 0.586
1138.000 0.589
1139.000 0.591
1140.000 0.592
1141.000 0.591
1142.000 0.590
1143.000 0.588
1144.000 0.585
1145.000 0.579
1146.000 0.575
1147.000 0.572
1148.000 0.574
1149.000 0.576
1150.000 0.575
1151.000 0.577
1152.000 0.574
1153.000 0.568
1154.000 0.565
1155.000 0.561
1156.000 0.645
1157.000 0.672
1158.000 0.670
1159.000 0.668
1160.000 0.665
1161.000 0.664
1162.000 0.662
1163.000 0.660
1164.000 0.658
1165.000 0.656
1166.000 0.654
1167.000 0.653
1168.000 0.652
1169.000 0.651
1170.000 0.651
1171.000 0.651
1172.000 0.651
1173.000 0.651
1174.000 0.651
1175.000 0.652
1176.000 0.651
1177.000 0.650
1178.000 0.649
1179.000 0.647
1180.000 0.647
1181.000 0.647
1182.000 0.646
1183.000 0.645
1184.000 0.645
1185.000 0.645
1186.000 0.644
1187.000 0.645
1188.000 0.645
1189.000 0.645
1190.000 0.644
1191.000 0.644
1192.000 0.642
1193.000 0.641
1194.000 0.641
1195.000 0.641
1196.000 0.640
1197.000 0.641
1198.000 0.642
1199.000 0.643
1200.000 0.645
1201.000 0.645
1202.000 0.645
1203.000 0.645
1204.000 0.645
1205.000 0.644
1206.000 0.643
1207.000 0.643
1208.000 0.643
1209.000 0.644
1210.000 0.643
1211.000 0.644
1212.000 0.645
1213.000 0.645
1214.000 0.644
1215.000 0.643
1216.000 0.643
1217.000 0.642
1218.000 0.642
1219.000 0.642
1220.000 0.643
1221.000 0.642
1222.000 0.642
1223.000 0.641
1224.000 0.641
1225.000 0.643
1226.000 0.644
1227.000 0.645
1228.000 0.645
1229.000 0.645
1230.000 0.645
1231.000 0.645
1232.000 0.645
1233.000 0.646
1234.000 0.646
1235.000 0.646
1236.000 0.646
1237.000 0.646
1238.000 0.647
1239.000 0.647
1240.000 0.647
1241.000 0.647
1242.000 0.648
1243.000 0.648
1244.000 0.648
1245.000 0.648
1246.000 0.648
1247.000 0.648
1248.000 0.648
1249.000 0.649
1250.000 0.650
1251.000 0.650
1252.000 0.651
1253.000 0.650
1254.000 0.651
1255.000 0.652
1256.000 0.653
1257.000 0.654
1258.000 0.655
1259.000 0.657
1260.000 0.658
1261.000 0.658
1262.000 0.660
1263.000 0.660
1264.000 0.660
1265.000 0.661
1266.000 0.661
1267.000 0.660
1268.000 0.660
1269.000 0.661
1270.000 0.660
1271.000 0.661
1272.000 0.661
1273.000 0.661
1274.000 0.661
1275.000 0.660
1276.000 0.658
1277.000 0.657
1278.000 0.656
1279.000 0.656
1280.000 0.657
1281.000 0.657
1282.000 0.657
1283.000 0.657
1284.000 0.657
1285.000 0.657
1286.000 0.657
1287.000 0.657
1288.000 0.657
1289.000 0.657
1290.000 0.657
1291.000 0.658
1292.000 0.657
1293.000 0.657
1294.000 0.656
1295.000 0.654
1296.000 0.653
1297.000 0.652
1298.000 0.652
1299.000 0.652
1300.000 0.653
1301.000 0.653
1302.000 0.653
1303.000 0.652
1304.000 0.651
1305.000 0.649
1306.000 0.647
1307.000 0.646
1308.000 0.645
1309.000 0.646
1310.000 0.646
1311.000 0.648
1312.000 0.647
1313.000 0.646
1314.000 0.645
1315.000 0.642
1316.000 0.639
1317.000 0.639
1318.000 0.637
1319.000 0.636
1320.000 0.635
1321.000 0.635
1322.000 0.636
1323.000 0.635
1324.000 0.634
1325.000 0.633
1326.000 0.630
1327.000 0.629
1328.000 0.628
1329.000 0.627
1330.000 0.626
1331.000 0.626
1332.000 0.627
1333.000 0.627
1334.000 0.625
1335.000 0.624
1336.000 0.621
1337.000 0.618
1338.000 0.613
1339.000 0.609
1340.000 0.602
1341.000 0.600
1342.000 0.602
1343.000 0.604
1344.000 0.615
1345.000 0.622
1346.000 0.626
1347.000 0.633
1348.000 0.606
1349.000 0.491
1350.000 0.488
1351.000 0.504
1352.000 0.502
1353.000 0.500
1354.000 0.496
1355.000 0.510
1356.000 0.509
1357.000 0.530
1358.000 0.518
1359.000 0.581
1360.000 0.442
1361.000 0.305
1362.000 0.167
1363.000 0.221
1364.000 0.169
1365.000 0.279
1366.000 0.185
1367.000 0.207
1368.000 0.245
1369.000 0.245
1370.000 0.324
1371.000 0.305
1372.000 0.306
1373.000 0.336
1374.000 0.243
1375.000 0.351
1376.000 0.371
1377.000 0.381
1378.000 0.413
1379.000 0.382
1380.000 0.357
1381.000 0.369
1382.000 0.388
1383.000 0.745
1384.000 0.544
1385.000 0.519
1386.000 0.597
1387.000 0.389
1388.000 0.485
1389.000 0.412
1390.000 0.360
1391.000 0.334
1392.000 0.353
1393.000 0.376
1394.000 0.299
1395.000 0.338
1396.000 0.362
1397.000 0.406
1398.000 0.313
1399.000 0.177
1400.000 0.420
1401.000 0.399
1402.000 0.518
1403.000 0.526
1404.000 0.459
1405.000 0.297
1406.000 0.525
1407.000 0.332
1408.000 0.349
1409.000 0.196
1410.000 0.477
1411.000 0.340
1412.000 0.375
1413.000 0.427
1414.000 0.389
1415.000 0.233
1416.000 0.274
1417.000 0.279
1418.000 0.386
1419.000 0.243
1420.000 0.248
1421.000 0.259
1422.000 0.256
1423.000 0.258
1424.000 0.249
1425.000 0.356
1426.000 0.312
1427.000 0.452
1428.000 0.397
1429.000 0.310
1430.000 0.464
1431.000 0.340
1432.000 0.334
1433.000 0.420
1434.000 0.447
1435.000 0.335
1436.000 0.283
1437.000 0.380
1438.000 0.402
1439.000 0.370
1440.000 0.384
1441.000 0.379
1442.000 0.358
1443.000 0.324
1444.000 0.336
1445.000 0.357
1446.000 0.342
1447.000 0.366
1448.000 0.344
1449.000 0.297
1450.000 0.262
1451.000 0.244
1452.000 0.239
1453.000 0.245
1454.000 0.268
1455.000 0.273
1456.000 0.299
1457.000 0.297
1458.000 0.269
1459.000 0.257
1460.000 0.251
1461.000 0.246
1462.000 0.240
1463.000 0.237
1464.000 0.231
1465.000 0.235
1466.000 0.244
1467.000 0.242
1468.000 0.251
1469.000 0.255
1470.000 0.247
1471.000 0.253
1472.000 0.288
1473.000 0.294
1474.000 0.277
1475.000 0.273
1476.000 0.258
1477.000 0.255
1478.000 0.262
1479.000 0.258
1480.000 0.258
1481.000 0.260
1482.000 0.261
1483.000 0.259
1484.000 0.254
1485.000 0.255
1486.000 0.254
1487.000 0.259
1488.000 0.278
1489.000 0.285
1490.000 0.289
1491.000 0.290
1492.000 0.285
1493.000 0.282
1494.000 0.277
1495.000 0.274
1496.000 0.273
1497.000 0.272
1498.000 0.272
1499.000 0.274
1500.000 0.279
1501.000 0.278
1502.000 0.283
1503.000 0.286
1504.000 0.282
1505.000 0.283
1506.000 0.287
1507.000 0.290
1508.000 0.295
1509.000 0.306
1510.000 0.308
1511.000 0.306
1512.000 0.308
1513.000 0.308
1514.000 0.309
1515.000 0.313
1516.000 0.314
1517.000 0.314
1518.000 0.315
1519.000 0.313
1520.000 0.316
1521.000 0.320
1522.000 0.324
1523.000 0.332
1524.000 0.336
1525.000 0.340
1526.000 0.341
1527.000 0.339
1528.000 0.341
1529.000 0.344
1530.000 0.347
1531.000 0.353
1532.000 0.356
1533.000 0.358
1534.000 0.358
1535.000 0.357
1536.000 0.358
1537.000 0.360
1538.000 0.361
1539.000 0.360
1540.000 0.361
1541.000 0.361
1542.000 0.361
1543.000 0.364
1544.000 0.366
1545.000 0.368
1546.000 0.370
1547.000 0.375
1548.000 0.377
1549.000 0.379
1550.000 0.381
1551.000 0.380
1552.000 0.382
1553.000 0.384
1554.000 0.387
1555.000 0.394
1556.000 0.397
1557.000 0.399
1558.000 0.401
1559.000 0.400
1560.000 0.401
1561.000 0.403
1562.000 0.405
1563.000 0.405
1564.000 0.407
1565.000 0.411
1566.000 0.413
1567.000 0.415
1568.000 0.417
1569.000 0.415
1570.000 0.415
1571.000 0.418
1572.000 0.421
1573.000 0.424
1574.000 0.426
1575.000 0.426
1576.000 0.428
1577.000 0.431
1578.000 0.434
1579.000 0.439
1580.000 0.442
1581.000 0.441
1582.000 0.442
1583.000 0.440
1584.000 0.439
1585.000 0.439
1586.000 0.440
1587.000 0.444
1588.000 0.446
1589.000 0.449
1590.000 0.451
1591.000 0.454
1592.000 0.455
1593.000 0.456
1594.000 0.457
1595.000 0.454
1596.000 0.453
1597.000 0.454
1598.000 0.455
1599.000 0.460
1600.000 0.464
1601.000 0.470
1602.000 0.434
1603.000 0.434
1604.000 0.436
1605.000 0.438
1606.000 0.438
1607.000 0.440
1608.000 0.439
1609.000 0.438
1610.000 0.437
1611.000 0.436
1612.000 0.436
1613.000 0.436
1614.000 0.437
1615.000 0.438
1616.000 0.440
1617.000 0.444
1618.000 0.447
1619.000 0.452
1620.000 0.454
1621.000 0.455
1622.000 0.455
1623.000 0.453
1624.000 0.452
1625.000 0.449
1626.000 0.448
1627.000 0.449
1628.000 0.450
1629.000 0.451
1630.000 0.451
1631.000 0.451
1632.000 0.451
1633.000 0.452
1634.000 0.454
1635.000 0.459
1636.000 0.461
1637.000 0.460
1638.000 0.460
1639.000 0.459
1640.000 0.459
1641.000 0.462
1642.000 0.464
1643.000 0.468
1644.000 0.470
1645.000 0.469
1646.000 0.468
1647.000 0.463
1648.000 0.462
1649.000 0.461
1650.000 0.461
1651.000 0.464
1652.000 0.464
1653.000 0.462
1654.000 0.461
1655.000 0.458
1656.000 0.457
1657.000 0.459
1658.000 0.460
1659.000 0.461
1660.000 0.462
1661.000 0.464
1662.000 0.465
1663.000 0.467
1664.000 0.468
1665.000 0.466
1666.000 0.465
1667.000 0.463
1668.000 0.463
1669.000 0.464
1670.000 0.465
1671.000 0.468
1672.000 0.470
1673.000 0.471
1674.000 0.471
1675.000 0.471
1676.000 0.470
1677.000 0.469
1678.000 0.469
1679.000 0.466
1680.000 0.466
1681.000 0.471
1682.000 0.471
1683.000 0.470
1684.000 0.469
1685.000 0.461
1686.000 0.459
1687.000 0.457
1688.000 0.458
1689.000 0.462
1690.000 0.465
1691.000 0.470
1692.000 0.472
1693.000 0.469
1694.000 0.469
1695.000 0.467
1696.000 0.467
1697.000 0.473
1698.000 0.474
1699.000 0.473
1700.000 0.471
1701.000 0.467
1702.000 0.464
1703.000 0.459
1704.000 0.458
1705.000 0.458
1706.000 0.458
1707.000 0.463
1708.000 0.463
1709.000 0.461
1710.000 0.459
1711.000 0.457
1712.000 0.453
1713.000 0.449
1714.000 0.447
1715.000 0.446
1716.000 0.447
1717.000 0.451
1718.000 0.456
1719.000 0.458
1720.000 0.460
1721.000 0.459
1722.000 0.457
1723.000 0.457
1724.000 0.457
1725.000 0.459
1726.000 0.463
1727.000 0.467
1728.000 0.467
1729.000 0.466
1730.000 0.460
1731.000 0.455
1732.000 0.451
1733.000 0.450
1734.000 0.452
1735.000 0.452
1736.000 0.449
1737.000 0.447
1738.000 0.443
1739.000 0.439
1740.000 0.437
1741.000 0.437
1742.000 0.439
1743.000 0.440
1744.000 0.444
1745.000 0.446
1746.000 0.451
1747.000 0.448
1748.000 0.437
1749.000 0.432
1750.000 0.421
1751.000 0.416
1752.000 0.422
1753.000 0.420
1754.000 0.413
1755.000 0.413
1756.000 0.415
1757.000 0.416
1758.000 0.463
1759.000 0.428
1760.000 0.464
1761.000 0.461
1762.000 0.466
1763.000 0.466
1764.000 0.463
1765.000 0.426
1766.000 0.427
1767.000 0.425
1768.000 0.424
1769.000 0.427
1770.000 0.422
1771.000 0.418
1772.000 0.422
1773.000 0.457
1774.000 0.419
1775.000 0.420
1776.000 0.411
1777.000 0.404
1778.000 0.406
1779.000 0.406
1780.000 0.415
1781.000 0.423
1782.000 0.413
1783.000 0.409
1784.000 0.433
1785.000 0.430
1786.000 0.421
1787.000 0.401
1788.000 0.403
1789.000 0.419
1790.000 0.422
1791.000 0.441
1792.000 0.436
1793.000 0.420
1794.000 0.416
1795.000 0.409
1796.000 0.420
1797.000 0.393
1798.000 0.408
1799.000 0.423
1800.000 0.444
1801.000 0.582
1802.000 0.604
1803.000 0.689
1804.000 0.766
1805.000 0.764
1806.000 0.691
1807.000 0.669
1808.000 0.635
1809.000 0.605
1810.000 0.675
1811.000 0.560
1812.000 0.722
1813.000 0.777
1814.000 0.712
1815.000 0.732
1816.000 0.632
1817.000 0.509
1818.000 0.545
1819.000 0.601
1820.000 0.726
1821.000 0.741
1822.000 0.714
1823.000 0.591
1824.000 0.618
1825.000 0.579
1826.000 0.574
1827.000 0.573
1828.000 0.660
1829.000 0.466
1830.000 0.458
1831.000 0.480
1832.000 0.476
1833.000 0.595
1834.000 0.696
1835.000 0.749
1836.000 0.764
1837.000 0.634
1838.000 0.498
1839.000 0.528
1840.000 0.505
1841.000 0.598
1842.000 0.687
1843.000 0.700
1844.000 0.606
1845.000 0.747
1846.000 0.957
1847.000 0.910
1848.000 0.782
1849.000 0.836
1850.000 0.855
1851.000 0.871
1852.000 0.816
1853.000 0.615
1854.000 0.577
1855.000 0.527
1856.000 0.608
1857.000 0.512
1858.000 0.536
1859.000 0.570
1860.000 0.553
1861.000 0.509
1862.000 0.581
1863.000 0.563
1864.000 0.720
1865.000 0.688
1866.000 0.742
1867.000 0.716
1868.000 0.703
1869.000 0.692
1870.000 0.679
1871.000 0.721
1872.000 0.704
1873.000 0.566
1874.000 0.647
1875.000 0.677
1876.000 0.674
1877.000 0.624
1878.000 0.450
1879.000 0.376
1880.000 0.439
1881.000 0.377
1882.000 0.590
1883.000 0.222
1884.000 0.190
1885.000 0.271
1886.000 0.311
1887.000 0.310
1888.000 0.425
1889.000 0.608
1890.000 0.439
1891.000 0.658
1892.000 0.576
1893.000 0.408
1894.000 0.465
1895.000 0.601
1896.000 0.760
1897.000 0.727
1898.000 0.714
1899.000 0.612
1900.000 0.630
1901.000 0.562
1902.000 0.294
1903.000 0.403
1904.000 0.515
1905.000 0.465
1906.000 0.433
1907.000 0.424
1908.000 0.408
1909.000 0.336
1910.000 0.450
1911.000 0.512
1912.000 0.574
1913.000 0.682
1914.000 0.759
1915.000 0.366
1916.000 0.412
1917.000 0.447
1918.000 0.539
1919.000 0.619
1920.000 0.632
1921.000 0.423
1922.000 0.511
1923.000 0.633
1924.000 0.637
1925.000 0.637
1926.000 0.546
1927.000 0.608
1928.000 0.486
1929.000 0.423
1930.000 0.336
1931.000 0.393
1932.000 0.371
1933.000 0.480
1934.000 0.592
1935.000 0.629
1936.000 0.629
1937.000 0.508
1938.000 0.597
1939.000 0.534
1940.000 0.533
1941.000 0.586
1942.000 0.618
1943.000 0.413
1944.000 0.434
1945.000 0.479
1946.000 0.509
1947.000 0.407
1948.000 0.369
1949.000 0.376
1950.000 0.462
1951.000 0.508
1952.000 0.583
1953.000 0.594
1954.000 0.607
1955.000 0.561
1956.000 0.653
1957.000 0.715
1958.000 0.709
1959.000 0.565
1960.000 0.431
1961.000 0.376
1962.000 0.391
1963.000 0.492
1964.000 0.512
1965.000 0.488
1966.000 0.485
1967.000 0.404
1968.000 0.355
1969.000 0.293
1970.000 0.303
1971.000 0.330
1972.000 0.337
1973.000 0.320
1974.000 0.311
1975.000 0.284
1976.000 0.206
1977.000 0.187
1978.000 0.187
1979.000 0.214
1980.000 0.240
1981.000 0.244
1982.000 0.193
1983.000 0.155
1984.000 0.148
1985.000 0.167
1986.000 0.190
1987.000 0.279
1988.000 0.302
1989.000 0.252
1990.000 0.262
1991.000 0.248
1992.000 0.234
1993.000 0.269
1994.000 0.302
1995.000 0.315
1996.000 0.382
1997.000 0.385
1998.000 0.374
1999.000 0.386
2000.000 0.462
2001.000 0.478
2002.000 0.460
2003.000 0.493
2004.000 0.519
2005.000 0.559
2006.000 0.527
2007.000 0.537
2008.000 0.531
2009.000 0.479
2010.000 0.412
2011.000 0.395
2012.000 0.440
2013.000 0.433
2014.000 0.433
2015.000 0.378
2016.000 0.344
2017.000 0.272
2018.000 0.266
2019.000 0.270
2020.000 0.284
2021.000 0.309
2022.000 0.268
2023.000 0.246
2024.000 0.241
2025.000 0.229
2026.000 0.233
2027.000 0.233
2028.000 0.216
2029.000 0.221
2030.000 0.233
2031.000 0.240
2032.000 0.278
2033.000 0.285
2034.000 0.268
2035.000 0.250
2036.000 0.241
2037.000 0.236
2038.000 0.247
2039.000 0.251
2040.000 0.251
2041.000 0.244
2042.000 0.240
2043.000 0.235
2044.000 0.236
2045.000 0.244
2046.000 0.244
2047.000 0.240
2048.000 0.242
2049.000 0.245
2050.000 0.248
2051.000 0.240
2052.000 0.247
2053.000 0.240
2054.000 0.229
2055.000 0.254
2056.000 0.275
2057.000 0.270
2058.000 0.253
2059.000 0.254
2060.000 0.234
2061.000 0.231
2062.000 0.241
2063.000 0.257
2064.000 0.269
2065.000 0.277
2066.000 0.305
2067.000 0.326
2068.000 0.323
2069.000 0.316
2070.000 0.294
2071.000 0.267
2072.000 0.261
2073.000 0.264
2074.000 0.267
2075.000 0.287
2076.000 0.283
2077.000 0.266
2078.000 0.261
2079.000 0.244
2080.000 0.243
2081.000 0.247
2082.000 0.258
2083.000 0.280
2084.000 0.306
2085.000 0.308
2086.000 0.307
2087.000 0.299
2088.000 0.268
2089.000 0.262
2090.000 0.268
2091.000 0.263
2092.000 0.254
2093.000 0.257
2094.000 0.258
2095.000 0.264
2096.000 0.285
2097.000 0.297
2098.000 0.298
2099.000 0.295
2100.000 0.303
2101.000 0.299
2102.000 0.287
2103.000 0.293
2104.000 0.291
2105.000 0.284
2106.000 0.280
2107.000 0.278
2108.000 0.275
2109.000 0.265
2110.000 0.268
2111.000 0.285
2112.000 0.285
2113.000 0.291
2114.000 0.287
2115.000 0.263
2116.000 0.255
2117.000 0.247
2118.000 0.246
2119.000 0.242
2120.000 0.246
2121.000 0.252
2122.000 0.254
2123.000 0.259
2124.000 0.268
2125.000 0.273
2126.000 0.283
2127.000 0.279
2128.000 0.260
2129.000 0.258
2130.000 0.265
2131.000 0.263
2132.000 0.270
2133.000 0.271
2134.000 0.257
2135.000 0.252
2136.000 0.247
2137.000 0.253
2138.000 0.253
2139.000 0.256
2140.000 0.273
2141.000 0.274
2142.000 0.277
2143.000 0.283
2144.000 0.282
2145.000 0.272
2146.000 0.271
2147.000 0.273
2148.000 0.273
2149.000 0.275
2150.000 0.277
2151.000 0.274
2152.000 0.281
2153.000 0.304
2154.000 0.315
2155.000 0.326
2156.000 0.336
2157.000 0.322
2158.000 0.294
2159.000 0.282
2160.000 0.283
2161.000 0.284
2162.000 0.294
2163.000 0.302
2164.000 0.319
2165.000 0.319
2166.000 0.307
2167.000 0.310
2168.000 0.313
2169.000 0.314
2170.000 0.340
2171.000 0.338
2172.000 0.302
2173.000 0.286
2174.000 0.260
2175.000 0.254
2176.000 0.259
2177.000 0.274
2178.000 0.289
2179.000 0.298
2180.000 0.303
2181.000 0.309
2182.000 0.300
2183.000 0.306
2184.000 0.310
2185.000 0.311
2186.000 0.320
2187.000 0.344
2188.000 0.345
2189.000 0.341
2190.000 0.332
2191.000 0.299
2192.000 0.298
2193.000 0.312
2194.000 0.315
2195.000 0.334
2196.000 0.338
2197.000 0.322
2198.000 0.313
2199.000 0.295
2200.000 0.291
2201.000 0.289
2202.000 0.292
2203.000 0.297
2204.000 0.316
2205.000 0.337
2206.000 0.341
2207.000 0.348
2208.000 0.338
2209.000 0.331
2210.000 0.309
2211.000 0.307
2212.000 0.312
2213.000 0.321
2214.000 0.351
2215.000 0.351
2216.000 0.344
2217.000 0.335
2218.000 0.307
2219.000 0.300
2220.000 0.302
2221.000 0.304
2222.000 0.307
2223.000 0.315
2224.000 0.348
2225.000 0.360
2226.000 0.365
2227.000 0.371
2228.000 0.345
2229.000 0.317
2230.000 0.294
2231.000 0.286
2232.000 0.289
2233.000 0.279
2234.000 0.283
2235.000 0.300
2236.000 0.291
2237.000 0.291
2238.000 0.289
2239.000 0.277
2240.000 0.275
2241.000 0.283
2242.000 0.286
2243.000 0.293
2244.000 0.299
2245.000 0.313
2246.000 0.305
2247.000 0.282
2248.000 0.272
2249.000 0.253
2250.000 0.250
2251.000 0.267
2252.000 0.281
2253.000 0.306
2254.000 0.318
2255.000 0.329
2256.000 0.333
2257.000 0.328
2258.000 0.318
2259.000 0.297
2260.000 0.266
2261.000 0.251
2262.000 0.252
2263.000 0.260
2264.000 0.264
2265.000 0.267
2266.000 0.266
2267.000 0.264
2268.000 0.265
2269.000 0.256
2270.000 0.258
2271.000 0.280
2272.000 0.295
2273.000 0.313
2274.000 0.352
2275.000 0.355
2276.000 0.324
2277.000 0.322
2278.000 0.317
2279.000 0.315
2280.000 0.320
2281.000 0.300
2282.000 0.259
2283.000 0.245
2284.000 0.223
2285.000 0.221
2286.000 0.238
2287.000 0.241
2288.000 0.251
2289.000 0.261
2290.000 0.245
2291.000 0.249
2292.000 0.267
2293.000 0.269
2294.000 0.277
2295.000 0.293
2296.000 0.346
2297.000 0.385
2298.000 0.388
2299.000 0.349
2300.000 0.276
2301.000 0.222
2302.000 0.222
2303.000 0.213
2304.000 0.228
2305.000 0.281
2306.000 0.281
2307.000 0.292
2308.000 0.317
2309.000 0.298
2310.000 0.322
2311.000 0.335
2312.000 0.309
2313.000 0.289
2314.000 0.245
2315.000 0.206
2316.000 0.190
2317.000 0.207
2318.000 0.212
2319.000 0.208
2320.000 0.246
2321.000 0.236
2322.000 0.231
2323.000 0.258
2324.000 0.343
2325.000 0.296
2326.000 0.268
2327.000 0.271
2328.000 0.255
2329.000 0.195
2330.000 0.196
2331.000 0.249
2332.000 0.282
2333.000 0.270
2334.000 0.308
2335.000 0.283
2336.000 0.292
2337.000 0.279
2338.000 0.309
2339.000 0.357
2340.000 0.412
2341.000 0.481
2342.000 0.495
2343.000 0.426
2344.000 0.393
2345.000 0.352
2346.000 0.231
2347.000 0.203
2348.000 0.192
2349.000 0.242
2350.000 0.272
2351.000 0.470
2352.000 0.437
2353.000 0.369
2354.000 0.302
2355.000 0.202
2356.000 0.180
2357.000 0.161
2358.000 0.215
2359.000 0.245
2360.000 0.252
2361.000 0.352
2362.000 0.317
2363.000 0.256
2364.000 0.226
2365.000 0.239
2366.000 0.277
2367.000 0.313
2368.000 0.292
2369.000 0.289
2370.000 0.360
2371.000 0.428
2372.000 0.427
2373.000 0.467
2374.000 0.539
2375.000 0.586
2376.000 0.399
2377.000 0.223
2378.000 0.168
2379.000 0.173
2380.000 0.271
2381.000 0.313
2382.000 0.370
2383.000 0.507
2384.000 0.502
2385.000 0.308
2386.000 0.420
2387.000 0.234
2388.000 0.245
2389.000 0.364
2390.000 0.263
2391.000 0.277
2392.000 0.292
2393.000 0.515
2394.000 0.541
2395.000 0.259
2396.000 0.308
2397.000 0.269
2398.000 0.250
2399.000 0.273
2400.000 0.252
2401.000 0.172
2402.000 0.304
2403.000 0.281
2404.000 0.323
2405.000 0.252
2406.000 0.662
2407.000 0.346
2408.000 0.318
2409.000 0.322
2410.000 0.427
2411.000 0.394
2412.000 0.594
2413.000 0.811
2414.000 0.604
2415.000 0.362
2416.000 0.297
2417.000 0.276
2418.000 0.290
2419.000 0.363
2420.000 0.518
2421.000 0.279
2422.000 0.283
2423.000 0.412
2424.000 0.390
2425.000 0.521
2426.000 0.516
2427.000 0.595
2428.000 0.758
2429.000 0.750
2430.000 0.748
2431.000 0.768
2432.000 0.591
2433.000 0.426
2434.000 0.398
2435.000 0.249
2436.000 0.289
2437.000 0.794
2438.000 0.621
2439.000 0.389
2440.000 0.603
2441.000 0.370
2442.000 0.425
2443.000 0.481
2444.000 0.467
2445.000 0.343
2446.000 0.253
2447.000 0.323
2448.000 0.327
2449.000 0.623
2450.000 0.770
2451.000 0.678
2452.000 0.641
2453.000 0.709
2454.000 0.565
2455.000 0.271
2456.000 0.193
2457.000 0.682
2458.000 0.491
2459.000 0.450
2460.000 0.403
2461.000 0.553
2462.000 0.434
2463.000 0.504
2464.000 0.338
2465.000 0.330
2466.000 0.450
2467.000 0.357
2468.000 0.357
2469.000 0.274
2470.000 0.296
2471.000 0.217
2472.000 0.125
2473.000 0.106
2474.000 0.167
2475.000 0.245
2476.000 0.286
2477.000 0.564
2478.000 0.401
2479.000 0.572
2480.000 0.494
2481.000 0.380
2482.000 0.478
2483.000 0.525
2484.000 0.639
2485.000 0.595
2486.000 0.542
2487.000 0.290
2488.000 0.356
2489.000 0.447
2490.000 0.414
2491.000 0.360
2492.000 0.451
2493.000 0.229
2494.000 0.264
2495.000 0.353
2496.000 0.378
2497.000 0.414
2498.000 0.449
2499.000 0.254
2500.000 0.372
