391.000 0.051
392.000 0.046
393.000 0.047
394.000 0.053
395.000 0.060
396.000 0.061
397.000 0.056
398.000 0.052
399.000 0.052
400.000 0.051
401.000 0.047
402.000 0.050
403.000 0.049
404.000 0.045
405.000 0.047
406.000 0.050
407.000 0.053
408.000 0.055
409.000 0.051
410.000 0.052
411.000 0.053
412.000 0.053
413.000 0.056
414.000 0.056
415.000 0.051
416.000 0.045
417.000 0.049
418.000 0.052
419.000 0.050
420.000 0.047
421.000 0.048
422.000 0.049
423.000 0.047
424.000 0.047
425.000 0.050
426.000 0.053
427.000 0.050
428.000 0.050
429.000 0.053
430.000 0.053
431.000 0.050
432.000 0.051
433.000 0.051
434.000 0.048
435.000 0.051
436.000 0.052
437.000 0.052
438.000 0.053
439.000 0.051
440.000 0.051
441.000 0.052
442.000 0.052
443.000 0.053
444.000 0.053
445.000 0.051
446.000 0.051
447.000 0.052
448.000 0.052
449.000 0.052
450.000 0.052
451.000 0.052
452.000 0.052
453.000 0.053
454.000 0.054
455.000 0.053
456.000 0.052
457.000 0.052
458.000 0.053
459.000 0.054
460.000 0.055
461.000 0.055
462.000 0.053
463.000 0.051
464.000 0.053
465.000 0.055
466.000 0.056
467.000 0.056
468.000 0.055
469.000 0.054
470.000 0.053
471.000 0.054
472.000 0.053
473.000 0.054
474.000 0.054
475.000 0.055
476.000 0.055
477.000 0.055
478.000 0.055
479.000 0.053
480.000 0.052
481.000 0.055
482.000 0.057
483.000 0.055
484.000 0.055
485.000 0.057
486.000 0.056
487.000 0.056
488.000 0.056
489.000 0.056
490.000 0.057
491.000 0.057
492.000 0.055
493.000 0.055
494.000 0.057
495.000 0.058
496.000 0.058
497.000 0.059
498.000 0.058
499.000 0.058
500.000 0.057
501.000 0.060
502.000 0.061
503.000 0.062
504.000 0.062
505.000 0.063
506.000 0.064
507.000 0.066
508.000 0.068
509.000 0.068
510.000 0.068
511.000 0.070
512.000 0.074
513.000 0.077
514.000 0.079
515.000 0.080
516.000 0.081
517.000 0.082
518.000 0.085
519.000 0.090
520.000 0.092
521.000 0.094
522.000 0.097
523.000 0.101
524.000 0.105
525.000 0.108
526.000 0.109
527.000 0.113
528.000 0.117
529.000 0.118
530.000 0.120
531.000 0.122
532.000 0.125
533.000 0.126
534.000 0.128
535.000 0.131
536.000 0.132
537.000 0.133
538.000 0.133
539.000 0.133
540.000 0.135
541.000 0.136
542.000 0.138
543.000 0.138
544.000 0.137
545.000 0.137
546.000 0.137
547.000 0.137
548.000 0.138
549.000 0.139
550.000 0.140
551.000 0.140
552.000 0.140
553.000 0.140
554.000 0.140
555.000 0.139
556.000 0.139
557.000 0.138
558.000 0.138
559.000 0.136
560.000 0.136
561.000 0.135
562.000 0.132
563.000 0.131
564.000 0.130
565.000 0.128
566.000 0.126
567.000 0.124
568.000 0.122
569.000 0.120
570.000 0.119
571.000 0.117
572.000 0.115
573.000 0.115
574.000 0.114
575.000 0.113
576.000 0.109
577.000 0.106
578.000 0.105
579.000 0.105
580.000 0.105
581.000 0.105
582.000 0.103
583.000 0.100
584.000 0.100
585.000 0.100
586.000 0.100
587.000 0.097
588.000 0.097
589.000 0.098
590.000 0.097
591.000 0.095
592.000 0.094
593.000 0.093
594.000 0.095
595.000 0.094
596.000 0.094
597.000 0.095
598.000 0.092
599.000 0.091
600.000 0.090
601.000 0.092
602.000 0.092
603.000 0.091
604.000 0.090
605.000 0.090
606.000 0.091
607.000 0.090
608.000 0.087
609.000 0.088
610.000 0.089
611.000 0.089
612.000 0.087
613.000 0.086
614.000 0.085
615.000 0.085
616.000 0.085
617.000 0.084
618.000 0.083
619.000 0.081
620.000 0.082
621.000 0.082
622.000 0.082
623.000 0.085
624.000 0.085
625.000 0.083
626.000 0.083
627.000 0.082
628.000 0.083
629.000 0.084
630.000 0.082
631.000 0.083
632.000 0.083
633.000 0.080
634.000 0.079
635.000 0.080
636.000 0.081
637.000 0.078
638.000 0.078
639.000 0.079
640.000 0.078
641.000 0.075
642.000 0.075
643.000 0.076
644.000 0.075
645.000 0.073
646.000 0.072
647.000 0.071
648.000 0.073
649.000 0.074
650.000 0.073
651.000 0.072
652.000 0.075
653.000 0.073
654.000 0.070
655.000 0.070
656.000 0.073
657.000 0.073
658.000 0.072
659.000 0.071
660.000 0.071
661.000 0.073
662.000 0.072
663.000 0.068
664.000 0.070
665.000 0.071
666.000 0.069
667.000 0.069
668.000 0.071
669.000 0.073
670.000 0.069
671.000 0.071
672.000 0.073
673.000 0.075
674.000 0.074
675.000 0.073
676.000 0.075
677.000 0.078
678.000 0.080
679.000 0.080
680.000 0.079
681.000 0.083
682.000 0.082
683.000 0.082
684.000 0.083
685.000 0.087
686.000 0.090
687.000 0.091
688.000 0.090
689.000 0.093
690.000 0.097
691.000 0.101
692.000 0.104
693.000 0.108
694.000 0.116
695.000 0.125
696.000 0.132
697.000 0.140
698.000 0.149
699.000 0.157
700.000 0.166
701.000 0.176
702.000 0.188
703.000 0.199
704.000 0.210
705.000 0.221
706.000 0.231
707.000 0.240
708.000 0.251
709.000 0.262
710.000 0.273
711.000 0.282
712.000 0.292
713.000 0.302
714.000 0.312
715.000 0.322
716.000 0.331
717.000 0.339
718.000 0.349
719.000 0.361
720.000 0.372
721.000 0.381
722.000 0.391
723.000 0.400
724.000 0.409
725.000 0.417
726.000 0.425
727.000 0.434
728.000 0.443
729.000 0.450
730.000 0.455
731.000 0.463
732.000 0.471
733.000 0.478
734.000 0.485
735.000 0.489
736.000 0.493
737.000 0.498
738.000 0.504
739.000 0.508
740.000 0.511
741.000 0.515
742.000 0.519
743.000 0.523
744.000 0.526
745.000 0.530
746.000 0.532
747.000 0.535
748.000 0.536
749.000 0.538
750.000 0.540
751.000 0.542
752.000 0.544
753.000 0.546
754.000 0.548
755.000 0.549
756.000 0.550
757.000 0.551
758.000 0.552
759.000 0.552
760.000 0.550
761.000 0.548
762.000 0.550
763.000 0.551
764.000 0.552
765.000 0.554
766.000 0.557
767.000 0.558
768.000 0.560
769.000 0.561
770.000 0.561
771.000 0.562
772.000 0.563
773.000 0.564
774.000 0.564
775.000 0.565
776.000 0.566
777.000 0.567
778.000 0.567
779.000 0.567
780.000 0.567
781.000 0.568
782.000 0.568
783.000 0.569
784.000 0.570
785.000 0.570
786.000 0.570
787.000 0.570
788.000 0.570
789.000 0.570
790.000 0.570
791.000 0.570
792.000 0.572
793.000 0.573
794.000 0.573
795.000 0.574
796.000 0.574
797.000 0.574
798.000 0.574
799.000 0.574
800.000 0.575
801.000 0.575
802.000 0.575
803.000 0.576
804.000 0.576
805.000 0.578
806.000 0.578
807.000 0.579
808.000 0.579
809.000 0.579
810.000 0.579
811.000 0.578
812.000 0.578
813.000 0.577
814.000 0.576
815.000 0.575
816.000 0.575
817.000 0.575
818.000 0.576
819.000 0.577
820.000 0.580
821.000 0.580
822.000 0.580
823.000 0.579
824.000 0.580
825.000 0.582
826.000 0.584
827.000 0.584
828.000 0.585
829.000 0.584
830.000 0.584
831.000 0.586
832.000 0.586
833.000 0.587
834.000 0.588
835.000 0.589
836.000 0.590
837.000 0.591
838.000 0.592
839.000 0.592
840.000 0.593
841.000 0.594
842.000 0.595
843.000 0.595
844.000 0.596
845.000 0.597
846.000 0.597
847.000 0.597
848.000 0.597
849.000 0.598
850.000 0.599
851.000 0.599
852.000 0.599
853.000 0.600
854.000 0.600
855.000 0.600
856.000 0.601
857.000 0.602
858.000 0.602
859.000 0.602
860.000 0.602
861.000 0.603
862.000 0.604
863.000 0.604
864.000 0.604
865.000 0.604
866.000 0.604
867.000 0.604
868.000 0.605
869.000 0.606
870.000 0.606
871.000 0.607
872.000 0.607
873.000 0.607
874.000 0.607
875.000 0.608
876.000 0.608
877.000 0.609
878.000 0.609
879.000 0.609
880.000 0.609
881.000 0.610
882.000 0.610
883.000 0.610
884.000 0.611
885.000 0.611
886.000 0.612
887.000 0.612
888.000 0.612
889.000 0.612
890.000 0.612
891.000 0.612
892.000 0.612
893.000 0.612
894.000 0.611
895.000 0.610
896.000 0.609
897.000 0.608
898.000 0.607
899.000 0.607
900.000 0.607
901.000 0.608
902.000 0.609
903.000 0.610
904.000 0.611
905.000 0.611
906.000 0.611
907.000 0.611
908.000 0.610
909.000 0.608
910.000 0.608
911.000 0.608
912.000 0.608
913.000 0.609
914.000 0.609
915.000 0.609
916.000 0.610
917.000 0.610
918.000 0.611
919.000 0.613
920.000 0.614
921.000 0.616
922.000 0.615
923.000 0.613
924.000 0.615
925.000 0.616
926.000 0.615
927.000 0.611
928.000 0.610
929.000 0.609
930.000 0.610
931.000 0.607
932.000 0.600
933.000 0.591
934.000 0.586
935.000 0.588
936.000 0.587
937.000 0.590
938.000 0.590
939.000 0.585
940.000 0.581
941.000 0.591
942.000 0.599
943.000 0.596
944.000 0.588
945.000 0.591
946.000 0.596
947.000 0.595
948.000 0.595
949.000 0.598
950.000 0.597
951.000 0.592
952.000 0.599
953.000 0.606
954.000 0.601
955.000 0.590
956.000 0.594
957.000 0.602
958.000 0.605
959.000 0.601
960.000 0.604
961.000 0.602
962.000 0.599
963.000 0.599
964.000 0.606
965.000 0.608
966.000 0.608
967.000 0.611
968.000 0.613
969.000 0.612
970.000 0.613
971.000 0.616
972.000 0.615
973.000 0.611
974.000 0.609
975.000 0.611
976.000 0.614
977.000 0.617
978.000 0.617
979.000 0.616
980.000 0.616
981.000 0.616
982.000 0.617
983.000 0.619
984.000 0.623
985.000 0.622
986.000 0.624
987.000 0.629
988.000 0.631
989.000 0.628
990.000 0.627
991.000 0.630
992.000 0.629
993.000 0.630
994.000 0.631
995.000 0.633
996.000 0.634
997.000 0.629
998.000 0.630
999.000 0.634
1000.000 0.633
1001.000 0.634
1002.000 0.635
1003.000 0.638
1004.000 0.638
1005.000 0.640
1006.000 0.640
1007.000 0.639
1008.000 0.638
1009.000 0.638
1010.000 0.639
1011.000 0.639
1012.000 0.639
1013.000 0.639
1014.000 0.638
1015.000 0.638
1016.000 0.639
1017.000 0.639
1018.000 0.640
1019.000 0.641
1020.000 0.642
1021.000 0.643
1022.000 0.644
1023.000 0.646
1024.000 0.647
1025.000 0.648
1026.000 0.649
1027.000 0.649
1028.000 0.649
1029.000 0.649
1030.000 0.650
1031.000 0.650
1032.000 0.651
1033.000 0.653
1034.000 0.654
1035.000 0.655
1036.000 0.655
1037.000 0.656
1038.000 0.656
1039.000 0.656
1040.000 0.656
1041.000 0.655
1042.000 0.655
1043.000 0.656
1044.000 0.656
1045.000 0.658
1046.000 0.660
1047.000 0.661
1048.000 0.662
1049.000 0.664
1050.000 0.663
1051.000 0.663
1052.000 0.663
1053.000 0.662
1054.000 0.661
1055.000 0.661
1056.000 0.662
1057.000 0.662
1058.000 0.661
1059.000 0.660
1060.000 0.660
1061.000 0.659
1062.000 0.659
1063.000 0.659
1064.000 0.660
1065.000 0.662
1066.000 0.663
1067.000 0.666
1068.000 0.667
1069.000 0.666
1070.000 0.666
1071.000 0.665
1072.000 0.664
1073.000 0.664
1074.000 0.664
1075.000 0.664
1076.000 0.664
1077.000 0.664
1078.000 0.664
1079.000 0.664
1080.000 0.663
1081.000 0.663
1082.000 0.663
1083.000 0.663
1084.000 0.663
1085.000 0.662
1086.000 0.662
1087.000 0.661
1088.000 0.661
1089.000 0.661
1090.000 0.663
1091.000 0.663
1092.000 0.664
1093.000 0.664
1094.000 0.664
1095.000 0.661
1096.000 0.661
1097.000 0.661
1098.000 0.659
1099.000 0.659
1100.000 0.658
1101.000 0.656
1102.000 0.656
1103.000 0.657
1104.000 0.657
1105.000 0.657
1106.000 0.657
1107.000 0.655
1108.000 0.652
1109.000 0.648
1110.000 0.645
1111.000 0.642
1112.000 0.640
1113.000 0.638
1114.000 0.639
1115.000 0.640
1116.000 0.639
1117.000 0.635
1118.000 0.632
1119.000 0.624
1120.000 0.613
1121.000 0.606
1122.000 0.597
1123.000 0.593
1124.000 0.600
1125.000 0.601
1126.000 0.602
1127.000 0.602
1128.000 0.601
1129.000 0.600
1130.000 0.595
1131.000 0.597
1132.000 0.598
1133.000 0.594
1134.000 0.600
1135.000 0.605
1136.000 0.606
1137.000 0.614
1138.000 0.614
1139.000 0.614
1140.000 0.612
1141.000 0.610
1142.000 0.605
1143.000 0.597
1144.000 0.595
1145.000 0.592
1146.000 0.594
1147.000 0.603
1148.000 0.610
1149.000 0.616
1150.000 0.612
1151.000 0.606
1152.000 0.603
1153.000 0.602
1154.000 0.605
1155.000 0.608
1156.000 0.611
1157.000 0.611
1158.000 0.608
1159.000 0.609
1160.000 0.611
1161.000 0.612
1162.000 0.615
1163.000 0.617
1164.000 0.616
1165.000 0.618
1166.000 0.620
1167.000 0.621
1168.000 0.624
1169.000 0.625
1170.000 0.624
1171.000 0.624
1172.000 0.624
1173.000 0.623
1174.000 0.624
1175.000 0.625
1176.000 0.626
1177.000 0.627
1178.000 0.627
1179.000 0.628
1180.000 0.628
1181.000 0.627
1182.000 0.627
1183.000 0.626
1184.000 0.625
1185.000 0.625
1186.000 0.624
1187.000 0.626
1188.000 0.627
1189.000 0.628
1190.000 0.629
1191.000 0.629
1192.000 0.628
1193.000 0.627
1194.000 0.626
1195.000 0.626
1196.000 0.626
1197.000 0.626
1198.000 0.629
1199.000 0.629
1200.000 0.631
1201.000 0.631
1202.000 0.630
1203.000 0.630
1204.000 0.630
1205.000 0.630
1206.000 0.629
1207.000 0.629
1208.000 0.630
1209.000 0.631
1210.000 0.632
1211.000 0.633
1212.000 0.633
1213.000 0.632
1214.000 0.632
1215.000 0.634
1216.000 0.635
1217.000 0.636
1218.000 0.636
1219.000 0.637
1220.000 0.638
1221.000 0.638
1222.000 0.639
1223.000 0.640
1224.000 0.641
1225.000 0.641
1226.000 0.643
1227.000 0.643
1228.000 0.644
1229.000 0.646
1230.000 0.647
1231.000 0.647
1232.000 0.647
1233.000 0.647
1234.000 0.647
1235.000 0.648
1236.000 0.648
1237.000 0.649
1238.000 0.652
1239.000 0.653
1240.000 0.653
1241.000 0.653
1242.000 0.652
1243.000 0.653
1244.000 0.653
1245.000 0.654
1246.000 0.654
1247.000 0.654
1248.000 0.654
1249.000 0.653
1250.000 0.653
1251.000 0.654
1252.000 0.655
1253.000 0.656
1254.000 0.656
1255.000 0.655
1256.000 0.655
1257.000 0.654
1258.000 0.655
1259.000 0.654
1260.000 0.655
1261.000 0.656
1262.000 0.657
1263.000 0.660
1264.000 0.660
1265.000 0.658
1266.000 0.658
1267.000 0.657
1268.000 0.657
1269.000 0.659
1270.000 0.660
1271.000 0.661
1272.000 0.661
1273.000 0.661
1274.000 0.660
1275.000 0.661
1276.000 0.661
1277.000 0.661
1278.000 0.661
1279.000 0.662
1280.000 0.662
1281.000 0.662
1282.000 0.662
1283.000 0.662
1284.000 0.660
1285.000 0.660
1286.000 0.660
1287.000 0.660
1288.000 0.660
1289.000 0.660
1290.000 0.659
1291.000 0.658
1292.000 0.657
1293.000 0.656
1294.000 0.656
1295.000 0.656
1296.000 0.656
1297.000 0.656
1298.000 0.655
1299.000 0.655
1300.000 0.654
1301.000 0.652
1302.000 0.650
1303.000 0.648
1304.000 0.647
1305.000 0.644
1306.000 0.642
1307.000 0.640
1308.000 0.639
1309.000 0.638
1310.000 0.637
1311.000 0.637
1312.000 0.635
1313.000 0.633
1314.000 0.632
1315.000 0.630
1316.000 0.628
1317.000 0.627
1318.000 0.625
1319.000 0.621
1320.000 0.617
1321.000 0.614
1322.000 0.610
1323.000 0.609
1324.000 0.609
1325.000 0.608
1326.000 0.605
1327.000 0.603
1328.000 0.601
1329.000 0.599
1330.000 0.598
1331.000 0.598
1332.000 0.589
1333.000 0.584
1334.000 0.578
1335.000 0.573
1336.000 0.575
1337.000 0.575
1338.000 0.576
1339.000 0.575
1340.000 0.573
1341.000 0.571
1342.000 0.563
1343.000 0.559
1344.000 0.557
1345.000 0.554
1346.000 0.553
1347.000 0.551
1348.000 0.549
1349.000 0.544
1350.000 0.537
1351.000 0.547
1352.000 0.524
1353.000 0.468
1354.000 0.469
1355.000 0.394
1356.000 0.332
1357.000 0.306
1358.000 0.334
1359.000 0.448
1360.000 0.341
1361.000 0.378
1362.000 0.384
1363.000 0.407
1364.000 0.366
1365.000 0.258
1366.000 0.312
1367.000 0.413
1368.000 0.541
1369.000 0.584
1370.000 0.655
1371.000 0.710
1372.000 0.575
1373.000 0.485
1374.000 0.419
1375.000 0.355
1376.000 0.323
1377.000 0.537
1378.000 0.396
1379.000 0.464
1380.000 0.414
1381.000 0.506
1382.000 0.228
1383.000 0.817
1384.000 0.684
1385.000 0.641
1386.000 0.464
1387.000 0.416
1388.000 0.415
1389.000 0.392
1390.000 0.263
1391.000 0.258
1392.000 0.354
1393.000 0.340
1394.000 0.307
1395.000 0.275
1396.000 0.255
1397.000 0.295
1398.000 0.177
1399.000 0.189
1400.000 0.255
1401.000 0.279
1402.000 0.345
1403.000 0.435
1404.000 0.311
1405.000 0.318
1406.000 0.489
1407.000 0.414
1408.000 0.325
1409.000 0.290
1410.000 0.247
1411.000 0.263
1412.000 0.303
1413.000 0.274
1414.000 0.356
1415.000 0.472
1416.000 0.483
1417.000 0.456
1418.000 0.393
1419.000 0.288
1420.000 0.254
1421.000 0.379
1422.000 0.383
1423.000 0.381
1424.000 0.358
1425.000 0.499
1426.000 0.396
1427.000 0.364
1428.000 0.364
1429.000 0.452
1430.000 0.360
1431.000 0.313
1432.000 0.272
1433.000 0.310
1434.000 0.255
1435.000 0.175
1436.000 0.185
1437.000 0.229
1438.000 0.262
1439.000 0.331
1440.000 0.381
1441.000 0.469
1442.000 0.493
1443.000 0.514
1444.000 0.379
1445.000 0.412
1446.000 0.339
1447.000 0.337
1448.000 0.319
1449.000 0.207
1450.000 0.221
1451.000 0.210
1452.000 0.243
1453.000 0.210
1454.000 0.209
1455.000 0.197
1456.000 0.159
1457.000 0.152
1458.000 0.163
1459.000 0.161
1460.000 0.210
1461.000 0.218
1462.000 0.210
1463.000 0.213
1464.000 0.189
1465.000 0.225
1466.000 0.271
1467.000 0.237
1468.000 0.241
1469.000 0.232
1470.000 0.199
1471.000 0.192
1472.000 0.188
1473.000 0.191
1474.000 0.210
1475.000 0.220
1476.000 0.274
1477.000 0.287
1478.000 0.267
1479.000 0.260
1480.000 0.231
1481.000 0.213
1482.000 0.186
1483.000 0.171
1484.000 0.182
1485.000 0.188
1486.000 0.199
1487.000 0.205
1488.000 0.208
1489.000 0.211
1490.000 0.210
1491.000 0.212
1492.000 0.212
1493.000 0.215
1494.000 0.218
1495.000 0.223
1496.000 0.230
1497.000 0.236
1498.000 0.242
1499.000 0.249
1500.000 0.247
1501.000 0.247
1502.000 0.249
1503.000 0.248
1504.000 0.250
1505.000 0.253
1506.000 0.252
1507.000 0.247
1508.000 0.247
1509.000 0.244
1510.000 0.248
1511.000 0.254
1512.000 0.258
1513.000 0.265
1514.000 0.267
1515.000 0.264
1516.000 0.267
1517.000 0.270
1518.000 0.276
1519.000 0.288
1520.000 0.293
1521.000 0.295
1522.000 0.297
1523.000 0.294
1524.000 0.294
1525.000 0.296
1526.000 0.297
1527.000 0.296
1528.000 0.297
1529.000 0.298
1530.000 0.302
1531.000 0.310
1532.000 0.313
1533.000 0.314
1534.000 0.315
1535.000 0.311
1536.000 0.313
1537.000 0.320
1538.000 0.324
1539.000 0.330
1540.000 0.333
1541.000 0.333
1542.000 0.334
1543.000 0.337
1544.000 0.336
1545.000 0.332
1546.000 0.333
1547.000 0.335
1548.000 0.336
1549.000 0.342
1550.000 0.344
1551.000 0.343
1552.000 0.344
1553.000 0.345
1554.000 0.346
1555.000 0.347
1556.000 0.348
1557.000 0.350
1558.000 0.352
1559.000 0.356
1560.000 0.359
1561.000 0.363
1562.000 0.365
1563.000 0.366
1564.000 0.368
1565.000 0.371
1566.000 0.373
1567.000 0.376
1568.000 0.378
1569.000 0.377
1570.000 0.378
1571.000 0.379
1572.000 0.380
1573.000 0.382
1574.000 0.383
1575.000 0.383
1576.000 0.386
1577.000 0.393
1578.000 0.396
1579.000 0.403
1580.000 0.407
1581.000 0.404
1582.000 0.404
1583.000 0.404
1584.000 0.405
1585.000 0.405
1586.000 0.408
1587.000 0.412
1588.000 0.414
1589.000 0.419
1590.000 0.422
1591.000 0.421
1592.000 0.421
1593.000 0.421
1594.000 0.422
1595.000 0.422
1596.000 0.423
1597.000 0.424
1598.000 0.426
1599.000 0.433
1600.000 0.434
1601.000 0.431
1602.000 0.431
1603.000 0.428
1604.000 0.428
1605.000 0.431
1606.000 0.435
1607.000 0.441
1608.000 0.443
1609.000 0.445
1610.000 0.445
1611.000 0.442
1612.000 0.443
1613.000 0.441
1614.000 0.442
1615.000 0.443
1616.000 0.446
1617.000 0.450
1618.000 0.452
1619.000 0.450
1620.000 0.450
1621.000 0.451
1622.000 0.452
1623.000 0.457
1624.000 0.459
1625.000 0.460
1626.000 0.461
1627.000 0.461
1628.000 0.461
1629.000 0.465
1630.000 0.467
1631.000 0.470
1632.000 0.470
1633.000 0.468
1634.000 0.467
1635.000 0.468
1636.000 0.468
1637.000 0.469
1638.000 0.468
1639.000 0.462
1640.000 0.460
1641.000 0.459
1642.000 0.460
1643.000 0.466
1644.000 0.469
1645.000 0.470
1646.000 0.472
1647.000 0.472
1648.000 0.472
1649.000 0.471
1650.000 0.469
1651.000 0.468
1652.000 0.468
1653.000 0.471
1654.000 0.472
1655.000 0.475
1656.000 0.477
1657.000 0.476
1658.000 0.476
1659.000 0.477
1660.000 0.476
1661.000 0.472
1662.000 0.471
1663.000 0.471
1664.000 0.470
1665.000 0.469
1666.000 0.471
1667.000 0.477
1668.000 0.480
1669.000 0.485
1670.000 0.487
1671.000 0.482
1672.000 0.481
1673.000 0.482
1674.000 0.481
1675.000 0.480
1676.000 0.479
1677.000 0.476
1678.000 0.475
1679.000 0.476
1680.000 0.477
1681.000 0.478
1682.000 0.479
1683.000 0.476
1684.000 0.476
1685.000 0.474
1686.000 0.474
1687.000 0.479
1688.000 0.481
1689.000 0.481
1690.000 0.481
1691.000 0.479
1692.000 0.479
1693.000 0.479
1694.000 0.480
1695.000 0.482
1696.000 0.482
1697.000 0.481
1698.000 0.479
1699.000 0.475
1700.000 0.472
1701.000 0.471
1702.000 0.471
1703.000 0.470
1704.000 0.469
1705.000 0.467
1706.000 0.465
1707.000 0.459
1708.000 0.458
1709.000 0.463
1710.000 0.463
1711.000 0.461
1712.000 0.464
1713.000 0.461
1714.000 0.468
1715.000 0.474
1716.000 0.475
1717.000 0.479
1718.000 0.480
1719.000 0.476
1720.000 0.468
1721.000 0.463
1722.000 0.454
1723.000 0.446
1724.000 0.447
1725.000 0.445
1726.000 0.445
1727.000 0.445
1728.000 0.446
1729.000 0.450
1730.000 0.451
1731.000 0.456
1732.000 0.459
1733.000 0.455
1734.000 0.453
1735.000 0.454
1736.000 0.454
1737.000 0.451
1738.000 0.449
1739.000 0.446
1740.000 0.438
1741.000 0.433
1742.000 0.432
1743.000 0.433
1744.000 0.438
1745.000 0.441
1746.000 0.442
1747.000 0.442
1748.000 0.438
1749.000 0.434
1750.000 0.431
1751.000 0.431
1752.000 0.436
1753.000 0.434
1754.000 0.431
1755.000 0.430
1756.000 0.423
1757.000 0.424
1758.000 0.439
1759.000 0.444
1760.000 0.438
1761.000 0.434
1762.000 0.433
1763.000 0.427
1764.000 0.419
1765.000 0.410
1766.000 0.403
1767.000 0.398
1768.000 0.407
1769.000 0.416
1770.000 0.426
1771.000 0.423
1772.000 0.402
1773.000 0.384
1774.000 0.383
1775.000 0.365
1776.000 0.350
1777.000 0.356
1778.000 0.362
1779.000 0.376
1780.000 0.401
1781.000 0.418
1782.000 0.414
1783.000 0.414
1784.000 0.430
1785.000 0.408
1786.000 0.411
1787.000 0.402
1788.000 0.400
1789.000 0.420
1790.000 0.417
1791.000 0.386
1792.000 0.383
1793.000 0.444
1794.000 0.501
1795.000 0.529
1796.000 0.521
1797.000 0.588
1798.000 0.561
1799.000 0.586
1800.000 0.558
1801.000 0.332
1802.000 0.369
1803.000 0.478
1804.000 0.754
1805.000 0.504
1806.000 0.452
1807.000 0.411
1808.000 0.422
1809.000 0.490
1810.000 0.535
1811.000 0.531
1812.000 0.300
1813.000 0.321
1814.000 0.335
1815.000 0.421
1816.000 0.461
1817.000 0.515
1818.000 0.554
1819.000 0.605
1820.000 0.690
1821.000 0.667
1822.000 0.597
1823.000 0.598
1824.000 0.657
1825.000 0.609
1826.000 0.607
1827.000 0.645
1828.000 0.583
1829.000 0.550
1830.000 0.597
1831.000 0.710
1832.000 0.655
1833.000 0.600
1834.000 0.675
1835.000 0.488
1836.000 0.492
1837.000 0.498
1838.000 0.518
1839.000 0.616
1840.000 0.661
1841.000 0.710
1842.000 0.464
1843.000 0.548
1844.000 0.618
1845.000 0.653
1846.000 0.448
1847.000 0.537
1848.000 0.349
1849.000 0.306
1850.000 0.266
1851.000 0.282
1852.000 0.469
1853.000 0.526
1854.000 0.575
1855.000 0.439
1856.000 0.633
1857.000 0.503
1858.000 0.600
1859.000 0.545
1860.000 0.585
1861.000 0.435
1862.000 0.432
1863.000 0.432
1864.000 0.479
1865.000 0.268
1866.000 0.341
1867.000 0.498
1868.000 0.531
1869.000 0.572
1870.000 0.648
1871.000 0.587
1872.000 0.429
1873.000 0.333
1874.000 0.473
1875.000 0.642
1876.000 0.555
1877.000 0.454
1878.000 0.392
1879.000 0.153
1880.000 0.155
1881.000 0.269
1882.000 0.332
1883.000 0.407
1884.000 0.365
1885.000 0.282
1886.000 0.824
1887.000 0.705
1888.000 0.179
1889.000 0.499
1890.000 0.443
1891.000 0.570
1892.000 0.649
1893.000 0.384
1894.000 0.195
1895.000 0.282
1896.000 0.321
1897.000 0.436
1898.000 0.425
1899.000 0.376
1900.000 0.494
1901.000 0.380
1902.000 0.505
1903.000 0.637
1904.000 0.750
1905.000 0.670
1906.000 0.545
1907.000 0.615
1908.000 0.337
1909.000 0.655
1910.000 0.408
1911.000 0.182
1912.000 0.305
1913.000 0.491
1914.000 0.467
1915.000 0.550
1916.000 0.438
1917.000 0.449
1918.000 0.819
1919.000 0.610
1920.000 0.638
1921.000 0.556
1922.000 0.230
1923.000 0.317
1924.000 0.147
1925.000 0.176
1926.000 0.205
1927.000 0.239
1928.000 0.239
1929.000 0.235
1930.000 0.270
1931.000 0.394
1932.000 0.538
1933.000 0.462
1934.000 0.752
1935.000 0.790
1936.000 0.768
1937.000 0.715
1938.000 0.702
1939.000 0.566
1940.000 0.432
1941.000 0.270
1942.000 0.273
1943.000 0.186
1944.000 0.101
1945.000 0.323
1946.000 0.267
1947.000 0.170
1948.000 0.170
1949.000 0.182
1950.000 0.193
1951.000 0.184
1952.000 0.284
1953.000 0.325
1954.000 0.400
1955.000 0.525
1956.000 0.563
1957.000 0.555
1958.000 0.658
1959.000 0.700
1960.000 0.599
1961.000 0.506
1962.000 0.423
1963.000 0.364
1964.000 0.333
1965.000 0.318
1966.000 0.243
1967.000 0.304
1968.000 0.420
1969.000 0.411
1970.000 0.413
1971.000 0.369
1972.000 0.387
1973.000 0.416
1974.000 0.491
1975.000 0.341
1976.000 0.395
1977.000 0.396
1978.000 0.296
1979.000 0.400
1980.000 0.359
1981.000 0.500
1982.000 0.533
1983.000 0.505
1984.000 0.484
1985.000 0.263
1986.000 0.215
1987.000 0.252
1988.000 0.293
1989.000 0.207
1990.000 0.340
1991.000 0.276
1992.000 0.278
1993.000 0.340
1994.000 0.395
1995.000 0.517
1996.000 0.501
1997.000 0.499
1998.000 0.469
1999.000 0.486
2000.000 0.681
2001.000 0.537
2002.000 0.335
2003.000 0.471
2004.000 0.592
2005.000 0.415
2006.000 0.625
2007.000 0.574
2008.000 0.501
2009.000 0.557
2010.000 0.280
2011.000 0.380
2012.000 0.521
2013.000 0.553
2014.000 0.526
2015.000 0.425
2016.000 0.355
2017.000 0.352
2018.000 0.321
2019.000 0.289
2020.000 0.398
2021.000 0.379
2022.000 0.287
2023.000 0.523
2024.000 0.575
2025.000 0.388
2026.000 0.199
2027.000 0.545
2028.000 0.404
2029.000 0.330
2030.000 0.202
2031.000 0.194
2032.000 0.239
2033.000 0.264
2034.000 0.337
2035.000 0.387
2036.000 0.324
2037.000 0.237
2038.000 0.207
2039.000 0.161
2040.000 0.144
2041.000 0.192
2042.000 0.200
2043.000 0.182
2044.000 0.206
2045.000 0.217
2046.000 0.229
2047.000 0.246
2048.000 0.257
2049.000 0.267
2050.000 0.265
2051.000 0.273
2052.000 0.288
2053.000 0.294
2054.000 0.293
2055.000 0.256
2056.000 0.228
2057.000 0.230
2058.000 0.259
2059.000 0.291
2060.000 0.462
2061.000 0.487
2062.000 0.605
2063.000 0.464
2064.000 0.698
2065.000 0.617
2066.000 0.416
2067.000 0.275
2068.000 0.239
2069.000 0.242
2070.000 0.270
2071.000 0.314
2072.000 0.357
2073.000 0.372
2074.000 0.382
2075.000 0.348
2076.000 0.354
2077.000 0.333
2078.000 0.324
2079.000 0.324
2080.000 0.303
2081.000 0.311
2082.000 0.273
2083.000 0.249
2084.000 0.255
2085.000 0.210
2086.000 0.231
2087.000 0.238
2088.000 0.210
2089.000 0.220
2090.000 0.288
2091.000 0.341
2092.000 0.500
2093.000 0.491
2094.000 0.459
2095.000 0.520
2096.000 0.412
2097.000 0.387
2098.000 0.376
2099.000 0.382
2100.000 0.362
2101.000 0.305
2102.000 0.280
2103.000 0.291
2104.000 0.292
2105.000 0.327
2106.000 0.324
2107.000 0.300
2108.000 0.290
2109.000 0.277
2110.000 0.267
2111.000 0.243
2112.000 0.236
2113.000 0.224
2114.000 0.221
2115.000 0.214
2116.000 0.217
2117.000 0.236
2118.000 0.251
2119.000 0.254
2120.000 0.259
2121.000 0.285
2122.000 0.272
2123.000 0.284
2124.000 0.329
2125.000 0.332
2126.000 0.317
2127.000 0.302
2128.000 0.258
2129.000 0.250
2130.000 0.267
2131.000 0.259
2132.000 0.247
2133.000 0.247
2134.000 0.239
2135.000 0.233
2136.000 0.227
2137.000 0.244
2138.000 0.293
2139.000 0.282
2140.000 0.276
2141.000 0.269
2142.000 0.266
2143.000 0.250
2144.000 0.246
2145.000 0.247
2146.000 0.246
2147.000 0.255
2148.000 0.244
2149.000 0.212
2150.000 0.212
2151.000 0.254
2152.000 0.311
2153.000 0.294
2154.000 0.309
2155.000 0.287
2156.000 0.255
2157.000 0.244
2158.000 0.244
2159.000 0.218
2160.000 0.215
2161.000 0.219
2162.000 0.225
2163.000 0.257
2164.000 0.278
2165.000 0.288
2166.000 0.285
2167.000 0.280
2168.000 0.257
2169.000 0.249
2170.000 0.265
2171.000 0.242
2172.000 0.264
2173.000 0.260
2174.000 0.244
2175.000 0.235
2176.000 0.216
2177.000 0.204
2178.000 0.197
2179.000 0.216
2180.000 0.219
2181.000 0.259
2182.000 0.242
2183.000 0.269
2184.000 0.295
2185.000 0.330
2186.000 0.341
2187.000 0.362
2188.000 0.338
2189.000 0.266
2190.000 0.268
2191.000 0.238
2192.000 0.257
2193.000 0.268
2194.000 0.289
2195.000 0.293
2196.000 0.275
2197.000 0.300
2198.000 0.309
2199.000 0.344
2200.000 0.345
2201.000 0.337
2202.000 0.286
2203.000 0.334
2204.000 0.305
2205.000 0.275
2206.000 0.252
2207.000 0.246
2208.000 0.235
2209.000 0.209
2210.000 0.210
2211.000 0.217
2212.000 0.232
2213.000 0.240
2214.000 0.237
2215.000 0.242
2216.000 0.253
2217.000 0.250
2218.000 0.242
2219.000 0.247
2220.000 0.242
2221.000 0.246
2222.000 0.270
2223.000 0.277
2224.000 0.277
2225.000 0.273
2226.000 0.257
2227.000 0.254
2228.000 0.253
2229.000 0.252
2230.000 0.279
2231.000 0.295
2232.000 0.311
2233.000 0.318
2234.000 0.295
2235.000 0.288
2236.000 0.252
2237.000 0.241
2238.000 0.235
2239.000 0.228
2240.000 0.226
2241.000 0.257
2242.000 0.264
2243.000 0.237
2244.000 0.247
2245.000 0.278
2246.000 0.292
2247.000 0.312
2248.000 0.303
2249.000 0.252
2250.000 0.240
2251.000 0.229
2252.000 0.229
2253.000 0.274
2254.000 0.285
2255.000 0.277
2256.000 0.266
2257.000 0.240
2258.000 0.196
2259.000 0.215
2260.000 0.222
2261.000 0.230
2262.000 0.249
2263.000 0.239
2264.000 0.325
2265.000 0.307
2266.000 0.250
2267.000 0.279
2268.000 0.262
2269.000 0.292
2270.000 0.277
2271.000 0.306
2272.000 0.269
2273.000 0.286
2274.000 0.236
2275.000 0.233
2276.000 0.251
2277.000 0.289
2278.000 0.261
2279.000 0.240
2280.000 0.232
2281.000 0.201
2282.000 0.203
2283.000 0.203
2284.000 0.189
2285.000 0.196
2286.000 0.236
2287.000 0.269
2288.000 0.317
2289.000 0.336
2290.000 0.428
2291.000 0.345
2292.000 0.335
2293.000 0.290
2294.000 0.254
2295.000 0.235
2296.000 0.250
2297.000 0.255
2298.000 0.251
2299.000 0.276
2300.000 0.248
2301.000 0.234
2302.000 0.304
2303.000 0.263
2304.000 0.377
2305.000 0.386
2306.000 0.428
2307.000 0.576
2308.000 0.484
2309.000 0.454
2310.000 0.458
2311.000 0.371
2312.000 0.316
2313.000 0.326
2314.000 0.318
2315.000 0.368
2316.000 0.359
2317.000 0.310
2318.000 0.294
2319.000 0.283
2320.000 0.414
2321.000 0.268
2322.000 0.131
2323.000 0.606
2324.000 0.527
2325.000 0.460
2326.000 0.454
2327.000 0.668
2328.000 0.359
2329.000 0.338
2330.000 0.290
2331.000 0.232
2332.000 0.199
2333.000 0.252
2334.000 0.293
2335.000 0.431
2336.000 0.462
2337.000 0.245
2338.000 0.297
2339.000 0.433
2340.000 0.424
2341.000 0.625
2342.000 0.466
2343.000 0.448
2344.000 0.435
2345.000 0.566
2346.000 0.453
2347.000 0.286
2348.000 0.306
2349.000 0.373
2350.000 0.503
2351.000 0.134
2352.000 0.176
2353.000 0.546
2354.000 0.425
2355.000 0.302
2356.000 0.171
2357.000 0.182
2358.000 0.291
2359.000 0.343
2360.000 0.315
2361.000 0.506
2362.000 0.547
2363.000 0.488
2364.000 0.430
2365.000 0.372
2366.000 0.257
2367.000 0.204
2368.000 0.358
2369.000 0.545
2370.000 0.398
2371.000 0.227
2372.000 0.278
2373.000 0.356
2374.000 0.433
2375.000 0.227
2376.000 0.334
2377.000 0.369
2378.000 0.407
2379.000 0.545
2380.000 0.386
2381.000 0.547
2382.000 0.522
2383.000 0.206
2384.000 0.244
2385.000 0.214
2386.000 0.248
2387.000 0.332
2388.000 0.243
2389.000 0.226
2390.000 0.301
2391.000 0.676
2392.000 0.361
2393.000 0.451
2394.000 0.306
2395.000 0.364
2396.000 0.198
2397.000 0.223
2398.000 0.232
2399.000 0.369
2400.000 0.422
2401.000 0.562
2402.000 0.575
2403.000 0.550
2404.000 0.297
2405.000 0.233
2406.000 0.311
2407.000 0.144
2408.000 0.350
2409.000 0.307
2410.000 0.230
2411.000 0.308
2412.000 0.543
2413.000 0.478
2414.000 0.581
2415.000 0.535
2416.000 0.118
2417.000 0.567
2418.000 0.209
2419.000 0.275
2420.000 0.338
2421.000 0.584
2422.000 0.557
2423.000 0.388
2424.000 0.428
2425.000 0.395
2426.000 0.370
2427.000 0.383
2428.000 0.484
2429.000 0.400
2430.000 0.417
2431.000 0.492
2432.000 0.538
2433.000 0.441
2434.000 0.311
2435.000 0.254
2436.000 0.291
2437.000 0.392
2438.000 0.527
2439.000 0.484
2440.000 0.128
2441.000 0.610
2442.000 0.603
2443.000 0.743
2444.000 0.547
2445.000 0.420
2446.000 0.235
2447.000 0.489
2448.000 0.614
2449.000 0.772
2450.000 0.482
2451.000 0.476
2452.000 0.450
2453.000 0.652
2454.000 0.604
2455.000 0.531
2456.000 0.235
2457.000 0.269
2458.000 0.183
2459.000 0.190
2460.000 0.236
2461.000 0.258
2462.000 0.453
2463.000 0.515
2464.000 0.390
2465.000 0.336
2466.000 0.144
2467.000 0.196
2468.000 0.210
2469.000 0.591
2470.000 0.418
2471.000 0.380
2472.000 0.195
2473.000 0.297
2474.000 0.337
2475.000 0.278
2476.000 0.242
2477.000 0.278
2478.000 0.303
2479.000 0.263
2480.000 0.261
2481.000 0.182
2482.000 0.505
2483.000 0.269
2484.000 0.250
2485.000 0.348
2486.000 0.314
2487.000 0.276
2488.000 0.236
2489.000 0.321
2490.000 0.306
2491.000 0.395
2492.000 0.471
2493.000 0.434
2494.000 0.365
2495.000 0.217
2496.000 0.169
2497.000 0.368
2498.000 0.298
2499.000 0.443
2500.000 0.368
