391.000 0.039
392.000 0.040
393.000 0.038
394.000 0.039
395.000 0.043
396.000 0.042
397.000 0.037
398.000 0.038
399.000 0.039
400.000 0.040
401.000 0.039
402.000 0.039
403.000 0.039
404.000 0.041
405.000 0.043
406.000 0.041
407.000 0.041
408.000 0.041
409.000 0.041
410.000 0.041
411.000 0.042
412.000 0.042
413.000 0.040
414.000 0.041
415.000 0.042
416.000 0.040
417.000 0.041
418.000 0.041
419.000 0.041
420.000 0.041
421.000 0.043
422.000 0.043
423.000 0.041
424.000 0.042
425.000 0.042
426.000 0.042
427.000 0.042
428.000 0.042
429.000 0.042
430.000 0.042
431.000 0.042
432.000 0.042
433.000 0.042
434.000 0.043
435.000 0.043
436.000 0.043
437.000 0.043
438.000 0.042
439.000 0.042
440.000 0.043
441.000 0.042
442.000 0.043
443.000 0.044
444.000 0.044
445.000 0.043
446.000 0.043
447.000 0.043
448.000 0.044
449.000 0.044
450.000 0.044
451.000 0.044
452.000 0.044
453.000 0.045
454.000 0.045
455.000 0.045
456.000 0.045
457.000 0.045
458.000 0.046
459.000 0.046
460.000 0.045
461.000 0.046
462.000 0.046
463.000 0.047
464.000 0.047
465.000 0.046
466.000 0.045
467.000 0.046
468.000 0.046
469.000 0.046
470.000 0.046
471.000 0.046
472.000 0.046
473.000 0.046
474.000 0.047
475.000 0.047
476.000 0.047
477.000 0.047
478.000 0.047
479.000 0.047
480.000 0.047
481.000 0.047
482.000 0.046
483.000 0.047
484.000 0.048
485.000 0.047
486.000 0.048
487.000 0.048
488.000 0.049
489.000 0.049
490.000 0.049
491.000 0.049
492.000 0.050
493.000 0.050
494.000 0.051
495.000 0.051
496.000 0.052
497.000 0.053
498.000 0.053
499.000 0.054
500.000 0.054
501.000 0.056
502.000 0.057
503.000 0.058
504.000 0.059
505.000 0.061
506.000 0.062
507.000 0.064
508.000 0.066
509.000 0.068
510.000 0.069
511.000 0.071
512.000 0.075
513.000 0.077
514.000 0.079
515.000 0.083
516.000 0.086
517.000 0.089
518.000 0.092
519.000 0.096
520.000 0.099
521.000 0.103
522.000 0.106
523.000 0.109
524.000 0.113
525.000 0.116
526.000 0.119
527.000 0.122
528.000 0.125
529.000 0.128
530.000 0.131
531.000 0.134
532.000 0.136
533.000 0.138
534.000 0.140
535.000 0.142
536.000 0.144
537.000 0.145
538.000 0.146
539.000 0.147
540.000 0.149
541.000 0.150
542.000 0.150
543.000 0.152
544.000 0.152
545.000 0.153
546.000 0.153
547.000 0.154
548.000 0.154
549.000 0.155
550.000 0.156
551.000 0.156
552.000 0.156
553.000 0.157
554.000 0.157
555.000 0.157
556.000 0.156
557.000 0.156
558.000 0.155
559.000 0.154
560.000 0.154
561.000 0.153
562.000 0.151
563.000 0.150
564.000 0.149
565.000 0.147
566.000 0.146
567.000 0.144
568.000 0.142
569.000 0.140
570.000 0.139
571.000 0.137
572.000 0.135
573.000 0.133
574.000 0.132
575.000 0.131
576.000 0.130
577.000 0.128
578.000 0.126
579.000 0.126
580.000 0.124
581.000 0.123
582.000 0.122
583.000 0.121
584.000 0.120
585.000 0.120
586.000 0.119
587.000 0.118
588.000 0.117
589.000 0.117
590.000 0.116
591.000 0.116
592.000 0.115
593.000 0.114
594.000 0.114
595.000 0.114
596.000 0.113
597.000 0.113
598.000 0.113
599.000 0.112
600.000 0.111
601.000 0.112
602.000 0.111
603.000 0.111
604.000 0.111
605.000 0.109
606.000 0.109
607.000 0.109
608.000 0.108
609.000 0.107
610.000 0.106
611.000 0.105
612.000 0.105
613.000 0.104
614.000 0.104
615.000 0.103
616.000 0.102
617.000 0.101
618.000 0.101
619.000 0.101
620.000 0.100
621.000 0.100
622.000 0.099
623.000 0.099
624.000 0.099
625.000 0.099
626.000 0.099
627.000 0.099
628.000 0.099
629.000 0.099
630.000 0.099
631.000 0.098
632.000 0.098
633.000 0.098
634.000 0.098
635.000 0.097
636.000 0.096
637.000 0.096
638.000 0.095
639.000 0.093
640.000 0.091
641.000 0.092
642.000 0.090
643.000 0.088
644.000 0.087
645.000 0.086
646.000 0.084
647.000 0.084
648.000 0.083
649.000 0.082
650.000 0.081
651.000 0.080
652.000 0.079
653.000 0.080
654.000 0.080
655.000 0.079
656.000 0.079
657.000 0.078
658.000 0.078
659.000 0.077
660.000 0.076
661.000 0.075
662.000 0.075
663.000 0.075
664.000 0.074
665.000 0.073
666.000 0.074
667.000 0.072
668.000 0.072
669.000 0.072
670.000 0.071
671.000 0.071
672.000 0.071
673.000 0.071
674.000 0.072
675.000 0.072
676.000 0.073
677.000 0.074
678.000 0.074
679.000 0.076
680.000 0.077
681.000 0.078
682.000 0.079
683.000 0.081
684.000 0.083
685.000 0.086
686.000 0.089
687.000 0.092
688.000 0.097
689.000 0.102
690.000 0.105
691.000 0.110
692.000 0.116
693.000 0.123
694.000 0.131
695.000 0.139
696.000 0.148
697.000 0.156
698.000 0.166
699.000 0.176
700.000 0.188
701.000 0.198
702.000 0.209
703.000 0.221
704.000 0.231
705.000 0.241
706.000 0.252
707.000 0.262
708.000 0.272
709.000 0.283
710.000 0.293
711.000 0.304
712.000 0.314
713.000 0.325
714.000 0.336
715.000 0.347
716.000 0.358
717.000 0.371
718.000 0.384
719.000 0.397
720.000 0.408
721.000 0.417
722.000 0.424
723.000 0.433
724.000 0.444
725.000 0.454
726.000 0.464
727.000 0.473
728.000 0.481
729.000 0.488
730.000 0.496
731.000 0.503
732.000 0.509
733.000 0.514
734.000 0.519
735.000 0.525
736.000 0.530
737.000 0.534
738.000 0.538
739.000 0.543
740.000 0.547
741.000 0.550
742.000 0.553
743.000 0.556
744.000 0.559
745.000 0.562
746.000 0.565
747.000 0.567
748.000 0.569
749.000 0.572
750.000 0.574
751.000 0.576
752.000 0.577
753.000 0.578
754.000 0.580
755.000 0.582
756.000 0.583
757.000 0.584
758.000 0.586
759.000 0.588
760.000 0.593
761.000 0.601
762.000 0.603
763.000 0.603
764.000 0.602
765.000 0.600
766.000 0.598
767.000 0.596
768.000 0.595
769.000 0.595
770.000 0.595
771.000 0.595
772.000 0.595
773.000 0.596
774.000 0.596
775.000 0.596
776.000 0.597
777.000 0.597
778.000 0.598
779.000 0.598
780.000 0.599
781.000 0.599
782.000 0.600
783.000 0.600
784.000 0.601
785.000 0.602
786.000 0.602
787.000 0.603
788.000 0.604
789.000 0.604
790.000 0.605
791.000 0.606
792.000 0.606
793.000 0.606
794.000 0.607
795.000 0.607
796.000 0.608
797.000 0.609
798.000 0.609
799.000 0.609
800.000 0.610
801.000 0.611
802.000 0.611
803.000 0.612
804.000 0.612
805.000 0.612
806.000 0.612
807.000 0.612
808.000 0.613
809.000 0.614
810.000 0.615
811.000 0.616
812.000 0.617
813.000 0.619
814.000 0.620
815.000 0.621
816.000 0.623
817.000 0.623
818.000 0.624
819.000 0.623
820.000 0.622
821.000 0.622
822.000 0.623
823.000 0.623
824.000 0.624
825.000 0.623
826.000 0.622
827.000 0.623
828.000 0.623
829.000 0.624
830.000 0.624
831.000 0.623
832.000 0.623
833.000 0.623
834.000 0.623
835.000 0.623
836.000 0.622
837.000 0.622
838.000 0.621
839.000 0.622
840.000 0.622
841.000 0.622
842.000 0.622
843.000 0.622
844.000 0.622
845.000 0.622
846.000 0.622
847.000 0.622
848.000 0.622
849.000 0.622
850.000 0.623
851.000 0.623
852.000 0.623
853.000 0.623
854.000 0.624
855.000 0.624
856.000 0.624
857.000 0.624
858.000 0.624
859.000 0.625
860.000 0.625
861.000 0.625
862.000 0.625
863.000 0.625
864.000 0.625
865.000 0.625
866.000 0.626
867.000 0.626
868.000 0.626
869.000 0.627
870.000 0.627
871.000 0.627
872.000 0.627
873.000 0.626
874.000 0.627
875.000 0.628
876.000 0.628
877.000 0.628
878.000 0.628
879.000 0.628
880.000 0.629
881.000 0.630
882.000 0.630
883.000 0.630
884.000 0.630
885.000 0.631
886.000 0.631
887.000 0.631
888.000 0.631
889.000 0.631
890.000 0.632
891.000 0.633
892.000 0.634
893.000 0.635
894.000 0.635
895.000 0.637
896.000 0.638
897.000 0.640
898.000 0.640
899.000 0.635
900.000 0.637
901.000 0.638
902.000 0.638
903.000 0.637
904.000 0.641
905.000 0.641
906.000 0.637
907.000 0.637
908.000 0.638
909.000 0.639
910.000 0.639
911.000 0.640
912.000 0.640
913.000 0.640
914.000 0.641
915.000 0.642
916.000 0.641
917.000 0.640
918.000 0.639
919.000 0.638
920.000 0.639
921.000 0.639
922.000 0.643
923.000 0.642
924.000 0.642
925.000 0.642
926.000 0.639
927.000 0.639
928.000 0.638
929.000 0.638
930.000 0.639
931.000 0.642
932.000 0.642
933.000 0.647
934.000 0.649
935.000 0.643
936.000 0.643
937.000 0.641
938.000 0.641
939.000 0.642
940.000 0.640
941.000 0.636
942.000 0.634
943.000 0.635
944.000 0.636
945.000 0.633
946.000 0.633
947.000 0.634
948.000 0.631
949.000 0.634
950.000 0.630
951.000 0.626
952.000 0.624
953.000 0.625
954.000 0.626
955.000 0.624
956.000 0.614
957.000 0.613
958.000 0.613
959.000 0.611
960.000 0.606
961.000 0.605
962.000 0.605
963.000 0.603
964.000 0.600
965.000 0.597
966.000 0.596
967.000 0.597
968.000 0.595
969.000 0.593
970.000 0.592
971.000 0.592
972.000 0.594
973.000 0.595
974.000 0.593
975.000 0.589
976.000 0.589
977.000 0.593
978.000 0.595
979.000 0.592
980.000 0.588
981.000 0.590
982.000 0.592
983.000 0.592
984.000 0.593
985.000 0.593
986.000 0.591
987.000 0.589
988.000 0.591
989.000 0.590
990.000 0.590
991.000 0.592
992.000 0.590
993.000 0.590
994.000 0.592
995.000 0.596
996.000 0.598
997.000 0.593
998.000 0.595
999.000 0.598
1000.000 0.597
1001.000 0.601
1002.000 0.602
1003.000 0.601
1004.000 0.603
1005.000 0.604
1006.000 0.607
1007.000 0.609
1008.000 0.610
1009.000 0.611
1010.000 0.611
1011.000 0.612
1012.000 0.614
1013.000 0.616
1014.000 0.617
1015.000 0.619
1016.000 0.620
1017.000 0.621
1018.000 0.620
1019.000 0.620
1020.000 0.620
1021.000 0.621
1022.000 0.623
1023.000 0.625
1024.000 0.627
1025.000 0.628
1026.000 0.628
1027.000 0.631
1028.000 0.633
1029.000 0.634
1030.000 0.635
1031.000 0.637
1032.000 0.637
1033.000 0.636
1034.000 0.636
1035.000 0.636
1036.000 0.636
1037.000 0.638
1038.000 0.639
1039.000 0.641
1040.000 0.643
1041.000 0.644
1042.000 0.644
1043.000 0.644
1044.000 0.645
1045.000 0.645
1046.000 0.647
1047.000 0.648
1048.000 0.648
1049.000 0.649
1050.000 0.650
1051.000 0.651
1052.000 0.652
1053.000 0.655
1054.000 0.656
1055.000 0.656
1056.000 0.657
1057.000 0.657
1058.000 0.657
1059.000 0.658
1060.000 0.658
1061.000 0.658
1062.000 0.658
1063.000 0.659
1064.000 0.659
1065.000 0.658
1066.000 0.658
1067.000 0.658
1068.000 0.659
1069.000 0.660
1070.000 0.661
1071.000 0.663
1072.000 0.663
1073.000 0.662
1074.000 0.662
1075.000 0.662
1076.000 0.662
1077.000 0.662
1078.000 0.662
1079.000 0.662
1080.000 0.662
1081.000 0.662
1082.000 0.662
1083.000 0.663
1084.000 0.663
1085.000 0.663
1086.000 0.661
1087.000 0.661
1088.000 0.662
1089.000 0.662
1090.000 0.664
1091.000 0.664
1092.000 0.665
1093.000 0.665
1094.000 0.666
1095.000 0.666
1096.000 0.665
1097.000 0.665
1098.000 0.664
1099.000 0.664
1100.000 0.665
1101.000 0.666
1102.000 0.667
1103.000 0.669
1104.000 0.670
1105.000 0.671
1106.000 0.671
1107.000 0.665
1108.000 0.665
1109.000 0.665
1110.000 0.665
1111.000 0.666
1112.000 0.669
1113.000 0.670
1114.000 0.670
1115.000 0.672
1116.000 0.675
1117.000 0.677
1118.000 0.680
1119.000 0.685
1120.000 0.686
1121.000 0.685
1122.000 0.686
1123.000 0.687
1124.000 0.688
1125.000 0.688
1126.000 0.686
1127.000 0.687
1128.000 0.690
1129.000 0.686
1130.000 0.684
1131.000 0.682
1132.000 0.669
1133.000 0.660
1134.000 0.658
1135.000 0.653
1136.000 0.648
1137.000 0.640
1138.000 0.634
1139.000 0.628
1140.000 0.624
1141.000 0.621
1142.000 0.616
1143.000 0.610
1144.000 0.605
1145.000 0.603
1146.000 0.597
1147.000 0.592
1148.000 0.583
1149.000 0.574
1150.000 0.566
1151.000 0.562
1152.000 0.561
1153.000 0.559
1154.000 0.560
1155.000 0.558
1156.000 0.555
1157.000 0.554
1158.000 0.553
1159.000 0.552
1160.000 0.554
1161.000 0.552
1162.000 0.549
1163.000 0.547
1164.000 0.546
1165.000 0.545
1166.000 0.544
1167.000 0.545
1168.000 0.544
1169.000 0.542
1170.000 0.540
1171.000 0.539
1172.000 0.540
1173.000 0.540
1174.000 0.539
1175.000 0.538
1176.000 0.537
1177.000 0.534
1178.000 0.532
1179.000 0.532
1180.000 0.532
1181.000 0.534
1182.000 0.534
1183.000 0.535
1184.000 0.535
1185.000 0.536
1186.000 0.536
1187.000 0.536
1188.000 0.536
1189.000 0.534
1190.000 0.534
1191.000 0.533
1192.000 0.531
1193.000 0.530
1194.000 0.530
1195.000 0.529
1196.000 0.530
1197.000 0.531
1198.000 0.530
1199.000 0.530
1200.000 0.531
1201.000 0.531
1202.000 0.531
1203.000 0.532
1204.000 0.532
1205.000 0.532
1206.000 0.531
1207.000 0.531
1208.000 0.531
1209.000 0.531
1210.000 0.531
1211.000 0.531
1212.000 0.531
1213.000 0.532
1214.000 0.532
1215.000 0.531
1216.000 0.532
1217.000 0.533
1218.000 0.533
1219.000 0.534
1220.000 0.535
1221.000 0.534
1222.000 0.534
1223.000 0.534
1224.000 0.535
1225.000 0.535
1226.000 0.535
1227.000 0.536
1228.000 0.537
1229.000 0.537
1230.000 0.538
1231.000 0.539
1232.000 0.539
1233.000 0.539
1234.000 0.539
1235.000 0.540
1236.000 0.540
1237.000 0.540
1238.000 0.541
1239.000 0.542
1240.000 0.543
1241.000 0.544
1242.000 0.544
1243.000 0.544
1244.000 0.544
1245.000 0.545
1246.000 0.546
1247.000 0.546
1248.000 0.546
1249.000 0.547
1250.000 0.547
1251.000 0.547
1252.000 0.548
1253.000 0.548
1254.000 0.549
1255.000 0.550
1256.000 0.550
1257.000 0.550
1258.000 0.550
1259.000 0.550
1260.000 0.551
1261.000 0.551
1262.000 0.552
1263.000 0.553
1264.000 0.554
1265.000 0.554
1266.000 0.555
1267.000 0.554
1268.000 0.554
1269.000 0.554
1270.000 0.555
1271.000 0.555
1272.000 0.555
1273.000 0.555
1274.000 0.554
1275.000 0.553
1276.000 0.553
1277.000 0.553
1278.000 0.553
1279.000 0.552
1280.000 0.551
1281.000 0.551
1282.000 0.552
1283.000 0.552
1284.000 0.553
1285.000 0.552
1286.000 0.551
1287.000 0.551
1288.000 0.550
1289.000 0.549
1290.000 0.548
1291.000 0.548
1292.000 0.548
1293.000 0.548
1294.000 0.546
1295.000 0.545
1296.000 0.545
1297.000 0.544
1298.000 0.543
1299.000 0.542
1300.000 0.541
1301.000 0.539
1302.000 0.537
1303.000 0.535
1304.000 0.534
1305.000 0.532
1306.000 0.530
1307.000 0.528
1308.000 0.527
1309.000 0.527
1310.000 0.526
1311.000 0.526
1312.000 0.525
1313.000 0.523
1314.000 0.521
1315.000 0.519
1316.000 0.517
1317.000 0.514
1318.000 0.511
1319.000 0.509
1320.000 0.507
1321.000 0.505
1322.000 0.505
1323.000 0.503
1324.000 0.503
1325.000 0.501
1326.000 0.499
1327.000 0.496
1328.000 0.494
1329.000 0.492
1330.000 0.491
1331.000 0.488
1332.000 0.488
1333.000 0.486
1334.000 0.481
1335.000 0.477
1336.000 0.473
1337.000 0.471
1338.000 0.471
1339.000 0.470
1340.000 0.466
1341.000 0.465
1342.000 0.463
1343.000 0.461
1344.000 0.461
1345.000 0.460
1346.000 0.452
1347.000 0.447
1348.000 0.445
1349.000 0.443
1350.000 0.448
1351.000 0.485
1352.000 0.496
1353.000 0.480
1354.000 0.476
1355.000 0.418
1356.000 0.391
1357.000 0.424
1358.000 0.336
1359.000 0.350
1360.000 0.425
1361.000 0.440
1362.000 0.457
1363.000 0.462
1364.000 0.561
1365.000 0.198
1366.000 0.309
1367.000 0.452
1368.000 0.701
1369.000 0.422
1370.000 0.387
1371.000 0.396
1372.000 0.357
1373.000 0.296
1374.000 0.240
1375.000 0.191
1376.000 0.103
1377.000 0.273
1378.000 0.438
1379.000 0.540
1380.000 0.495
1381.000 0.402
1382.000 0.512
1383.000 0.575
1384.000 0.405
1385.000 0.428
1386.000 0.506
1387.000 0.539
1388.000 0.608
1389.000 0.404
1390.000 0.400
1391.000 0.329
1392.000 0.320
1393.000 0.378
1394.000 0.357
1395.000 0.598
1396.000 0.506
1397.000 0.236
1398.000 0.315
1399.000 0.411
1400.000 0.285
1401.000 0.266
1402.000 0.475
1403.000 0.640
1404.000 0.587
1405.000 0.549
1406.000 0.541
1407.000 0.440
1408.000 0.280
1409.000 0.340
1410.000 0.420
1411.000 0.556
1412.000 0.331
1413.000 0.217
1414.000 0.308
1415.000 0.353
1416.000 0.407
1417.000 0.479
1418.000 0.344
1419.000 0.469
1420.000 0.366
1421.000 0.183
1422.000 0.318
1423.000 0.429
1424.000 0.518
1425.000 0.325
1426.000 0.311
1427.000 0.184
1428.000 0.229
1429.000 0.597
1430.000 0.143
1431.000 0.271
1432.000 0.405
1433.000 0.543
1434.000 0.683
1435.000 0.261
1436.000 0.201
1437.000 0.218
1438.000 0.224
1439.000 0.306
1440.000 0.314
1441.000 0.268
1442.000 0.246
1443.000 0.211
1444.000 0.206
1445.000 0.230
1446.000 0.228
1447.000 0.177
1448.000 0.174
1449.000 0.171
1450.000 0.157
1451.000 0.132
1452.000 0.125
1453.000 0.127
1454.000 0.132
1455.000 0.131
1456.000 0.136
1457.000 0.145
1458.000 0.145
1459.000 0.149
1460.000 0.166
1461.000 0.177
1462.000 0.180
1463.000 0.171
1464.000 0.148
1465.000 0.136
1466.000 0.125
1467.000 0.120
1468.000 0.125
1469.000 0.128
1470.000 0.126
1471.000 0.138
1472.000 0.171
1473.000 0.187
1474.000 0.215
1475.000 0.213
1476.000 0.180
1477.000 0.168
1478.000 0.148
1479.000 0.142
1480.000 0.151
1481.000 0.150
1482.000 0.144
1483.000 0.144
1484.000 0.141
1485.000 0.143
1486.000 0.151
1487.000 0.155
1488.000 0.159
1489.000 0.160
1490.000 0.159
1491.000 0.159
1492.000 0.156
1493.000 0.156
1494.000 0.160
1495.000 0.162
1496.000 0.164
1497.000 0.165
1498.000 0.165
1499.000 0.162
1500.000 0.161
1501.000 0.161
1502.000 0.164
1503.000 0.166
1504.000 0.168
1505.000 0.171
1506.000 0.173
1507.000 0.174
1508.000 0.175
1509.000 0.177
1510.000 0.178
1511.000 0.176
1512.000 0.177
1513.000 0.179
1514.000 0.180
1515.000 0.184
1516.000 0.185
1517.000 0.185
1518.000 0.186
1519.000 0.187
1520.000 0.189
1521.000 0.191
1522.000 0.192
1523.000 0.192
1524.000 0.193
1525.000 0.194
1526.000 0.195
1527.000 0.197
1528.000 0.199
1529.000 0.200
1530.000 0.202
1531.000 0.202
1532.000 0.203
1533.000 0.203
1534.000 0.205
1535.000 0.207
1536.000 0.208
1537.000 0.209
1538.000 0.210
1539.000 0.210
1540.000 0.212
1541.000 0.214
1542.000 0.216
1543.000 0.218
1544.000 0.221
1545.000 0.224
1546.000 0.226
1547.000 0.228
1548.000 0.229
1549.000 0.229
1550.000 0.230
1551.000 0.229
1552.000 0.230
1553.000 0.230
1554.000 0.231
1555.000 0.234
1556.000 0.235
1557.000 0.237
1558.000 0.239
1559.000 0.240
1560.000 0.241
1561.000 0.243
1562.000 0.244
1563.000 0.246
1564.000 0.247
1565.000 0.248
1566.000 0.248
1567.000 0.250
1568.000 0.251
1569.000 0.251
1570.000 0.252
1571.000 0.253
1572.000 0.254
1573.000 0.256
1574.000 0.257
1575.000 0.259
1576.000 0.260
1577.000 0.261
1578.000 0.263
1579.000 0.264
1580.000 0.265
1581.000 0.264
1582.000 0.264
1583.000 0.264
1584.000 0.265
1585.000 0.267
1586.000 0.268
1587.000 0.270
1588.000 0.271
1589.000 0.271
1590.000 0.271
1591.000 0.271
1592.000 0.270
1593.000 0.269
1594.000 0.269
1595.000 0.269
1596.000 0.270
1597.000 0.273
1598.000 0.275
1599.000 0.276
1600.000 0.278
1601.000 0.279
1602.000 0.280
1603.000 0.282
1604.000 0.284
1605.000 0.284
1606.000 0.285
1607.000 0.285
1608.000 0.286
1609.000 0.288
1610.000 0.289
1611.000 0.291
1612.000 0.292
1613.000 0.293
1614.000 0.294
1615.000 0.293
1616.000 0.292
1617.000 0.292
1618.000 0.292
1619.000 0.294
1620.000 0.296
1621.000 0.299
1622.000 0.300
1623.000 0.297
1624.000 0.297
1625.000 0.295
1626.000 0.295
1627.000 0.298
1628.000 0.301
1629.000 0.302
1630.000 0.304
1631.000 0.304
1632.000 0.305
1633.000 0.304
1634.000 0.303
1635.000 0.304
1636.000 0.304
1637.000 0.304
1638.000 0.304
1639.000 0.304
1640.000 0.304
1641.000 0.306
1642.000 0.307
1643.000 0.308
1644.000 0.308
1645.000 0.308
1646.000 0.309
1647.000 0.309
1648.000 0.309
1649.000 0.308
1650.000 0.308
1651.000 0.309
1652.000 0.309
1653.000 0.312
1654.000 0.313
1655.000 0.313
1656.000 0.313
1657.000 0.313
1658.000 0.314
1659.000 0.315
1660.000 0.316
1661.000 0.315
1662.000 0.314
1663.000 0.312
1664.000 0.312
1665.000 0.314
1666.000 0.313
1667.000 0.312
1668.000 0.312
1669.000 0.309
1670.000 0.309
1671.000 0.311
1672.000 0.312
1673.000 0.312
1674.000 0.313
1675.000 0.313
1676.000 0.314
1677.000 0.317
1678.000 0.318
1679.000 0.317
1680.000 0.317
1681.000 0.316
1682.000 0.316
1683.000 0.318
1684.000 0.318
1685.000 0.316
1686.000 0.316
1687.000 0.314
1688.000 0.314
1689.000 0.319
1690.000 0.319
1691.000 0.321
1692.000 0.320
1693.000 0.316
1694.000 0.315
1695.000 0.314
1696.000 0.315
1697.000 0.318
1698.000 0.319
1699.000 0.319
1700.000 0.318
1701.000 0.313
1702.000 0.311
1703.000 0.311
1704.000 0.311
1705.000 0.311
1706.000 0.311
1707.000 0.312
1708.000 0.311
1709.000 0.309
1710.000 0.310
1711.000 0.310
1712.000 0.312
1713.000 0.314
1714.000 0.312
1715.000 0.311
1716.000 0.311
1717.000 0.309
1718.000 0.309
1719.000 0.309
1720.000 0.307
1721.000 0.305
1722.000 0.303
1723.000 0.301
1724.000 0.303
1725.000 0.303
1726.000 0.303
1727.000 0.301
1728.000 0.298
1729.000 0.293
1730.000 0.289
1731.000 0.287
1732.000 0.287
1733.000 0.289
1734.000 0.291
1735.000 0.292
1736.000 0.288
1737.000 0.288
1738.000 0.288
1739.000 0.289
1740.000 0.290
1741.000 0.290
1742.000 0.290
1743.000 0.291
1744.000 0.296
1745.000 0.296
1746.000 0.295
1747.000 0.293
1748.000 0.287
1749.000 0.286
1750.000 0.287
1751.000 0.287
1752.000 0.287
1753.000 0.287
1754.000 0.284
1755.000 0.283
1756.000 0.282
1757.000 0.283
1758.000 0.285
1759.000 0.286
1760.000 0.282
1761.000 0.279
1762.000 0.275
1763.000 0.275
1764.000 0.279
1765.000 0.280
1766.000 0.279
1767.000 0.282
1768.000 0.280
1769.000 0.282
1770.000 0.292
1771.000 0.291
1772.000 0.291
1773.000 0.292
1774.000 0.284
1775.000 0.283
1776.000 0.285
1777.000 0.284
1778.000 0.285
1779.000 0.284
1780.000 0.279
1781.000 0.269
1782.000 0.261
1783.000 0.252
1784.000 0.246
1785.000 0.249
1786.000 0.248
1787.000 0.244
1788.000 0.253
1789.000 0.279
1790.000 0.299
1791.000 0.344
1792.000 0.358
1793.000 0.345
1794.000 0.310
1795.000 0.304
1796.000 0.319
1797.000 0.346
1798.000 0.428
1799.000 0.492
1800.000 0.450
1801.000 0.571
1802.000 0.636
1803.000 0.640
1804.000 0.578
1805.000 0.613
1806.000 0.505
1807.000 0.534
1808.000 0.463
1809.000 0.395
1810.000 0.414
1811.000 0.336
1812.000 0.626
1813.000 0.606
1814.000 0.569
1815.000 0.540
1816.000 0.560
1817.000 0.461
1818.000 0.360
1819.000 0.805
1820.000 0.496
1821.000 0.470
1822.000 0.419
1823.000 0.442
1824.000 0.480
1825.000 0.494
1826.000 0.427
1827.000 0.510
1828.000 0.444
1829.000 0.508
1830.000 0.526
1831.000 0.544
1832.000 0.527
1833.000 0.509
1834.000 0.480
1835.000 0.552
1836.000 0.569
1837.000 0.411
1838.000 0.543
1839.000 0.673
1840.000 0.622
1841.000 0.580
1842.000 0.499
1843.000 0.447
1844.000 0.479
1845.000 0.435
1846.000 0.399
1847.000 0.584
1848.000 0.631
1849.000 0.608
1850.000 0.394
1851.000 0.430
1852.000 0.409
1853.000 0.289
1854.000 0.413
1855.000 0.434
1856.000 0.873
1857.000 0.774
1858.000 0.703
1859.000 0.483
1860.000 0.580
1861.000 0.572
1862.000 0.539
1863.000 0.554
1864.000 0.654
1865.000 0.653
1866.000 0.658
1867.000 0.715
1868.000 0.520
1869.000 0.466
1870.000 0.597
1871.000 0.702
1872.000 0.581
1873.000 0.586
1874.000 0.765
1875.000 0.825
1876.000 0.460
1877.000 0.435
1878.000 0.516
1879.000 0.442
1880.000 0.573
1881.000 0.379
1882.000 0.189
1883.000 0.258
1884.000 0.329
1885.000 0.398
1886.000 0.488
1887.000 0.472
1888.000 0.471
1889.000 0.434
1890.000 0.604
1891.000 0.614
1892.000 0.635
1893.000 0.626
1894.000 0.625
1895.000 0.547
1896.000 0.620
1897.000 0.481
1898.000 0.326
1899.000 0.560
1900.000 0.404
1901.000 0.361
1902.000 0.430
1903.000 0.542
1904.000 0.455
1905.000 0.373
1906.000 0.348
1907.000 0.424
1908.000 0.324
1909.000 0.326
1910.000 0.387
1911.000 0.100
1912.000 0.142
1913.000 0.263
1914.000 0.336
1915.000 0.257
1916.000 0.372
1917.000 0.535
1918.000 0.626
1919.000 0.744
1920.000 0.600
1921.000 0.588
1922.000 0.568
1923.000 0.361
1924.000 0.391
1925.000 0.371
1926.000 0.446
1927.000 0.530
1928.000 0.594
1929.000 0.531
1930.000 0.439
1931.000 0.343
1932.000 0.252
1933.000 0.423
1934.000 0.238
1935.000 0.351
1936.000 0.430
1937.000 0.348
1938.000 0.200
1939.000 0.442
1940.000 0.282
1941.000 0.233
1942.000 0.214
1943.000 0.297
1944.000 0.464
1945.000 0.700
1946.000 0.300
1947.000 0.321
1948.000 0.319
1949.000 0.288
1950.000 0.324
1951.000 0.327
1952.000 0.349
1953.000 0.215
1954.000 0.083
1955.000 0.099
1956.000 0.124
1957.000 0.233
1958.000 0.384
1959.000 0.166
1960.000 0.262
1961.000 0.309
1962.000 0.219
1963.000 0.545
1964.000 0.525
1965.000 0.409
1966.000 0.269
1967.000 0.232
1968.000 0.179
1969.000 0.124
1970.000 0.113
1971.000 0.138
1972.000 0.183
1973.000 0.221
1974.000 0.216
1975.000 0.215
1976.000 0.202
1977.000 0.207
1978.000 0.136
1979.000 0.131
1980.000 0.136
1981.000 0.132
1982.000 0.174
1983.000 0.194
1984.000 0.150
1985.000 0.132
1986.000 0.109
1987.000 0.114
1988.000 0.113
1989.000 0.148
1990.000 0.149
1991.000 0.139
1992.000 0.145
1993.000 0.151
1994.000 0.137
1995.000 0.140
1996.000 0.142
1997.000 0.123
1998.000 0.153
1999.000 0.196
2000.000 0.340
2001.000 0.397
2002.000 0.387
2003.000 0.358
2004.000 0.224
2005.000 0.203
2006.000 0.266
2007.000 0.295
2008.000 0.360
2009.000 0.405
2010.000 0.202
2011.000 0.205
2012.000 0.174
2013.000 0.139
2014.000 0.144
2015.000 0.180
2016.000 0.175
2017.000 0.147
2018.000 0.117
2019.000 0.097
2020.000 0.109
2021.000 0.096
2022.000 0.119
2023.000 0.095
2024.000 0.080
2025.000 0.074
2026.000 0.072
2027.000 0.085
2028.000 0.105
2029.000 0.116
2030.000 0.157
2031.000 0.162
2032.000 0.159
2033.000 0.154
2034.000 0.130
2035.000 0.114
2036.000 0.118
2037.000 0.119
2038.000 0.124
2039.000 0.139
2040.000 0.135
2041.000 0.138
2042.000 0.139
2043.000 0.131
2044.000 0.128
2045.000 0.133
2046.000 0.130
2047.000 0.122
2048.000 0.146
2049.000 0.148
2050.000 0.133
2051.000 0.112
2052.000 0.113
2053.000 0.112
2054.000 0.126
2055.000 0.144
2056.000 0.147
2057.000 0.151
2058.000 0.152
2059.000 0.149
2060.000 0.140
2061.000 0.145
2062.000 0.167
2063.000 0.166
2064.000 0.148
2065.000 0.143
2066.000 0.133
2067.000 0.132
2068.000 0.153
2069.000 0.182
2070.000 0.195
2071.000 0.206
2072.000 0.202
2073.000 0.172
2074.000 0.170
2075.000 0.176
2076.000 0.174
2077.000 0.181
2078.000 0.179
2079.000 0.163
2080.000 0.159
2081.000 0.157
2082.000 0.155
2083.000 0.156
2084.000 0.156
2085.000 0.153
2086.000 0.156
2087.000 0.156
2088.000 0.161
2089.000 0.156
2090.000 0.142
2091.000 0.134
2092.000 0.120
2093.000 0.116
2094.000 0.118
2095.000 0.119
2096.000 0.126
2097.000 0.129
2098.000 0.128
2099.000 0.135
2100.000 0.144
2101.000 0.151
2102.000 0.163
2103.000 0.166
2104.000 0.161
2105.000 0.144
2106.000 0.140
2107.000 0.136
2108.000 0.132
2109.000 0.130
2110.000 0.127
2111.000 0.122
2112.000 0.122
2113.000 0.131
2114.000 0.134
2115.000 0.138
2116.000 0.141
2117.000 0.141
2118.000 0.135
2119.000 0.139
2120.000 0.145
2121.000 0.145
2122.000 0.155
2123.000 0.158
2124.000 0.158
2125.000 0.156
2126.000 0.154
2127.000 0.150
2128.000 0.139
2129.000 0.135
2130.000 0.132
2131.000 0.133
2132.000 0.142
2133.000 0.145
2134.000 0.149
2135.000 0.150
2136.000 0.147
2137.000 0.143
2138.000 0.146
2139.000 0.150
2140.000 0.154
2141.000 0.162
2142.000 0.165
2143.000 0.164
2144.000 0.166
2145.000 0.167
2146.000 0.169
2147.000 0.176
2148.000 0.177
2149.000 0.170
2150.000 0.173
2151.000 0.175
2152.000 0.178
2153.000 0.200
2154.000 0.204
2155.000 0.192
2156.000 0.190
2157.000 0.187
2158.000 0.173
2159.000 0.172
2160.000 0.172
2161.000 0.168
2162.000 0.165
2163.000 0.163
2164.000 0.156
2165.000 0.155
2166.000 0.161
2167.000 0.160
2168.000 0.161
2169.000 0.157
2170.000 0.144
2171.000 0.141
2172.000 0.138
2173.000 0.141
2174.000 0.158
2175.000 0.166
2176.000 0.172
2177.000 0.180
2178.000 0.178
2179.000 0.183
2180.000 0.188
2181.000 0.188
2182.000 0.186
2183.000 0.181
2184.000 0.176
2185.000 0.168
2186.000 0.163
2187.000 0.159
2188.000 0.157
2189.000 0.154
2190.000 0.154
2191.000 0.157
2192.000 0.161
2193.000 0.173
2194.000 0.179
2195.000 0.190
2196.000 0.192
2197.000 0.186
2198.000 0.183
2199.000 0.174
2200.000 0.170
2201.000 0.172
2202.000 0.167
2203.000 0.170
2204.000 0.172
2205.000 0.173
2206.000 0.176
2207.000 0.167
2208.000 0.166
2209.000 0.167
2210.000 0.169
2211.000 0.170
2212.000 0.176
2213.000 0.180
2214.000 0.187
2215.000 0.184
2216.000 0.181
2217.000 0.176
2218.000 0.159
2219.000 0.153
2220.000 0.154
2221.000 0.153
2222.000 0.158
2223.000 0.161
2224.000 0.163
2225.000 0.166
2226.000 0.165
2227.000 0.178
2228.000 0.186
2229.000 0.194
2230.000 0.196
2231.000 0.188
2232.000 0.181
2233.000 0.176
2234.000 0.174
2235.000 0.174
2236.000 0.177
2237.000 0.178
2238.000 0.180
2239.000 0.184
2240.000 0.185
2241.000 0.186
2242.000 0.183
2243.000 0.179
2244.000 0.176
2245.000 0.178
2246.000 0.173
2247.000 0.164
2248.000 0.161
2249.000 0.149
2250.000 0.147
2251.000 0.154
2252.000 0.157
2253.000 0.166
2254.000 0.168
2255.000 0.162
2256.000 0.163
2257.000 0.158
2258.000 0.168
2259.000 0.171
2260.000 0.171
2261.000 0.167
2262.000 0.160
2263.000 0.157
2264.000 0.167
2265.000 0.173
2266.000 0.167
2267.000 0.168
2268.000 0.166
2269.000 0.164
2270.000 0.165
2271.000 0.157
2272.000 0.147
2273.000 0.138
2274.000 0.123
2275.000 0.122
2276.000 0.131
2277.000 0.139
2278.000 0.160
2279.000 0.167
2280.000 0.172
2281.000 0.178
2282.000 0.170
2283.000 0.167
2284.000 0.174
2285.000 0.169
2286.000 0.152
2287.000 0.145
2288.000 0.136
2289.000 0.131
2290.000 0.135
2291.000 0.138
2292.000 0.147
2293.000 0.148
2294.000 0.161
2295.000 0.158
2296.000 0.139
2297.000 0.130
2298.000 0.117
2299.000 0.104
2300.000 0.112
2301.000 0.117
2302.000 0.134
2303.000 0.157
2304.000 0.167
2305.000 0.156
2306.000 0.149
2307.000 0.162
2308.000 0.148
2309.000 0.127
2310.000 0.103
2311.000 0.103
2312.000 0.109
2313.000 0.102
2314.000 0.098
2315.000 0.103
2316.000 0.103
2317.000 0.118
2318.000 0.135
2319.000 0.167
2320.000 0.168
2321.000 0.129
2322.000 0.136
2323.000 0.151
2324.000 0.153
2325.000 0.182
2326.000 0.195
2327.000 0.183
2328.000 0.166
2329.000 0.191
2330.000 0.205
2331.000 0.112
2332.000 0.106
2333.000 0.104
2334.000 0.105
2335.000 0.135
2336.000 0.139
2337.000 0.099
2338.000 0.103
2339.000 0.139
2340.000 0.208
2341.000 0.196
2342.000 0.182
2343.000 0.108
2344.000 0.118
2345.000 0.098
2346.000 0.144
2347.000 0.327
2348.000 0.365
2349.000 0.307
2350.000 0.285
2351.000 0.176
2352.000 0.149
2353.000 0.161
2354.000 0.162
2355.000 0.162
2356.000 0.171
2357.000 0.188
2358.000 0.192
2359.000 0.186
2360.000 0.132
2361.000 0.113
2362.000 0.149
2363.000 0.132
2364.000 0.186
2365.000 0.187
2366.000 0.252
2367.000 0.137
2368.000 0.171
2369.000 0.190
2370.000 0.128
2371.000 0.129
2372.000 0.146
2373.000 0.169
2374.000 0.221
2375.000 0.175
2376.000 0.292
2377.000 0.390
2378.000 0.350
2379.000 0.373
2380.000 0.173
2381.000 0.114
2382.000 0.135
2383.000 0.165
2384.000 0.228
2385.000 0.327
2386.000 0.592
2387.000 0.441
2388.000 0.290
2389.000 0.234
2390.000 0.323
2391.000 0.278
2392.000 0.272
2393.000 0.259
2394.000 0.245
2395.000 0.563
2396.000 0.570
2397.000 0.558
2398.000 0.572
2399.000 0.567
2400.000 0.693
2401.000 0.222
2402.000 0.269
2403.000 0.299
2404.000 0.405
2405.000 0.261
2406.000 0.251
2407.000 0.237
2408.000 0.237
2409.000 0.250
2410.000 0.279
2411.000 0.467
2412.000 0.376
2413.000 0.303
2414.000 0.343
2415.000 0.341
2416.000 0.462
2417.000 0.414
2418.000 0.418
2419.000 0.240
2420.000 0.194
2421.000 0.215
2422.000 0.353
2423.000 0.469
2424.000 0.332
2425.000 0.364
2426.000 0.327
2427.000 0.406
2428.000 0.511
2429.000 0.428
2430.000 0.310
2431.000 0.452
2432.000 0.467
2433.000 0.443
2434.000 0.391
2435.000 0.381
2436.000 0.364
2437.000 0.375
2438.000 0.306
2439.000 0.310
2440.000 0.246
2441.000 0.157
2442.000 0.133
2443.000 0.143
2444.000 0.177
2445.000 0.216
2446.000 0.264
2447.000 0.229
2448.000 0.265
2449.000 0.316
2450.000 0.426
2451.000 0.482
2452.000 0.259
2453.000 0.172
2454.000 0.182
2455.000 0.291
2456.000 0.426
2457.000 0.437
2458.000 0.318
2459.000 0.321
2460.000 0.323
2461.000 0.342
2462.000 0.369
2463.000 0.345
2464.000 0.341
2465.000 0.198
2466.000 0.246
2467.000 0.403
2468.000 0.385
2469.000 0.393
2470.000 0.450
2471.000 0.384
2472.000 0.229
2473.000 0.444
2474.000 0.325
2475.000 0.396
2476.000 0.531
2477.000 0.294
2478.000 0.329
2479.000 0.621
2480.000 0.270
2481.000 0.217
2482.000 0.378
2483.000 0.318
2484.000 0.399
2485.000 0.232
2486.000 0.281
2487.000 0.280
2488.000 0.317
2489.000 0.254
2490.000 0.373
2491.000 0.255
2492.000 0.186
2493.000 0.268
2494.000 0.335
2495.000 0.625
2496.000 0.669
2497.000 0.153
2498.000 0.154
2499.000 0.225
2500.000 0.534
