391.000 0.081
392.000 0.074
393.000 0.069
394.000 0.076
395.000 0.084
396.000 0.084
397.000 0.077
398.000 0.073
399.000 0.076
400.000 0.077
401.000 0.073
402.000 0.070
403.000 0.067
404.000 0.066
405.000 0.071
406.000 0.072
407.000 0.073
408.000 0.074
409.000 0.070
410.000 0.072
411.000 0.075
412.000 0.075
413.000 0.076
414.000 0.076
415.000 0.073
416.000 0.067
417.000 0.070
418.000 0.073
419.000 0.072
420.000 0.068
421.000 0.068
422.000 0.068
423.000 0.067
424.000 0.067
425.000 0.071
426.000 0.072
427.000 0.067
428.000 0.072
429.000 0.075
430.000 0.074
431.000 0.071
432.000 0.072
433.000 0.072
434.000 0.070
435.000 0.071
436.000 0.071
437.000 0.071
438.000 0.072
439.000 0.071
440.000 0.072
441.000 0.072
442.000 0.073
443.000 0.073
444.000 0.072
445.000 0.071
446.000 0.073
447.000 0.073
448.000 0.073
449.000 0.072
450.000 0.073
451.000 0.073
452.000 0.073
453.000 0.072
454.000 0.074
455.000 0.074
456.000 0.073
457.000 0.073
458.000 0.073
459.000 0.074
460.000 0.077
461.000 0.077
462.000 0.074
463.000 0.072
464.000 0.072
465.000 0.076
466.000 0.077
467.000 0.076
468.000 0.075
469.000 0.074
470.000 0.075
471.000 0.075
472.000 0.075
473.000 0.075
474.000 0.075
475.000 0.076
476.000 0.077
477.000 0.077
478.000 0.078
479.000 0.076
480.000 0.075
481.000 0.076
482.000 0.079
483.000 0.076
484.000 0.076
485.000 0.079
486.000 0.080
487.000 0.079
488.000 0.078
489.000 0.079
490.000 0.080
491.000 0.079
492.000 0.079
493.000 0.080
494.000 0.080
495.000 0.079
496.000 0.080
497.000 0.081
498.000 0.081
499.000 0.080
500.000 0.080
501.000 0.083
502.000 0.084
503.000 0.085
504.000 0.084
505.000 0.086
506.000 0.088
507.000 0.089
508.000 0.091
509.000 0.091
510.000 0.092
511.000 0.094
512.000 0.095
513.000 0.098
514.000 0.101
515.000 0.101
516.000 0.104
517.000 0.107
518.000 0.109
519.000 0.113
520.000 0.114
521.000 0.116
522.000 0.120
523.000 0.125
524.000 0.129
525.000 0.132
526.000 0.135
527.000 0.138
528.000 0.142
529.000 0.144
530.000 0.146
531.000 0.148
532.000 0.151
533.000 0.153
534.000 0.156
535.000 0.158
536.000 0.160
537.000 0.161
538.000 0.162
539.000 0.162
540.000 0.164
541.000 0.165
542.000 0.167
543.000 0.167
544.000 0.167
545.000 0.167
546.000 0.167
547.000 0.167
548.000 0.169
549.000 0.170
550.000 0.171
551.000 0.171
552.000 0.170
553.000 0.170
554.000 0.171
555.000 0.171
556.000 0.170
557.000 0.169
558.000 0.169
559.000 0.167
560.000 0.166
561.000 0.165
562.000 0.162
563.000 0.161
564.000 0.160
565.000 0.159
566.000 0.156
567.000 0.154
568.000 0.151
569.000 0.149
570.000 0.148
571.000 0.146
572.000 0.143
573.000 0.143
574.000 0.143
575.000 0.141
576.000 0.138
577.000 0.136
578.000 0.134
579.000 0.134
580.000 0.134
581.000 0.134
582.000 0.132
583.000 0.130
584.000 0.128
585.000 0.129
586.000 0.129
587.000 0.126
588.000 0.127
589.000 0.127
590.000 0.125
591.000 0.124
592.000 0.124
593.000 0.124
594.000 0.124
595.000 0.124
596.000 0.125
597.000 0.125
598.000 0.123
599.000 0.122
600.000 0.122
601.000 0.122
602.000 0.124
603.000 0.123
604.000 0.121
605.000 0.121
606.000 0.122
607.000 0.121
608.000 0.120
609.000 0.121
610.000 0.122
611.000 0.122
612.000 0.119
613.000 0.119
614.000 0.119
615.000 0.118
616.000 0.119
617.000 0.117
618.000 0.117
619.000 0.116
620.000 0.117
621.000 0.116
622.000 0.116
623.000 0.119
624.000 0.119
625.000 0.119
626.000 0.118
627.000 0.118
628.000 0.119
629.000 0.119
630.000 0.118
631.000 0.119
632.000 0.118
633.000 0.117
634.000 0.116
635.000 0.118
636.000 0.118
637.000 0.115
638.000 0.116
639.000 0.117
640.000 0.118
641.000 0.115
642.000 0.115
643.000 0.116
644.000 0.116
645.000 0.115
646.000 0.113
647.000 0.113
648.000 0.115
649.000 0.117
650.000 0.116
651.000 0.115
652.000 0.116
653.000 0.115
654.000 0.114
655.000 0.114
656.000 0.116
657.000 0.117
658.000 0.117
659.000 0.115
660.000 0.117
661.000 0.117
662.000 0.117
663.000 0.114
664.000 0.115
665.000 0.115
666.000 0.115
667.000 0.117
668.000 0.119
669.000 0.119
670.000 0.115
671.000 0.118
672.000 0.122
673.000 0.123
674.000 0.121
675.000 0.121
676.000 0.123
677.000 0.127
678.000 0.128
679.000 0.128
680.000 0.129
681.000 0.133
682.000 0.132
683.000 0.132
684.000 0.134
685.000 0.138
686.000 0.140
687.000 0.141
688.000 0.140
689.000 0.141
690.000 0.145
691.000 0.148
692.000 0.152
693.000 0.156
694.000 0.161
695.000 0.170
696.000 0.178
697.000 0.187
698.000 0.195
699.000 0.205
700.000 0.216
701.000 0.227
702.000 0.238
703.000 0.251
704.000 0.265
705.000 0.278
706.000 0.290
707.000 0.301
708.000 0.314
709.000 0.328
710.000 0.341
711.000 0.353
712.000 0.366
713.000 0.379
714.000 0.392
715.000 0.406
716.000 0.419
717.000 0.430
718.000 0.444
719.000 0.460
720.000 0.476
721.000 0.486
722.000 0.498
723.000 0.510
724.000 0.522
725.000 0.533
726.000 0.543
727.000 0.554
728.000 0.565
729.000 0.574
730.000 0.581
731.000 0.589
732.000 0.597
733.000 0.605
734.000 0.612
735.000 0.616
736.000 0.620
737.000 0.626
738.000 0.632
739.000 0.636
740.000 0.639
741.000 0.643
742.000 0.647
743.000 0.650
744.000 0.653
745.000 0.655
746.000 0.658
747.000 0.660
748.000 0.662
749.000 0.663
750.000 0.665
751.000 0.666
752.000 0.668
753.000 0.670
754.000 0.672
755.000 0.672
756.000 0.673
757.000 0.674
758.000 0.675
759.000 0.675
760.000 0.676
761.000 0.673
762.000 0.674
763.000 0.674
764.000 0.674
765.000 0.676
766.000 0.677
767.000 0.676
768.000 0.677
769.000 0.678
770.000 0.678
771.000 0.679
772.000 0.679
773.000 0.680
774.000 0.681
775.000 0.681
776.000 0.682
777.000 0.683
778.000 0.683
779.000 0.683
780.000 0.684
781.000 0.685
782.000 0.685
783.000 0.686
784.000 0.686
785.000 0.686
786.000 0.686
787.000 0.687
788.000 0.687
789.000 0.688
790.000 0.688
791.000 0.689
792.000 0.690
793.000 0.684
794.000 0.684
795.000 0.685
796.000 0.685
797.000 0.686
798.000 0.686
799.000 0.686
800.000 0.687
801.000 0.687
802.000 0.687
803.000 0.688
804.000 0.688
805.000 0.689
806.000 0.690
807.000 0.691
808.000 0.691
809.000 0.691
810.000 0.691
811.000 0.691
812.000 0.691
813.000 0.691
814.000 0.691
815.000 0.691
816.000 0.692
817.000 0.692
818.000 0.693
819.000 0.694
820.000 0.695
821.000 0.695
822.000 0.695
823.000 0.695
824.000 0.695
825.000 0.697
826.000 0.697
827.000 0.698
828.000 0.699
829.000 0.698
830.000 0.699
831.000 0.699
832.000 0.700
833.000 0.701
834.000 0.702
835.000 0.702
836.000 0.703
837.000 0.703
838.000 0.703
839.000 0.704
840.000 0.704
841.000 0.705
842.000 0.706
843.000 0.706
844.000 0.707
845.000 0.707
846.000 0.707
847.000 0.707
848.000 0.707
849.000 0.708
850.000 0.709
851.000 0.709
852.000 0.709
853.000 0.710
854.000 0.711
855.000 0.711
856.000 0.711
857.000 0.711
858.000 0.711
859.000 0.711
860.000 0.711
861.000 0.712
862.000 0.713
863.000 0.713
864.000 0.713
865.000 0.713
866.000 0.714
867.000 0.714
868.000 0.715
869.000 0.715
870.000 0.715
871.000 0.708
872.000 0.708
873.000 0.708
874.000 0.709
875.000 0.710
876.000 0.710
877.000 0.710
878.000 0.711
879.000 0.710
880.000 0.710
881.000 0.711
882.000 0.711
883.000 0.712
884.000 0.713
885.000 0.713
886.000 0.713
887.000 0.714
888.000 0.713
889.000 0.714
890.000 0.713
891.000 0.713
892.000 0.714
893.000 0.714
894.000 0.714
895.000 0.713
896.000 0.713
897.000 0.713
898.000 0.714
899.000 0.715
900.000 0.715
901.000 0.714
902.000 0.715
903.000 0.715
904.000 0.723
905.000 0.723
906.000 0.715
907.000 0.716
908.000 0.716
909.000 0.716
910.000 0.716
911.000 0.715
912.000 0.724
913.000 0.716
914.000 0.718
915.000 0.717
916.000 0.717
917.000 0.714
918.000 0.716
919.000 0.719
920.000 0.720
921.000 0.720
922.000 0.720
923.000 0.727
924.000 0.720
925.000 0.722
926.000 0.721
927.000 0.727
928.000 0.728
929.000 0.720
930.000 0.722
931.000 0.721
932.000 0.717
933.000 0.723
934.000 0.723
935.000 0.719
936.000 0.721
937.000 0.726
938.000 0.717
939.000 0.726
940.000 0.724
941.000 0.715
942.000 0.721
943.000 0.722
944.000 0.716
945.000 0.719
946.000 0.725
947.000 0.714
948.000 0.729
949.000 0.727
950.000 0.722
951.000 0.720
952.000 0.730
953.000 0.721
954.000 0.727
955.000 0.724
956.000 0.711
957.000 0.725
958.000 0.733
959.000 0.726
960.000 0.720
961.000 0.722
962.000 0.723
963.000 0.721
964.000 0.729
965.000 0.734
966.000 0.732
967.000 0.725
968.000 0.726
969.000 0.726
970.000 0.727
971.000 0.728
972.000 0.726
973.000 0.733
974.000 0.731
975.000 0.731
976.000 0.734
977.000 0.732
978.000 0.732
979.000 0.736
980.000 0.739
981.000 0.734
982.000 0.735
983.000 0.727
984.000 0.730
985.000 0.737
986.000 0.731
987.000 0.735
988.000 0.734
989.000 0.731
990.000 0.732
991.000 0.737
992.000 0.736
993.000 0.735
994.000 0.736
995.000 0.738
996.000 0.740
997.000 0.735
998.000 0.736
999.000 0.739
1000.000 0.740
1001.000 0.739
1002.000 0.740
1003.000 0.741
1004.000 0.742
1005.000 0.744
1006.000 0.743
1007.000 0.742
1008.000 0.742
1009.000 0.743
1010.000 0.743
1011.000 0.742
1012.000 0.741
1013.000 0.741
1014.000 0.740
1015.000 0.740
1016.000 0.740
1017.000 0.740
1018.000 0.740
1019.000 0.740
1020.000 0.742
1021.000 0.744
1022.000 0.746
1023.000 0.749
1024.000 0.742
1025.000 0.743
1026.000 0.744
1027.000 0.744
1028.000 0.744
1029.000 0.743
1030.000 0.744
1031.000 0.744
1032.000 0.745
1033.000 0.747
1034.000 0.749
1035.000 0.750
1036.000 0.752
1037.000 0.735
1038.000 0.735
1039.000 0.751
1040.000 0.749
1041.000 0.747
1042.000 0.747
1043.000 0.747
1044.000 0.750
1045.000 0.733
1046.000 0.736
1047.000 0.736
1048.000 0.738
1049.000 0.739
1050.000 0.739
1051.000 0.739
1052.000 0.738
1053.000 0.736
1054.000 0.737
1055.000 0.737
1056.000 0.737
1057.000 0.738
1058.000 0.753
1059.000 0.752
1060.000 0.752
1061.000 0.751
1062.000 0.751
1063.000 0.752
1064.000 0.753
1065.000 0.738
1066.000 0.741
1067.000 0.743
1068.000 0.743
1069.000 0.741
1070.000 0.742
1071.000 0.741
1072.000 0.740
1073.000 0.740
1074.000 0.741
1075.000 0.740
1076.000 0.739
1077.000 0.740
1078.000 0.740
1079.000 0.740
1080.000 0.739
1081.000 0.739
1082.000 0.739
1083.000 0.740
1084.000 0.740
1085.000 0.756
1086.000 0.755
1087.000 0.754
1088.000 0.755
1089.000 0.756
1090.000 0.758
1091.000 0.759
1092.000 0.760
1093.000 0.760
1094.000 0.760
1095.000 0.758
1096.000 0.759
1097.000 0.742
1098.000 0.756
1099.000 0.755
1100.000 0.754
1101.000 0.752
1102.000 0.753
1103.000 0.755
1104.000 0.758
1105.000 0.759
1106.000 0.758
1107.000 0.756
1108.000 0.763
1109.000 0.758
1110.000 0.755
1111.000 0.759
1112.000 0.758
1113.000 0.758
1114.000 0.757
1115.000 0.758
1116.000 0.755
1117.000 0.750
1118.000 0.746
1119.000 0.746
1120.000 0.737
1121.000 0.732
1122.000 0.728
1123.000 0.729
1124.000 0.737
1125.000 0.742
1126.000 0.750
1127.000 0.748
1128.000 0.741
1129.000 0.736
1130.000 0.728
1131.000 0.729
1132.000 0.731
1133.000 0.726
1134.000 0.737
1135.000 0.746
1136.000 0.749
1137.000 0.757
1138.000 0.754
1139.000 0.752
1140.000 0.751
1141.000 0.750
1142.000 0.745
1143.000 0.734
1144.000 0.732
1145.000 0.729
1146.000 0.730
1147.000 0.738
1148.000 0.747
1149.000 0.755
1150.000 0.751
1151.000 0.748
1152.000 0.747
1153.000 0.745
1154.000 0.746
1155.000 0.749
1156.000 0.755
1157.000 0.755
1158.000 0.753
1159.000 0.753
1160.000 0.754
1161.000 0.753
1162.000 0.753
1163.000 0.753
1164.000 0.751
1165.000 0.753
1166.000 0.755
1167.000 0.759
1168.000 0.763
1169.000 0.764
1170.000 0.763
1171.000 0.762
1172.000 0.760
1173.000 0.759
1174.000 0.759
1175.000 0.760
1176.000 0.761
1177.000 0.762
1178.000 0.763
1179.000 0.763
1180.000 0.763
1181.000 0.762
1182.000 0.762
1183.000 0.760
1184.000 0.760
1185.000 0.760
1186.000 0.760
1187.000 0.761
1188.000 0.762
1189.000 0.763
1190.000 0.765
1191.000 0.766
1192.000 0.766
1193.000 0.766
1194.000 0.765
1195.000 0.765
1196.000 0.765
1197.000 0.765
1198.000 0.767
1199.000 0.767
1200.000 0.769
1201.000 0.769
1202.000 0.767
1203.000 0.767
1204.000 0.766
1205.000 0.766
1206.000 0.767
1207.000 0.767
1208.000 0.766
1209.000 0.767
1210.000 0.767
1211.000 0.768
1212.000 0.768
1213.000 0.767
1214.000 0.768
1215.000 0.770
1216.000 0.771
1217.000 0.772
1218.000 0.772
1219.000 0.772
1220.000 0.772
1221.000 0.771
1222.000 0.772
1223.000 0.772
1224.000 0.772
1225.000 0.772
1226.000 0.773
1227.000 0.774
1228.000 0.776
1229.000 0.777
1230.000 0.778
1231.000 0.779
1232.000 0.778
1233.000 0.777
1234.000 0.776
1235.000 0.776
1236.000 0.776
1237.000 0.777
1238.000 0.779
1239.000 0.780
1240.000 0.779
1241.000 0.779
1242.000 0.778
1243.000 0.778
1244.000 0.779
1245.000 0.780
1246.000 0.780
1247.000 0.780
1248.000 0.780
1249.000 0.780
1250.000 0.780
1251.000 0.781
1252.000 0.782
1253.000 0.783
1254.000 0.783
1255.000 0.782
1256.000 0.783
1257.000 0.782
1258.000 0.781
1259.000 0.781
1260.000 0.781
1261.000 0.782
1262.000 0.783
1263.000 0.786
1264.000 0.787
1265.000 0.785
1266.000 0.785
1267.000 0.784
1268.000 0.783
1269.000 0.784
1270.000 0.787
1271.000 0.788
1272.000 0.788
1273.000 0.788
1274.000 0.787
1275.000 0.787
1276.000 0.788
1277.000 0.788
1278.000 0.788
1279.000 0.789
1280.000 0.790
1281.000 0.790
1282.000 0.789
1283.000 0.789
1284.000 0.787
1285.000 0.787
1286.000 0.788
1287.000 0.789
1288.000 0.790
1289.000 0.790
1290.000 0.789
1291.000 0.789
1292.000 0.788
1293.000 0.787
1294.000 0.787
1295.000 0.789
1296.000 0.789
1297.000 0.790
1298.000 0.790
1299.000 0.789
1300.000 0.788
1301.000 0.787
1302.000 0.785
1303.000 0.783
1304.000 0.783
1305.000 0.780
1306.000 0.780
1307.000 0.779
1308.000 0.779
1309.000 0.779
1310.000 0.779
1311.000 0.780
1312.000 0.779
1313.000 0.779
1314.000 0.779
1315.000 0.777
1316.000 0.775
1317.000 0.774
1318.000 0.772
1319.000 0.769
1320.000 0.767
1321.000 0.766
1322.000 0.764
1323.000 0.764
1324.000 0.765
1325.000 0.764
1326.000 0.763
1327.000 0.761
1328.000 0.758
1329.000 0.758
1330.000 0.760
1331.000 0.761
1332.000 0.756
1333.000 0.754
1334.000 0.746
1335.000 0.741
1336.000 0.743
1337.000 0.743
1338.000 0.744
1339.000 0.742
1340.000 0.741
1341.000 0.739
1342.000 0.729
1343.000 0.724
1344.000 0.726
1345.000 0.724
1346.000 0.727
1347.000 0.729
1348.000 0.728
1349.000 0.714
1350.000 0.702
1351.000 0.669
1352.000 0.665
1353.000 0.587
1354.000 0.528
1355.000 0.465
1356.000 0.404
1357.000 0.463
1358.000 0.474
1359.000 0.506
1360.000 0.466
1361.000 0.414
1362.000 0.615
1363.000 0.576
1364.000 0.489
1365.000 0.413
1366.000 0.420
1367.000 0.354
1368.000 0.322
1369.000 0.335
1370.000 0.360
1371.000 0.329
1372.000 0.411
1373.000 0.731
1374.000 0.522
1375.000 0.371
1376.000 0.450
1377.000 0.518
1378.000 0.504
1379.000 0.456
1380.000 0.548
1381.000 0.632
1382.000 0.634
1383.000 0.763
1384.000 0.612
1385.000 0.551
1386.000 0.486
1387.000 0.601
1388.000 0.381
1389.000 0.328
1390.000 0.346
1391.000 0.313
1392.000 0.410
1393.000 0.317
1394.000 0.316
1395.000 0.240
1396.000 0.246
1397.000 0.229
1398.000 0.213
1399.000 0.160
1400.000 0.192
1401.000 0.294
1402.000 0.530
1403.000 0.562
1404.000 0.334
1405.000 0.347
1406.000 0.419
1407.000 0.357
1408.000 0.281
1409.000 0.212
1410.000 0.225
1411.000 0.249
1412.000 0.286
1413.000 0.237
1414.000 0.329
1415.000 0.546
1416.000 0.499
1417.000 0.467
1418.000 0.391
1419.000 0.273
1420.000 0.261
1421.000 0.249
1422.000 0.303
1423.000 0.238
1424.000 0.316
1425.000 0.505
1426.000 0.609
1427.000 0.320
1428.000 0.328
1429.000 0.425
1430.000 0.489
1431.000 0.485
1432.000 0.392
1433.000 0.289
1434.000 0.280
1435.000 0.289
1436.000 0.295
1437.000 0.336
1438.000 0.310
1439.000 0.312
1440.000 0.350
1441.000 0.403
1442.000 0.463
1443.000 0.545
1444.000 0.347
1445.000 0.360
1446.000 0.375
1447.000 0.386
1448.000 0.358
1449.000 0.291
1450.000 0.321
1451.000 0.325
1452.000 0.349
1453.000 0.345
1454.000 0.322
1455.000 0.293
1456.000 0.302
1457.000 0.298
1458.000 0.303
1459.000 0.309
1460.000 0.330
1461.000 0.319
1462.000 0.286
1463.000 0.299
1464.000 0.276
1465.000 0.276
1466.000 0.280
1467.000 0.296
1468.000 0.319
1469.000 0.329
1470.000 0.303
1471.000 0.307
1472.000 0.308
1473.000 0.315
1474.000 0.326
1475.000 0.337
1476.000 0.356
1477.000 0.381
1478.000 0.433
1479.000 0.440
1480.000 0.422
1481.000 0.406
1482.000 0.364
1483.000 0.358
1484.000 0.362
1485.000 0.370
1486.000 0.393
1487.000 0.407
1488.000 0.422
1489.000 0.430
1490.000 0.438
1491.000 0.436
1492.000 0.421
1493.000 0.419
1494.000 0.416
1495.000 0.418
1496.000 0.431
1497.000 0.438
1498.000 0.440
1499.000 0.441
1500.000 0.437
1501.000 0.441
1502.000 0.448
1503.000 0.452
1504.000 0.460
1505.000 0.464
1506.000 0.463
1507.000 0.457
1508.000 0.457
1509.000 0.454
1510.000 0.458
1511.000 0.470
1512.000 0.476
1513.000 0.484
1514.000 0.484
1515.000 0.477
1516.000 0.479
1517.000 0.477
1518.000 0.482
1519.000 0.498
1520.000 0.504
1521.000 0.508
1522.000 0.512
1523.000 0.510
1524.000 0.511
1525.000 0.513
1526.000 0.515
1527.000 0.516
1528.000 0.519
1529.000 0.524
1530.000 0.530
1531.000 0.541
1532.000 0.544
1533.000 0.547
1534.000 0.546
1535.000 0.538
1536.000 0.536
1537.000 0.537
1538.000 0.538
1539.000 0.543
1540.000 0.546
1541.000 0.548
1542.000 0.551
1543.000 0.554
1544.000 0.556
1545.000 0.553
1546.000 0.555
1547.000 0.555
1548.000 0.556
1549.000 0.560
1550.000 0.564
1551.000 0.571
1552.000 0.572
1553.000 0.572
1554.000 0.573
1555.000 0.571
1556.000 0.571
1557.000 0.575
1558.000 0.578
1559.000 0.584
1560.000 0.586
1561.000 0.589
1562.000 0.589
1563.000 0.582
1564.000 0.581
1565.000 0.584
1566.000 0.585
1567.000 0.592
1568.000 0.596
1569.000 0.598
1570.000 0.602
1571.000 0.607
1572.000 0.610
1573.000 0.613
1574.000 0.614
1575.000 0.609
1576.000 0.611
1577.000 0.615
1578.000 0.617
1579.000 0.622
1580.000 0.624
1581.000 0.622
1582.000 0.621
1583.000 0.622
1584.000 0.622
1585.000 0.622
1586.000 0.621
1587.000 0.618
1588.000 0.619
1589.000 0.623
1590.000 0.625
1591.000 0.631
1592.000 0.634
1593.000 0.633
1594.000 0.634
1595.000 0.635
1596.000 0.635
1597.000 0.638
1598.000 0.640
1599.000 0.643
1600.000 0.643
1601.000 0.638
1602.000 0.638
1603.000 0.639
1604.000 0.641
1605.000 0.645
1606.000 0.650
1607.000 0.657
1608.000 0.661
1609.000 0.662
1610.000 0.662
1611.000 0.656
1612.000 0.657
1613.000 0.651
1614.000 0.651
1615.000 0.653
1616.000 0.655
1617.000 0.659
1618.000 0.661
1619.000 0.661
1620.000 0.662
1621.000 0.665
1622.000 0.668
1623.000 0.673
1624.000 0.675
1625.000 0.674
1626.000 0.673
1627.000 0.668
1628.000 0.668
1629.000 0.672
1630.000 0.674
1631.000 0.676
1632.000 0.677
1633.000 0.673
1634.000 0.673
1635.000 0.676
1636.000 0.678
1637.000 0.686
1638.000 0.686
1639.000 0.676
1640.000 0.674
1641.000 0.668
1642.000 0.666
1643.000 0.674
1644.000 0.678
1645.000 0.682
1646.000 0.683
1647.000 0.682
1648.000 0.681
1649.000 0.678
1650.000 0.676
1651.000 0.672
1652.000 0.672
1653.000 0.675
1654.000 0.677
1655.000 0.684
1656.000 0.687
1657.000 0.682
1658.000 0.681
1659.000 0.682
1660.000 0.682
1661.000 0.681
1662.000 0.680
1663.000 0.680
1664.000 0.677
1665.000 0.671
1666.000 0.671
1667.000 0.675
1668.000 0.676
1669.000 0.683
1670.000 0.683
1671.000 0.675
1672.000 0.674
1673.000 0.677
1674.000 0.677
1675.000 0.678
1676.000 0.679
1677.000 0.676
1678.000 0.674
1679.000 0.676
1680.000 0.676
1681.000 0.678
1682.000 0.678
1683.000 0.674
1684.000 0.673
1685.000 0.669
1686.000 0.668
1687.000 0.674
1688.000 0.675
1689.000 0.676
1690.000 0.676
1691.000 0.676
1692.000 0.675
1693.000 0.672
1694.000 0.674
1695.000 0.682
1696.000 0.684
1697.000 0.689
1698.000 0.689
1699.000 0.681
1700.000 0.677
1701.000 0.674
1702.000 0.675
1703.000 0.678
1704.000 0.679
1705.000 0.681
1706.000 0.681
1707.000 0.677
1708.000 0.675
1709.000 0.677
1710.000 0.673
1711.000 0.664
1712.000 0.665
1713.000 0.665
1714.000 0.675
1715.000 0.687
1716.000 0.687
1717.000 0.688
1718.000 0.690
1719.000 0.684
1720.000 0.674
1721.000 0.671
1722.000 0.660
1723.000 0.652
1724.000 0.651
1725.000 0.648
1726.000 0.647
1727.000 0.647
1728.000 0.650
1729.000 0.659
1730.000 0.663
1731.000 0.669
1732.000 0.674
1733.000 0.667
1734.000 0.661
1735.000 0.659
1736.000 0.658
1737.000 0.655
1738.000 0.656
1739.000 0.654
1740.000 0.646
1741.000 0.640
1742.000 0.635
1743.000 0.637
1744.000 0.649
1745.000 0.652
1746.000 0.655
1747.000 0.655
1748.000 0.642
1749.000 0.638
1750.000 0.638
1751.000 0.638
1752.000 0.645
1753.000 0.644
1754.000 0.642
1755.000 0.644
1756.000 0.637
1757.000 0.643
1758.000 0.661
1759.000 0.669
1760.000 0.670
1761.000 0.671
1762.000 0.681
1763.000 0.680
1764.000 0.663
1765.000 0.642
1766.000 0.622
1767.000 0.611
1768.000 0.619
1769.000 0.624
1770.000 0.641
1771.000 0.635
1772.000 0.612
1773.000 0.594
1774.000 0.585
1775.000 0.571
1776.000 0.562
1777.000 0.576
1778.000 0.577
1779.000 0.582
1780.000 0.616
1781.000 0.634
1782.000 0.645
1783.000 0.660
1784.000 0.641
1785.000 0.606
1786.000 0.607
1787.000 0.612
1788.000 0.618
1789.000 0.657
1790.000 0.656
1791.000 0.587
1792.000 0.585
1793.000 0.655
1794.000 0.639
1795.000 0.610
1796.000 0.625
1797.000 0.547
1798.000 0.553
1799.000 0.605
1800.000 0.598
1801.000 0.585
1802.000 0.565
1803.000 0.667
1804.000 0.723
1805.000 0.721
1806.000 0.610
1807.000 0.575
1808.000 0.595
1809.000 0.602
1810.000 0.551
1811.000 0.427
1812.000 0.519
1813.000 0.496
1814.000 0.431
1815.000 0.637
1816.000 0.787
1817.000 0.658
1818.000 0.610
1819.000 0.364
1820.000 0.407
1821.000 0.350
1822.000 0.508
1823.000 0.590
1824.000 0.350
1825.000 0.438
1826.000 0.600
1827.000 0.689
1828.000 0.707
1829.000 0.649
1830.000 0.654
1831.000 0.641
1832.000 0.693
1833.000 0.740
1834.000 0.764
1835.000 0.720
1836.000 0.653
1837.000 0.498
1838.000 0.489
1839.000 0.443
1840.000 0.488
1841.000 0.508
1842.000 0.617
1843.000 0.502
1844.000 0.578
1845.000 0.656
1846.000 0.643
1847.000 0.569
1848.000 0.482
1849.000 0.465
1850.000 0.460
1851.000 0.469
1852.000 0.556
1853.000 0.559
1854.000 0.494
1855.000 0.685
1856.000 0.649
1857.000 0.613
1858.000 0.601
1859.000 0.623
1860.000 0.611
1861.000 0.531
1862.000 0.486
1863.000 0.369
1864.000 0.351
1865.000 0.441
1866.000 0.523
1867.000 0.642
1868.000 0.653
1869.000 0.720
1870.000 0.513
1871.000 0.434
1872.000 0.530
1873.000 0.657
1874.000 0.637
1875.000 0.531
1876.000 0.307
1877.000 0.482
1878.000 0.435
1879.000 0.474
1880.000 0.456
1881.000 0.439
1882.000 0.458
1883.000 0.476
1884.000 0.585
1885.000 0.305
1886.000 0.591
1887.000 0.689
1888.000 0.569
1889.000 0.448
1890.000 0.465
1891.000 0.408
1892.000 0.427
1893.000 0.350
1894.000 0.379
1895.000 0.375
1896.000 0.560
1897.000 0.547
1898.000 0.775
1899.000 0.661
1900.000 0.624
1901.000 0.574
1902.000 0.535
1903.000 0.473
1904.000 0.493
1905.000 0.401
1906.000 0.459
1907.000 0.530
1908.000 0.623
1909.000 0.788
1910.000 0.280
1911.000 0.351
1912.000 0.329
1913.000 0.395
1914.000 0.424
1915.000 0.785
1916.000 0.611
1917.000 0.640
1918.000 0.644
1919.000 0.665
1920.000 0.704
1921.000 0.796
1922.000 0.619
1923.000 0.495
1924.000 0.360
1925.000 0.415
1926.000 0.478
1927.000 0.602
1928.000 0.549
1929.000 0.501
1930.000 0.477
1931.000 0.427
1932.000 0.540
1933.000 0.449
1934.000 0.633
1935.000 0.654
1936.000 0.715
1937.000 0.641
1938.000 0.612
1939.000 0.529
1940.000 0.449
1941.000 0.394
1942.000 0.371
1943.000 0.555
1944.000 0.448
1945.000 0.498
1946.000 0.252
1947.000 0.265
1948.000 0.317
1949.000 0.305
1950.000 0.250
1951.000 0.352
1952.000 0.494
1953.000 0.458
1954.000 0.508
1955.000 0.601
1956.000 0.546
1957.000 0.736
1958.000 0.748
1959.000 0.628
1960.000 0.595
1961.000 0.482
1962.000 0.390
1963.000 0.451
1964.000 0.402
1965.000 0.357
1966.000 0.396
1967.000 0.416
1968.000 0.334
1969.000 0.417
1970.000 0.419
1971.000 0.441
1972.000 0.556
1973.000 0.482
1974.000 0.447
1975.000 0.428
1976.000 0.343
1977.000 0.451
1978.000 0.537
1979.000 0.360
1980.000 0.582
1981.000 0.539
1982.000 0.545
1983.000 0.504
1984.000 0.406
1985.000 0.310
1986.000 0.290
1987.000 0.304
1988.000 0.297
1989.000 0.272
1990.000 0.252
1991.000 0.291
1992.000 0.310
1993.000 0.399
1994.000 0.505
1995.000 0.486
1996.000 0.482
1997.000 0.497
1998.000 0.439
1999.000 0.451
2000.000 0.403
2001.000 0.271
2002.000 0.364
2003.000 0.539
2004.000 0.595
2005.000 0.588
2006.000 0.608
2007.000 0.602
2008.000 0.495
2009.000 0.403
2010.000 0.550
2011.000 0.407
2012.000 0.314
2013.000 0.394
2014.000 0.483
2015.000 0.487
2016.000 0.350
2017.000 0.333
2018.000 0.364
2019.000 0.334
2020.000 0.398
2021.000 0.401
2022.000 0.486
2023.000 0.572
2024.000 0.353
2025.000 0.457
2026.000 0.530
2027.000 0.584
2028.000 0.645
2029.000 0.590
2030.000 0.410
2031.000 0.386
2032.000 0.392
2033.000 0.403
2034.000 0.462
2035.000 0.520
2036.000 0.381
2037.000 0.340
2038.000 0.328
2039.000 0.269
2040.000 0.289
2041.000 0.321
2042.000 0.322
2043.000 0.288
2044.000 0.293
2045.000 0.309
2046.000 0.315
2047.000 0.322
2048.000 0.332
2049.000 0.332
2050.000 0.330
2051.000 0.332
2052.000 0.334
2053.000 0.336
2054.000 0.415
2055.000 0.414
2056.000 0.379
2057.000 0.382
2058.000 0.404
2059.000 0.430
2060.000 0.489
2061.000 0.508
2062.000 0.594
2063.000 0.586
2064.000 0.568
2065.000 0.606
2066.000 0.567
2067.000 0.498
2068.000 0.505
2069.000 0.465
2070.000 0.447
2071.000 0.493
2072.000 0.498
2073.000 0.487
2074.000 0.466
2075.000 0.437
2076.000 0.426
2077.000 0.407
2078.000 0.402
2079.000 0.417
2080.000 0.417
2081.000 0.405
2082.000 0.410
2083.000 0.421
2084.000 0.418
2085.000 0.376
2086.000 0.373
2087.000 0.369
2088.000 0.354
2089.000 0.363
2090.000 0.409
2091.000 0.439
2092.000 0.537
2093.000 0.511
2094.000 0.520
2095.000 0.515
2096.000 0.486
2097.000 0.489
2098.000 0.521
2099.000 0.520
2100.000 0.493
2101.000 0.447
2102.000 0.418
2103.000 0.435
2104.000 0.432
2105.000 0.462
2106.000 0.445
2107.000 0.399
2108.000 0.383
2109.000 0.361
2110.000 0.360
2111.000 0.378
2112.000 0.383
2113.000 0.401
2114.000 0.404
2115.000 0.386
2116.000 0.384
2117.000 0.388
2118.000 0.388
2119.000 0.390
2120.000 0.404
2121.000 0.439
2122.000 0.450
2123.000 0.463
2124.000 0.488
2125.000 0.501
2126.000 0.501
2127.000 0.484
2128.000 0.452
2129.000 0.438
2130.000 0.423
2131.000 0.402
2132.000 0.384
2133.000 0.384
2134.000 0.390
2135.000 0.387
2136.000 0.390
2137.000 0.398
2138.000 0.393
2139.000 0.372
2140.000 0.368
2141.000 0.374
2142.000 0.385
2143.000 0.405
2144.000 0.423
2145.000 0.458
2146.000 0.472
2147.000 0.464
2148.000 0.461
2149.000 0.446
2150.000 0.448
2151.000 0.455
2152.000 0.465
2153.000 0.499
2154.000 0.516
2155.000 0.541
2156.000 0.516
2157.000 0.495
2158.000 0.494
2159.000 0.456
2160.000 0.449
2161.000 0.449
2162.000 0.455
2163.000 0.450
2164.000 0.461
2165.000 0.463
2166.000 0.447
2167.000 0.441
2168.000 0.448
2169.000 0.445
2170.000 0.439
2171.000 0.430
2172.000 0.413
2173.000 0.400
2174.000 0.383
2175.000 0.374
2176.000 0.361
2177.000 0.371
2178.000 0.396
2179.000 0.403
2180.000 0.416
2181.000 0.443
2182.000 0.445
2183.000 0.460
2184.000 0.490
2185.000 0.559
2186.000 0.573
2187.000 0.598
2188.000 0.571
2189.000 0.533
2190.000 0.503
2191.000 0.423
2192.000 0.425
2193.000 0.466
2194.000 0.490
2195.000 0.525
2196.000 0.538
2197.000 0.532
2198.000 0.532
2199.000 0.514
2200.000 0.508
2201.000 0.519
2202.000 0.525
2203.000 0.485
2204.000 0.507
2205.000 0.461
2206.000 0.427
2207.000 0.432
2208.000 0.396
2209.000 0.395
2210.000 0.426
2211.000 0.438
2212.000 0.461
2213.000 0.459
2214.000 0.422
2215.000 0.420
2216.000 0.427
2217.000 0.429
2218.000 0.445
2219.000 0.456
2220.000 0.451
2221.000 0.450
2222.000 0.463
2223.000 0.459
2224.000 0.437
2225.000 0.430
2226.000 0.430
2227.000 0.420
2228.000 0.429
2229.000 0.428
2230.000 0.416
2231.000 0.419
2232.000 0.437
2233.000 0.449
2234.000 0.471
2235.000 0.502
2236.000 0.457
2237.000 0.444
2238.000 0.437
2239.000 0.415
2240.000 0.410
2241.000 0.425
2242.000 0.427
2243.000 0.421
2244.000 0.415
2245.000 0.415
2246.000 0.416
2247.000 0.417
2248.000 0.408
2249.000 0.389
2250.000 0.384
2251.000 0.373
2252.000 0.379
2253.000 0.417
2254.000 0.430
2255.000 0.416
2256.000 0.427
2257.000 0.454
2258.000 0.458
2259.000 0.464
2260.000 0.497
2261.000 0.479
2262.000 0.435
2263.000 0.418
2264.000 0.422
2265.000 0.420
2266.000 0.443
2267.000 0.456
2268.000 0.439
2269.000 0.448
2270.000 0.446
2271.000 0.424
2272.000 0.435
2273.000 0.447
2274.000 0.458
2275.000 0.467
2276.000 0.511
2277.000 0.489
2278.000 0.433
2279.000 0.398
2280.000 0.326
2281.000 0.309
2282.000 0.320
2283.000 0.327
2284.000 0.375
2285.000 0.384
2286.000 0.355
2287.000 0.368
2288.000 0.441
2289.000 0.473
2290.000 0.516
2291.000 0.575
2292.000 0.483
2293.000 0.433
2294.000 0.381
2295.000 0.350
2296.000 0.320
2297.000 0.355
2298.000 0.308
2299.000 0.319
2300.000 0.305
2301.000 0.323
2302.000 0.342
2303.000 0.382
2304.000 0.453
2305.000 0.495
2306.000 0.443
2307.000 0.389
2308.000 0.660
2309.000 0.645
2310.000 0.589
2311.000 0.614
2312.000 0.492
2313.000 0.522
2314.000 0.477
2315.000 0.526
2316.000 0.573
2317.000 0.558
2318.000 0.558
2319.000 0.512
2320.000 0.482
2321.000 0.490
2322.000 0.533
2323.000 0.484
2324.000 0.543
2325.000 0.593
2326.000 0.517
2327.000 0.553
2328.000 0.557
2329.000 0.489
2330.000 0.415
2331.000 0.337
2332.000 0.278
2333.000 0.320
2334.000 0.278
2335.000 0.353
2336.000 0.413
2337.000 0.638
2338.000 0.522
2339.000 0.423
2340.000 0.423
2341.000 0.459
2342.000 0.503
2343.000 0.308
2344.000 0.273
2345.000 0.232
2346.000 0.220
2347.000 0.251
2348.000 0.251
2349.000 0.321
2350.000 0.272
2351.000 0.374
2352.000 0.440
2353.000 0.441
2354.000 0.484
2355.000 0.543
2356.000 0.473
2357.000 0.435
2358.000 0.402
2359.000 0.350
2360.000 0.481
2361.000 0.712
2362.000 0.454
2363.000 0.333
2364.000 0.215
2365.000 0.245
2366.000 0.347
2367.000 0.374
2368.000 0.367
2369.000 0.432
2370.000 0.442
2371.000 0.568
2372.000 0.584
2373.000 0.647
2374.000 0.416
2375.000 0.746
2376.000 0.661
2377.000 0.430
2378.000 0.427
2379.000 0.424
2380.000 0.534
2381.000 0.510
2382.000 0.548
2383.000 0.375
2384.000 0.437
2385.000 0.412
2386.000 0.309
2387.000 0.212
2388.000 0.264
2389.000 0.321
2390.000 0.378
2391.000 0.372
2392.000 0.591
2393.000 0.325
2394.000 0.452
2395.000 0.525
2396.000 0.441
2397.000 0.362
2398.000 0.230
2399.000 0.263
2400.000 0.377
2401.000 0.333
2402.000 0.373
2403.000 0.447
2404.000 0.695
2405.000 0.474
2406.000 0.171
2407.000 0.548
2408.000 0.452
2409.000 0.559
2410.000 0.439
2411.000 0.452
2412.000 0.387
2413.000 0.433
2414.000 0.514
2415.000 0.628
2416.000 0.186
2417.000 0.499
2418.000 0.576
2419.000 0.586
2420.000 0.556
2421.000 0.275
2422.000 0.300
2423.000 0.781
2424.000 0.802
2425.000 0.733
2426.000 0.691
2427.000 0.648
2428.000 0.430
2429.000 0.454
2430.000 0.505
2431.000 0.545
2432.000 0.504
2433.000 0.636
2434.000 0.604
2435.000 0.416
2436.000 0.663
2437.000 0.551
2438.000 0.545
2439.000 0.415
2440.000 0.439
2441.000 0.653
2442.000 0.636
2443.000 0.243
2444.000 0.232
2445.000 0.226
2446.000 0.407
2447.000 0.420
2448.000 0.505
2449.000 0.524
2450.000 0.405
2451.000 0.435
2452.000 0.324
2453.000 0.495
2454.000 0.561
2455.000 0.509
2456.000 0.237
2457.000 0.350
2458.000 0.251
2459.000 0.436
2460.000 0.384
2461.000 0.381
2462.000 0.470
2463.000 0.555
2464.000 0.625
2465.000 0.413
2466.000 0.282
2467.000 0.477
2468.000 0.646
2469.000 0.392
2470.000 0.320
2471.000 0.254
2472.000 0.163
2473.000 0.116
2474.000 0.190
2475.000 0.643
2476.000 0.211
2477.000 0.461
2478.000 0.442
2479.000 0.507
2480.000 0.351
2481.000 0.729
2482.000 0.400
2483.000 0.408
2484.000 0.218
2485.000 0.372
2486.000 0.525
2487.000 0.685
2488.000 0.569
2489.000 0.366
2490.000 0.429
2491.000 0.399
2492.000 0.407
2493.000 0.425
2494.000 0.473
2495.000 0.601
2496.000 0.643
2497.000 0.560
2498.000 0.588
2499.000 0.439
2500.000 0.445
