391.000 0.054
392.000 0.050
393.000 0.047
394.000 0.053
395.000 0.057
396.000 0.057
397.000 0.054
398.000 0.051
399.000 0.052
400.000 0.053
401.000 0.052
402.000 0.052
403.000 0.053
404.000 0.054
405.000 0.053
406.000 0.053
407.000 0.054
408.000 0.054
409.000 0.055
410.000 0.054
411.000 0.054
412.000 0.053
413.000 0.056
414.000 0.055
415.000 0.052
416.000 0.052
417.000 0.052
418.000 0.053
419.000 0.053
420.000 0.053
421.000 0.052
422.000 0.051
423.000 0.052
424.000 0.053
425.000 0.054
426.000 0.054
427.000 0.052
428.000 0.053
429.000 0.054
430.000 0.053
431.000 0.053
432.000 0.053
433.000 0.053
434.000 0.052
435.000 0.051
436.000 0.052
437.000 0.054
438.000 0.053
439.000 0.053
440.000 0.054
441.000 0.054
442.000 0.055
443.000 0.056
444.000 0.055
445.000 0.052
446.000 0.053
447.000 0.054
448.000 0.054
449.000 0.053
450.000 0.053
451.000 0.054
452.000 0.054
453.000 0.056
454.000 0.055
455.000 0.054
456.000 0.054
457.000 0.054
458.000 0.054
459.000 0.054
460.000 0.055
461.000 0.055
462.000 0.055
463.000 0.055
464.000 0.056
465.000 0.055
466.000 0.055
467.000 0.055
468.000 0.057
469.000 0.055
470.000 0.054
471.000 0.054
472.000 0.053
473.000 0.055
474.000 0.058
475.000 0.058
476.000 0.056
477.000 0.056
478.000 0.057
479.000 0.055
480.000 0.055
481.000 0.055
482.000 0.057
483.000 0.056
484.000 0.055
485.000 0.056
486.000 0.056
487.000 0.056
488.000 0.056
489.000 0.058
490.000 0.058
491.000 0.057
492.000 0.056
493.000 0.058
494.000 0.058
495.000 0.058
496.000 0.059
497.000 0.059
498.000 0.060
499.000 0.060
500.000 0.060
501.000 0.062
502.000 0.063
503.000 0.064
504.000 0.064
505.000 0.066
506.000 0.067
507.000 0.067
508.000 0.069
509.000 0.071
510.000 0.072
511.000 0.073
512.000 0.077
513.000 0.080
514.000 0.082
515.000 0.083
516.000 0.087
517.000 0.091
518.000 0.094
519.000 0.097
520.000 0.100
521.000 0.103
522.000 0.107
523.000 0.111
524.000 0.115
525.000 0.119
526.000 0.122
527.000 0.125
528.000 0.128
529.000 0.130
530.000 0.134
531.000 0.137
532.000 0.139
533.000 0.140
534.000 0.142
535.000 0.145
536.000 0.147
537.000 0.148
538.000 0.149
539.000 0.149
540.000 0.151
541.000 0.151
542.000 0.153
543.000 0.153
544.000 0.154
545.000 0.154
546.000 0.154
547.000 0.155
548.000 0.155
549.000 0.156
550.000 0.157
551.000 0.156
552.000 0.156
553.000 0.157
554.000 0.156
555.000 0.156
556.000 0.155
557.000 0.154
558.000 0.153
559.000 0.152
560.000 0.152
561.000 0.150
562.000 0.148
563.000 0.147
564.000 0.145
565.000 0.142
566.000 0.140
567.000 0.138
568.000 0.136
569.000 0.134
570.000 0.132
571.000 0.130
572.000 0.128
573.000 0.127
574.000 0.125
575.000 0.123
576.000 0.120
577.000 0.118
578.000 0.117
579.000 0.116
580.000 0.115
581.000 0.114
582.000 0.112
583.000 0.110
584.000 0.109
585.000 0.109
586.000 0.109
587.000 0.107
588.000 0.106
589.000 0.105
590.000 0.105
591.000 0.103
592.000 0.103
593.000 0.103
594.000 0.102
595.000 0.102
596.000 0.102
597.000 0.101
598.000 0.101
599.000 0.100
600.000 0.099
601.000 0.099
602.000 0.099
603.000 0.099
604.000 0.098
605.000 0.097
606.000 0.097
607.000 0.096
608.000 0.094
609.000 0.095
610.000 0.095
611.000 0.093
612.000 0.093
613.000 0.093
614.000 0.092
615.000 0.090
616.000 0.090
617.000 0.089
618.000 0.089
619.000 0.089
620.000 0.089
621.000 0.089
622.000 0.088
623.000 0.088
624.000 0.087
625.000 0.087
626.000 0.087
627.000 0.087
628.000 0.088
629.000 0.087
630.000 0.087
631.000 0.087
632.000 0.087
633.000 0.086
634.000 0.085
635.000 0.085
636.000 0.085
637.000 0.083
638.000 0.084
639.000 0.082
640.000 0.080
641.000 0.079
642.000 0.078
643.000 0.077
644.000 0.076
645.000 0.075
646.000 0.073
647.000 0.072
648.000 0.075
649.000 0.074
650.000 0.072
651.000 0.072
652.000 0.073
653.000 0.071
654.000 0.069
655.000 0.070
656.000 0.070
657.000 0.069
658.000 0.070
659.000 0.071
660.000 0.070
661.000 0.069
662.000 0.068
663.000 0.069
664.000 0.068
665.000 0.066
666.000 0.067
667.000 0.067
668.000 0.068
669.000 0.069
670.000 0.068
671.000 0.069
672.000 0.069
673.000 0.069
674.000 0.070
675.000 0.070
676.000 0.070
677.000 0.072
678.000 0.072
679.000 0.075
680.000 0.076
681.000 0.076
682.000 0.078
683.000 0.079
684.000 0.079
685.000 0.083
686.000 0.086
687.000 0.088
688.000 0.090
689.000 0.096
690.000 0.099
691.000 0.101
692.000 0.105
693.000 0.111
694.000 0.119
695.000 0.128
696.000 0.136
697.000 0.145
698.000 0.154
699.000 0.166
700.000 0.178
701.000 0.190
702.000 0.202
703.000 0.214
704.000 0.226
705.000 0.238
706.000 0.249
707.000 0.260
708.000 0.272
709.000 0.284
710.000 0.296
711.000 0.308
712.000 0.319
713.000 0.331
714.000 0.343
715.000 0.356
716.000 0.368
717.000 0.379
718.000 0.392
719.000 0.407
720.000 0.421
721.000 0.432
722.000 0.442
723.000 0.453
724.000 0.465
725.000 0.477
726.000 0.488
727.000 0.499
728.000 0.509
729.000 0.519
730.000 0.526
731.000 0.535
732.000 0.545
733.000 0.554
734.000 0.561
735.000 0.567
736.000 0.574
737.000 0.581
738.000 0.588
739.000 0.594
740.000 0.598
741.000 0.604
742.000 0.609
743.000 0.614
744.000 0.619
745.000 0.623
746.000 0.627
747.000 0.631
748.000 0.633
749.000 0.636
750.000 0.639
751.000 0.642
752.000 0.645
753.000 0.647
754.000 0.649
755.000 0.651
756.000 0.653
757.000 0.655
758.000 0.655
759.000 0.656
760.000 0.657
761.000 0.658
762.000 0.660
763.000 0.660
764.000 0.661
765.000 0.663
766.000 0.664
767.000 0.664
768.000 0.665
769.000 0.665
770.000 0.666
771.000 0.667
772.000 0.667
773.000 0.668
774.000 0.668
775.000 0.669
776.000 0.669
777.000 0.670
778.000 0.670
779.000 0.671
780.000 0.672
781.000 0.672
782.000 0.673
783.000 0.673
784.000 0.673
785.000 0.674
786.000 0.674
787.000 0.674
788.000 0.675
789.000 0.675
790.000 0.676
791.000 0.676
792.000 0.676
793.000 0.675
794.000 0.676
795.000 0.676
796.000 0.676
797.000 0.677
798.000 0.678
799.000 0.678
800.000 0.678
801.000 0.678
802.000 0.679
803.000 0.679
804.000 0.679
805.000 0.680
806.000 0.681
807.000 0.681
808.000 0.681
809.000 0.682
810.000 0.681
811.000 0.681
812.000 0.681
813.000 0.680
814.000 0.680
815.000 0.679
816.000 0.679
817.000 0.680
818.000 0.680
819.000 0.682
820.000 0.682
821.000 0.682
822.000 0.682
823.000 0.683
824.000 0.684
825.000 0.684
826.000 0.685
827.000 0.685
828.000 0.685
829.000 0.685
830.000 0.686
831.000 0.686
832.000 0.686
833.000 0.687
834.000 0.687
835.000 0.688
836.000 0.689
837.000 0.689
838.000 0.689
839.000 0.690
840.000 0.690
841.000 0.690
842.000 0.691
843.000 0.692
844.000 0.692
845.000 0.692
846.000 0.692
847.000 0.692
848.000 0.692
849.000 0.693
850.000 0.693
851.000 0.693
852.000 0.694
853.000 0.694
854.000 0.695
855.000 0.695
856.000 0.695
857.000 0.695
858.000 0.695
859.000 0.695
860.000 0.695
861.000 0.696
862.000 0.696
863.000 0.696
864.000 0.696
865.000 0.696
866.000 0.697
867.000 0.697
868.000 0.697
869.000 0.697
870.000 0.697
871.000 0.695
872.000 0.695
873.000 0.695
874.000 0.695
875.000 0.696
876.000 0.696
877.000 0.697
878.000 0.696
879.000 0.696
880.000 0.697
881.000 0.697
882.000 0.697
883.000 0.698
884.000 0.698
885.000 0.698
886.000 0.699
887.000 0.699
888.000 0.698
889.000 0.698
890.000 0.698
891.000 0.699
892.000 0.699
893.000 0.698
894.000 0.697
895.000 0.697
896.000 0.697
897.000 0.696
898.000 0.695
899.000 0.693
900.000 0.694
901.000 0.693
902.000 0.695
903.000 0.695
904.000 0.699
905.000 0.698
906.000 0.694
907.000 0.695
908.000 0.695
909.000 0.695
910.000 0.694
911.000 0.692
912.000 0.695
913.000 0.692
914.000 0.692
915.000 0.692
916.000 0.693
917.000 0.692
918.000 0.693
919.000 0.694
920.000 0.696
921.000 0.696
922.000 0.698
923.000 0.698
924.000 0.695
925.000 0.695
926.000 0.692
927.000 0.692
928.000 0.694
929.000 0.688
930.000 0.683
931.000 0.679
932.000 0.673
933.000 0.675
934.000 0.673
935.000 0.664
936.000 0.661
937.000 0.660
938.000 0.657
939.000 0.663
940.000 0.665
941.000 0.659
942.000 0.657
943.000 0.658
944.000 0.661
945.000 0.657
946.000 0.657
947.000 0.658
948.000 0.656
949.000 0.655
950.000 0.655
951.000 0.655
952.000 0.658
953.000 0.655
954.000 0.657
955.000 0.656
956.000 0.647
957.000 0.653
958.000 0.658
959.000 0.653
960.000 0.650
961.000 0.653
962.000 0.655
963.000 0.655
964.000 0.663
965.000 0.667
966.000 0.664
967.000 0.658
968.000 0.663
969.000 0.661
970.000 0.660
971.000 0.662
972.000 0.664
973.000 0.666
974.000 0.664
975.000 0.665
976.000 0.667
977.000 0.666
978.000 0.667
979.000 0.669
980.000 0.666
981.000 0.669
982.000 0.670
983.000 0.665
984.000 0.670
985.000 0.674
986.000 0.671
987.000 0.670
988.000 0.674
989.000 0.673
990.000 0.670
991.000 0.671
992.000 0.672
993.000 0.673
994.000 0.674
995.000 0.676
996.000 0.677
997.000 0.675
998.000 0.676
999.000 0.677
1000.000 0.677
1001.000 0.680
1002.000 0.680
1003.000 0.680
1004.000 0.680
1005.000 0.681
1006.000 0.682
1007.000 0.684
1008.000 0.684
1009.000 0.685
1010.000 0.687
1011.000 0.687
1012.000 0.688
1013.000 0.688
1014.000 0.689
1015.000 0.689
1016.000 0.691
1017.000 0.691
1018.000 0.692
1019.000 0.693
1020.000 0.694
1021.000 0.694
1022.000 0.696
1023.000 0.698
1024.000 0.697
1025.000 0.698
1026.000 0.699
1027.000 0.700
1028.000 0.701
1029.000 0.701
1030.000 0.702
1031.000 0.701
1032.000 0.702
1033.000 0.702
1034.000 0.703
1035.000 0.704
1036.000 0.705
1037.000 0.700
1038.000 0.701
1039.000 0.707
1040.000 0.708
1041.000 0.709
1042.000 0.711
1043.000 0.711
1044.000 0.711
1045.000 0.706
1046.000 0.707
1047.000 0.707
1048.000 0.709
1049.000 0.711
1050.000 0.711
1051.000 0.712
1052.000 0.712
1053.000 0.712
1054.000 0.713
1055.000 0.714
1056.000 0.715
1057.000 0.715
1058.000 0.720
1059.000 0.720
1060.000 0.719
1061.000 0.718
1062.000 0.718
1063.000 0.719
1064.000 0.720
1065.000 0.715
1066.000 0.715
1067.000 0.715
1068.000 0.714
1069.000 0.714
1070.000 0.715
1071.000 0.715
1072.000 0.715
1073.000 0.715
1074.000 0.714
1075.000 0.714
1076.000 0.714
1077.000 0.715
1078.000 0.715
1079.000 0.715
1080.000 0.714
1081.000 0.713
1082.000 0.712
1083.000 0.712
1084.000 0.713
1085.000 0.719
1086.000 0.719
1087.000 0.719
1088.000 0.719
1089.000 0.718
1090.000 0.720
1091.000 0.720
1092.000 0.719
1093.000 0.718
1094.000 0.718
1095.000 0.716
1096.000 0.714
1097.000 0.709
1098.000 0.712
1099.000 0.712
1100.000 0.712
1101.000 0.711
1102.000 0.711
1103.000 0.712
1104.000 0.711
1105.000 0.710
1106.000 0.708
1107.000 0.705
1108.000 0.706
1109.000 0.704
1110.000 0.702
1111.000 0.701
1112.000 0.699
1113.000 0.698
1114.000 0.696
1115.000 0.696
1116.000 0.697
1117.000 0.693
1118.000 0.689
1119.000 0.689
1120.000 0.678
1121.000 0.672
1122.000 0.671
1123.000 0.670
1124.000 0.678
1125.000 0.679
1126.000 0.671
1127.000 0.665
1128.000 0.660
1129.000 0.654
1130.000 0.645
1131.000 0.646
1132.000 0.640
1133.000 0.632
1134.000 0.640
1135.000 0.644
1136.000 0.642
1137.000 0.646
1138.000 0.643
1139.000 0.641
1140.000 0.638
1141.000 0.639
1142.000 0.634
1143.000 0.622
1144.000 0.619
1145.000 0.617
1146.000 0.615
1147.000 0.618
1148.000 0.620
1149.000 0.621
1150.000 0.613
1151.000 0.609
1152.000 0.611
1153.000 0.611
1154.000 0.613
1155.000 0.618
1156.000 0.622
1157.000 0.622
1158.000 0.620
1159.000 0.620
1160.000 0.620
1161.000 0.620
1162.000 0.622
1163.000 0.621
1164.000 0.621
1165.000 0.621
1166.000 0.622
1167.000 0.622
1168.000 0.624
1169.000 0.624
1170.000 0.624
1171.000 0.623
1172.000 0.623
1173.000 0.622
1174.000 0.622
1175.000 0.622
1176.000 0.622
1177.000 0.622
1178.000 0.622
1179.000 0.621
1180.000 0.621
1181.000 0.620
1182.000 0.620
1183.000 0.620
1184.000 0.620
1185.000 0.620
1186.000 0.621
1187.000 0.621
1188.000 0.621
1189.000 0.621
1190.000 0.622
1191.000 0.622
1192.000 0.620
1193.000 0.620
1194.000 0.619
1195.000 0.619
1196.000 0.618
1197.000 0.618
1198.000 0.618
1199.000 0.618
1200.000 0.619
1201.000 0.619
1202.000 0.619
1203.000 0.619
1204.000 0.619
1205.000 0.620
1206.000 0.620
1207.000 0.621
1208.000 0.621
1209.000 0.621
1210.000 0.621
1211.000 0.621
1212.000 0.621
1213.000 0.621
1214.000 0.622
1215.000 0.623
1216.000 0.623
1217.000 0.623
1218.000 0.624
1219.000 0.625
1220.000 0.625
1221.000 0.626
1222.000 0.627
1223.000 0.627
1224.000 0.627
1225.000 0.627
1226.000 0.627
1227.000 0.627
1228.000 0.627
1229.000 0.628
1230.000 0.630
1231.000 0.630
1232.000 0.630
1233.000 0.630
1234.000 0.631
1235.000 0.631
1236.000 0.631
1237.000 0.631
1238.000 0.633
1239.000 0.633
1240.000 0.634
1241.000 0.634
1242.000 0.634
1243.000 0.634
1244.000 0.635
1245.000 0.636
1246.000 0.638
1247.000 0.638
1248.000 0.638
1249.000 0.638
1250.000 0.638
1251.000 0.638
1252.000 0.639
1253.000 0.639
1254.000 0.639
1255.000 0.639
1256.000 0.639
1257.000 0.640
1258.000 0.640
1259.000 0.640
1260.000 0.640
1261.000 0.640
1262.000 0.641
1263.000 0.643
1264.000 0.643
1265.000 0.642
1266.000 0.642
1267.000 0.641
1268.000 0.640
1269.000 0.641
1270.000 0.642
1271.000 0.642
1272.000 0.642
1273.000 0.642
1274.000 0.642
1275.000 0.641
1276.000 0.642
1277.000 0.642
1278.000 0.641
1279.000 0.641
1280.000 0.641
1281.000 0.640
1282.000 0.640
1283.000 0.639
1284.000 0.639
1285.000 0.638
1286.000 0.638
1287.000 0.637
1288.000 0.637
1289.000 0.636
1290.000 0.635
1291.000 0.634
1292.000 0.632
1293.000 0.631
1294.000 0.630
1295.000 0.628
1296.000 0.628
1297.000 0.628
1298.000 0.627
1299.000 0.626
1300.000 0.625
1301.000 0.625
1302.000 0.623
1303.000 0.621
1304.000 0.619
1305.000 0.615
1306.000 0.614
1307.000 0.612
1308.000 0.611
1309.000 0.611
1310.000 0.610
1311.000 0.609
1312.000 0.607
1313.000 0.606
1314.000 0.605
1315.000 0.602
1316.000 0.599
1317.000 0.596
1318.000 0.593
1319.000 0.590
1320.000 0.587
1321.000 0.585
1322.000 0.583
1323.000 0.580
1324.000 0.577
1325.000 0.574
1326.000 0.572
1327.000 0.569
1328.000 0.564
1329.000 0.562
1330.000 0.557
1331.000 0.557
1332.000 0.554
1333.000 0.550
1334.000 0.545
1335.000 0.539
1336.000 0.537
1337.000 0.534
1338.000 0.531
1339.000 0.528
1340.000 0.526
1341.000 0.523
1342.000 0.522
1343.000 0.520
1344.000 0.519
1345.000 0.518
1346.000 0.515
1347.000 0.513
1348.000 0.509
1349.000 0.504
1350.000 0.494
1351.000 0.477
1352.000 0.455
1353.000 0.388
1354.000 0.323
1355.000 0.313
1356.000 0.427
1357.000 0.340
1358.000 0.324
1359.000 0.379
1360.000 0.396
1361.000 0.322
1362.000 0.316
1363.000 0.282
1364.000 0.288
1365.000 0.266
1366.000 0.517
1367.000 0.264
1368.000 0.428
1369.000 0.314
1370.000 0.457
1371.000 0.358
1372.000 0.368
1373.000 0.394
1374.000 0.333
1375.000 0.324
1376.000 0.259
1377.000 0.300
1378.000 0.336
1379.000 0.391
1380.000 0.420
1381.000 0.450
1382.000 0.726
1383.000 0.669
1384.000 0.631
1385.000 0.535
1386.000 0.470
1387.000 0.627
1388.000 0.456
1389.000 0.308
1390.000 0.658
1391.000 0.332
1392.000 0.520
1393.000 0.534
1394.000 0.459
1395.000 0.499
1396.000 0.425
1397.000 0.340
1398.000 0.696
1399.000 0.540
1400.000 0.289
1401.000 0.230
1402.000 0.444
1403.000 0.478
1404.000 0.311
1405.000 0.282
1406.000 0.277
1407.000 0.274
1408.000 0.239
1409.000 0.177
1410.000 0.354
1411.000 0.386
1412.000 0.398
1413.000 0.369
1414.000 0.445
1415.000 0.434
1416.000 0.452
1417.000 0.596
1418.000 0.501
1419.000 0.370
1420.000 0.342
1421.000 0.202
1422.000 0.274
1423.000 0.323
1424.000 0.372
1425.000 0.340
1426.000 0.350
1427.000 0.267
1428.000 0.255
1429.000 0.400
1430.000 0.342
1431.000 0.299
1432.000 0.265
1433.000 0.277
1434.000 0.302
1435.000 0.208
1436.000 0.200
1437.000 0.167
1438.000 0.160
1439.000 0.190
1440.000 0.190
1441.000 0.224
1442.000 0.236
1443.000 0.265
1444.000 0.206
1445.000 0.189
1446.000 0.198
1447.000 0.177
1448.000 0.191
1449.000 0.160
1450.000 0.192
1451.000 0.166
1452.000 0.156
1453.000 0.153
1454.000 0.136
1455.000 0.130
1456.000 0.138
1457.000 0.145
1458.000 0.153
1459.000 0.160
1460.000 0.169
1461.000 0.172
1462.000 0.167
1463.000 0.171
1464.000 0.157
1465.000 0.156
1466.000 0.149
1467.000 0.156
1468.000 0.173
1469.000 0.179
1470.000 0.175
1471.000 0.175
1472.000 0.166
1473.000 0.170
1474.000 0.178
1475.000 0.184
1476.000 0.195
1477.000 0.205
1478.000 0.220
1479.000 0.221
1480.000 0.212
1481.000 0.203
1482.000 0.187
1483.000 0.182
1484.000 0.177
1485.000 0.179
1486.000 0.185
1487.000 0.191
1488.000 0.201
1489.000 0.207
1490.000 0.214
1491.000 0.215
1492.000 0.209
1493.000 0.209
1494.000 0.209
1495.000 0.210
1496.000 0.214
1497.000 0.216
1498.000 0.217
1499.000 0.215
1500.000 0.215
1501.000 0.218
1502.000 0.223
1503.000 0.228
1504.000 0.233
1505.000 0.235
1506.000 0.236
1507.000 0.233
1508.000 0.233
1509.000 0.235
1510.000 0.237
1511.000 0.240
1512.000 0.243
1513.000 0.245
1514.000 0.247
1515.000 0.247
1516.000 0.249
1517.000 0.251
1518.000 0.255
1519.000 0.262
1520.000 0.266
1521.000 0.269
1522.000 0.272
1523.000 0.271
1524.000 0.272
1525.000 0.273
1526.000 0.275
1527.000 0.275
1528.000 0.277
1529.000 0.283
1530.000 0.286
1531.000 0.292
1532.000 0.293
1533.000 0.293
1534.000 0.293
1535.000 0.291
1536.000 0.293
1537.000 0.296
1538.000 0.297
1539.000 0.298
1540.000 0.300
1541.000 0.300
1542.000 0.300
1543.000 0.303
1544.000 0.304
1545.000 0.304
1546.000 0.305
1547.000 0.308
1548.000 0.310
1549.000 0.311
1550.000 0.313
1551.000 0.318
1552.000 0.319
1553.000 0.320
1554.000 0.321
1555.000 0.320
1556.000 0.321
1557.000 0.324
1558.000 0.326
1559.000 0.330
1560.000 0.331
1561.000 0.333
1562.000 0.334
1563.000 0.333
1564.000 0.335
1565.000 0.338
1566.000 0.340
1567.000 0.343
1568.000 0.345
1569.000 0.345
1570.000 0.347
1571.000 0.350
1572.000 0.352
1573.000 0.356
1574.000 0.357
1575.000 0.355
1576.000 0.356
1577.000 0.359
1578.000 0.360
1579.000 0.363
1580.000 0.364
1581.000 0.363
1582.000 0.362
1583.000 0.363
1584.000 0.364
1585.000 0.364
1586.000 0.364
1587.000 0.364
1588.000 0.365
1589.000 0.368
1590.000 0.370
1591.000 0.372
1592.000 0.373
1593.000 0.372
1594.000 0.372
1595.000 0.372
1596.000 0.372
1597.000 0.374
1598.000 0.376
1599.000 0.379
1600.000 0.381
1601.000 0.379
1602.000 0.381
1603.000 0.381
1604.000 0.383
1605.000 0.383
1606.000 0.386
1607.000 0.389
1608.000 0.391
1609.000 0.391
1610.000 0.392
1611.000 0.391
1612.000 0.395
1613.000 0.392
1614.000 0.392
1615.000 0.391
1616.000 0.391
1617.000 0.392
1618.000 0.394
1619.000 0.393
1620.000 0.394
1621.000 0.399
1622.000 0.401
1623.000 0.402
1624.000 0.403
1625.000 0.401
1626.000 0.400
1627.000 0.400
1628.000 0.401
1629.000 0.404
1630.000 0.406
1631.000 0.407
1632.000 0.408
1633.000 0.408
1634.000 0.407
1635.000 0.408
1636.000 0.409
1637.000 0.412
1638.000 0.413
1639.000 0.410
1640.000 0.409
1641.000 0.407
1642.000 0.407
1643.000 0.410
1644.000 0.413
1645.000 0.415
1646.000 0.416
1647.000 0.416
1648.000 0.415
1649.000 0.412
1650.000 0.412
1651.000 0.413
1652.000 0.414
1653.000 0.413
1654.000 0.414
1655.000 0.416
1656.000 0.418
1657.000 0.417
1658.000 0.417
1659.000 0.419
1660.000 0.419
1661.000 0.417
1662.000 0.417
1663.000 0.416
1664.000 0.416
1665.000 0.414
1666.000 0.415
1667.000 0.417
1668.000 0.418
1669.000 0.420
1670.000 0.421
1671.000 0.419
1672.000 0.418
1673.000 0.420
1674.000 0.419
1675.000 0.417
1676.000 0.417
1677.000 0.417
1678.000 0.416
1679.000 0.419
1680.000 0.420
1681.000 0.421
1682.000 0.421
1683.000 0.419
1684.000 0.419
1685.000 0.418
1686.000 0.418
1687.000 0.421
1688.000 0.423
1689.000 0.425
1690.000 0.426
1691.000 0.427
1692.000 0.426
1693.000 0.421
1694.000 0.421
1695.000 0.422
1696.000 0.422
1697.000 0.423
1698.000 0.422
1699.000 0.417
1700.000 0.415
1701.000 0.414
1702.000 0.414
1703.000 0.417
1704.000 0.416
1705.000 0.416
1706.000 0.414
1707.000 0.412
1708.000 0.412
1709.000 0.413
1710.000 0.412
1711.000 0.409
1712.000 0.408
1713.000 0.405
1714.000 0.408
1715.000 0.415
1716.000 0.418
1717.000 0.420
1718.000 0.418
1719.000 0.412
1720.000 0.407
1721.000 0.406
1722.000 0.402
1723.000 0.401
1724.000 0.401
1725.000 0.399
1726.000 0.397
1727.000 0.394
1728.000 0.394
1729.000 0.395
1730.000 0.396
1731.000 0.401
1732.000 0.405
1733.000 0.404
1734.000 0.403
1735.000 0.401
1736.000 0.396
1737.000 0.394
1738.000 0.396
1739.000 0.395
1740.000 0.395
1741.000 0.393
1742.000 0.392
1743.000 0.393
1744.000 0.396
1745.000 0.395
1746.000 0.391
1747.000 0.389
1748.000 0.382
1749.000 0.381
1750.000 0.386
1751.000 0.388
1752.000 0.391
1753.000 0.390
1754.000 0.385
1755.000 0.385
1756.000 0.381
1757.000 0.383
1758.000 0.394
1759.000 0.400
1760.000 0.397
1761.000 0.394
1762.000 0.398
1763.000 0.399
1764.000 0.388
1765.000 0.375
1766.000 0.368
1767.000 0.355
1768.000 0.358
1769.000 0.364
1770.000 0.377
1771.000 0.375
1772.000 0.363
1773.000 0.355
1774.000 0.350
1775.000 0.339
1776.000 0.336
1777.000 0.338
1778.000 0.332
1779.000 0.330
1780.000 0.346
1781.000 0.349
1782.000 0.351
1783.000 0.348
1784.000 0.335
1785.000 0.325
1786.000 0.324
1787.000 0.321
1788.000 0.324
1789.000 0.341
1790.000 0.342
1791.000 0.321
1792.000 0.324
1793.000 0.349
1794.000 0.329
1795.000 0.341
1796.000 0.373
1797.000 0.343
1798.000 0.366
1799.000 0.403
1800.000 0.356
1801.000 0.532
1802.000 0.579
1803.000 0.585
1804.000 0.600
1805.000 0.642
1806.000 0.586
1807.000 0.551
1808.000 0.551
1809.000 0.520
1810.000 0.464
1811.000 0.365
1812.000 0.684
1813.000 0.619
1814.000 0.524
1815.000 0.492
1816.000 0.467
1817.000 0.519
1818.000 0.425
1819.000 0.446
1820.000 0.485
1821.000 0.481
1822.000 0.476
1823.000 0.479
1824.000 0.570
1825.000 0.479
1826.000 0.476
1827.000 0.653
1828.000 0.621
1829.000 0.650
1830.000 0.709
1831.000 0.697
1832.000 0.646
1833.000 0.525
1834.000 0.499
1835.000 0.804
1836.000 0.494
1837.000 0.434
1838.000 0.417
1839.000 0.380
1840.000 0.395
1841.000 0.411
1842.000 0.418
1843.000 0.372
1844.000 0.381
1845.000 0.566
1846.000 0.758
1847.000 0.706
1848.000 0.647
1849.000 0.392
1850.000 0.427
1851.000 0.535
1852.000 0.648
1853.000 0.679
1854.000 0.605
1855.000 0.484
1856.000 0.579
1857.000 0.559
1858.000 0.594
1859.000 0.541
1860.000 0.600
1861.000 0.561
1862.000 0.480
1863.000 0.478
1864.000 0.454
1865.000 0.424
1866.000 0.475
1867.000 0.541
1868.000 0.480
1869.000 0.544
1870.000 0.458
1871.000 0.505
1872.000 0.329
1873.000 0.356
1874.000 0.475
1875.000 0.444
1876.000 0.445
1877.000 0.574
1878.000 0.574
1879.000 0.575
1880.000 0.577
1881.000 0.528
1882.000 0.506
1883.000 0.532
1884.000 0.620
1885.000 0.536
1886.000 0.724
1887.000 0.542
1888.000 0.398
1889.000 0.243
1890.000 0.367
1891.000 0.288
1892.000 0.424
1893.000 0.603
1894.000 0.648
1895.000 0.700
1896.000 0.616
1897.000 0.565
1898.000 0.584
1899.000 0.529
1900.000 0.493
1901.000 0.520
1902.000 0.507
1903.000 0.482
1904.000 0.378
1905.000 0.268
1906.000 0.110
1907.000 0.170
1908.000 0.315
1909.000 0.358
1910.000 0.264
1911.000 0.301
1912.000 0.382
1913.000 0.425
1914.000 0.440
1915.000 0.496
1916.000 0.522
1917.000 0.610
1918.000 0.552
1919.000 0.673
1920.000 0.526
1921.000 0.593
1922.000 0.588
1923.000 0.547
1924.000 0.531
1925.000 0.548
1926.000 0.648
1927.000 0.700
1928.000 0.461
1929.000 0.525
1930.000 0.467
1931.000 0.289
1932.000 0.328
1933.000 0.460
1934.000 0.562
1935.000 0.496
1936.000 0.536
1937.000 0.537
1938.000 0.553
1939.000 0.672
1940.000 0.483
1941.000 0.306
1942.000 0.512
1943.000 0.507
1944.000 0.469
1945.000 0.381
1946.000 0.244
1947.000 0.271
1948.000 0.286
1949.000 0.288
1950.000 0.375
1951.000 0.313
1952.000 0.471
1953.000 0.440
1954.000 0.501
1955.000 0.546
1956.000 0.311
1957.000 0.613
1958.000 0.662
1959.000 0.630
1960.000 0.591
1961.000 0.514
1962.000 0.453
1963.000 0.522
1964.000 0.469
1965.000 0.394
1966.000 0.440
1967.000 0.340
1968.000 0.304
1969.000 0.266
1970.000 0.211
1971.000 0.186
1972.000 0.256
1973.000 0.226
1974.000 0.239
1975.000 0.246
1976.000 0.234
1977.000 0.279
1978.000 0.279
1979.000 0.212
1980.000 0.249
1981.000 0.247
1982.000 0.282
1983.000 0.298
1984.000 0.226
1985.000 0.189
1986.000 0.157
1987.000 0.146
1988.000 0.137
1989.000 0.147
1990.000 0.139
1991.000 0.162
1992.000 0.181
1993.000 0.200
1994.000 0.242
1995.000 0.253
1996.000 0.235
1997.000 0.185
1998.000 0.182
1999.000 0.208
2000.000 0.253
2001.000 0.301
2002.000 0.457
2003.000 0.419
2004.000 0.458
2005.000 0.450
2006.000 0.319
2007.000 0.302
2008.000 0.295
2009.000 0.289
2010.000 0.366
2011.000 0.308
2012.000 0.304
2013.000 0.302
2014.000 0.360
2015.000 0.384
2016.000 0.350
2017.000 0.252
2018.000 0.202
2019.000 0.202
2020.000 0.228
2021.000 0.242
2022.000 0.288
2023.000 0.287
2024.000 0.151
2025.000 0.173
2026.000 0.195
2027.000 0.243
2028.000 0.252
2029.000 0.234
2030.000 0.163
2031.000 0.149
2032.000 0.151
2033.000 0.156
2034.000 0.183
2035.000 0.210
2036.000 0.171
2037.000 0.160
2038.000 0.168
2039.000 0.149
2040.000 0.146
2041.000 0.155
2042.000 0.154
2043.000 0.137
2044.000 0.141
2045.000 0.157
2046.000 0.162
2047.000 0.175
2048.000 0.184
2049.000 0.174
2050.000 0.160
2051.000 0.148
2052.000 0.144
2053.000 0.152
2054.000 0.186
2055.000 0.217
2056.000 0.224
2057.000 0.236
2058.000 0.281
2059.000 0.269
2060.000 0.287
2061.000 0.292
2062.000 0.298
2063.000 0.266
2064.000 0.218
2065.000 0.273
2066.000 0.284
2067.000 0.263
2068.000 0.289
2069.000 0.272
2070.000 0.255
2071.000 0.266
2072.000 0.262
2073.000 0.240
2074.000 0.232
2075.000 0.234
2076.000 0.230
2077.000 0.217
2078.000 0.212
2079.000 0.211
2080.000 0.207
2081.000 0.193
2082.000 0.199
2083.000 0.210
2084.000 0.209
2085.000 0.195
2086.000 0.196
2087.000 0.195
2088.000 0.183
2089.000 0.185
2090.000 0.214
2091.000 0.226
2092.000 0.260
2093.000 0.232
2094.000 0.218
2095.000 0.211
2096.000 0.224
2097.000 0.236
2098.000 0.240
2099.000 0.257
2100.000 0.246
2101.000 0.223
2102.000 0.209
2103.000 0.217
2104.000 0.213
2105.000 0.225
2106.000 0.216
2107.000 0.195
2108.000 0.185
2109.000 0.173
2110.000 0.165
2111.000 0.152
2112.000 0.153
2113.000 0.174
2114.000 0.181
2115.000 0.193
2116.000 0.199
2117.000 0.196
2118.000 0.182
2119.000 0.183
2120.000 0.189
2121.000 0.213
2122.000 0.230
2123.000 0.240
2124.000 0.255
2125.000 0.262
2126.000 0.258
2127.000 0.250
2128.000 0.238
2129.000 0.232
2130.000 0.225
2131.000 0.213
2132.000 0.200
2133.000 0.197
2134.000 0.198
2135.000 0.195
2136.000 0.195
2137.000 0.203
2138.000 0.212
2139.000 0.201
2140.000 0.197
2141.000 0.198
2142.000 0.200
2143.000 0.196
2144.000 0.205
2145.000 0.234
2146.000 0.243
2147.000 0.243
2148.000 0.247
2149.000 0.243
2150.000 0.246
2151.000 0.261
2152.000 0.266
2153.000 0.277
2154.000 0.278
2155.000 0.278
2156.000 0.257
2157.000 0.242
2158.000 0.240
2159.000 0.230
2160.000 0.237
2161.000 0.237
2162.000 0.251
2163.000 0.243
2164.000 0.219
2165.000 0.218
2166.000 0.214
2167.000 0.217
2168.000 0.236
2169.000 0.241
2170.000 0.243
2171.000 0.239
2172.000 0.221
2173.000 0.211
2174.000 0.211
2175.000 0.208
2176.000 0.209
2177.000 0.205
2178.000 0.218
2179.000 0.225
2180.000 0.228
2181.000 0.235
2182.000 0.231
2183.000 0.232
2184.000 0.243
2185.000 0.271
2186.000 0.273
2187.000 0.291
2188.000 0.286
2189.000 0.280
2190.000 0.268
2191.000 0.240
2192.000 0.238
2193.000 0.243
2194.000 0.249
2195.000 0.268
2196.000 0.273
2197.000 0.271
2198.000 0.272
2199.000 0.257
2200.000 0.254
2201.000 0.264
2202.000 0.274
2203.000 0.255
2204.000 0.270
2205.000 0.260
2206.000 0.237
2207.000 0.234
2208.000 0.213
2209.000 0.209
2210.000 0.214
2211.000 0.218
2212.000 0.235
2213.000 0.234
2214.000 0.215
2215.000 0.215
2216.000 0.218
2217.000 0.219
2218.000 0.235
2219.000 0.243
2220.000 0.246
2221.000 0.244
2222.000 0.242
2223.000 0.237
2224.000 0.220
2225.000 0.213
2226.000 0.209
2227.000 0.208
2228.000 0.207
2229.000 0.214
2230.000 0.226
2231.000 0.231
2232.000 0.239
2233.000 0.247
2234.000 0.242
2235.000 0.251
2236.000 0.249
2237.000 0.224
2238.000 0.223
2239.000 0.225
2240.000 0.222
2241.000 0.224
2242.000 0.220
2243.000 0.203
2244.000 0.198
2245.000 0.200
2246.000 0.215
2247.000 0.228
2248.000 0.230
2249.000 0.215
2250.000 0.211
2251.000 0.193
2252.000 0.190
2253.000 0.199
2254.000 0.198
2255.000 0.186
2256.000 0.191
2257.000 0.204
2258.000 0.211
2259.000 0.222
2260.000 0.263
2261.000 0.269
2262.000 0.261
2263.000 0.263
2264.000 0.270
2265.000 0.251
2266.000 0.245
2267.000 0.236
2268.000 0.218
2269.000 0.205
2270.000 0.195
2271.000 0.202
2272.000 0.214
2273.000 0.209
2274.000 0.212
2275.000 0.205
2276.000 0.220
2277.000 0.213
2278.000 0.195
2279.000 0.184
2280.000 0.185
2281.000 0.180
2282.000 0.179
2283.000 0.177
2284.000 0.187
2285.000 0.191
2286.000 0.182
2287.000 0.183
2288.000 0.231
2289.000 0.240
2290.000 0.232
2291.000 0.255
2292.000 0.224
2293.000 0.212
2294.000 0.215
2295.000 0.202
2296.000 0.166
2297.000 0.164
2298.000 0.148
2299.000 0.144
2300.000 0.158
2301.000 0.173
2302.000 0.200
2303.000 0.242
2304.000 0.282
2305.000 0.293
2306.000 0.259
2307.000 0.213
2308.000 0.289
2309.000 0.286
2310.000 0.242
2311.000 0.261
2312.000 0.235
2313.000 0.228
2314.000 0.225
2315.000 0.231
2316.000 0.236
2317.000 0.210
2318.000 0.212
2319.000 0.217
2320.000 0.184
2321.000 0.225
2322.000 0.241
2323.000 0.203
2324.000 0.227
2325.000 0.271
2326.000 0.273
2327.000 0.288
2328.000 0.294
2329.000 0.269
2330.000 0.263
2331.000 0.190
2332.000 0.169
2333.000 0.202
2334.000 0.193
2335.000 0.254
2336.000 0.280
2337.000 0.347
2338.000 0.367
2339.000 0.346
2340.000 0.397
2341.000 0.345
2342.000 0.307
2343.000 0.245
2344.000 0.222
2345.000 0.228
2346.000 0.274
2347.000 0.380
2348.000 0.412
2349.000 0.432
2350.000 0.285
2351.000 0.298
2352.000 0.317
2353.000 0.368
2354.000 0.335
2355.000 0.404
2356.000 0.352
2357.000 0.299
2358.000 0.398
2359.000 0.454
2360.000 0.405
2361.000 0.403
2362.000 0.556
2363.000 0.305
2364.000 0.391
2365.000 0.207
2366.000 0.193
2367.000 0.196
2368.000 0.262
2369.000 0.415
2370.000 0.413
2371.000 0.509
2372.000 0.531
2373.000 0.477
2374.000 0.363
2375.000 0.303
2376.000 0.382
2377.000 0.458
2378.000 0.454
2379.000 0.499
2380.000 0.408
2381.000 0.301
2382.000 0.345
2383.000 0.253
2384.000 0.317
2385.000 0.316
2386.000 0.358
2387.000 0.308
2388.000 0.234
2389.000 0.227
2390.000 0.359
2391.000 0.363
2392.000 0.478
2393.000 0.446
2394.000 0.507
2395.000 0.600
2396.000 0.588
2397.000 0.501
2398.000 0.500
2399.000 0.438
2400.000 0.467
2401.000 0.421
2402.000 0.668
2403.000 0.541
2404.000 0.528
2405.000 0.412
2406.000 0.387
2407.000 0.557
2408.000 0.491
2409.000 0.532
2410.000 0.332
2411.000 0.350
2412.000 0.303
2413.000 0.373
2414.000 0.564
2415.000 0.761
2416.000 0.452
2417.000 0.521
2418.000 0.484
2419.000 0.536
2420.000 0.404
2421.000 0.429
2422.000 0.488
2423.000 0.756
2424.000 0.577
2425.000 0.407
2426.000 0.635
2427.000 0.483
2428.000 0.433
2429.000 0.430
2430.000 0.355
2431.000 0.432
2432.000 0.576
2433.000 0.679
2434.000 0.395
2435.000 0.317
2436.000 0.395
2437.000 0.388
2438.000 0.337
2439.000 0.305
2440.000 0.376
2441.000 0.439
2442.000 0.468
2443.000 0.581
2444.000 0.473
2445.000 0.440
2446.000 0.399
2447.000 0.557
2448.000 0.438
2449.000 0.306
2450.000 0.256
2451.000 0.302
2452.000 0.264
2453.000 0.605
2454.000 0.663
2455.000 0.689
2456.000 0.528
2457.000 0.660
2458.000 0.427
2459.000 0.451
2460.000 0.471
2461.000 0.466
2462.000 0.487
2463.000 0.364
2464.000 0.315
2465.000 0.311
2466.000 0.123
2467.000 0.538
2468.000 0.531
2469.000 0.314
2470.000 0.531
2471.000 0.490
2472.000 0.608
2473.000 0.392
2474.000 0.191
2475.000 0.332
2476.000 0.381
2477.000 0.514
2478.000 0.516
2479.000 0.334
2480.000 0.244
2481.000 0.364
2482.000 0.234
2483.000 0.327
2484.000 0.397
2485.000 0.260
2486.000 0.328
2487.000 0.369
2488.000 0.379
2489.000 0.322
2490.000 0.333
2491.000 0.462
2492.000 0.411
2493.000 0.588
2494.000 0.460
2495.000 0.483
2496.000 0.426
2497.000 0.189
2498.000 0.223
2499.000 0.240
2500.000 0.232
