391.000 0.038
392.000 0.039
393.000 0.045
394.000 0.047
395.000 0.046
396.000 0.048
397.000 0.052
398.000 0.051
399.000 0.047
400.000 0.044
401.000 0.046
402.000 0.046
403.000 0.043
404.000 0.040
405.000 0.040
406.000 0.040
407.000 0.043
408.000 0.046
409.000 0.044
410.000 0.044
411.000 0.045
412.000 0.047
413.000 0.045
414.000 0.046
415.000 0.047
416.000 0.046
417.000 0.046
418.000 0.046
419.000 0.046
420.000 0.043
421.000 0.045
422.000 0.045
423.000 0.043
424.000 0.042
425.000 0.044
426.000 0.045
427.000 0.045
428.000 0.047
429.000 0.048
430.000 0.048
431.000 0.048
432.000 0.046
433.000 0.044
434.000 0.044
435.000 0.048
436.000 0.046
437.000 0.044
438.000 0.044
439.000 0.044
440.000 0.045
441.000 0.046
442.000 0.047
443.000 0.047
444.000 0.047
445.000 0.048
446.000 0.047
447.000 0.045
448.000 0.047
449.000 0.049
450.000 0.049
451.000 0.049
452.000 0.048
453.000 0.048
454.000 0.045
455.000 0.046
456.000 0.048
457.000 0.049
458.000 0.048
459.000 0.046
460.000 0.046
461.000 0.048
462.000 0.049
463.000 0.048
464.000 0.047
465.000 0.047
466.000 0.048
467.000 0.049
468.000 0.048
469.000 0.047
470.000 0.048
471.000 0.048
472.000 0.049
473.000 0.049
474.000 0.048
475.000 0.049
476.000 0.049
477.000 0.049
478.000 0.049
479.000 0.046
480.000 0.048
481.000 0.050
482.000 0.050
483.000 0.051
484.000 0.051
485.000 0.051
486.000 0.051
487.000 0.051
488.000 0.051
489.000 0.050
490.000 0.051
491.000 0.050
492.000 0.050
493.000 0.052
494.000 0.052
495.000 0.051
496.000 0.051
497.000 0.053
498.000 0.055
499.000 0.054
500.000 0.053
501.000 0.052
502.000 0.053
503.000 0.053
504.000 0.053
505.000 0.054
506.000 0.057
507.000 0.061
508.000 0.062
509.000 0.062
510.000 0.063
511.000 0.063
512.000 0.065
513.000 0.066
514.000 0.067
515.000 0.069
516.000 0.072
517.000 0.075
518.000 0.077
519.000 0.079
520.000 0.082
521.000 0.084
522.000 0.085
523.000 0.088
524.000 0.090
525.000 0.093
526.000 0.096
527.000 0.099
528.000 0.102
529.000 0.105
530.000 0.105
531.000 0.107
532.000 0.109
533.000 0.111
534.000 0.113
535.000 0.114
536.000 0.115
537.000 0.115
538.000 0.117
539.000 0.118
540.000 0.118
541.000 0.119
542.000 0.120
543.000 0.121
544.000 0.121
545.000 0.120
546.000 0.120
547.000 0.121
548.000 0.123
549.000 0.123
550.000 0.122
551.000 0.122
552.000 0.123
553.000 0.123
554.000 0.122
555.000 0.123
556.000 0.123
557.000 0.123
558.000 0.121
559.000 0.120
560.000 0.119
561.000 0.119
562.000 0.117
563.000 0.116
564.000 0.113
565.000 0.112
566.000 0.112
567.000 0.110
568.000 0.107
569.000 0.107
570.000 0.105
571.000 0.103
572.000 0.101
573.000 0.100
574.000 0.099
575.000 0.097
576.000 0.096
577.000 0.095
578.000 0.092
579.000 0.090
580.000 0.092
581.000 0.091
582.000 0.090
583.000 0.090
584.000 0.089
585.000 0.089
586.000 0.089
587.000 0.088
588.000 0.087
589.000 0.086
590.000 0.086
591.000 0.085
592.000 0.084
593.000 0.083
594.000 0.083
595.000 0.084
596.000 0.085
597.000 0.085
598.000 0.083
599.000 0.083
600.000 0.082
601.000 0.081
602.000 0.081
603.000 0.081
604.000 0.080
605.000 0.080
606.000 0.080
607.000 0.080
608.000 0.079
609.000 0.081
610.000 0.082
611.000 0.081
612.000 0.080
613.000 0.077
614.000 0.075
615.000 0.076
616.000 0.075
617.000 0.074
618.000 0.074
619.000 0.075
620.000 0.076
621.000 0.074
622.000 0.073
623.000 0.075
624.000 0.075
625.000 0.074
626.000 0.074
627.000 0.075
628.000 0.075
629.000 0.074
630.000 0.073
631.000 0.073
632.000 0.074
633.000 0.074
634.000 0.074
635.000 0.073
636.000 0.073
637.000 0.073
638.000 0.071
639.000 0.070
640.000 0.070
641.000 0.071
642.000 0.070
643.000 0.068
644.000 0.070
645.000 0.069
646.000 0.067
647.000 0.066
648.000 0.067
649.000 0.067
650.000 0.068
651.000 0.068
652.000 0.067
653.000 0.066
654.000 0.067
655.000 0.068
656.000 0.068
657.000 0.068
658.000 0.069
659.000 0.069
660.000 0.071
661.000 0.069
662.000 0.066
663.000 0.067
664.000 0.067
665.000 0.066
666.000 0.067
667.000 0.066
668.000 0.067
669.000 0.067
670.000 0.066
671.000 0.068
672.000 0.069
673.000 0.066
674.000 0.067
675.000 0.069
676.000 0.071
677.000 0.070
678.000 0.072
679.000 0.072
680.000 0.072
681.000 0.072
682.000 0.074
683.000 0.076
684.000 0.079
685.000 0.079
686.000 0.079
687.000 0.080
688.000 0.083
689.000 0.084
690.000 0.088
691.000 0.094
692.000 0.096
693.000 0.099
694.000 0.103
695.000 0.109
696.000 0.117
697.000 0.126
698.000 0.134
699.000 0.140
700.000 0.149
701.000 0.159
702.000 0.169
703.000 0.177
704.000 0.186
705.000 0.195
706.000 0.205
707.000 0.215
708.000 0.224
709.000 0.233
710.000 0.242
711.000 0.252
712.000 0.262
713.000 0.272
714.000 0.281
715.000 0.290
716.000 0.299
717.000 0.309
718.000 0.320
719.000 0.331
720.000 0.340
721.000 0.350
722.000 0.358
723.000 0.367
724.000 0.376
725.000 0.384
726.000 0.393
727.000 0.401
728.000 0.408
729.000 0.416
730.000 0.424
731.000 0.431
732.000 0.437
733.000 0.444
734.000 0.449
735.000 0.454
736.000 0.460
737.000 0.465
738.000 0.470
739.000 0.474
740.000 0.478
741.000 0.482
742.000 0.486
743.000 0.489
744.000 0.492
745.000 0.495
746.000 0.498
747.000 0.500
748.000 0.503
749.000 0.505
750.000 0.507
751.000 0.508
752.000 0.511
753.000 0.512
754.000 0.514
755.000 0.515
756.000 0.516
757.000 0.518
758.000 0.519
759.000 0.520
760.000 0.520
761.000 0.521
762.000 0.524
763.000 0.525
764.000 0.525
765.000 0.525
766.000 0.526
767.000 0.526
768.000 0.527
769.000 0.528
770.000 0.528
771.000 0.529
772.000 0.529
773.000 0.530
774.000 0.530
775.000 0.531
776.000 0.531
777.000 0.532
778.000 0.532
779.000 0.533
780.000 0.533
781.000 0.533
782.000 0.534
783.000 0.534
784.000 0.535
785.000 0.535
786.000 0.536
787.000 0.536
788.000 0.537
789.000 0.537
790.000 0.537
791.000 0.538
792.000 0.538
793.000 0.539
794.000 0.540
795.000 0.540
796.000 0.540
797.000 0.541
798.000 0.542
799.000 0.542
800.000 0.542
801.000 0.543
802.000 0.543
803.000 0.544
804.000 0.544
805.000 0.545
806.000 0.545
807.000 0.545
808.000 0.546
809.000 0.546
810.000 0.547
811.000 0.547
812.000 0.548
813.000 0.548
814.000 0.548
815.000 0.549
816.000 0.549
817.000 0.549
818.000 0.550
819.000 0.550
820.000 0.551
821.000 0.551
822.000 0.551
823.000 0.552
824.000 0.552
825.000 0.553
826.000 0.554
827.000 0.554
828.000 0.554
829.000 0.554
830.000 0.554
831.000 0.555
832.000 0.555
833.000 0.556
834.000 0.556
835.000 0.557
836.000 0.557
837.000 0.557
838.000 0.557
839.000 0.558
840.000 0.558
841.000 0.558
842.000 0.558
843.000 0.558
844.000 0.559
845.000 0.560
846.000 0.560
847.000 0.560
848.000 0.561
849.000 0.561
850.000 0.561
851.000 0.561
852.000 0.562
853.000 0.562
854.000 0.563
855.000 0.563
856.000 0.563
857.000 0.563
858.000 0.564
859.000 0.564
860.000 0.564
861.000 0.564
862.000 0.564
863.000 0.565
864.000 0.566
865.000 0.566
866.000 0.565
867.000 0.565
868.000 0.566
869.000 0.567
870.000 0.568
871.000 0.568
872.000 0.567
873.000 0.568
874.000 0.568
875.000 0.568
876.000 0.568
877.000 0.569
878.000 0.569
879.000 0.569
880.000 0.570
881.000 0.571
882.000 0.571
883.000 0.571
884.000 0.571
885.000 0.572
886.000 0.572
887.000 0.572
888.000 0.573
889.000 0.574
890.000 0.574
891.000 0.575
892.000 0.576
893.000 0.575
894.000 0.576
895.000 0.575
896.000 0.576
897.000 0.576
898.000 0.577
899.000 0.578
900.000 0.579
901.000 0.579
902.000 0.579
903.000 0.578
904.000 0.581
905.000 0.581
906.000 0.581
907.000 0.581
908.000 0.580
909.000 0.581
910.000 0.581
911.000 0.581
912.000 0.582
913.000 0.582
914.000 0.583
915.000 0.583
916.000 0.582
917.000 0.584
918.000 0.584
919.000 0.583
920.000 0.584
921.000 0.586
922.000 0.586
923.000 0.585
924.000 0.586
925.000 0.586
926.000 0.587
927.000 0.587
928.000 0.586
929.000 0.585
930.000 0.584
931.000 0.584
932.000 0.582
933.000 0.580
934.000 0.581
935.000 0.582
936.000 0.581
937.000 0.581
938.000 0.586
939.000 0.592
940.000 0.596
941.000 0.591
942.000 0.588
943.000 0.590
944.000 0.587
945.000 0.585
946.000 0.586
947.000 0.588
948.000 0.584
949.000 0.584
950.000 0.584
951.000 0.582
952.000 0.585
953.000 0.583
954.000 0.582
955.000 0.586
956.000 0.588
957.000 0.583
958.000 0.582
959.000 0.587
960.000 0.586
961.000 0.581
962.000 0.581
963.000 0.585
964.000 0.580
965.000 0.582
966.000 0.585
967.000 0.584
968.000 0.589
969.000 0.587
970.000 0.583
971.000 0.584
972.000 0.587
973.000 0.588
974.000 0.586
975.000 0.584
976.000 0.588
977.000 0.589
978.000 0.588
979.000 0.590
980.000 0.591
981.000 0.592
982.000 0.592
983.000 0.591
984.000 0.588
985.000 0.588
986.000 0.587
987.000 0.588
988.000 0.592
989.000 0.591
990.000 0.592
991.000 0.593
992.000 0.588
993.000 0.590
994.000 0.594
995.000 0.595
996.000 0.594
997.000 0.594
998.000 0.595
999.000 0.596
1000.000 0.596
1001.000 0.599
1002.000 0.599
1003.000 0.600
1004.000 0.602
1005.000 0.605
1006.000 0.605
1007.000 0.606
1008.000 0.606
1009.000 0.606
1010.000 0.606
1011.000 0.606
1012.000 0.605
1013.000 0.606
1014.000 0.607
1015.000 0.608
1016.000 0.609
1017.000 0.611
1018.000 0.611
1019.000 0.612
1020.000 0.612
1021.000 0.611
1022.000 0.611
1023.000 0.611
1024.000 0.611
1025.000 0.613
1026.000 0.614
1027.000 0.614
1028.000 0.615
1029.000 0.614
1030.000 0.614
1031.000 0.615
1032.000 0.616
1033.000 0.617
1034.000 0.617
1035.000 0.618
1036.000 0.619
1037.000 0.620
1038.000 0.621
1039.000 0.621
1040.000 0.620
1041.000 0.621
1042.000 0.622
1043.000 0.622
1044.000 0.622
1045.000 0.623
1046.000 0.623
1047.000 0.623
1048.000 0.623
1049.000 0.624
1050.000 0.622
1051.000 0.622
1052.000 0.622
1053.000 0.623
1054.000 0.626
1055.000 0.627
1056.000 0.627
1057.000 0.627
1058.000 0.625
1059.000 0.624
1060.000 0.624
1061.000 0.624
1062.000 0.624
1063.000 0.625
1064.000 0.626
1065.000 0.626
1066.000 0.626
1067.000 0.626
1068.000 0.626
1069.000 0.627
1070.000 0.627
1071.000 0.626
1072.000 0.626
1073.000 0.625
1074.000 0.626
1075.000 0.627
1076.000 0.627
1077.000 0.627
1078.000 0.628
1079.000 0.628
1080.000 0.629
1081.000 0.629
1082.000 0.629
1083.000 0.628
1084.000 0.628
1085.000 0.628
1086.000 0.628
1087.000 0.627
1088.000 0.628
1089.000 0.629
1090.000 0.628
1091.000 0.628
1092.000 0.629
1093.000 0.629
1094.000 0.628
1095.000 0.629
1096.000 0.629
1097.000 0.629
1098.000 0.631
1099.000 0.631
1100.000 0.632
1101.000 0.630
1102.000 0.630
1103.000 0.629
1104.000 0.627
1105.000 0.626
1106.000 0.626
1107.000 0.626
1108.000 0.625
1109.000 0.625
1110.000 0.625
1111.000 0.625
1112.000 0.625
1113.000 0.626
1114.000 0.628
1115.000 0.630
1116.000 0.632
1117.000 0.634
1118.000 0.638
1119.000 0.644
1120.000 0.646
1121.000 0.646
1122.000 0.647
1123.000 0.645
1124.000 0.635
1125.000 0.634
1126.000 0.636
1127.000 0.635
1128.000 0.635
1129.000 0.635
1130.000 0.632
1131.000 0.629
1132.000 0.627
1133.000 0.625
1134.000 0.617
1135.000 0.614
1136.000 0.614
1137.000 0.615
1138.000 0.618
1139.000 0.619
1140.000 0.620
1141.000 0.622
1142.000 0.621
1143.000 0.624
1144.000 0.624
1145.000 0.618
1146.000 0.615
1147.000 0.612
1148.000 0.612
1149.000 0.615
1150.000 0.615
1151.000 0.615
1152.000 0.614
1153.000 0.611
1154.000 0.609
1155.000 0.609
1156.000 0.606
1157.000 0.605
1158.000 0.606
1159.000 0.605
1160.000 0.605
1161.000 0.606
1162.000 0.606
1163.000 0.606
1164.000 0.607
1165.000 0.607
1166.000 0.606
1167.000 0.606
1168.000 0.606
1169.000 0.605
1170.000 0.606
1171.000 0.605
1172.000 0.606
1173.000 0.608
1174.000 0.609
1175.000 0.609
1176.000 0.609
1177.000 0.609
1178.000 0.608
1179.000 0.607
1180.000 0.607
1181.000 0.606
1182.000 0.606
1183.000 0.606
1184.000 0.606
1185.000 0.606
1186.000 0.606
1187.000 0.607
1188.000 0.608
1189.000 0.608
1190.000 0.608
1191.000 0.608
1192.000 0.607
1193.000 0.606
1194.000 0.606
1195.000 0.606
1196.000 0.605
1197.000 0.606
1198.000 0.608
1199.000 0.609
1200.000 0.610
1201.000 0.611
1202.000 0.611
1203.000 0.611
1204.000 0.611
1205.000 0.612
1206.000 0.612
1207.000 0.612
1208.000 0.612
1209.000 0.613
1210.000 0.614
1211.000 0.615
1212.000 0.615
1213.000 0.614
1214.000 0.614
1215.000 0.613
1216.000 0.613
1217.000 0.613
1218.000 0.613
1219.000 0.614
1220.000 0.614
1221.000 0.613
1222.000 0.613
1223.000 0.613
1224.000 0.613
1225.000 0.614
1226.000 0.617
1227.000 0.618
1228.000 0.618
1229.000 0.619
1230.000 0.619
1231.000 0.619
1232.000 0.620
1233.000 0.621
1234.000 0.622
1235.000 0.622
1236.000 0.621
1237.000 0.621
1238.000 0.621
1239.000 0.621
1240.000 0.622
1241.000 0.622
1242.000 0.623
1243.000 0.623
1244.000 0.623
1245.000 0.622
1246.000 0.622
1247.000 0.622
1248.000 0.622
1249.000 0.623
1250.000 0.624
1251.000 0.624
1252.000 0.624
1253.000 0.624
1254.000 0.625
1255.000 0.625
1256.000 0.626
1257.000 0.627
1258.000 0.628
1259.000 0.628
1260.000 0.629
1261.000 0.629
1262.000 0.630
1263.000 0.630
1264.000 0.631
1265.000 0.631
1266.000 0.631
1267.000 0.631
1268.000 0.630
1269.000 0.630
1270.000 0.630
1271.000 0.632
1272.000 0.633
1273.000 0.633
1274.000 0.634
1275.000 0.634
1276.000 0.631
1277.000 0.631
1278.000 0.632
1279.000 0.632
1280.000 0.633
1281.000 0.633
1282.000 0.633
1283.000 0.633
1284.000 0.634
1285.000 0.634
1286.000 0.633
1287.000 0.632
1288.000 0.632
1289.000 0.633
1290.000 0.633
1291.000 0.633
1292.000 0.632
1293.000 0.632
1294.000 0.630
1295.000 0.628
1296.000 0.627
1297.000 0.626
1298.000 0.625
1299.000 0.626
1300.000 0.626
1301.000 0.627
1302.000 0.626
1303.000 0.625
1304.000 0.623
1305.000 0.620
1306.000 0.619
1307.000 0.618
1308.000 0.618
1309.000 0.618
1310.000 0.619
1311.000 0.621
1312.000 0.621
1313.000 0.619
1314.000 0.617
1315.000 0.614
1316.000 0.611
1317.000 0.609
1318.000 0.607
1319.000 0.607
1320.000 0.606
1321.000 0.606
1322.000 0.607
1323.000 0.608
1324.000 0.608
1325.000 0.607
1326.000 0.604
1327.000 0.603
1328.000 0.602
1329.000 0.600
1330.000 0.598
1331.000 0.598
1332.000 0.597
1333.000 0.596
1334.000 0.596
1335.000 0.595
1336.000 0.593
1337.000 0.589
1338.000 0.586
1339.000 0.583
1340.000 0.577
1341.000 0.575
1342.000 0.577
1343.000 0.579
1344.000 0.590
1345.000 0.596
1346.000 0.596
1347.000 0.598
1348.000 0.600
1349.000 0.591
1350.000 0.595
1351.000 0.621
1352.000 0.660
1353.000 0.693
1354.000 0.763
1355.000 0.486
1356.000 0.498
1357.000 0.528
1358.000 0.542
1359.000 0.341
1360.000 0.342
1361.000 0.303
1362.000 0.307
1363.000 0.339
1364.000 0.292
1365.000 0.207
1366.000 0.202
1367.000 0.211
1368.000 0.244
1369.000 0.505
1370.000 0.437
1371.000 0.310
1372.000 0.313
1373.000 0.319
1374.000 0.326
1375.000 0.233
1376.000 0.247
1377.000 0.270
1378.000 0.238
1379.000 0.328
1380.000 0.697
1381.000 0.693
1382.000 0.472
1383.000 0.446
1384.000 0.253
1385.000 0.294
1386.000 0.218
1387.000 0.296
1388.000 0.265
1389.000 0.257
1390.000 0.260
1391.000 0.259
1392.000 0.270
1393.000 0.314
1394.000 0.505
1395.000 0.536
1396.000 0.518
1397.000 0.534
1398.000 0.556
1399.000 0.571
1400.000 0.558
1401.000 0.640
1402.000 0.605
1403.000 0.472
1404.000 0.520
1405.000 0.503
1406.000 0.513
1407.000 0.507
1408.000 0.541
1409.000 0.596
1410.000 0.589
1411.000 0.616
1412.000 0.690
1413.000 0.746
1414.000 0.722
1415.000 0.485
1416.000 0.475
1417.000 0.543
1418.000 0.319
1419.000 0.256
1420.000 0.202
1421.000 0.164
1422.000 0.319
1423.000 0.307
1424.000 0.408
1425.000 0.478
1426.000 0.556
1427.000 0.635
1428.000 0.435
1429.000 0.452
1430.000 0.532
1431.000 0.385
1432.000 0.368
1433.000 0.744
1434.000 0.707
1435.000 0.507
1436.000 0.508
1437.000 0.252
1438.000 0.333
1439.000 0.548
1440.000 0.527
1441.000 0.452
1442.000 0.436
1443.000 0.459
1444.000 0.502
1445.000 0.438
1446.000 0.440
1447.000 0.499
1448.000 0.448
1449.000 0.381
1450.000 0.343
1451.000 0.290
1452.000 0.274
1453.000 0.278
1454.000 0.308
1455.000 0.317
1456.000 0.351
1457.000 0.358
1458.000 0.337
1459.000 0.322
1460.000 0.308
1461.000 0.295
1462.000 0.266
1463.000 0.258
1464.000 0.255
1465.000 0.260
1466.000 0.289
1467.000 0.292
1468.000 0.284
1469.000 0.286
1470.000 0.277
1471.000 0.278
1472.000 0.310
1473.000 0.312
1474.000 0.285
1475.000 0.273
1476.000 0.246
1477.000 0.244
1478.000 0.256
1479.000 0.261
1480.000 0.270
1481.000 0.277
1482.000 0.283
1483.000 0.283
1484.000 0.276
1485.000 0.281
1486.000 0.287
1487.000 0.292
1488.000 0.309
1489.000 0.318
1490.000 0.327
1491.000 0.326
1492.000 0.318
1493.000 0.312
1494.000 0.297
1495.000 0.291
1496.000 0.291
1497.000 0.290
1498.000 0.290
1499.000 0.294
1500.000 0.300
1501.000 0.305
1502.000 0.312
1503.000 0.313
1504.000 0.307
1505.000 0.307
1506.000 0.309
1507.000 0.315
1508.000 0.317
1509.000 0.323
1510.000 0.322
1511.000 0.315
1512.000 0.314
1513.000 0.315
1514.000 0.317
1515.000 0.323
1516.000 0.325
1517.000 0.327
1518.000 0.327
1519.000 0.324
1520.000 0.327
1521.000 0.331
1522.000 0.334
1523.000 0.339
1524.000 0.341
1525.000 0.341
1526.000 0.341
1527.000 0.338
1528.000 0.342
1529.000 0.349
1530.000 0.354
1531.000 0.363
1532.000 0.367
1533.000 0.362
1534.000 0.362
1535.000 0.360
1536.000 0.359
1537.000 0.360
1538.000 0.360
1539.000 0.358
1540.000 0.358
1541.000 0.358
1542.000 0.358
1543.000 0.357
1544.000 0.359
1545.000 0.360
1546.000 0.363
1547.000 0.369
1548.000 0.372
1549.000 0.373
1550.000 0.374
1551.000 0.372
1552.000 0.374
1553.000 0.378
1554.000 0.382
1555.000 0.391
1556.000 0.395
1557.000 0.398
1558.000 0.398
1559.000 0.393
1560.000 0.392
1561.000 0.392
1562.000 0.392
1563.000 0.392
1564.000 0.394
1565.000 0.399
1566.000 0.402
1567.000 0.405
1568.000 0.408
1569.000 0.403
1570.000 0.403
1571.000 0.404
1572.000 0.405
1573.000 0.404
1574.000 0.406
1575.000 0.407
1576.000 0.410
1577.000 0.417
1578.000 0.421
1579.000 0.426
1580.000 0.427
1581.000 0.425
1582.000 0.424
1583.000 0.422
1584.000 0.422
1585.000 0.423
1586.000 0.425
1587.000 0.427
1588.000 0.429
1589.000 0.430
1590.000 0.432
1591.000 0.434
1592.000 0.435
1593.000 0.436
1594.000 0.438
1595.000 0.437
1596.000 0.438
1597.000 0.438
1598.000 0.440
1599.000 0.445
1600.000 0.448
1601.000 0.453
1602.000 0.457
1603.000 0.457
1604.000 0.458
1605.000 0.459
1606.000 0.459
1607.000 0.459
1608.000 0.459
1609.000 0.455
1610.000 0.455
1611.000 0.455
1612.000 0.456
1613.000 0.462
1614.000 0.465
1615.000 0.463
1616.000 0.464
1617.000 0.465
1618.000 0.467
1619.000 0.474
1620.000 0.475
1621.000 0.474
1622.000 0.473
1623.000 0.469
1624.000 0.468
1625.000 0.466
1626.000 0.466
1627.000 0.470
1628.000 0.471
1629.000 0.472
1630.000 0.474
1631.000 0.473
1632.000 0.474
1633.000 0.476
1634.000 0.478
1635.000 0.481
1636.000 0.481
1637.000 0.480
1638.000 0.479
1639.000 0.480
1640.000 0.481
1641.000 0.483
1642.000 0.485
1643.000 0.488
1644.000 0.489
1645.000 0.489
1646.000 0.488
1647.000 0.483
1648.000 0.481
1649.000 0.477
1650.000 0.477
1651.000 0.480
1652.000 0.481
1653.000 0.480
1654.000 0.479
1655.000 0.473
1656.000 0.471
1657.000 0.472
1658.000 0.474
1659.000 0.478
1660.000 0.482
1661.000 0.487
1662.000 0.490
1663.000 0.491
1664.000 0.492
1665.000 0.489
1666.000 0.487
1667.000 0.484
1668.000 0.483
1669.000 0.482
1670.000 0.483
1671.000 0.488
1672.000 0.490
1673.000 0.492
1674.000 0.492
1675.000 0.489
1676.000 0.487
1677.000 0.483
1678.000 0.483
1679.000 0.483
1680.000 0.484
1681.000 0.491
1682.000 0.490
1683.000 0.486
1684.000 0.484
1685.000 0.478
1686.000 0.475
1687.000 0.476
1688.000 0.478
1689.000 0.482
1690.000 0.486
1691.000 0.493
1692.000 0.496
1693.000 0.493
1694.000 0.493
1695.000 0.490
1696.000 0.490
1697.000 0.495
1698.000 0.494
1699.000 0.492
1700.000 0.491
1701.000 0.488
1702.000 0.487
1703.000 0.484
1704.000 0.482
1705.000 0.478
1706.000 0.476
1707.000 0.478
1708.000 0.479
1709.000 0.481
1710.000 0.481
1711.000 0.480
1712.000 0.479
1713.000 0.475
1714.000 0.468
1715.000 0.466
1716.000 0.464
1717.000 0.467
1718.000 0.477
1719.000 0.483
1720.000 0.486
1721.000 0.485
1722.000 0.483
1723.000 0.481
1724.000 0.477
1725.000 0.477
1726.000 0.478
1727.000 0.479
1728.000 0.488
1729.000 0.497
1730.000 0.495
1731.000 0.489
1732.000 0.477
1733.000 0.465
1734.000 0.462
1735.000 0.464
1736.000 0.467
1737.000 0.468
1738.000 0.469
1739.000 0.470
1740.000 0.467
1741.000 0.472
1742.000 0.480
1743.000 0.482
1744.000 0.486
1745.000 0.487
1746.000 0.485
1747.000 0.477
1748.000 0.465
1749.000 0.459
1750.000 0.448
1751.000 0.446
1752.000 0.455
1753.000 0.455
1754.000 0.449
1755.000 0.448
1756.000 0.450
1757.000 0.450
1758.000 0.449
1759.000 0.451
1760.000 0.442
1761.000 0.439
1762.000 0.442
1763.000 0.445
1764.000 0.445
1765.000 0.450
1766.000 0.456
1767.000 0.454
1768.000 0.453
1769.000 0.458
1770.000 0.452
1771.000 0.448
1772.000 0.446
1773.000 0.438
1774.000 0.439
1775.000 0.448
1776.000 0.450
1777.000 0.447
1778.000 0.448
1779.000 0.440
1780.000 0.444
1781.000 0.453
1782.000 0.431
1783.000 0.420
1784.000 0.407
1785.000 0.402
1786.000 0.397
1787.000 0.384
1788.000 0.389
1789.000 0.410
1790.000 0.416
1791.000 0.434
1792.000 0.437
1793.000 0.397
1794.000 0.388
1795.000 0.387
1796.000 0.387
1797.000 0.443
1798.000 0.490
1799.000 0.522
1800.000 0.504
1801.000 0.553
1802.000 0.572
1803.000 0.654
1804.000 0.697
1805.000 0.722
1806.000 0.679
1807.000 0.711
1808.000 0.734
1809.000 0.684
1810.000 0.644
1811.000 0.639
1812.000 0.656
1813.000 0.605
1814.000 0.702
1815.000 0.651
1816.000 0.552
1817.000 0.502
1818.000 0.398
1819.000 0.419
1820.000 0.647
1821.000 0.595
1822.000 0.638
1823.000 0.606
1824.000 0.730
1825.000 0.714
1826.000 0.558
1827.000 0.473
1828.000 0.365
1829.000 0.347
1830.000 0.305
1831.000 0.289
1832.000 0.290
1833.000 0.420
1834.000 0.598
1835.000 0.567
1836.000 0.382
1837.000 0.545
1838.000 0.596
1839.000 0.520
1840.000 0.440
1841.000 0.358
1842.000 0.304
1843.000 0.567
1844.000 0.606
1845.000 0.601
1846.000 0.571
1847.000 0.471
1848.000 0.492
1849.000 0.545
1850.000 0.362
1851.000 0.417
1852.000 0.693
1853.000 0.717
1854.000 0.509
1855.000 0.523
1856.000 0.465
1857.000 0.699
1858.000 0.615
1859.000 0.538
1860.000 0.631
1861.000 0.589
1862.000 0.467
1863.000 0.370
1864.000 0.383
1865.000 0.411
1866.000 0.413
1867.000 0.407
1868.000 0.401
1869.000 0.396
1870.000 0.394
1871.000 0.309
1872.000 0.367
1873.000 0.342
1874.000 0.795
1875.000 0.736
1876.000 0.538
1877.000 0.644
1878.000 0.547
1879.000 0.673
1880.000 0.752
1881.000 0.768
1882.000 0.786
1883.000 0.803
1884.000 0.824
1885.000 0.847
1886.000 0.717
1887.000 0.725
1888.000 0.784
1889.000 0.782
1890.000 0.473
1891.000 0.321
1892.000 0.500
1893.000 0.506
1894.000 0.549
1895.000 0.601
1896.000 0.528
1897.000 0.403
1898.000 0.453
1899.000 0.573
1900.000 0.495
1901.000 0.467
1902.000 0.567
1903.000 0.586
1904.000 0.626
1905.000 0.587
1906.000 0.558
1907.000 0.457
1908.000 0.416
1909.000 0.462
1910.000 0.454
1911.000 0.616
1912.000 0.507
1913.000 0.368
1914.000 0.344
1915.000 0.322
1916.000 0.322
1917.000 0.254
1918.000 0.387
1919.000 0.673
1920.000 0.493
1921.000 0.437
1922.000 0.439
1923.000 0.491
1924.000 0.524
1925.000 0.558
1926.000 0.522
1927.000 0.471
1928.000 0.337
1929.000 0.302
1930.000 0.337
1931.000 0.534
1932.000 0.615
1933.000 0.635
1934.000 0.584
1935.000 0.550
1936.000 0.613
1937.000 0.659
1938.000 0.456
1939.000 0.472
1940.000 0.420
1941.000 0.344
1942.000 0.314
1943.000 0.382
1944.000 0.473
1945.000 0.537
1946.000 0.404
1947.000 0.375
1948.000 0.338
1949.000 0.315
1950.000 0.392
1951.000 0.404
1952.000 0.443
1953.000 0.451
1954.000 0.475
1955.000 0.495
1956.000 0.533
1957.000 0.563
1958.000 0.640
1959.000 0.467
1960.000 0.439
1961.000 0.354
1962.000 0.340
1963.000 0.389
1964.000 0.398
1965.000 0.478
1966.000 0.452
1967.000 0.398
1968.000 0.345
1969.000 0.305
1970.000 0.282
1971.000 0.266
1972.000 0.307
1973.000 0.315
1974.000 0.303
1975.000 0.293
1976.000 0.247
1977.000 0.236
1978.000 0.245
1979.000 0.263
1980.000 0.234
1981.000 0.253
1982.000 0.235
1983.000 0.212
1984.000 0.214
1985.000 0.236
1986.000 0.242
1987.000 0.271
1988.000 0.273
1989.000 0.229
1990.000 0.229
1991.000 0.208
1992.000 0.221
1993.000 0.253
1994.000 0.303
1995.000 0.380
1996.000 0.408
1997.000 0.417
1998.000 0.370
1999.000 0.378
2000.000 0.472
2001.000 0.465
2002.000 0.458
2003.000 0.468
2004.000 0.435
2005.000 0.430
2006.000 0.290
2007.000 0.530
2008.000 0.445
2009.000 0.413
2010.000 0.340
2011.000 0.290
2012.000 0.300
2013.000 0.340
2014.000 0.341
2015.000 0.269
2016.000 0.247
2017.000 0.210
2018.000 0.206
2019.000 0.224
2020.000 0.243
2021.000 0.268
2022.000 0.271
2023.000 0.258
2024.000 0.244
2025.000 0.244
2026.000 0.255
2027.000 0.252
2028.000 0.235
2029.000 0.234
2030.000 0.229
2031.000 0.226
2032.000 0.228
2033.000 0.228
2034.000 0.221
2035.000 0.221
2036.000 0.228
2037.000 0.249
2038.000 0.265
2039.000 0.265
2040.000 0.245
2041.000 0.219
2042.000 0.206
2043.000 0.198
2044.000 0.202
2045.000 0.233
2046.000 0.242
2047.000 0.241
2048.000 0.245
2049.000 0.239
2050.000 0.229
2051.000 0.233
2052.000 0.257
2053.000 0.264
2054.000 0.264
2055.000 0.266
2056.000 0.252
2057.000 0.273
2058.000 0.245
2059.000 0.216
2060.000 0.229
2061.000 0.235
2062.000 0.236
2063.000 0.246
2064.000 0.242
2065.000 0.247
2066.000 0.282
2067.000 0.309
2068.000 0.314
2069.000 0.330
2070.000 0.294
2071.000 0.268
2072.000 0.256
2073.000 0.238
2074.000 0.233
2075.000 0.249
2076.000 0.243
2077.000 0.236
2078.000 0.229
2079.000 0.202
2080.000 0.199
2081.000 0.204
2082.000 0.214
2083.000 0.249
2084.000 0.289
2085.000 0.300
2086.000 0.299
2087.000 0.295
2088.000 0.265
2089.000 0.260
2090.000 0.271
2091.000 0.265
2092.000 0.243
2093.000 0.242
2094.000 0.246
2095.000 0.246
2096.000 0.257
2097.000 0.268
2098.000 0.273
2099.000 0.255
2100.000 0.274
2101.000 0.287
2102.000 0.264
2103.000 0.264
2104.000 0.257
2105.000 0.234
2106.000 0.229
2107.000 0.234
2108.000 0.242
2109.000 0.264
2110.000 0.271
2111.000 0.287
2112.000 0.284
2113.000 0.254
2114.000 0.242
2115.000 0.229
2116.000 0.222
2117.000 0.218
2118.000 0.227
2119.000 0.229
2120.000 0.246
2121.000 0.262
2122.000 0.261
2123.000 0.266
2124.000 0.268
2125.000 0.271
2126.000 0.278
2127.000 0.277
2128.000 0.261
2129.000 0.263
2130.000 0.275
2131.000 0.278
2132.000 0.287
2133.000 0.292
2134.000 0.277
2135.000 0.278
2136.000 0.281
2137.000 0.297
2138.000 0.308
2139.000 0.319
2140.000 0.334
2141.000 0.318
2142.000 0.312
2143.000 0.304
2144.000 0.296
2145.000 0.284
2146.000 0.281
2147.000 0.280
2148.000 0.281
2149.000 0.289
2150.000 0.292
2151.000 0.287
2152.000 0.292
2153.000 0.314
2154.000 0.318
2155.000 0.319
2156.000 0.323
2157.000 0.301
2158.000 0.276
2159.000 0.275
2160.000 0.269
2161.000 0.266
2162.000 0.266
2163.000 0.272
2164.000 0.295
2165.000 0.297
2166.000 0.288
2167.000 0.290
2168.000 0.276
2169.000 0.281
2170.000 0.329
2171.000 0.342
2172.000 0.340
2173.000 0.336
2174.000 0.311
2175.000 0.300
2176.000 0.293
2177.000 0.288
2178.000 0.285
2179.000 0.286
2180.000 0.291
2181.000 0.300
2182.000 0.294
2183.000 0.298
2184.000 0.300
2185.000 0.292
2186.000 0.303
2187.000 0.335
2188.000 0.343
2189.000 0.354
2190.000 0.351
2191.000 0.318
2192.000 0.313
2193.000 0.320
2194.000 0.320
2195.000 0.326
2196.000 0.330
2197.000 0.329
2198.000 0.325
2199.000 0.319
2200.000 0.317
2201.000 0.304
2202.000 0.295
2203.000 0.299
2204.000 0.306
2205.000 0.318
2206.000 0.331
2207.000 0.335
2208.000 0.334
2209.000 0.332
2210.000 0.305
2211.000 0.299
2212.000 0.290
2213.000 0.293
2214.000 0.320
2215.000 0.321
2216.000 0.318
2217.000 0.319
2218.000 0.300
2219.000 0.300
2220.000 0.310
2221.000 0.316
2222.000 0.323
2223.000 0.331
2224.000 0.359
2225.000 0.364
2226.000 0.355
2227.000 0.343
2228.000 0.320
2229.000 0.289
2230.000 0.270
2231.000 0.261
2232.000 0.269
2233.000 0.275
2234.000 0.301
2235.000 0.337
2236.000 0.327
2237.000 0.322
2238.000 0.312
2239.000 0.275
2240.000 0.269
2241.000 0.275
2242.000 0.281
2243.000 0.307
2244.000 0.319
2245.000 0.335
2246.000 0.335
2247.000 0.311
2248.000 0.301
2249.000 0.287
2250.000 0.281
2251.000 0.287
2252.000 0.286
2253.000 0.279
2254.000 0.280
2255.000 0.279
2256.000 0.281
2257.000 0.289
2258.000 0.295
2259.000 0.301
2260.000 0.283
2261.000 0.262
2262.000 0.260
2263.000 0.264
2264.000 0.258
2265.000 0.262
2266.000 0.272
2267.000 0.275
2268.000 0.290
2269.000 0.296
2270.000 0.296
2271.000 0.315
2272.000 0.310
2273.000 0.313
2274.000 0.338
2275.000 0.326
2276.000 0.285
2277.000 0.285
2278.000 0.281
2279.000 0.283
2280.000 0.331
2281.000 0.329
2282.000 0.297
2283.000 0.288
2284.000 0.280
2285.000 0.282
2286.000 0.277
2287.000 0.278
2288.000 0.291
2289.000 0.283
2290.000 0.248
2291.000 0.242
2292.000 0.231
2293.000 0.231
2294.000 0.288
2295.000 0.315
2296.000 0.356
2297.000 0.363
2298.000 0.335
2299.000 0.294
2300.000 0.288
2301.000 0.250
2302.000 0.211
2303.000 0.180
2304.000 0.181
2305.000 0.192
2306.000 0.159
2307.000 0.207
2308.000 0.265
2309.000 0.254
2310.000 0.297
2311.000 0.316
2312.000 0.311
2313.000 0.296
2314.000 0.243
2315.000 0.206
2316.000 0.199
2317.000 0.214
2318.000 0.211
2319.000 0.231
2320.000 0.256
2321.000 0.254
2322.000 0.236
2323.000 0.251
2324.000 0.259
2325.000 0.232
2326.000 0.244
2327.000 0.278
2328.000 0.257
2329.000 0.199
2330.000 0.193
2331.000 0.220
2332.000 0.207
2333.000 0.208
2334.000 0.239
2335.000 0.221
2336.000 0.234
2337.000 0.251
2338.000 0.272
2339.000 0.340
2340.000 0.329
2341.000 0.520
2342.000 0.530
2343.000 0.491
2344.000 0.458
2345.000 0.700
2346.000 0.371
2347.000 0.267
2348.000 0.251
2349.000 0.393
2350.000 0.462
2351.000 0.580
2352.000 0.411
2353.000 0.332
2354.000 0.273
2355.000 0.213
2356.000 0.200
2357.000 0.178
2358.000 0.214
2359.000 0.158
2360.000 0.159
2361.000 0.183
2362.000 0.194
2363.000 0.170
2364.000 0.192
2365.000 0.232
2366.000 0.228
2367.000 0.237
2368.000 0.241
2369.000 0.236
2370.000 0.254
2371.000 0.374
2372.000 0.447
2373.000 0.462
2374.000 0.511
2375.000 0.517
2376.000 0.415
2377.000 0.180
2378.000 0.118
2379.000 0.131
2380.000 0.163
2381.000 0.247
2382.000 0.249
2383.000 0.312
2384.000 0.669
2385.000 0.690
2386.000 0.503
2387.000 0.373
2388.000 0.334
2389.000 0.216
2390.000 0.227
2391.000 0.202
2392.000 0.341
2393.000 0.393
2394.000 0.466
2395.000 0.547
2396.000 0.478
2397.000 0.392
2398.000 0.298
2399.000 0.266
2400.000 0.237
2401.000 0.359
2402.000 0.363
2403.000 0.221
2404.000 0.280
2405.000 0.276
2406.000 0.221
2407.000 0.275
2408.000 0.204
2409.000 0.269
2410.000 0.242
2411.000 0.267
2412.000 0.323
2413.000 0.398
2414.000 0.582
2415.000 0.636
2416.000 0.602
2417.000 0.657
2418.000 0.671
2419.000 0.397
2420.000 0.476
2421.000 0.351
2422.000 0.448
2423.000 0.522
2424.000 0.372
2425.000 0.522
2426.000 0.485
2427.000 0.536
2428.000 0.512
2429.000 0.584
2430.000 0.650
2431.000 0.570
2432.000 0.608
2433.000 0.447
2434.000 0.320
2435.000 0.317
2436.000 0.440
2437.000 0.541
2438.000 0.458
2439.000 0.759
2440.000 0.658
2441.000 0.641
2442.000 0.574
2443.000 0.285
2444.000 0.390
2445.000 0.340
2446.000 0.191
2447.000 0.332
2448.000 0.358
2449.000 0.242
2450.000 0.218
2451.000 0.257
2452.000 0.296
2453.000 0.318
2454.000 0.312
2455.000 0.294
2456.000 0.295
2457.000 0.559
2458.000 0.358
2459.000 0.519
2460.000 0.737
2461.000 0.585
2462.000 0.454
2463.000 0.417
2464.000 0.528
2465.000 0.333
2466.000 0.244
2467.000 0.266
2468.000 0.308
2469.000 0.275
2470.000 0.337
2471.000 0.170
2472.000 0.100
2473.000 0.103
2474.000 0.159
2475.000 0.162
2476.000 0.396
2477.000 0.421
2478.000 0.461
2479.000 0.545
2480.000 0.432
2481.000 0.491
2482.000 0.405
2483.000 0.317
2484.000 0.488
2485.000 0.519
2486.000 0.662
2487.000 0.542
2488.000 0.618
2489.000 0.608
2490.000 0.182
2491.000 0.239
2492.000 0.310
2493.000 0.363
2494.000 0.458
2495.000 0.208
2496.000 0.225
2497.000 0.444
2498.000 0.258
2499.000 0.137
2500.000 0.180
