391.000 0.033
392.000 0.027
393.000 0.022
394.000 0.029
395.000 0.034
396.000 0.033
397.000 0.030
398.000 0.032
399.000 0.030
400.000 0.028
401.000 0.028
402.000 0.027
403.000 0.027
404.000 0.027
405.000 0.028
406.000 0.029
407.000 0.030
408.000 0.030
409.000 0.029
410.000 0.029
411.000 0.031
412.000 0.031
413.000 0.031
414.000 0.030
415.000 0.029
416.000 0.026
417.000 0.027
418.000 0.028
419.000 0.028
420.000 0.027
421.000 0.026
422.000 0.027
423.000 0.029
424.000 0.028
425.000 0.028
426.000 0.029
427.000 0.030
428.000 0.029
429.000 0.030
430.000 0.031
431.000 0.029
432.000 0.029
433.000 0.029
434.000 0.027
435.000 0.027
436.000 0.029
437.000 0.030
438.000 0.032
439.000 0.030
440.000 0.029
441.000 0.030
442.000 0.030
443.000 0.031
444.000 0.030
445.000 0.029
446.000 0.030
447.000 0.031
448.000 0.031
449.000 0.029
450.000 0.030
451.000 0.030
452.000 0.030
453.000 0.031
454.000 0.031
455.000 0.030
456.000 0.029
457.000 0.029
458.000 0.029
459.000 0.029
460.000 0.031
461.000 0.032
462.000 0.031
463.000 0.031
464.000 0.030
465.000 0.031
466.000 0.031
467.000 0.031
468.000 0.031
469.000 0.030
470.000 0.031
471.000 0.031
472.000 0.031
473.000 0.030
474.000 0.031
475.000 0.031
476.000 0.031
477.000 0.031
478.000 0.032
479.000 0.031
480.000 0.030
481.000 0.030
482.000 0.032
483.000 0.032
484.000 0.032
485.000 0.031
486.000 0.031
487.000 0.031
488.000 0.032
489.000 0.033
490.000 0.032
491.000 0.032
492.000 0.031
493.000 0.032
494.000 0.033
495.000 0.033
496.000 0.034
497.000 0.033
498.000 0.033
499.000 0.033
500.000 0.033
501.000 0.034
502.000 0.035
503.000 0.035
504.000 0.035
505.000 0.035
506.000 0.035
507.000 0.036
508.000 0.039
509.000 0.038
510.000 0.038
511.000 0.039
512.000 0.041
513.000 0.043
514.000 0.043
515.000 0.044
516.000 0.045
517.000 0.046
518.000 0.048
519.000 0.051
520.000 0.052
521.000 0.053
522.000 0.054
523.000 0.057
524.000 0.059
525.000 0.060
526.000 0.061
527.000 0.063
528.000 0.066
529.000 0.067
530.000 0.067
531.000 0.068
532.000 0.070
533.000 0.071
534.000 0.073
535.000 0.073
536.000 0.073
537.000 0.075
538.000 0.076
539.000 0.075
540.000 0.076
541.000 0.077
542.000 0.078
543.000 0.078
544.000 0.078
545.000 0.078
546.000 0.078
547.000 0.078
548.000 0.078
549.000 0.078
550.000 0.079
551.000 0.080
552.000 0.080
553.000 0.080
554.000 0.080
555.000 0.080
556.000 0.079
557.000 0.079
558.000 0.079
559.000 0.078
560.000 0.077
561.000 0.077
562.000 0.075
563.000 0.075
564.000 0.074
565.000 0.072
566.000 0.072
567.000 0.070
568.000 0.069
569.000 0.068
570.000 0.068
571.000 0.067
572.000 0.066
573.000 0.066
574.000 0.065
575.000 0.063
576.000 0.062
577.000 0.061
578.000 0.060
579.000 0.059
580.000 0.060
581.000 0.059
582.000 0.059
583.000 0.058
584.000 0.057
585.000 0.056
586.000 0.056
587.000 0.055
588.000 0.056
589.000 0.056
590.000 0.054
591.000 0.055
592.000 0.054
593.000 0.053
594.000 0.055
595.000 0.054
596.000 0.054
597.000 0.054
598.000 0.053
599.000 0.053
600.000 0.053
601.000 0.053
602.000 0.054
603.000 0.053
604.000 0.052
605.000 0.053
606.000 0.053
607.000 0.053
608.000 0.051
609.000 0.051
610.000 0.052
611.000 0.051
612.000 0.051
613.000 0.051
614.000 0.050
615.000 0.050
616.000 0.050
617.000 0.049
618.000 0.049
619.000 0.048
620.000 0.048
621.000 0.049
622.000 0.049
623.000 0.049
624.000 0.050
625.000 0.049
626.000 0.049
627.000 0.050
628.000 0.050
629.000 0.049
630.000 0.049
631.000 0.050
632.000 0.049
633.000 0.048
634.000 0.048
635.000 0.049
636.000 0.048
637.000 0.048
638.000 0.048
639.000 0.047
640.000 0.047
641.000 0.046
642.000 0.046
643.000 0.047
644.000 0.046
645.000 0.045
646.000 0.044
647.000 0.044
648.000 0.045
649.000 0.046
650.000 0.045
651.000 0.044
652.000 0.045
653.000 0.044
654.000 0.044
655.000 0.045
656.000 0.047
657.000 0.045
658.000 0.044
659.000 0.044
660.000 0.045
661.000 0.044
662.000 0.044
663.000 0.044
664.000 0.044
665.000 0.044
666.000 0.044
667.000 0.044
668.000 0.044
669.000 0.045
670.000 0.044
671.000 0.045
672.000 0.045
673.000 0.046
674.000 0.045
675.000 0.045
676.000 0.045
677.000 0.047
678.000 0.048
679.000 0.048
680.000 0.048
681.000 0.051
682.000 0.050
683.000 0.049
684.000 0.050
685.000 0.052
686.000 0.054
687.000 0.055
688.000 0.056
689.000 0.057
690.000 0.060
691.000 0.062
692.000 0.065
693.000 0.066
694.000 0.070
695.000 0.076
696.000 0.081
697.000 0.086
698.000 0.091
699.000 0.097
700.000 0.102
701.000 0.109
702.000 0.117
703.000 0.124
704.000 0.131
705.000 0.138
706.000 0.146
707.000 0.153
708.000 0.160
709.000 0.168
710.000 0.176
711.000 0.183
712.000 0.190
713.000 0.198
714.000 0.206
715.000 0.215
716.000 0.223
717.000 0.231
718.000 0.241
719.000 0.252
720.000 0.261
721.000 0.269
722.000 0.277
723.000 0.285
724.000 0.294
725.000 0.303
726.000 0.313
727.000 0.321
728.000 0.328
729.000 0.336
730.000 0.344
731.000 0.352
732.000 0.358
733.000 0.365
734.000 0.370
735.000 0.375
736.000 0.381
737.000 0.387
738.000 0.393
739.000 0.398
740.000 0.402
741.000 0.406
742.000 0.410
743.000 0.414
744.000 0.418
745.000 0.421
746.000 0.424
747.000 0.427
748.000 0.430
749.000 0.432
750.000 0.435
751.000 0.438
752.000 0.440
753.000 0.442
754.000 0.443
755.000 0.445
756.000 0.447
757.000 0.448
758.000 0.450
759.000 0.451
760.000 0.455
761.000 0.461
762.000 0.463
763.000 0.464
764.000 0.463
765.000 0.462
766.000 0.462
767.000 0.461
768.000 0.462
769.000 0.461
770.000 0.461
771.000 0.462
772.000 0.462
773.000 0.464
774.000 0.464
775.000 0.465
776.000 0.465
777.000 0.466
778.000 0.467
779.000 0.467
780.000 0.467
781.000 0.468
782.000 0.469
783.000 0.469
784.000 0.470
785.000 0.471
786.000 0.471
787.000 0.472
788.000 0.473
789.000 0.474
790.000 0.475
791.000 0.475
792.000 0.476
793.000 0.476
794.000 0.476
795.000 0.477
796.000 0.478
797.000 0.478
798.000 0.479
799.000 0.479
800.000 0.480
801.000 0.481
802.000 0.482
803.000 0.482
804.000 0.483
805.000 0.483
806.000 0.483
807.000 0.484
808.000 0.484
809.000 0.485
810.000 0.486
811.000 0.486
812.000 0.488
813.000 0.490
814.000 0.490
815.000 0.492
816.000 0.492
817.000 0.493
818.000 0.494
819.000 0.494
820.000 0.494
821.000 0.494
822.000 0.495
823.000 0.495
824.000 0.495
825.000 0.496
826.000 0.496
827.000 0.497
828.000 0.498
829.000 0.497
830.000 0.497
831.000 0.498
832.000 0.498
833.000 0.499
834.000 0.499
835.000 0.499
836.000 0.500
837.000 0.499
838.000 0.499
839.000 0.500
840.000 0.500
841.000 0.501
842.000 0.501
843.000 0.501
844.000 0.502
845.000 0.502
846.000 0.502
847.000 0.502
848.000 0.503
849.000 0.503
850.000 0.504
851.000 0.504
852.000 0.505
853.000 0.505
854.000 0.505
855.000 0.506
856.000 0.506
857.000 0.507
858.000 0.507
859.000 0.507
860.000 0.508
861.000 0.508
862.000 0.509
863.000 0.509
864.000 0.509
865.000 0.509
866.000 0.510
867.000 0.511
868.000 0.510
869.000 0.511
870.000 0.511
871.000 0.512
872.000 0.512
873.000 0.512
874.000 0.512
875.000 0.513
876.000 0.514
877.000 0.514
878.000 0.515
879.000 0.515
880.000 0.515
881.000 0.515
882.000 0.516
883.000 0.517
884.000 0.517
885.000 0.518
886.000 0.519
887.000 0.519
888.000 0.519
889.000 0.520
890.000 0.520
891.000 0.521
892.000 0.522
893.000 0.523
894.000 0.523
895.000 0.524
896.000 0.526
897.000 0.527
898.000 0.528
899.000 0.529
900.000 0.530
901.000 0.531
902.000 0.531
903.000 0.531
904.000 0.530
905.000 0.532
906.000 0.532
907.000 0.532
908.000 0.533
909.000 0.533
910.000 0.534
911.000 0.535
912.000 0.535
913.000 0.536
914.000 0.536
915.000 0.537
916.000 0.538
917.000 0.538
918.000 0.538
919.000 0.538
920.000 0.536
921.000 0.536
922.000 0.537
923.000 0.537
924.000 0.538
925.000 0.539
926.000 0.539
927.000 0.540
928.000 0.542
929.000 0.541
930.000 0.544
931.000 0.548
932.000 0.549
933.000 0.550
934.000 0.549
935.000 0.545
936.000 0.546
937.000 0.550
938.000 0.550
939.000 0.548
940.000 0.546
941.000 0.552
942.000 0.554
943.000 0.551
944.000 0.556
945.000 0.556
946.000 0.552
947.000 0.548
948.000 0.552
949.000 0.553
950.000 0.549
951.000 0.545
952.000 0.551
953.000 0.552
954.000 0.546
955.000 0.540
956.000 0.540
957.000 0.547
958.000 0.550
959.000 0.546
960.000 0.545
961.000 0.542
962.000 0.541
963.000 0.541
964.000 0.539
965.000 0.540
966.000 0.539
967.000 0.536
968.000 0.537
969.000 0.538
970.000 0.538
971.000 0.538
972.000 0.538
973.000 0.536
974.000 0.535
975.000 0.535
976.000 0.534
977.000 0.538
978.000 0.540
979.000 0.536
980.000 0.534
981.000 0.535
982.000 0.535
983.000 0.535
984.000 0.536
985.000 0.536
986.000 0.538
987.000 0.540
988.000 0.540
989.000 0.539
990.000 0.539
991.000 0.539
992.000 0.541
993.000 0.542
994.000 0.542
995.000 0.541
996.000 0.541
997.000 0.542
998.000 0.542
999.000 0.542
1000.000 0.544
1001.000 0.545
1002.000 0.547
1003.000 0.549
1004.000 0.550
1005.000 0.551
1006.000 0.551
1007.000 0.551
1008.000 0.551
1009.000 0.550
1010.000 0.550
1011.000 0.551
1012.000 0.552
1013.000 0.553
1014.000 0.553
1015.000 0.554
1016.000 0.555
1017.000 0.555
1018.000 0.555
1019.000 0.556
1020.000 0.557
1021.000 0.557
1022.000 0.559
1023.000 0.561
1024.000 0.562
1025.000 0.562
1026.000 0.563
1027.000 0.563
1028.000 0.563
1029.000 0.562
1030.000 0.563
1031.000 0.564
1032.000 0.563
1033.000 0.565
1034.000 0.565
1035.000 0.565
1036.000 0.566
1037.000 0.566
1038.000 0.568
1039.000 0.569
1040.000 0.569
1041.000 0.570
1042.000 0.570
1043.000 0.571
1044.000 0.572
1045.000 0.573
1046.000 0.573
1047.000 0.573
1048.000 0.573
1049.000 0.573
1050.000 0.573
1051.000 0.574
1052.000 0.574
1053.000 0.574
1054.000 0.575
1055.000 0.575
1056.000 0.576
1057.000 0.576
1058.000 0.576
1059.000 0.576
1060.000 0.576
1061.000 0.575
1062.000 0.576
1063.000 0.578
1064.000 0.579
1065.000 0.580
1066.000 0.581
1067.000 0.580
1068.000 0.580
1069.000 0.580
1070.000 0.581
1071.000 0.582
1072.000 0.581
1073.000 0.582
1074.000 0.582
1075.000 0.582
1076.000 0.582
1077.000 0.583
1078.000 0.583
1079.000 0.583
1080.000 0.583
1081.000 0.583
1082.000 0.584
1083.000 0.584
1084.000 0.584
1085.000 0.585
1086.000 0.586
1087.000 0.585
1088.000 0.586
1089.000 0.586
1090.000 0.587
1091.000 0.588
1092.000 0.590
1093.000 0.591
1094.000 0.591
1095.000 0.591
1096.000 0.591
1097.000 0.591
1098.000 0.592
1099.000 0.592
1100.000 0.592
1101.000 0.593
1102.000 0.595
1103.000 0.596
1104.000 0.599
1105.000 0.599
1106.000 0.598
1107.000 0.597
1108.000 0.596
1109.000 0.597
1110.000 0.597
1111.000 0.598
1112.000 0.599
1113.000 0.598
1114.000 0.599
1115.000 0.601
1116.000 0.604
1117.000 0.606
1118.000 0.606
1119.000 0.607
1120.000 0.611
1121.000 0.616
1122.000 0.618
1123.000 0.620
1124.000 0.616
1125.000 0.619
1126.000 0.628
1127.000 0.629
1128.000 0.627
1129.000 0.626
1130.000 0.627
1131.000 0.625
1132.000 0.628
1133.000 0.626
1134.000 0.621
1135.000 0.618
1136.000 0.612
1137.000 0.608
1138.000 0.602
1139.000 0.592
1140.000 0.589
1141.000 0.593
1142.000 0.593
1143.000 0.593
1144.000 0.594
1145.000 0.595
1146.000 0.594
1147.000 0.593
1148.000 0.591
1149.000 0.588
1150.000 0.582
1151.000 0.579
1152.000 0.579
1153.000 0.575
1154.000 0.573
1155.000 0.572
1156.000 0.567
1157.000 0.565
1158.000 0.566
1159.000 0.565
1160.000 0.562
1161.000 0.561
1162.000 0.558
1163.000 0.557
1164.000 0.558
1165.000 0.558
1166.000 0.558
1167.000 0.559
1168.000 0.559
1169.000 0.559
1170.000 0.558
1171.000 0.557
1172.000 0.556
1173.000 0.556
1174.000 0.557
1175.000 0.557
1176.000 0.557
1177.000 0.557
1178.000 0.557
1179.000 0.556
1180.000 0.556
1181.000 0.555
1182.000 0.555
1183.000 0.555
1184.000 0.554
1185.000 0.554
1186.000 0.554
1187.000 0.554
1188.000 0.555
1189.000 0.556
1190.000 0.556
1191.000 0.557
1192.000 0.557
1193.000 0.557
1194.000 0.557
1195.000 0.557
1196.000 0.557
1197.000 0.557
1198.000 0.558
1199.000 0.558
1200.000 0.558
1201.000 0.559
1202.000 0.559
1203.000 0.558
1204.000 0.557
1205.000 0.557
1206.000 0.557
1207.000 0.557
1208.000 0.558
1209.000 0.560
1210.000 0.560
1211.000 0.561
1212.000 0.560
1213.000 0.559
1214.000 0.559
1215.000 0.559
1216.000 0.560
1217.000 0.561
1218.000 0.563
1219.000 0.563
1220.000 0.563
1221.000 0.563
1222.000 0.564
1223.000 0.565
1224.000 0.565
1225.000 0.565
1226.000 0.565
1227.000 0.567
1228.000 0.567
1229.000 0.567
1230.000 0.568
1231.000 0.569
1232.000 0.570
1233.000 0.570
1234.000 0.570
1235.000 0.570
1236.000 0.569
1237.000 0.569
1238.000 0.570
1239.000 0.571
1240.000 0.572
1241.000 0.573
1242.000 0.573
1243.000 0.574
1244.000 0.575
1245.000 0.576
1246.000 0.576
1247.000 0.577
1248.000 0.576
1249.000 0.575
1250.000 0.576
1251.000 0.576
1252.000 0.577
1253.000 0.578
1254.000 0.579
1255.000 0.579
1256.000 0.580
1257.000 0.580
1258.000 0.581
1259.000 0.582
1260.000 0.582
1261.000 0.583
1262.000 0.583
1263.000 0.583
1264.000 0.583
1265.000 0.583
1266.000 0.583
1267.000 0.583
1268.000 0.583
1269.000 0.583
1270.000 0.584
1271.000 0.586
1272.000 0.587
1273.000 0.587
1274.000 0.588
1275.000 0.589
1276.000 0.588
1277.000 0.588
1278.000 0.587
1279.000 0.587
1280.000 0.588
1281.000 0.588
1282.000 0.588
1283.000 0.588
1284.000 0.587
1285.000 0.586
1286.000 0.588
1287.000 0.588
1288.000 0.589
1289.000 0.590
1290.000 0.589
1291.000 0.588
1292.000 0.587
1293.000 0.586
1294.000 0.585
1295.000 0.585
1296.000 0.585
1297.000 0.585
1298.000 0.585
1299.000 0.586
1300.000 0.586
1301.000 0.586
1302.000 0.585
1303.000 0.583
1304.000 0.583
1305.000 0.581
1306.000 0.581
1307.000 0.582
1308.000 0.582
1309.000 0.582
1310.000 0.581
1311.000 0.580
1312.000 0.579
1313.000 0.578
1314.000 0.578
1315.000 0.578
1316.000 0.577
1317.000 0.576
1318.000 0.574
1319.000 0.571
1320.000 0.568
1321.000 0.567
1322.000 0.564
1323.000 0.564
1324.000 0.565
1325.000 0.564
1326.000 0.563
1327.000 0.563
1328.000 0.560
1329.000 0.561
1330.000 0.562
1331.000 0.562
1332.000 0.562
1333.000 0.562
1334.000 0.560
1335.000 0.558
1336.000 0.557
1337.000 0.556
1338.000 0.557
1339.000 0.555
1340.000 0.551
1341.000 0.547
1342.000 0.539
1343.000 0.535
1344.000 0.537
1345.000 0.538
1346.000 0.549
1347.000 0.555
1348.000 0.558
1349.000 0.549
1350.000 0.553
1351.000 0.552
1352.000 0.561
1353.000 0.586
1354.000 0.450
1355.000 0.402
1356.000 0.328
1357.000 0.502
1358.000 0.549
1359.000 0.438
1360.000 0.533
1361.000 0.647
1362.000 0.671
1363.000 0.595
1364.000 0.486
1365.000 0.330
1366.000 0.237
1367.000 0.401
1368.000 0.413
1369.000 0.431
1370.000 0.448
1371.000 0.483
1372.000 0.435
1373.000 0.394
1374.000 0.345
1375.000 0.499
1376.000 0.415
1377.000 0.389
1378.000 0.529
1379.000 0.482
1380.000 0.631
1381.000 0.637
1382.000 0.581
1383.000 0.522
1384.000 0.231
1385.000 0.375
1386.000 0.407
1387.000 0.434
1388.000 0.639
1389.000 0.639
1390.000 0.606
1391.000 0.459
1392.000 0.495
1393.000 0.544
1394.000 0.572
1395.000 0.544
1396.000 0.518
1397.000 0.506
1398.000 0.495
1399.000 0.502
1400.000 0.497
1401.000 0.457
1402.000 0.602
1403.000 0.533
1404.000 0.400
1405.000 0.384
1406.000 0.371
1407.000 0.486
1408.000 0.397
1409.000 0.420
1410.000 0.485
1411.000 0.447
1412.000 0.470
1413.000 0.499
1414.000 0.492
1415.000 0.261
1416.000 0.259
1417.000 0.336
1418.000 0.417
1419.000 0.401
1420.000 0.428
1421.000 0.473
1422.000 0.547
1423.000 0.394
1424.000 0.515
1425.000 0.435
1426.000 0.474
1427.000 0.444
1428.000 0.383
1429.000 0.483
1430.000 0.519
1431.000 0.371
1432.000 0.374
1433.000 0.321
1434.000 0.293
1435.000 0.280
1436.000 0.279
1437.000 0.325
1438.000 0.329
1439.000 0.322
1440.000 0.483
1441.000 0.298
1442.000 0.233
1443.000 0.301
1444.000 0.464
1445.000 0.422
1446.000 0.407
1447.000 0.449
1448.000 0.411
1449.000 0.425
1450.000 0.399
1451.000 0.315
1452.000 0.287
1453.000 0.275
1454.000 0.264
1455.000 0.273
1456.000 0.275
1457.000 0.266
1458.000 0.274
1459.000 0.256
1460.000 0.218
1461.000 0.205
1462.000 0.208
1463.000 0.198
1464.000 0.203
1465.000 0.203
1466.000 0.205
1467.000 0.195
1468.000 0.185
1469.000 0.195
1470.000 0.218
1471.000 0.220
1472.000 0.236
1473.000 0.228
1474.000 0.212
1475.000 0.217
1476.000 0.247
1477.000 0.238
1478.000 0.269
1479.000 0.251
1480.000 0.227
1481.000 0.219
1482.000 0.210
1483.000 0.216
1484.000 0.225
1485.000 0.229
1486.000 0.226
1487.000 0.222
1488.000 0.214
1489.000 0.213
1490.000 0.213
1491.000 0.213
1492.000 0.213
1493.000 0.216
1494.000 0.222
1495.000 0.224
1496.000 0.227
1497.000 0.231
1498.000 0.234
1499.000 0.237
1500.000 0.240
1501.000 0.247
1502.000 0.249
1503.000 0.252
1504.000 0.256
1505.000 0.256
1506.000 0.254
1507.000 0.249
1508.000 0.248
1509.000 0.245
1510.000 0.246
1511.000 0.250
1512.000 0.253
1513.000 0.257
1514.000 0.258
1515.000 0.258
1516.000 0.261
1517.000 0.263
1518.000 0.265
1519.000 0.269
1520.000 0.270
1521.000 0.269
1522.000 0.271
1523.000 0.274
1524.000 0.276
1525.000 0.280
1526.000 0.282
1527.000 0.284
1528.000 0.286
1529.000 0.287
1530.000 0.289
1531.000 0.290
1532.000 0.291
1533.000 0.291
1534.000 0.291
1535.000 0.290
1536.000 0.292
1537.000 0.296
1538.000 0.298
1539.000 0.300
1540.000 0.302
1541.000 0.303
1542.000 0.304
1543.000 0.307
1544.000 0.308
1545.000 0.310
1546.000 0.311
1547.000 0.311
1548.000 0.312
1549.000 0.313
1550.000 0.315
1551.000 0.320
1552.000 0.321
1553.000 0.322
1554.000 0.323
1555.000 0.322
1556.000 0.323
1557.000 0.323
1558.000 0.325
1559.000 0.327
1560.000 0.329
1561.000 0.331
1562.000 0.333
1563.000 0.333
1564.000 0.334
1565.000 0.335
1566.000 0.336
1567.000 0.339
1568.000 0.340
1569.000 0.343
1570.000 0.346
1571.000 0.348
1572.000 0.351
1573.000 0.354
1574.000 0.356
1575.000 0.355
1576.000 0.356
1577.000 0.357
1578.000 0.357
1579.000 0.357
1580.000 0.358
1581.000 0.358
1582.000 0.359
1583.000 0.359
1584.000 0.360
1585.000 0.365
1586.000 0.366
1587.000 0.367
1588.000 0.368
1589.000 0.366
1590.000 0.367
1591.000 0.371
1592.000 0.372
1593.000 0.372
1594.000 0.373
1595.000 0.372
1596.000 0.372
1597.000 0.374
1598.000 0.376
1599.000 0.378
1600.000 0.380
1601.000 0.381
1602.000 0.383
1603.000 0.382
1604.000 0.384
1605.000 0.388
1606.000 0.391
1607.000 0.395
1608.000 0.397
1609.000 0.398
1610.000 0.397
1611.000 0.394
1612.000 0.393
1613.000 0.392
1614.000 0.392
1615.000 0.396
1616.000 0.398
1617.000 0.399
1618.000 0.401
1619.000 0.402
1620.000 0.404
1621.000 0.406
1622.000 0.407
1623.000 0.406
1624.000 0.406
1625.000 0.405
1626.000 0.406
1627.000 0.411
1628.000 0.413
1629.000 0.413
1630.000 0.414
1631.000 0.415
1632.000 0.416
1633.000 0.417
1634.000 0.419
1635.000 0.418
1636.000 0.419
1637.000 0.420
1638.000 0.421
1639.000 0.418
1640.000 0.418
1641.000 0.417
1642.000 0.417
1643.000 0.419
1644.000 0.419
1645.000 0.417
1646.000 0.416
1647.000 0.416
1648.000 0.414
1649.000 0.412
1650.000 0.412
1651.000 0.411
1652.000 0.412
1653.000 0.416
1654.000 0.418
1655.000 0.420
1656.000 0.421
1657.000 0.421
1658.000 0.421
1659.000 0.422
1660.000 0.421
1661.000 0.419
1662.000 0.420
1663.000 0.422
1664.000 0.424
1665.000 0.428
1666.000 0.429
1667.000 0.426
1668.000 0.425
1669.000 0.421
1670.000 0.419
1671.000 0.418
1672.000 0.417
1673.000 0.418
1674.000 0.417
1675.000 0.416
1676.000 0.417
1677.000 0.417
1678.000 0.418
1679.000 0.420
1680.000 0.421
1681.000 0.418
1682.000 0.416
1683.000 0.412
1684.000 0.412
1685.000 0.415
1686.000 0.415
1687.000 0.417
1688.000 0.418
1689.000 0.416
1690.000 0.416
1691.000 0.417
1692.000 0.418
1693.000 0.418
1694.000 0.418
1695.000 0.419
1696.000 0.419
1697.000 0.419
1698.000 0.418
1699.000 0.415
1700.000 0.414
1701.000 0.414
1702.000 0.414
1703.000 0.416
1704.000 0.418
1705.000 0.421
1706.000 0.421
1707.000 0.422
1708.000 0.420
1709.000 0.416
1710.000 0.412
1711.000 0.407
1712.000 0.406
1713.000 0.406
1714.000 0.406
1715.000 0.410
1716.000 0.412
1717.000 0.410
1718.000 0.410
1719.000 0.406
1720.000 0.400
1721.000 0.396
1722.000 0.396
1723.000 0.396
1724.000 0.396
1725.000 0.402
1726.000 0.401
1727.000 0.398
1728.000 0.397
1729.000 0.394
1730.000 0.394
1731.000 0.394
1732.000 0.392
1733.000 0.394
1734.000 0.395
1735.000 0.398
1736.000 0.398
1737.000 0.397
1738.000 0.389
1739.000 0.386
1740.000 0.383
1741.000 0.382
1742.000 0.380
1743.000 0.383
1744.000 0.394
1745.000 0.399
1746.000 0.404
1747.000 0.403
1748.000 0.388
1749.000 0.384
1750.000 0.381
1751.000 0.380
1752.000 0.387
1753.000 0.385
1754.000 0.372
1755.000 0.372
1756.000 0.375
1757.000 0.377
1758.000 0.390
1759.000 0.392
1760.000 0.391
1761.000 0.398
1762.000 0.407
1763.000 0.411
1764.000 0.411
1765.000 0.406
1766.000 0.398
1767.000 0.397
1768.000 0.397
1769.000 0.402
1770.000 0.416
1771.000 0.411
1772.000 0.402
1773.000 0.400
1774.000 0.382
1775.000 0.372
1776.000 0.376
1777.000 0.372
1778.000 0.370
1779.000 0.372
1780.000 0.385
1781.000 0.403
1782.000 0.404
1783.000 0.401
1784.000 0.390
1785.000 0.366
1786.000 0.359
1787.000 0.366
1788.000 0.364
1789.000 0.352
1790.000 0.372
1791.000 0.361
1792.000 0.357
1793.000 0.371
1794.000 0.445
1795.000 0.435
1796.000 0.394
1797.000 0.351
1798.000 0.368
1799.000 0.472
1800.000 0.586
1801.000 0.498
1802.000 0.496
1803.000 0.626
1804.000 0.687
1805.000 0.731
1806.000 0.496
1807.000 0.455
1808.000 0.501
1809.000 0.566
1810.000 0.379
1811.000 0.426
1812.000 0.416
1813.000 0.301
1814.000 0.437
1815.000 0.394
1816.000 0.368
1817.000 0.426
1818.000 0.431
1819.000 0.376
1820.000 0.491
1821.000 0.415
1822.000 0.344
1823.000 0.408
1824.000 0.490
1825.000 0.415
1826.000 0.552
1827.000 0.585
1828.000 0.476
1829.000 0.450
1830.000 0.513
1831.000 0.517
1832.000 0.453
1833.000 0.279
1834.000 0.214
1835.000 0.295
1836.000 0.244
1837.000 0.285
1838.000 0.290
1839.000 0.290
1840.000 0.241
1841.000 0.351
1842.000 0.362
1843.000 0.465
1844.000 0.375
1845.000 0.229
1846.000 0.448
1847.000 0.511
1848.000 0.337
1849.000 0.447
1850.000 0.427
1851.000 0.363
1852.000 0.304
1853.000 0.403
1854.000 0.352
1855.000 0.500
1856.000 0.604
1857.000 0.581
1858.000 0.589
1859.000 0.540
1860.000 0.521
1861.000 0.529
1862.000 0.550
1863.000 0.484
1864.000 0.435
1865.000 0.432
1866.000 0.452
1867.000 0.510
1868.000 0.494
1869.000 0.503
1870.000 0.394
1871.000 0.505
1872.000 0.617
1873.000 0.538
1874.000 0.432
1875.000 0.484
1876.000 0.314
1877.000 0.377
1878.000 0.441
1879.000 0.355
1880.000 0.328
1881.000 0.332
1882.000 0.404
1883.000 0.499
1884.000 0.450
1885.000 0.527
1886.000 0.490
1887.000 0.359
1888.000 0.579
1889.000 0.634
1890.000 0.588
1891.000 0.647
1892.000 0.529
1893.000 0.571
1894.000 0.484
1895.000 0.507
1896.000 0.639
1897.000 0.442
1898.000 0.294
1899.000 0.351
1900.000 0.448
1901.000 0.503
1902.000 0.288
1903.000 0.224
1904.000 0.308
1905.000 0.364
1906.000 0.662
1907.000 0.437
1908.000 0.481
1909.000 0.450
1910.000 0.441
1911.000 0.459
1912.000 0.520
1913.000 0.479
1914.000 0.538
1915.000 0.531
1916.000 0.382
1917.000 0.558
1918.000 0.544
1919.000 0.583
1920.000 0.453
1921.000 0.445
1922.000 0.496
1923.000 0.485
1924.000 0.420
1925.000 0.438
1926.000 0.464
1927.000 0.547
1928.000 0.356
1929.000 0.657
1930.000 0.698
1931.000 0.642
1932.000 0.420
1933.000 0.408
1934.000 0.229
1935.000 0.305
1936.000 0.429
1937.000 0.343
1938.000 0.384
1939.000 0.332
1940.000 0.305
1941.000 0.462
1942.000 0.523
1943.000 0.406
1944.000 0.467
1945.000 0.352
1946.000 0.347
1947.000 0.331
1948.000 0.273
1949.000 0.282
1950.000 0.317
1951.000 0.429
1952.000 0.505
1953.000 0.527
1954.000 0.578
1955.000 0.394
1956.000 0.542
1957.000 0.659
1958.000 0.542
1959.000 0.554
1960.000 0.567
1961.000 0.570
1962.000 0.533
1963.000 0.356
1964.000 0.475
1965.000 0.460
1966.000 0.449
1967.000 0.440
1968.000 0.463
1969.000 0.552
1970.000 0.526
1971.000 0.549
1972.000 0.545
1973.000 0.525
1974.000 0.448
1975.000 0.393
1976.000 0.483
1977.000 0.566
1978.000 0.584
1979.000 0.598
1980.000 0.639
1981.000 0.555
1982.000 0.472
1983.000 0.520
1984.000 0.323
1985.000 0.394
1986.000 0.317
1987.000 0.347
1988.000 0.323
1989.000 0.319
1990.000 0.307
1991.000 0.440
1992.000 0.440
1993.000 0.382
1994.000 0.420
1995.000 0.457
1996.000 0.337
1997.000 0.474
1998.000 0.356
1999.000 0.482
2000.000 0.382
2001.000 0.290
2002.000 0.289
2003.000 0.342
2004.000 0.429
2005.000 0.416
2006.000 0.448
2007.000 0.397
2008.000 0.437
2009.000 0.591
2010.000 0.581
2011.000 0.439
2012.000 0.343
2013.000 0.516
2014.000 0.462
2015.000 0.530
2016.000 0.688
2017.000 0.651
2018.000 0.613
2019.000 0.578
2020.000 0.446
2021.000 0.426
2022.000 0.338
2023.000 0.294
2024.000 0.451
2025.000 0.439
2026.000 0.439
2027.000 0.345
2028.000 0.460
2029.000 0.427
2030.000 0.396
2031.000 0.350
2032.000 0.332
2033.000 0.316
2034.000 0.312
2035.000 0.348
2036.000 0.284
2037.000 0.261
2038.000 0.296
2039.000 0.300
2040.000 0.263
2041.000 0.317
2042.000 0.340
2043.000 0.357
2044.000 0.374
2045.000 0.345
2046.000 0.422
2047.000 0.382
2048.000 0.368
2049.000 0.427
2050.000 0.350
2051.000 0.414
2052.000 0.431
2053.000 0.376
2054.000 0.370
2055.000 0.381
2056.000 0.316
2057.000 0.333
2058.000 0.398
2059.000 0.472
2060.000 0.439
2061.000 0.465
2062.000 0.456
2063.000 0.399
2064.000 0.316
2065.000 0.333
2066.000 0.354
2067.000 0.317
2068.000 0.286
2069.000 0.286
2070.000 0.280
2071.000 0.305
2072.000 0.316
2073.000 0.352
2074.000 0.380
2075.000 0.403
2076.000 0.396
2077.000 0.422
2078.000 0.431
2079.000 0.398
2080.000 0.384
2081.000 0.383
2082.000 0.365
2083.000 0.348
2084.000 0.302
2085.000 0.233
2086.000 0.219
2087.000 0.227
2088.000 0.248
2089.000 0.277
2090.000 0.296
2091.000 0.309
2092.000 0.359
2093.000 0.371
2094.000 0.319
2095.000 0.303
2096.000 0.267
2097.000 0.260
2098.000 0.299
2099.000 0.299
2100.000 0.311
2101.000 0.275
2102.000 0.296
2103.000 0.304
2104.000 0.325
2105.000 0.355
2106.000 0.338
2107.000 0.359
2108.000 0.324
2109.000 0.293
2110.000 0.276
2111.000 0.238
2112.000 0.241
2113.000 0.278
2114.000 0.286
2115.000 0.281
2116.000 0.278
2117.000 0.266
2118.000 0.240
2119.000 0.251
2120.000 0.246
2121.000 0.251
2122.000 0.270
2123.000 0.263
2124.000 0.296
2125.000 0.312
2126.000 0.342
2127.000 0.361
2128.000 0.347
2129.000 0.337
2130.000 0.327
2131.000 0.318
2132.000 0.287
2133.000 0.280
2134.000 0.297
2135.000 0.298
2136.000 0.297
2137.000 0.292
2138.000 0.287
2139.000 0.280
2140.000 0.297
2141.000 0.335
2142.000 0.348
2143.000 0.345
2144.000 0.330
2145.000 0.315
2146.000 0.309
2147.000 0.285
2148.000 0.305
2149.000 0.279
2150.000 0.281
2151.000 0.305
2152.000 0.301
2153.000 0.323
2154.000 0.337
2155.000 0.347
2156.000 0.341
2157.000 0.354
2158.000 0.373
2159.000 0.335
2160.000 0.316
2161.000 0.303
2162.000 0.280
2163.000 0.294
2164.000 0.306
2165.000 0.306
2166.000 0.290
2167.000 0.298
2168.000 0.319
2169.000 0.314
2170.000 0.297
2171.000 0.289
2172.000 0.262
2173.000 0.258
2174.000 0.278
2175.000 0.287
2176.000 0.296
2177.000 0.322
2178.000 0.316
2179.000 0.300
2180.000 0.301
2181.000 0.298
2182.000 0.315
2183.000 0.323
2184.000 0.321
2185.000 0.309
2186.000 0.310
2187.000 0.320
2188.000 0.315
2189.000 0.335
2190.000 0.333
2191.000 0.315
2192.000 0.303
2193.000 0.285
2194.000 0.281
2195.000 0.267
2196.000 0.272
2197.000 0.278
2198.000 0.291
2199.000 0.320
2200.000 0.335
2201.000 0.363
2202.000 0.361
2203.000 0.333
2204.000 0.312
2205.000 0.283
2206.000 0.292
2207.000 0.293
2208.000 0.302
2209.000 0.311
2210.000 0.346
2211.000 0.318
2212.000 0.318
2213.000 0.308
2214.000 0.282
2215.000 0.271
2216.000 0.256
2217.000 0.254
2218.000 0.266
2219.000 0.274
2220.000 0.292
2221.000 0.301
2222.000 0.295
2223.000 0.292
2224.000 0.290
2225.000 0.279
2226.000 0.261
2227.000 0.246
2228.000 0.246
2229.000 0.241
2230.000 0.223
2231.000 0.242
2232.000 0.267
2233.000 0.291
2234.000 0.331
2235.000 0.396
2236.000 0.398
2237.000 0.374
2238.000 0.343
2239.000 0.272
2240.000 0.252
2241.000 0.253
2242.000 0.244
2243.000 0.223
2244.000 0.221
2245.000 0.239
2246.000 0.250
2247.000 0.237
2248.000 0.247
2249.000 0.253
2250.000 0.269
2251.000 0.309
2252.000 0.338
2253.000 0.351
2254.000 0.358
2255.000 0.357
2256.000 0.349
2257.000 0.352
2258.000 0.315
2259.000 0.285
2260.000 0.289
2261.000 0.262
2262.000 0.265
2263.000 0.309
2264.000 0.330
2265.000 0.368
2266.000 0.391
2267.000 0.404
2268.000 0.351
2269.000 0.334
2270.000 0.294
2271.000 0.275
2272.000 0.287
2273.000 0.291
2274.000 0.304
2275.000 0.303
2276.000 0.348
2277.000 0.363
2278.000 0.277
2279.000 0.268
2280.000 0.243
2281.000 0.210
2282.000 0.229
2283.000 0.280
2284.000 0.299
2285.000 0.265
2286.000 0.240
2287.000 0.247
2288.000 0.343
2289.000 0.354
2290.000 0.441
2291.000 0.397
2292.000 0.342
2293.000 0.272
2294.000 0.278
2295.000 0.268
2296.000 0.282
2297.000 0.349
2298.000 0.332
2299.000 0.332
2300.000 0.373
2301.000 0.297
2302.000 0.249
2303.000 0.342
2304.000 0.346
2305.000 0.386
2306.000 0.453
2307.000 0.340
2308.000 0.437
2309.000 0.470
2310.000 0.385
2311.000 0.357
2312.000 0.207
2313.000 0.222
2314.000 0.276
2315.000 0.383
2316.000 0.440
2317.000 0.412
2318.000 0.484
2319.000 0.489
2320.000 0.257
2321.000 0.288
2322.000 0.296
2323.000 0.221
2324.000 0.472
2325.000 0.339
2326.000 0.314
2327.000 0.210
2328.000 0.242
2329.000 0.461
2330.000 0.460
2331.000 0.348
2332.000 0.335
2333.000 0.321
2334.000 0.332
2335.000 0.346
2336.000 0.534
2337.000 0.221
2338.000 0.242
2339.000 0.365
2340.000 0.454
2341.000 0.336
2342.000 0.323
2343.000 0.487
2344.000 0.542
2345.000 0.295
2346.000 0.349
2347.000 0.333
2348.000 0.423
2349.000 0.481
2350.000 0.598
2351.000 0.725
2352.000 0.558
2353.000 0.405
2354.000 0.437
2355.000 0.504
2356.000 0.458
2357.000 0.306
2358.000 0.433
2359.000 0.584
2360.000 0.602
2361.000 0.470
2362.000 0.680
2363.000 0.570
2364.000 0.521
2365.000 0.596
2366.000 0.561
2367.000 0.414
2368.000 0.491
2369.000 0.460
2370.000 0.279
2371.000 0.475
2372.000 0.515
2373.000 0.543
2374.000 0.439
2375.000 0.693
2376.000 0.615
2377.000 0.618
2378.000 0.475
2379.000 0.521
2380.000 0.497
2381.000 0.404
2382.000 0.327
2383.000 0.437
2384.000 0.482
2385.000 0.384
2386.000 0.513
2387.000 0.456
2388.000 0.382
2389.000 0.379
2390.000 0.349
2391.000 0.210
2392.000 0.356
2393.000 0.679
2394.000 0.353
2395.000 0.481
2396.000 0.497
2397.000 0.376
2398.000 0.421
2399.000 0.434
2400.000 0.525
2401.000 0.396
2402.000 0.435
2403.000 0.377
2404.000 0.423
2405.000 0.277
2406.000 0.348
2407.000 0.308
2408.000 0.421
2409.000 0.438
2410.000 0.422
2411.000 0.141
2412.000 0.245
2413.000 0.576
2414.000 0.530
2415.000 0.489
2416.000 0.397
2417.000 0.322
2418.000 0.429
2419.000 0.289
2420.000 0.632
2421.000 0.417
2422.000 0.323
2423.000 0.426
2424.000 0.483
2425.000 0.497
2426.000 0.352
2427.000 0.274
2428.000 0.382
2429.000 0.343
2430.000 0.383
2431.000 0.524
2432.000 0.482
2433.000 0.733
2434.000 0.526
2435.000 0.568
2436.000 0.442
2437.000 0.225
2438.000 0.253
2439.000 0.582
2440.000 0.603
2441.000 0.382
2442.000 0.374
2443.000 0.250
2444.000 0.395
2445.000 0.376
2446.000 0.365
2447.000 0.241
2448.000 0.230
2449.000 0.569
2450.000 0.457
2451.000 0.393
2452.000 0.255
2453.000 0.327
2454.000 0.304
2455.000 0.405
2456.000 0.385
2457.000 0.197
2458.000 0.360
2459.000 0.431
2460.000 0.388
2461.000 0.460
2462.000 0.489
2463.000 0.435
2464.000 0.420
2465.000 0.304
2466.000 0.313
2467.000 0.339
2468.000 0.328
2469.000 0.301
2470.000 0.425
2471.000 0.281
2472.000 0.358
2473.000 0.259
2474.000 0.378
2475.000 0.618
2476.000 0.487
2477.000 0.362
2478.000 0.455
2479.000 0.484
2480.000 0.468
2481.000 0.518
2482.000 0.323
2483.000 0.340
2484.000 0.471
2485.000 0.406
2486.000 0.301
2487.000 0.362
2488.000 0.526
2489.000 0.274
2490.000 0.270
2491.000 0.346
2492.000 0.407
2493.000 0.769
2494.000 0.499
2495.000 0.605
2496.000 0.555
2497.000 0.501
2498.000 0.437
2499.000 0.409
2500.000 0.363
