391.000 0.030
392.000 0.029
393.000 0.027
394.000 0.028
395.000 0.028
396.000 0.029
397.000 0.030
398.000 0.030
399.000 0.030
400.000 0.030
401.000 0.029
402.000 0.030
403.000 0.029
404.000 0.027
405.000 0.030
406.000 0.031
407.000 0.030
408.000 0.029
409.000 0.030
410.000 0.030
411.000 0.032
412.000 0.032
413.000 0.033
414.000 0.032
415.000 0.031
416.000 0.031
417.000 0.031
418.000 0.031
419.000 0.031
420.000 0.032
421.000 0.030
422.000 0.029
423.000 0.032
424.000 0.031
425.000 0.031
426.000 0.032
427.000 0.033
428.000 0.033
429.000 0.032
430.000 0.032
431.000 0.032
432.000 0.032
433.000 0.031
434.000 0.032
435.000 0.031
436.000 0.032
437.000 0.032
438.000 0.032
439.000 0.034
440.000 0.034
441.000 0.033
442.000 0.033
443.000 0.034
444.000 0.034
445.000 0.033
446.000 0.032
447.000 0.033
448.000 0.034
449.000 0.033
450.000 0.033
451.000 0.034
452.000 0.033
453.000 0.034
454.000 0.033
455.000 0.033
456.000 0.033
457.000 0.034
458.000 0.033
459.000 0.033
460.000 0.034
461.000 0.034
462.000 0.033
463.000 0.032
464.000 0.034
465.000 0.034
466.000 0.033
467.000 0.034
468.000 0.036
469.000 0.035
470.000 0.033
471.000 0.033
472.000 0.032
473.000 0.033
474.000 0.036
475.000 0.035
476.000 0.034
477.000 0.035
478.000 0.037
479.000 0.035
480.000 0.035
481.000 0.035
482.000 0.036
483.000 0.035
484.000 0.035
485.000 0.035
486.000 0.034
487.000 0.034
488.000 0.035
489.000 0.035
490.000 0.036
491.000 0.035
492.000 0.034
493.000 0.036
494.000 0.036
495.000 0.036
496.000 0.036
497.000 0.036
498.000 0.037
499.000 0.038
500.000 0.037
501.000 0.038
502.000 0.039
503.000 0.040
504.000 0.041
505.000 0.042
506.000 0.042
507.000 0.043
508.000 0.042
509.000 0.044
510.000 0.045
511.000 0.046
512.000 0.048
513.000 0.050
514.000 0.051
515.000 0.052
516.000 0.054
517.000 0.056
518.000 0.059
519.000 0.060
520.000 0.062
521.000 0.065
522.000 0.066
523.000 0.069
524.000 0.071
525.000 0.074
526.000 0.076
527.000 0.078
528.000 0.079
529.000 0.081
530.000 0.083
531.000 0.085
532.000 0.086
533.000 0.088
534.000 0.089
535.000 0.090
536.000 0.091
537.000 0.091
538.000 0.092
539.000 0.093
540.000 0.094
541.000 0.094
542.000 0.094
543.000 0.095
544.000 0.095
545.000 0.095
546.000 0.095
547.000 0.096
548.000 0.096
549.000 0.097
550.000 0.097
551.000 0.097
552.000 0.097
553.000 0.097
554.000 0.097
555.000 0.097
556.000 0.097
557.000 0.096
558.000 0.096
559.000 0.095
560.000 0.094
561.000 0.093
562.000 0.092
563.000 0.091
564.000 0.090
565.000 0.088
566.000 0.087
567.000 0.086
568.000 0.085
569.000 0.084
570.000 0.082
571.000 0.081
572.000 0.079
573.000 0.078
574.000 0.078
575.000 0.076
576.000 0.075
577.000 0.073
578.000 0.073
579.000 0.073
580.000 0.072
581.000 0.071
582.000 0.070
583.000 0.069
584.000 0.069
585.000 0.068
586.000 0.068
587.000 0.067
588.000 0.066
589.000 0.067
590.000 0.066
591.000 0.065
592.000 0.065
593.000 0.065
594.000 0.064
595.000 0.064
596.000 0.064
597.000 0.064
598.000 0.064
599.000 0.063
600.000 0.063
601.000 0.062
602.000 0.063
603.000 0.063
604.000 0.062
605.000 0.061
606.000 0.062
607.000 0.062
608.000 0.060
609.000 0.060
610.000 0.060
611.000 0.060
612.000 0.060
613.000 0.060
614.000 0.059
615.000 0.057
616.000 0.058
617.000 0.057
618.000 0.056
619.000 0.057
620.000 0.057
621.000 0.057
622.000 0.057
623.000 0.057
624.000 0.056
625.000 0.056
626.000 0.056
627.000 0.055
628.000 0.056
629.000 0.057
630.000 0.057
631.000 0.056
632.000 0.056
633.000 0.056
634.000 0.055
635.000 0.056
636.000 0.056
637.000 0.054
638.000 0.054
639.000 0.053
640.000 0.052
641.000 0.052
642.000 0.050
643.000 0.049
644.000 0.050
645.000 0.050
646.000 0.048
647.000 0.047
648.000 0.049
649.000 0.048
650.000 0.047
651.000 0.048
652.000 0.049
653.000 0.047
654.000 0.046
655.000 0.046
656.000 0.047
657.000 0.047
658.000 0.047
659.000 0.048
660.000 0.047
661.000 0.046
662.000 0.047
663.000 0.046
664.000 0.046
665.000 0.046
666.000 0.046
667.000 0.045
668.000 0.047
669.000 0.048
670.000 0.047
671.000 0.046
672.000 0.047
673.000 0.048
674.000 0.048
675.000 0.048
676.000 0.049
677.000 0.049
678.000 0.049
679.000 0.050
680.000 0.052
681.000 0.050
682.000 0.052
683.000 0.053
684.000 0.053
685.000 0.056
686.000 0.057
687.000 0.059
688.000 0.061
689.000 0.064
690.000 0.067
691.000 0.069
692.000 0.072
693.000 0.074
694.000 0.079
695.000 0.087
696.000 0.092
697.000 0.097
698.000 0.103
699.000 0.111
700.000 0.118
701.000 0.127
702.000 0.135
703.000 0.141
704.000 0.148
705.000 0.157
706.000 0.164
707.000 0.172
708.000 0.179
709.000 0.187
710.000 0.194
711.000 0.202
712.000 0.210
713.000 0.217
714.000 0.225
715.000 0.233
716.000 0.240
717.000 0.247
718.000 0.255
719.000 0.264
720.000 0.274
721.000 0.283
722.000 0.290
723.000 0.298
724.000 0.306
725.000 0.313
726.000 0.322
727.000 0.330
728.000 0.338
729.000 0.346
730.000 0.353
731.000 0.361
732.000 0.369
733.000 0.377
734.000 0.384
735.000 0.390
736.000 0.397
737.000 0.403
738.000 0.409
739.000 0.415
740.000 0.421
741.000 0.426
742.000 0.431
743.000 0.436
744.000 0.441
745.000 0.445
746.000 0.449
747.000 0.453
748.000 0.457
749.000 0.460
750.000 0.463
751.000 0.466
752.000 0.469
753.000 0.472
754.000 0.474
755.000 0.475
756.000 0.478
757.000 0.480
758.000 0.481
759.000 0.481
760.000 0.480
761.000 0.478
762.000 0.481
763.000 0.483
764.000 0.484
765.000 0.488
766.000 0.490
767.000 0.492
768.000 0.494
769.000 0.495
770.000 0.496
771.000 0.497
772.000 0.498
773.000 0.499
774.000 0.500
775.000 0.500
776.000 0.501
777.000 0.502
778.000 0.503
779.000 0.503
780.000 0.504
781.000 0.505
782.000 0.505
783.000 0.506
784.000 0.506
785.000 0.507
786.000 0.507
787.000 0.507
788.000 0.508
789.000 0.508
790.000 0.508
791.000 0.509
792.000 0.509
793.000 0.511
794.000 0.511
795.000 0.512
796.000 0.512
797.000 0.512
798.000 0.513
799.000 0.514
800.000 0.514
801.000 0.514
802.000 0.515
803.000 0.516
804.000 0.516
805.000 0.517
806.000 0.518
807.000 0.519
808.000 0.519
809.000 0.519
810.000 0.519
811.000 0.518
812.000 0.518
813.000 0.517
814.000 0.516
815.000 0.515
816.000 0.514
817.000 0.515
818.000 0.515
819.000 0.518
820.000 0.519
821.000 0.520
822.000 0.520
823.000 0.520
824.000 0.520
825.000 0.523
826.000 0.524
827.000 0.524
828.000 0.524
829.000 0.524
830.000 0.525
831.000 0.525
832.000 0.526
833.000 0.527
834.000 0.528
835.000 0.529
836.000 0.531
837.000 0.531
838.000 0.532
839.000 0.533
840.000 0.533
841.000 0.534
842.000 0.535
843.000 0.536
844.000 0.536
845.000 0.537
846.000 0.537
847.000 0.538
848.000 0.538
849.000 0.539
850.000 0.539
851.000 0.539
852.000 0.540
853.000 0.540
854.000 0.540
855.000 0.541
856.000 0.541
857.000 0.542
858.000 0.542
859.000 0.543
860.000 0.543
861.000 0.543
862.000 0.544
863.000 0.545
864.000 0.545
865.000 0.545
866.000 0.545
867.000 0.545
868.000 0.546
869.000 0.546
870.000 0.546
871.000 0.547
872.000 0.548
873.000 0.549
874.000 0.549
875.000 0.549
876.000 0.549
877.000 0.550
878.000 0.550
879.000 0.550
880.000 0.551
881.000 0.551
882.000 0.551
883.000 0.552
884.000 0.552
885.000 0.552
886.000 0.553
887.000 0.553
888.000 0.553
889.000 0.553
890.000 0.553
891.000 0.554
892.000 0.553
893.000 0.552
894.000 0.552
895.000 0.551
896.000 0.549
897.000 0.547
898.000 0.547
899.000 0.546
900.000 0.546
901.000 0.546
902.000 0.548
903.000 0.550
904.000 0.550
905.000 0.550
906.000 0.551
907.000 0.551
908.000 0.550
909.000 0.549
910.000 0.547
911.000 0.547
912.000 0.546
913.000 0.548
914.000 0.547
915.000 0.546
916.000 0.548
917.000 0.549
918.000 0.550
919.000 0.552
920.000 0.553
921.000 0.554
922.000 0.554
923.000 0.552
924.000 0.554
925.000 0.553
926.000 0.551
927.000 0.547
928.000 0.546
929.000 0.543
930.000 0.538
931.000 0.532
932.000 0.525
933.000 0.518
934.000 0.513
935.000 0.508
936.000 0.508
937.000 0.508
938.000 0.510
939.000 0.510
940.000 0.510
941.000 0.511
942.000 0.509
943.000 0.508
944.000 0.512
945.000 0.510
946.000 0.512
947.000 0.518
948.000 0.507
949.000 0.510
950.000 0.515
951.000 0.514
952.000 0.514
953.000 0.514
954.000 0.514
955.000 0.514
956.000 0.513
957.000 0.514
958.000 0.517
959.000 0.517
960.000 0.513
961.000 0.516
962.000 0.519
963.000 0.519
964.000 0.523
965.000 0.529
966.000 0.532
967.000 0.530
968.000 0.535
969.000 0.536
970.000 0.535
971.000 0.538
972.000 0.538
973.000 0.535
974.000 0.536
975.000 0.539
976.000 0.537
977.000 0.538
978.000 0.541
979.000 0.543
980.000 0.539
981.000 0.542
982.000 0.543
983.000 0.543
984.000 0.548
985.000 0.549
986.000 0.549
987.000 0.550
988.000 0.554
989.000 0.552
990.000 0.551
991.000 0.552
992.000 0.553
993.000 0.554
994.000 0.554
995.000 0.556
996.000 0.557
997.000 0.556
998.000 0.556
999.000 0.558
1000.000 0.558
1001.000 0.562
1002.000 0.561
1003.000 0.561
1004.000 0.562
1005.000 0.562
1006.000 0.564
1007.000 0.564
1008.000 0.565
1009.000 0.566
1010.000 0.568
1011.000 0.569
1012.000 0.571
1013.000 0.572
1014.000 0.572
1015.000 0.572
1016.000 0.572
1017.000 0.573
1018.000 0.573
1019.000 0.575
1020.000 0.575
1021.000 0.576
1022.000 0.577
1023.000 0.578
1024.000 0.580
1025.000 0.581
1026.000 0.582
1027.000 0.582
1028.000 0.583
1029.000 0.583
1030.000 0.583
1031.000 0.583
1032.000 0.583
1033.000 0.584
1034.000 0.585
1035.000 0.587
1036.000 0.589
1037.000 0.589
1038.000 0.589
1039.000 0.589
1040.000 0.589
1041.000 0.590
1042.000 0.593
1043.000 0.594
1044.000 0.594
1045.000 0.596
1046.000 0.597
1047.000 0.597
1048.000 0.597
1049.000 0.598
1050.000 0.598
1051.000 0.599
1052.000 0.600
1053.000 0.600
1054.000 0.600
1055.000 0.602
1056.000 0.603
1057.000 0.602
1058.000 0.600
1059.000 0.601
1060.000 0.601
1061.000 0.600
1062.000 0.600
1063.000 0.600
1064.000 0.601
1065.000 0.603
1066.000 0.603
1067.000 0.603
1068.000 0.603
1069.000 0.602
1070.000 0.602
1071.000 0.603
1072.000 0.603
1073.000 0.603
1074.000 0.603
1075.000 0.603
1076.000 0.603
1077.000 0.604
1078.000 0.604
1079.000 0.604
1080.000 0.603
1081.000 0.602
1082.000 0.601
1083.000 0.601
1084.000 0.601
1085.000 0.600
1086.000 0.601
1087.000 0.601
1088.000 0.601
1089.000 0.601
1090.000 0.600
1091.000 0.600
1092.000 0.599
1093.000 0.599
1094.000 0.598
1095.000 0.596
1096.000 0.595
1097.000 0.596
1098.000 0.595
1099.000 0.595
1100.000 0.594
1101.000 0.593
1102.000 0.591
1103.000 0.590
1104.000 0.589
1105.000 0.588
1106.000 0.587
1107.000 0.586
1108.000 0.583
1109.000 0.580
1110.000 0.578
1111.000 0.575
1112.000 0.574
1113.000 0.573
1114.000 0.570
1115.000 0.569
1116.000 0.568
1117.000 0.564
1118.000 0.563
1119.000 0.560
1120.000 0.550
1121.000 0.547
1122.000 0.546
1123.000 0.542
1124.000 0.547
1125.000 0.545
1126.000 0.536
1127.000 0.530
1128.000 0.525
1129.000 0.523
1130.000 0.521
1131.000 0.521
1132.000 0.521
1133.000 0.522
1134.000 0.529
1135.000 0.532
1136.000 0.530
1137.000 0.532
1138.000 0.528
1139.000 0.521
1140.000 0.521
1141.000 0.527
1142.000 0.526
1143.000 0.522
1144.000 0.521
1145.000 0.518
1146.000 0.516
1147.000 0.516
1148.000 0.519
1149.000 0.520
1150.000 0.516
1151.000 0.516
1152.000 0.518
1153.000 0.517
1154.000 0.520
1155.000 0.521
1156.000 0.520
1157.000 0.521
1158.000 0.520
1159.000 0.521
1160.000 0.523
1161.000 0.524
1162.000 0.527
1163.000 0.528
1164.000 0.528
1165.000 0.529
1166.000 0.529
1167.000 0.528
1168.000 0.527
1169.000 0.528
1170.000 0.527
1171.000 0.527
1172.000 0.528
1173.000 0.529
1174.000 0.529
1175.000 0.530
1176.000 0.530
1177.000 0.531
1178.000 0.531
1179.000 0.530
1180.000 0.530
1181.000 0.528
1182.000 0.528
1183.000 0.528
1184.000 0.528
1185.000 0.529
1186.000 0.530
1187.000 0.532
1188.000 0.533
1189.000 0.533
1190.000 0.532
1191.000 0.533
1192.000 0.533
1193.000 0.533
1194.000 0.532
1195.000 0.532
1196.000 0.530
1197.000 0.530
1198.000 0.530
1199.000 0.530
1200.000 0.531
1201.000 0.532
1202.000 0.532
1203.000 0.532
1204.000 0.532
1205.000 0.532
1206.000 0.532
1207.000 0.533
1208.000 0.534
1209.000 0.535
1210.000 0.536
1211.000 0.536
1212.000 0.536
1213.000 0.536
1214.000 0.536
1215.000 0.536
1216.000 0.537
1217.000 0.538
1218.000 0.539
1219.000 0.539
1220.000 0.540
1221.000 0.540
1222.000 0.541
1223.000 0.542
1224.000 0.542
1225.000 0.543
1226.000 0.545
1227.000 0.546
1228.000 0.545
1229.000 0.546
1230.000 0.546
1231.000 0.547
1232.000 0.548
1233.000 0.549
1234.000 0.550
1235.000 0.550
1236.000 0.550
1237.000 0.550
1238.000 0.551
1239.000 0.551
1240.000 0.552
1241.000 0.553
1242.000 0.554
1243.000 0.554
1244.000 0.555
1245.000 0.556
1246.000 0.557
1247.000 0.557
1248.000 0.558
1249.000 0.557
1250.000 0.558
1251.000 0.558
1252.000 0.559
1253.000 0.559
1254.000 0.559
1255.000 0.559
1256.000 0.559
1257.000 0.560
1258.000 0.560
1259.000 0.559
1260.000 0.560
1261.000 0.561
1262.000 0.562
1263.000 0.564
1264.000 0.564
1265.000 0.564
1266.000 0.564
1267.000 0.563
1268.000 0.563
1269.000 0.563
1270.000 0.563
1271.000 0.564
1272.000 0.564
1273.000 0.564
1274.000 0.564
1275.000 0.565
1276.000 0.565
1277.000 0.565
1278.000 0.565
1279.000 0.565
1280.000 0.564
1281.000 0.563
1282.000 0.562
1283.000 0.562
1284.000 0.562
1285.000 0.561
1286.000 0.561
1287.000 0.561
1288.000 0.561
1289.000 0.561
1290.000 0.559
1291.000 0.558
1292.000 0.556
1293.000 0.555
1294.000 0.554
1295.000 0.553
1296.000 0.552
1297.000 0.552
1298.000 0.552
1299.000 0.551
1300.000 0.550
1301.000 0.550
1302.000 0.548
1303.000 0.546
1304.000 0.544
1305.000 0.541
1306.000 0.539
1307.000 0.537
1308.000 0.535
1309.000 0.535
1310.000 0.534
1311.000 0.533
1312.000 0.532
1313.000 0.531
1314.000 0.529
1315.000 0.527
1316.000 0.525
1317.000 0.524
1318.000 0.522
1319.000 0.520
1320.000 0.517
1321.000 0.515
1322.000 0.511
1323.000 0.508
1324.000 0.507
1325.000 0.504
1326.000 0.500
1327.000 0.497
1328.000 0.494
1329.000 0.492
1330.000 0.490
1331.000 0.489
1332.000 0.488
1333.000 0.486
1334.000 0.483
1335.000 0.481
1336.000 0.477
1337.000 0.474
1338.000 0.469
1339.000 0.466
1340.000 0.463
1341.000 0.460
1342.000 0.461
1343.000 0.462
1344.000 0.465
1345.000 0.467
1346.000 0.474
1347.000 0.478
1348.000 0.478
1349.000 0.474
1350.000 0.470
1351.000 0.451
1352.000 0.425
1353.000 0.406
1354.000 0.385
1355.000 0.392
1356.000 0.311
1357.000 0.505
1358.000 0.466
1359.000 0.439
1360.000 0.343
1361.000 0.284
1362.000 0.235
1363.000 0.299
1364.000 0.324
1365.000 0.529
1366.000 0.469
1367.000 0.415
1368.000 0.378
1369.000 0.458
1370.000 0.599
1371.000 0.559
1372.000 0.536
1373.000 0.824
1374.000 0.640
1375.000 0.442
1376.000 0.362
1377.000 0.257
1378.000 0.219
1379.000 0.244
1380.000 0.274
1381.000 0.353
1382.000 0.241
1383.000 0.335
1384.000 0.319
1385.000 0.358
1386.000 0.387
1387.000 0.314
1388.000 0.459
1389.000 0.385
1390.000 0.397
1391.000 0.402
1392.000 0.359
1393.000 0.378
1394.000 0.403
1395.000 0.402
1396.000 0.382
1397.000 0.447
1398.000 0.434
1399.000 0.359
1400.000 0.467
1401.000 0.366
1402.000 0.284
1403.000 0.207
1404.000 0.246
1405.000 0.356
1406.000 0.120
1407.000 0.143
1408.000 0.293
1409.000 0.281
1410.000 0.283
1411.000 0.283
1412.000 0.339
1413.000 0.249
1414.000 0.243
1415.000 0.183
1416.000 0.202
1417.000 0.267
1418.000 0.347
1419.000 0.330
1420.000 0.325
1421.000 0.222
1422.000 0.334
1423.000 0.405
1424.000 0.222
1425.000 0.171
1426.000 0.232
1427.000 0.218
1428.000 0.185
1429.000 0.198
1430.000 0.327
1431.000 0.372
1432.000 0.350
1433.000 0.341
1434.000 0.245
1435.000 0.262
1436.000 0.262
1437.000 0.285
1438.000 0.259
1439.000 0.287
1440.000 0.345
1441.000 0.316
1442.000 0.289
1443.000 0.259
1444.000 0.239
1445.000 0.322
1446.000 0.307
1447.000 0.272
1448.000 0.266
1449.000 0.194
1450.000 0.179
1451.000 0.227
1452.000 0.263
1453.000 0.292
1454.000 0.303
1455.000 0.298
1456.000 0.228
1457.000 0.211
1458.000 0.212
1459.000 0.215
1460.000 0.276
1461.000 0.217
1462.000 0.217
1463.000 0.201
1464.000 0.258
1465.000 0.303
1466.000 0.251
1467.000 0.234
1468.000 0.236
1469.000 0.234
1470.000 0.209
1471.000 0.189
1472.000 0.183
1473.000 0.169
1474.000 0.129
1475.000 0.117
1476.000 0.167
1477.000 0.190
1478.000 0.245
1479.000 0.254
1480.000 0.199
1481.000 0.186
1482.000 0.174
1483.000 0.170
1484.000 0.169
1485.000 0.166
1486.000 0.180
1487.000 0.182
1488.000 0.181
1489.000 0.183
1490.000 0.181
1491.000 0.182
1492.000 0.187
1493.000 0.192
1494.000 0.197
1495.000 0.203
1496.000 0.213
1497.000 0.215
1498.000 0.211
1499.000 0.210
1500.000 0.210
1501.000 0.212
1502.000 0.217
1503.000 0.219
1504.000 0.217
1505.000 0.216
1506.000 0.216
1507.000 0.217
1508.000 0.219
1509.000 0.221
1510.000 0.222
1511.000 0.223
1512.000 0.225
1513.000 0.227
1514.000 0.229
1515.000 0.233
1516.000 0.235
1517.000 0.236
1518.000 0.239
1519.000 0.243
1520.000 0.242
1521.000 0.239
1522.000 0.240
1523.000 0.238
1524.000 0.240
1525.000 0.245
1526.000 0.247
1527.000 0.248
1528.000 0.249
1529.000 0.251
1530.000 0.252
1531.000 0.255
1532.000 0.255
1533.000 0.252
1534.000 0.252
1535.000 0.250
1536.000 0.250
1537.000 0.255
1538.000 0.258
1539.000 0.259
1540.000 0.260
1541.000 0.258
1542.000 0.260
1543.000 0.262
1544.000 0.264
1545.000 0.267
1546.000 0.269
1547.000 0.271
1548.000 0.272
1549.000 0.274
1550.000 0.276
1551.000 0.277
1552.000 0.278
1553.000 0.278
1554.000 0.279
1555.000 0.280
1556.000 0.282
1557.000 0.287
1558.000 0.289
1559.000 0.290
1560.000 0.291
1561.000 0.291
1562.000 0.291
1563.000 0.292
1564.000 0.293
1565.000 0.297
1566.000 0.299
1567.000 0.301
1568.000 0.303
1569.000 0.302
1570.000 0.303
1571.000 0.306
1572.000 0.308
1573.000 0.310
1574.000 0.312
1575.000 0.312
1576.000 0.313
1577.000 0.314
1578.000 0.315
1579.000 0.317
1580.000 0.318
1581.000 0.317
1582.000 0.318
1583.000 0.318
1584.000 0.318
1585.000 0.318
1586.000 0.319
1587.000 0.321
1588.000 0.322
1589.000 0.324
1590.000 0.326
1591.000 0.327
1592.000 0.327
1593.000 0.327
1594.000 0.328
1595.000 0.328
1596.000 0.329
1597.000 0.329
1598.000 0.330
1599.000 0.333
1600.000 0.334
1601.000 0.335
1602.000 0.335
1603.000 0.335
1604.000 0.335
1605.000 0.338
1606.000 0.339
1607.000 0.342
1608.000 0.343
1609.000 0.342
1610.000 0.343
1611.000 0.342
1612.000 0.342
1613.000 0.340
1614.000 0.341
1615.000 0.345
1616.000 0.347
1617.000 0.350
1618.000 0.353
1619.000 0.351
1620.000 0.352
1621.000 0.354
1622.000 0.355
1623.000 0.357
1624.000 0.357
1625.000 0.354
1626.000 0.354
1627.000 0.353
1628.000 0.354
1629.000 0.355
1630.000 0.357
1631.000 0.360
1632.000 0.362
1633.000 0.363
1634.000 0.364
1635.000 0.364
1636.000 0.363
1637.000 0.363
1638.000 0.361
1639.000 0.360
1640.000 0.360
1641.000 0.362
1642.000 0.362
1643.000 0.361
1644.000 0.362
1645.000 0.361
1646.000 0.362
1647.000 0.367
1648.000 0.368
1649.000 0.366
1650.000 0.366
1651.000 0.365
1652.000 0.365
1653.000 0.367
1654.000 0.369
1655.000 0.370
1656.000 0.370
1657.000 0.367
1658.000 0.367
1659.000 0.367
1660.000 0.366
1661.000 0.368
1662.000 0.369
1663.000 0.370
1664.000 0.370
1665.000 0.371
1666.000 0.373
1667.000 0.374
1668.000 0.375
1669.000 0.375
1670.000 0.375
1671.000 0.376
1672.000 0.375
1673.000 0.376
1674.000 0.375
1675.000 0.371
1676.000 0.370
1677.000 0.367
1678.000 0.367
1679.000 0.369
1680.000 0.371
1681.000 0.374
1682.000 0.375
1683.000 0.373
1684.000 0.373
1685.000 0.372
1686.000 0.371
1687.000 0.373
1688.000 0.373
1689.000 0.373
1690.000 0.373
1691.000 0.371
1692.000 0.370
1693.000 0.369
1694.000 0.368
1695.000 0.370
1696.000 0.371
1697.000 0.373
1698.000 0.373
1699.000 0.371
1700.000 0.372
1701.000 0.377
1702.000 0.377
1703.000 0.378
1704.000 0.376
1705.000 0.367
1706.000 0.364
1707.000 0.363
1708.000 0.360
1709.000 0.357
1710.000 0.357
1711.000 0.356
1712.000 0.356
1713.000 0.357
1714.000 0.358
1715.000 0.361
1716.000 0.365
1717.000 0.367
1718.000 0.369
1719.000 0.367
1720.000 0.364
1721.000 0.362
1722.000 0.357
1723.000 0.349
1724.000 0.347
1725.000 0.341
1726.000 0.341
1727.000 0.346
1728.000 0.345
1729.000 0.348
1730.000 0.352
1731.000 0.351
1732.000 0.354
1733.000 0.353
1734.000 0.349
1735.000 0.347
1736.000 0.348
1737.000 0.347
1738.000 0.349
1739.000 0.348
1740.000 0.345
1741.000 0.344
1742.000 0.345
1743.000 0.343
1744.000 0.339
1745.000 0.338
1746.000 0.338
1747.000 0.338
1748.000 0.342
1749.000 0.343
1750.000 0.341
1751.000 0.341
1752.000 0.342
1753.000 0.342
1754.000 0.343
1755.000 0.343
1756.000 0.345
1757.000 0.345
1758.000 0.341
1759.000 0.343
1760.000 0.341
1761.000 0.340
1762.000 0.345
1763.000 0.342
1764.000 0.333
1765.000 0.326
1766.000 0.320
1767.000 0.319
1768.000 0.324
1769.000 0.321
1770.000 0.320
1771.000 0.316
1772.000 0.304
1773.000 0.316
1774.000 0.324
1775.000 0.325
1776.000 0.338
1777.000 0.333
1778.000 0.330
1779.000 0.335
1780.000 0.336
1781.000 0.347
1782.000 0.338
1783.000 0.330
1784.000 0.328
1785.000 0.321
1786.000 0.323
1787.000 0.336
1788.000 0.342
1789.000 0.333
1790.000 0.324
1791.000 0.317
1792.000 0.296
1793.000 0.316
1794.000 0.359
1795.000 0.357
1796.000 0.389
1797.000 0.445
1798.000 0.420
1799.000 0.458
1800.000 0.539
1801.000 0.500
1802.000 0.531
1803.000 0.526
1804.000 0.494
1805.000 0.349
1806.000 0.459
1807.000 0.359
1808.000 0.431
1809.000 0.756
1810.000 0.311
1811.000 0.440
1812.000 0.354
1813.000 0.729
1814.000 0.441
1815.000 0.363
1816.000 0.356
1817.000 0.386
1818.000 0.368
1819.000 0.545
1820.000 0.484
1821.000 0.735
1822.000 0.639
1823.000 0.560
1824.000 0.673
1825.000 0.536
1826.000 0.458
1827.000 0.392
1828.000 0.662
1829.000 0.559
1830.000 0.439
1831.000 0.358
1832.000 0.354
1833.000 0.316
1834.000 0.499
1835.000 0.420
1836.000 0.324
1837.000 0.269
1838.000 0.252
1839.000 0.280
1840.000 0.290
1841.000 0.416
1842.000 0.364
1843.000 0.240
1844.000 0.232
1845.000 0.311
1846.000 0.368
1847.000 0.501
1848.000 0.527
1849.000 0.292
1850.000 0.264
1851.000 0.301
1852.000 0.489
1853.000 0.527
1854.000 0.550
1855.000 0.404
1856.000 0.513
1857.000 0.592
1858.000 0.637
1859.000 0.644
1860.000 0.731
1861.000 0.707
1862.000 0.658
1863.000 0.553
1864.000 0.481
1865.000 0.299
1866.000 0.346
1867.000 0.297
1868.000 0.402
1869.000 0.429
1870.000 0.358
1871.000 0.524
1872.000 0.444
1873.000 0.373
1874.000 0.361
1875.000 0.306
1876.000 0.335
1877.000 0.469
1878.000 0.406
1879.000 0.379
1880.000 0.406
1881.000 0.499
1882.000 0.548
1883.000 0.446
1884.000 0.541
1885.000 0.677
1886.000 0.559
1887.000 0.709
1888.000 0.690
1889.000 0.709
1890.000 0.687
1891.000 0.684
1892.000 0.597
1893.000 0.570
1894.000 0.337
1895.000 0.535
1896.000 0.235
1897.000 0.257
1898.000 0.350
1899.000 0.411
1900.000 0.402
1901.000 0.245
1902.000 0.454
1903.000 0.408
1904.000 0.426
1905.000 0.438
1906.000 0.536
1907.000 0.430
1908.000 0.353
1909.000 0.123
1910.000 0.231
1911.000 0.315
1912.000 0.430
1913.000 0.496
1914.000 0.422
1915.000 0.308
1916.000 0.245
1917.000 0.064
1918.000 0.264
1919.000 0.530
1920.000 0.408
1921.000 0.359
1922.000 0.433
1923.000 0.507
1924.000 0.508
1925.000 0.541
1926.000 0.469
1927.000 0.645
1928.000 0.539
1929.000 0.390
1930.000 0.323
1931.000 0.243
1932.000 0.355
1933.000 0.330
1934.000 0.255
1935.000 0.230
1936.000 0.214
1937.000 0.406
1938.000 0.567
1939.000 0.615
1940.000 0.433
1941.000 0.618
1942.000 0.558
1943.000 0.428
1944.000 0.375
1945.000 0.265
1946.000 0.339
1947.000 0.477
1948.000 0.392
1949.000 0.380
1950.000 0.285
1951.000 0.268
1952.000 0.298
1953.000 0.511
1954.000 0.556
1955.000 0.223
1956.000 0.250
1957.000 0.451
1958.000 0.590
1959.000 0.440
1960.000 0.613
1961.000 0.690
1962.000 0.743
1963.000 0.583
1964.000 0.483
1965.000 0.484
1966.000 0.620
1967.000 0.440
1968.000 0.370
1969.000 0.372
1970.000 0.445
1971.000 0.443
1972.000 0.221
1973.000 0.298
1974.000 0.215
1975.000 0.203
1976.000 0.203
1977.000 0.162
1978.000 0.247
1979.000 0.252
1980.000 0.236
1981.000 0.241
1982.000 0.190
1983.000 0.184
1984.000 0.204
1985.000 0.188
1986.000 0.208
1987.000 0.295
1988.000 0.313
1989.000 0.287
1990.000 0.293
1991.000 0.292
1992.000 0.295
1993.000 0.291
1994.000 0.110
1995.000 0.197
1996.000 0.238
1997.000 0.332
1998.000 0.356
1999.000 0.326
2000.000 0.376
2001.000 0.461
2002.000 0.312
2003.000 0.343
2004.000 0.372
2005.000 0.400
2006.000 0.340
2007.000 0.369
2008.000 0.455
2009.000 0.414
2010.000 0.382
2011.000 0.401
2012.000 0.461
2013.000 0.446
2014.000 0.436
2015.000 0.459
2016.000 0.414
2017.000 0.310
2018.000 0.381
2019.000 0.329
2020.000 0.233
2021.000 0.157
2022.000 0.137
2023.000 0.162
2024.000 0.211
2025.000 0.226
2026.000 0.249
2027.000 0.177
2028.000 0.298
2029.000 0.302
2030.000 0.264
2031.000 0.267
2032.000 0.239
2033.000 0.233
2034.000 0.250
2035.000 0.268
2036.000 0.268
2037.000 0.233
2038.000 0.192
2039.000 0.162
2040.000 0.161
2041.000 0.172
2042.000 0.172
2043.000 0.197
2044.000 0.213
2045.000 0.251
2046.000 0.257
2047.000 0.248
2048.000 0.227
2049.000 0.202
2050.000 0.146
2051.000 0.177
2052.000 0.174
2053.000 0.202
2054.000 0.246
2055.000 0.252
2056.000 0.227
2057.000 0.209
2058.000 0.165
2059.000 0.152
2060.000 0.236
2061.000 0.235
2062.000 0.211
2063.000 0.232
2064.000 0.247
2065.000 0.255
2066.000 0.238
2067.000 0.271
2068.000 0.265
2069.000 0.259
2070.000 0.205
2071.000 0.190
2072.000 0.191
2073.000 0.222
2074.000 0.234
2075.000 0.269
2076.000 0.283
2077.000 0.273
2078.000 0.255
2079.000 0.253
2080.000 0.235
2081.000 0.203
2082.000 0.185
2083.000 0.196
2084.000 0.198
2085.000 0.212
2086.000 0.232
2087.000 0.230
2088.000 0.203
2089.000 0.196
2090.000 0.180
2091.000 0.187
2092.000 0.226
2093.000 0.244
2094.000 0.271
2095.000 0.282
2096.000 0.272
2097.000 0.259
2098.000 0.241
2099.000 0.214
2100.000 0.204
2101.000 0.203
2102.000 0.203
2103.000 0.216
2104.000 0.219
2105.000 0.230
2106.000 0.220
2107.000 0.191
2108.000 0.184
2109.000 0.175
2110.000 0.177
2111.000 0.197
2112.000 0.205
2113.000 0.204
2114.000 0.211
2115.000 0.220
2116.000 0.223
2117.000 0.233
2118.000 0.244
2119.000 0.222
2120.000 0.207
2121.000 0.202
2122.000 0.186
2123.000 0.184
2124.000 0.193
2125.000 0.196
2126.000 0.211
2127.000 0.219
2128.000 0.225
2129.000 0.230
2130.000 0.230
2131.000 0.229
2132.000 0.224
2133.000 0.226
2134.000 0.232
2135.000 0.234
2136.000 0.240
2137.000 0.241
2138.000 0.222
2139.000 0.218
2140.000 0.220
2141.000 0.222
2142.000 0.226
2143.000 0.242
2144.000 0.244
2145.000 0.242
2146.000 0.236
2147.000 0.225
2148.000 0.220
2149.000 0.214
2150.000 0.211
2151.000 0.210
2152.000 0.208
2153.000 0.204
2154.000 0.202
2155.000 0.201
2156.000 0.207
2157.000 0.210
2158.000 0.215
2159.000 0.233
2160.000 0.233
2161.000 0.232
2162.000 0.214
2163.000 0.214
2164.000 0.211
2165.000 0.216
2166.000 0.235
2167.000 0.229
2168.000 0.215
2169.000 0.218
2170.000 0.223
2171.000 0.225
2172.000 0.237
2173.000 0.243
2174.000 0.245
2175.000 0.242
2176.000 0.246
2177.000 0.239
2178.000 0.212
2179.000 0.187
2180.000 0.174
2181.000 0.182
2182.000 0.197
2183.000 0.196
2184.000 0.203
2185.000 0.207
2186.000 0.219
2187.000 0.241
2188.000 0.248
2189.000 0.236
2190.000 0.232
2191.000 0.222
2192.000 0.217
2193.000 0.213
2194.000 0.212
2195.000 0.219
2196.000 0.223
2197.000 0.228
2198.000 0.233
2199.000 0.232
2200.000 0.236
2201.000 0.203
2202.000 0.197
2203.000 0.193
2204.000 0.196
2205.000 0.195
2206.000 0.197
2207.000 0.205
2208.000 0.217
2209.000 0.220
2210.000 0.224
2211.000 0.230
2212.000 0.237
2213.000 0.235
2214.000 0.232
2215.000 0.236
2216.000 0.232
2217.000 0.233
2218.000 0.241
2219.000 0.248
2220.000 0.247
2221.000 0.244
2222.000 0.242
2223.000 0.238
2224.000 0.226
2225.000 0.219
2226.000 0.217
2227.000 0.206
2228.000 0.195
2229.000 0.188
2230.000 0.182
2231.000 0.184
2232.000 0.198
2233.000 0.202
2234.000 0.200
2235.000 0.205
2236.000 0.194
2237.000 0.175
2238.000 0.158
2239.000 0.153
2240.000 0.158
2241.000 0.185
2242.000 0.194
2243.000 0.194
2244.000 0.202
2245.000 0.207
2246.000 0.214
2247.000 0.253
2248.000 0.240
2249.000 0.225
2250.000 0.215
2251.000 0.189
2252.000 0.186
2253.000 0.193
2254.000 0.202
2255.000 0.232
2256.000 0.252
2257.000 0.268
2258.000 0.266
2259.000 0.251
2260.000 0.246
2261.000 0.218
2262.000 0.200
2263.000 0.169
2264.000 0.159
2265.000 0.165
2266.000 0.182
2267.000 0.176
2268.000 0.179
2269.000 0.173
2270.000 0.185
2271.000 0.195
2272.000 0.227
2273.000 0.273
2274.000 0.296
2275.000 0.278
2276.000 0.284
2277.000 0.271
2278.000 0.238
2279.000 0.231
2280.000 0.227
2281.000 0.214
2282.000 0.188
2283.000 0.169
2284.000 0.160
2285.000 0.146
2286.000 0.145
2287.000 0.163
2288.000 0.200
2289.000 0.231
2290.000 0.321
2291.000 0.326
2292.000 0.341
2293.000 0.353
2294.000 0.173
2295.000 0.162
2296.000 0.142
2297.000 0.159
2298.000 0.180
2299.000 0.200
2300.000 0.255
2301.000 0.328
2302.000 0.262
2303.000 0.259
2304.000 0.183
2305.000 0.189
2306.000 0.207
2307.000 0.249
2308.000 0.185
2309.000 0.243
2310.000 0.272
2311.000 0.257
2312.000 0.211
2313.000 0.190
2314.000 0.223
2315.000 0.267
2316.000 0.237
2317.000 0.289
2318.000 0.383
2319.000 0.357
2320.000 0.342
2321.000 0.347
2322.000 0.288
2323.000 0.220
2324.000 0.194
2325.000 0.213
2326.000 0.182
2327.000 0.199
2328.000 0.273
2329.000 0.237
2330.000 0.196
2331.000 0.223
2332.000 0.217
2333.000 0.179
2334.000 0.264
2335.000 0.169
2336.000 0.210
2337.000 0.355
2338.000 0.314
2339.000 0.407
2340.000 0.257
2341.000 0.225
2342.000 0.257
2343.000 0.298
2344.000 0.254
2345.000 0.572
2346.000 0.578
2347.000 0.203
2348.000 0.322
2349.000 0.399
2350.000 0.422
2351.000 0.463
2352.000 0.477
2353.000 0.407
2354.000 0.372
2355.000 0.296
2356.000 0.223
2357.000 0.407
2358.000 0.323
2359.000 0.180
2360.000 0.319
2361.000 0.073
2362.000 0.292
2363.000 0.266
2364.000 0.565
2365.000 0.361
2366.000 0.354
2367.000 0.338
2368.000 0.350
2369.000 0.449
2370.000 0.428
2371.000 0.377
2372.000 0.298
2373.000 0.175
2374.000 0.135
2375.000 0.190
2376.000 0.263
2377.000 0.255
2378.000 0.243
2379.000 0.082
2380.000 0.243
2381.000 0.398
2382.000 0.279
2383.000 0.410
2384.000 0.383
2385.000 0.234
2386.000 0.128
2387.000 0.207
2388.000 0.363
2389.000 0.480
2390.000 0.354
2391.000 0.336
2392.000 0.336
2393.000 0.401
2394.000 0.156
2395.000 0.194
2396.000 0.234
2397.000 0.215
2398.000 0.261
2399.000 0.413
2400.000 0.361
2401.000 0.456
2402.000 0.449
2403.000 0.423
2404.000 0.382
2405.000 0.397
2406.000 0.382
2407.000 0.604
2408.000 0.432
2409.000 0.258
2410.000 0.356
2411.000 0.300
2412.000 0.507
2413.000 0.571
2414.000 0.603
2415.000 0.514
2416.000 0.404
2417.000 0.420
2418.000 0.375
2419.000 0.441
2420.000 0.512
2421.000 0.397
2422.000 0.361
2423.000 0.342
2424.000 0.250
2425.000 0.220
2426.000 0.343
2427.000 0.579
2428.000 0.409
2429.000 0.269
2430.000 0.285
2431.000 0.299
2432.000 0.214
2433.000 0.366
2434.000 0.613
2435.000 0.646
2436.000 0.588
2437.000 0.411
2438.000 0.275
2439.000 0.262
2440.000 0.275
2441.000 0.386
2442.000 0.669
2443.000 0.578
2444.000 0.631
2445.000 0.437
2446.000 0.460
2447.000 0.629
2448.000 0.466
2449.000 0.365
2450.000 0.331
2451.000 0.328
2452.000 0.483
2453.000 0.365
2454.000 0.257
2455.000 0.492
2456.000 0.284
2457.000 0.311
2458.000 0.292
2459.000 0.575
2460.000 0.300
2461.000 0.493
2462.000 0.246
2463.000 0.324
2464.000 0.565
2465.000 0.625
2466.000 0.372
2467.000 0.311
2468.000 0.403
2469.000 0.679
2470.000 0.635
2471.000 0.396
2472.000 0.190
2473.000 0.443
2474.000 0.593
2475.000 0.369
2476.000 0.396
2477.000 0.331
2478.000 0.414
2479.000 0.504
2480.000 0.642
2481.000 0.545
2482.000 0.652
2483.000 0.626
2484.000 0.585
2485.000 0.670
2486.000 0.728
2487.000 0.731
2488.000 0.718
2489.000 0.528
2490.000 0.337
2491.000 0.496
2492.000 0.460
2493.000 0.533
2494.000 0.492
2495.000 0.255
2496.000 0.348
2497.000 0.467
2498.000 0.503
2499.000 0.553
2500.000 0.577
