391.000 0.019
392.000 0.019
393.000 0.019
394.000 0.020
395.000 0.020
396.000 0.019
397.000 0.019
398.000 0.020
399.000 0.020
400.000 0.020
401.000 0.020
402.000 0.020
403.000 0.020
404.000 0.019
405.000 0.020
406.000 0.020
407.000 0.020
408.000 0.020
409.000 0.020
410.000 0.020
411.000 0.020
412.000 0.020
413.000 0.020
414.000 0.020
415.000 0.020
416.000 0.020
417.000 0.020
418.000 0.020
419.000 0.020
420.000 0.020
421.000 0.021
422.000 0.020
423.000 0.020
424.000 0.020
425.000 0.021
426.000 0.021
427.000 0.020
428.000 0.020
429.000 0.020
430.000 0.020
431.000 0.020
432.000 0.020
433.000 0.020
434.000 0.020
435.000 0.020
436.000 0.020
437.000 0.021
438.000 0.020
439.000 0.020
440.000 0.020
441.000 0.020
442.000 0.020
443.000 0.020
444.000 0.021
445.000 0.021
446.000 0.020
447.000 0.021
448.000 0.021
449.000 0.021
450.000 0.021
451.000 0.021
452.000 0.020
453.000 0.021
454.000 0.021
455.000 0.021
456.000 0.021
457.000 0.021
458.000 0.021
459.000 0.021
460.000 0.021
461.000 0.021
462.000 0.021
463.000 0.021
464.000 0.020
465.000 0.021
466.000 0.021
467.000 0.021
468.000 0.021
469.000 0.021
470.000 0.021
471.000 0.021
472.000 0.021
473.000 0.021
474.000 0.021
475.000 0.021
476.000 0.021
477.000 0.020
478.000 0.020
479.000 0.021
480.000 0.021
481.000 0.021
482.000 0.021
483.000 0.021
484.000 0.021
485.000 0.021
486.000 0.021
487.000 0.021
488.000 0.021
489.000 0.021
490.000 0.021
491.000 0.022
492.000 0.022
493.000 0.022
494.000 0.022
495.000 0.022
496.000 0.022
497.000 0.022
498.000 0.022
499.000 0.023
500.000 0.022
501.000 0.023
502.000 0.023
503.000 0.024
504.000 0.024
505.000 0.025
506.000 0.025
507.000 0.026
508.000 0.027
509.000 0.028
510.000 0.029
511.000 0.029
512.000 0.030
513.000 0.031
514.000 0.032
515.000 0.033
516.000 0.035
517.000 0.036
518.000 0.037
519.000 0.039
520.000 0.041
521.000 0.043
522.000 0.044
523.000 0.045
524.000 0.047
525.000 0.049
526.000 0.050
527.000 0.052
528.000 0.054
529.000 0.055
530.000 0.057
531.000 0.058
532.000 0.059
533.000 0.060
534.000 0.061
535.000 0.062
536.000 0.063
537.000 0.063
538.000 0.063
539.000 0.064
540.000 0.064
541.000 0.064
542.000 0.065
543.000 0.065
544.000 0.066
545.000 0.066
546.000 0.066
547.000 0.066
548.000 0.067
549.000 0.066
550.000 0.066
551.000 0.066
552.000 0.066
553.000 0.066
554.000 0.066
555.000 0.066
556.000 0.066
557.000 0.065
558.000 0.065
559.000 0.064
560.000 0.063
561.000 0.062
562.000 0.061
563.000 0.061
564.000 0.060
565.000 0.059
566.000 0.058
567.000 0.056
568.000 0.055
569.000 0.054
570.000 0.053
571.000 0.052
572.000 0.051
573.000 0.050
574.000 0.049
575.000 0.048
576.000 0.047
577.000 0.046
578.000 0.046
579.000 0.045
580.000 0.044
581.000 0.043
582.000 0.043
583.000 0.042
584.000 0.042
585.000 0.041
586.000 0.041
587.000 0.040
588.000 0.040
589.000 0.040
590.000 0.039
591.000 0.038
592.000 0.038
593.000 0.038
594.000 0.038
595.000 0.037
596.000 0.037
597.000 0.037
598.000 0.037
599.000 0.036
600.000 0.036
601.000 0.036
602.000 0.036
603.000 0.036
604.000 0.036
605.000 0.036
606.000 0.035
607.000 0.035
608.000 0.034
609.000 0.034
610.000 0.034
611.000 0.034
612.000 0.033
613.000 0.033
614.000 0.032
615.000 0.032
616.000 0.031
617.000 0.031
618.000 0.031
619.000 0.031
620.000 0.031
621.000 0.030
622.000 0.030
623.000 0.030
624.000 0.029
625.000 0.029
626.000 0.029
627.000 0.029
628.000 0.029
629.000 0.029
630.000 0.029
631.000 0.029
632.000 0.029
633.000 0.029
634.000 0.029
635.000 0.029
636.000 0.028
637.000 0.028
638.000 0.027
639.000 0.027
640.000 0.026
641.000 0.026
642.000 0.025
643.000 0.025
644.000 0.024
645.000 0.024
646.000 0.023
647.000 0.023
648.000 0.023
649.000 0.023
650.000 0.022
651.000 0.022
652.000 0.022
653.000 0.022
654.000 0.022
655.000 0.022
656.000 0.022
657.000 0.022
658.000 0.022
659.000 0.022
660.000 0.022
661.000 0.021
662.000 0.021
663.000 0.021
664.000 0.021
665.000 0.021
666.000 0.021
667.000 0.020
668.000 0.021
669.000 0.020
670.000 0.020
671.000 0.021
672.000 0.021
673.000 0.021
674.000 0.021
675.000 0.021
676.000 0.021
677.000 0.021
678.000 0.022
679.000 0.023
680.000 0.023
681.000 0.023
682.000 0.024
683.000 0.024
684.000 0.024
685.000 0.025
686.000 0.026
687.000 0.027
688.000 0.028
689.000 0.029
690.000 0.031
691.000 0.033
692.000 0.035
693.000 0.037
694.000 0.041
695.000 0.045
696.000 0.049
697.000 0.053
698.000 0.059
699.000 0.064
700.000 0.070
701.000 0.076
702.000 0.083
703.000 0.089
704.000 0.096
705.000 0.102
706.000 0.109
707.000 0.116
708.000 0.122
709.000 0.130
710.000 0.137
711.000 0.144
712.000 0.151
713.000 0.158
714.000 0.166
715.000 0.173
716.000 0.180
717.000 0.187
718.000 0.194
719.000 0.203
720.000 0.211
721.000 0.220
722.000 0.227
723.000 0.235
724.000 0.242
725.000 0.250
726.000 0.258
727.000 0.265
728.000 0.273
729.000 0.279
730.000 0.287
731.000 0.294
732.000 0.301
733.000 0.308
734.000 0.314
735.000 0.319
736.000 0.325
737.000 0.330
738.000 0.336
739.000 0.341
740.000 0.345
741.000 0.350
742.000 0.354
743.000 0.357
744.000 0.361
745.000 0.365
746.000 0.368
747.000 0.370
748.000 0.373
749.000 0.375
750.000 0.378
751.000 0.380
752.000 0.382
753.000 0.383
754.000 0.385
755.000 0.386
756.000 0.388
757.000 0.389
758.000 0.390
759.000 0.391
760.000 0.389
761.000 0.388
762.000 0.388
763.000 0.388
764.000 0.390
765.000 0.391
766.000 0.393
767.000 0.395
768.000 0.397
769.000 0.397
770.000 0.398
771.000 0.399
772.000 0.400
773.000 0.400
774.000 0.400
775.000 0.401
776.000 0.401
777.000 0.402
778.000 0.402
779.000 0.402
780.000 0.403
781.000 0.403
782.000 0.404
783.000 0.404
784.000 0.404
785.000 0.404
786.000 0.404
787.000 0.404
788.000 0.404
789.000 0.404
790.000 0.404
791.000 0.404
792.000 0.404
793.000 0.405
794.000 0.406
795.000 0.406
796.000 0.406
797.000 0.406
798.000 0.406
799.000 0.407
800.000 0.407
801.000 0.407
802.000 0.407
803.000 0.407
804.000 0.408
805.000 0.409
806.000 0.409
807.000 0.409
808.000 0.409
809.000 0.409
810.000 0.409
811.000 0.408
812.000 0.408
813.000 0.407
814.000 0.406
815.000 0.405
816.000 0.405
817.000 0.405
818.000 0.405
819.000 0.407
820.000 0.407
821.000 0.408
822.000 0.408
823.000 0.408
824.000 0.408
825.000 0.409
826.000 0.410
827.000 0.410
828.000 0.410
829.000 0.410
830.000 0.410
831.000 0.411
832.000 0.411
833.000 0.412
834.000 0.412
835.000 0.413
836.000 0.414
837.000 0.414
838.000 0.415
839.000 0.415
840.000 0.415
841.000 0.415
842.000 0.416
843.000 0.416
844.000 0.417
845.000 0.417
846.000 0.418
847.000 0.418
848.000 0.418
849.000 0.419
850.000 0.419
851.000 0.419
852.000 0.419
853.000 0.419
854.000 0.419
855.000 0.419
856.000 0.420
857.000 0.420
858.000 0.420
859.000 0.420
860.000 0.421
861.000 0.421
862.000 0.421
863.000 0.421
864.000 0.422
865.000 0.422
866.000 0.421
867.000 0.422
868.000 0.422
869.000 0.422
870.000 0.423
871.000 0.423
872.000 0.423
873.000 0.423
874.000 0.423
875.000 0.423
876.000 0.423
877.000 0.423
878.000 0.423
879.000 0.423
880.000 0.423
881.000 0.424
882.000 0.424
883.000 0.424
884.000 0.424
885.000 0.424
886.000 0.424
887.000 0.424
888.000 0.424
889.000 0.424
890.000 0.424
891.000 0.424
892.000 0.424
893.000 0.423
894.000 0.422
895.000 0.420
896.000 0.419
897.000 0.418
898.000 0.417
899.000 0.417
900.000 0.417
901.000 0.417
902.000 0.418
903.000 0.419
904.000 0.419
905.000 0.419
906.000 0.419
907.000 0.418
908.000 0.417
909.000 0.417
910.000 0.417
911.000 0.416
912.000 0.415
913.000 0.415
914.000 0.415
915.000 0.416
916.000 0.416
917.000 0.417
918.000 0.418
919.000 0.418
920.000 0.419
921.000 0.420
922.000 0.419
923.000 0.419
924.000 0.418
925.000 0.418
926.000 0.416
927.000 0.416
928.000 0.413
929.000 0.411
930.000 0.409
931.000 0.405
932.000 0.401
933.000 0.397
934.000 0.392
935.000 0.388
936.000 0.387
937.000 0.387
938.000 0.388
939.000 0.390
940.000 0.390
941.000 0.390
942.000 0.390
943.000 0.390
944.000 0.389
945.000 0.388
946.000 0.386
947.000 0.385
948.000 0.387
949.000 0.385
950.000 0.384
951.000 0.384
952.000 0.384
953.000 0.384
954.000 0.383
955.000 0.383
956.000 0.384
957.000 0.384
958.000 0.384
959.000 0.386
960.000 0.385
961.000 0.387
962.000 0.388
963.000 0.388
964.000 0.390
965.000 0.391
966.000 0.392
967.000 0.394
968.000 0.394
969.000 0.395
970.000 0.396
971.000 0.396
972.000 0.396
973.000 0.396
974.000 0.396
975.000 0.396
976.000 0.396
977.000 0.396
978.000 0.396
979.000 0.397
980.000 0.400
981.000 0.400
982.000 0.401
983.000 0.402
984.000 0.403
985.000 0.404
986.000 0.404
987.000 0.405
988.000 0.405
989.000 0.406
990.000 0.406
991.000 0.408
992.000 0.408
993.000 0.408
994.000 0.408
995.000 0.409
996.000 0.410
997.000 0.410
998.000 0.410
999.000 0.411
1000.000 0.411
1001.000 0.415
1002.000 0.415
1003.000 0.416
1004.000 0.417
1005.000 0.417
1006.000 0.418
1007.000 0.418
1008.000 0.418
1009.000 0.418
1010.000 0.419
1011.000 0.419
1012.000 0.421
1013.000 0.421
1014.000 0.422
1015.000 0.423
1016.000 0.423
1017.000 0.424
1018.000 0.424
1019.000 0.425
1020.000 0.426
1021.000 0.427
1022.000 0.427
1023.000 0.428
1024.000 0.429
1025.000 0.429
1026.000 0.429
1027.000 0.429
1028.000 0.430
1029.000 0.430
1030.000 0.430
1031.000 0.431
1032.000 0.432
1033.000 0.432
1034.000 0.433
1035.000 0.433
1036.000 0.433
1037.000 0.434
1038.000 0.435
1039.000 0.435
1040.000 0.436
1041.000 0.437
1042.000 0.437
1043.000 0.437
1044.000 0.437
1045.000 0.437
1046.000 0.437
1047.000 0.437
1048.000 0.438
1049.000 0.439
1050.000 0.439
1051.000 0.440
1052.000 0.440
1053.000 0.440
1054.000 0.440
1055.000 0.441
1056.000 0.441
1057.000 0.441
1058.000 0.441
1059.000 0.442
1060.000 0.442
1061.000 0.442
1062.000 0.442
1063.000 0.442
1064.000 0.442
1065.000 0.442
1066.000 0.443
1067.000 0.443
1068.000 0.443
1069.000 0.443
1070.000 0.443
1071.000 0.443
1072.000 0.443
1073.000 0.443
1074.000 0.443
1075.000 0.443
1076.000 0.443
1077.000 0.443
1078.000 0.443
1079.000 0.443
1080.000 0.443
1081.000 0.443
1082.000 0.443
1083.000 0.443
1084.000 0.443
1085.000 0.443
1086.000 0.443
1087.000 0.442
1088.000 0.441
1089.000 0.442
1090.000 0.441
1091.000 0.441
1092.000 0.441
1093.000 0.441
1094.000 0.440
1095.000 0.439
1096.000 0.439
1097.000 0.437
1098.000 0.436
1099.000 0.435
1100.000 0.434
1101.000 0.433
1102.000 0.433
1103.000 0.432
1104.000 0.432
1105.000 0.431
1106.000 0.431
1107.000 0.430
1108.000 0.429
1109.000 0.428
1110.000 0.427
1111.000 0.426
1112.000 0.424
1113.000 0.423
1114.000 0.421
1115.000 0.420
1116.000 0.419
1117.000 0.417
1118.000 0.415
1119.000 0.413
1120.000 0.411
1121.000 0.408
1122.000 0.406
1123.000 0.402
1124.000 0.399
1125.000 0.396
1126.000 0.395
1127.000 0.394
1128.000 0.394
1129.000 0.395
1130.000 0.395
1131.000 0.394
1132.000 0.393
1133.000 0.393
1134.000 0.392
1135.000 0.391
1136.000 0.391
1137.000 0.391
1138.000 0.390
1139.000 0.388
1140.000 0.388
1141.000 0.386
1142.000 0.385
1143.000 0.385
1144.000 0.383
1145.000 0.380
1146.000 0.379
1147.000 0.376
1148.000 0.376
1149.000 0.374
1150.000 0.374
1151.000 0.373
1152.000 0.372
1153.000 0.372
1154.000 0.372
1155.000 0.371
1156.000 0.371
1157.000 0.371
1158.000 0.372
1159.000 0.373
1160.000 0.374
1161.000 0.374
1162.000 0.374
1163.000 0.375
1164.000 0.375
1165.000 0.375
1166.000 0.376
1167.000 0.376
1168.000 0.376
1169.000 0.376
1170.000 0.376
1171.000 0.376
1172.000 0.376
1173.000 0.376
1174.000 0.376
1175.000 0.376
1176.000 0.376
1177.000 0.376
1178.000 0.376
1179.000 0.375
1180.000 0.375
1181.000 0.375
1182.000 0.374
1183.000 0.374
1184.000 0.374
1185.000 0.374
1186.000 0.374
1187.000 0.375
1188.000 0.375
1189.000 0.375
1190.000 0.375
1191.000 0.375
1192.000 0.375
1193.000 0.375
1194.000 0.375
1195.000 0.375
1196.000 0.376
1197.000 0.376
1198.000 0.375
1199.000 0.376
1200.000 0.376
1201.000 0.375
1202.000 0.376
1203.000 0.377
1204.000 0.377
1205.000 0.377
1206.000 0.377
1207.000 0.377
1208.000 0.377
1209.000 0.378
1210.000 0.378
1211.000 0.379
1212.000 0.379
1213.000 0.380
1214.000 0.380
1215.000 0.380
1216.000 0.380
1217.000 0.381
1218.000 0.381
1219.000 0.381
1220.000 0.382
1221.000 0.382
1222.000 0.383
1223.000 0.383
1224.000 0.384
1225.000 0.385
1226.000 0.385
1227.000 0.386
1228.000 0.386
1229.000 0.387
1230.000 0.386
1231.000 0.387
1232.000 0.388
1233.000 0.388
1234.000 0.389
1235.000 0.389
1236.000 0.390
1237.000 0.390
1238.000 0.390
1239.000 0.390
1240.000 0.391
1241.000 0.391
1242.000 0.391
1243.000 0.392
1244.000 0.392
1245.000 0.392
1246.000 0.392
1247.000 0.393
1248.000 0.393
1249.000 0.393
1250.000 0.394
1251.000 0.394
1252.000 0.394
1253.000 0.394
1254.000 0.395
1255.000 0.395
1256.000 0.395
1257.000 0.395
1258.000 0.396
1259.000 0.396
1260.000 0.396
1261.000 0.396
1262.000 0.395
1263.000 0.395
1264.000 0.395
1265.000 0.395
1266.000 0.395
1267.000 0.395
1268.000 0.396
1269.000 0.396
1270.000 0.396
1271.000 0.396
1272.000 0.397
1273.000 0.397
1274.000 0.397
1275.000 0.397
1276.000 0.397
1277.000 0.397
1278.000 0.396
1279.000 0.396
1280.000 0.396
1281.000 0.396
1282.000 0.396
1283.000 0.396
1284.000 0.396
1285.000 0.395
1286.000 0.395
1287.000 0.394
1288.000 0.394
1289.000 0.393
1290.000 0.392
1291.000 0.392
1292.000 0.391
1293.000 0.390
1294.000 0.390
1295.000 0.389
1296.000 0.388
1297.000 0.387
1298.000 0.387
1299.000 0.386
1300.000 0.385
1301.000 0.384
1302.000 0.383
1303.000 0.381
1304.000 0.380
1305.000 0.379
1306.000 0.378
1307.000 0.377
1308.000 0.375
1309.000 0.374
1310.000 0.373
1311.000 0.371
1312.000 0.370
1313.000 0.369
1314.000 0.367
1315.000 0.366
1316.000 0.364
1317.000 0.363
1318.000 0.361
1319.000 0.360
1320.000 0.358
1321.000 0.357
1322.000 0.355
1323.000 0.353
1324.000 0.352
1325.000 0.349
1326.000 0.347
1327.000 0.345
1328.000 0.343
1329.000 0.340
1330.000 0.339
1331.000 0.337
1332.000 0.334
1333.000 0.333
1334.000 0.331
1335.000 0.329
1336.000 0.327
1337.000 0.326
1338.000 0.324
1339.000 0.322
1340.000 0.321
1341.000 0.319
1342.000 0.318
1343.000 0.317
1344.000 0.315
1345.000 0.314
1346.000 0.312
1347.000 0.310
1348.000 0.308
1349.000 0.306
1350.000 0.304
1351.000 0.302
1352.000 0.298
1353.000 0.293
1354.000 0.288
1355.000 0.268
1356.000 0.277
1357.000 0.294
1358.000 0.332
1359.000 0.346
1360.000 0.534
1361.000 0.323
1362.000 0.337
1363.000 0.410
1364.000 0.401
1365.000 0.392
1366.000 0.253
1367.000 0.387
1368.000 0.414
1369.000 0.517
1370.000 0.584
1371.000 0.626
1372.000 0.374
1373.000 0.244
1374.000 0.255
1375.000 0.171
1376.000 0.172
1377.000 0.206
1378.000 0.489
1379.000 0.356
1380.000 0.579
1381.000 0.665
1382.000 0.691
1383.000 0.428
1384.000 0.287
1385.000 0.222
1386.000 0.205
1387.000 0.213
1388.000 0.325
1389.000 0.439
1390.000 0.334
1391.000 0.333
1392.000 0.285
1393.000 0.286
1394.000 0.220
1395.000 0.237
1396.000 0.466
1397.000 0.446
1398.000 0.427
1399.000 0.358
1400.000 0.331
1401.000 0.353
1402.000 0.448
1403.000 0.359
1404.000 0.226
1405.000 0.242
1406.000 0.246
1407.000 0.216
1408.000 0.281
1409.000 0.303
1410.000 0.162
1411.000 0.136
1412.000 0.127
1413.000 0.115
1414.000 0.105
1415.000 0.124
1416.000 0.139
1417.000 0.170
1418.000 0.153
1419.000 0.128
1420.000 0.112
1421.000 0.107
1422.000 0.099
1423.000 0.089
1424.000 0.086
1425.000 0.083
1426.000 0.081
1427.000 0.069
1428.000 0.071
1429.000 0.069
1430.000 0.064
1431.000 0.064
1432.000 0.063
1433.000 0.058
1434.000 0.059
1435.000 0.076
1436.000 0.081
1437.000 0.081
1438.000 0.083
1439.000 0.077
1440.000 0.071
1441.000 0.073
1442.000 0.073
1443.000 0.079
1444.000 0.079
1445.000 0.072
1446.000 0.074
1447.000 0.077
1448.000 0.079
1449.000 0.084
1450.000 0.088
1451.000 0.090
1452.000 0.090
1453.000 0.091
1454.000 0.091
1455.000 0.091
1456.000 0.091
1457.000 0.092
1458.000 0.092
1459.000 0.090
1460.000 0.087
1461.000 0.087
1462.000 0.087
1463.000 0.088
1464.000 0.089
1465.000 0.090
1466.000 0.090
1467.000 0.093
1468.000 0.094
1469.000 0.094
1470.000 0.093
1471.000 0.094
1472.000 0.093
1473.000 0.094
1474.000 0.097
1475.000 0.098
1476.000 0.100
1477.000 0.101
1478.000 0.101
1479.000 0.101
1480.000 0.101
1481.000 0.102
1482.000 0.103
1483.000 0.104
1484.000 0.107
1485.000 0.108
1486.000 0.110
1487.000 0.111
1488.000 0.111
1489.000 0.111
1490.000 0.110
1491.000 0.111
1492.000 0.112
1493.000 0.113
1494.000 0.115
1495.000 0.115
1496.000 0.116
1497.000 0.118
1498.000 0.119
1499.000 0.120
1500.000 0.121
1501.000 0.122
1502.000 0.124
1503.000 0.125
1504.000 0.126
1505.000 0.127
1506.000 0.128
1507.000 0.129
1508.000 0.130
1509.000 0.131
1510.000 0.132
1511.000 0.132
1512.000 0.134
1513.000 0.135
1514.000 0.136
1515.000 0.138
1516.000 0.139
1517.000 0.140
1518.000 0.141
1519.000 0.141
1520.000 0.143
1521.000 0.144
1522.000 0.145
1523.000 0.147
1524.000 0.148
1525.000 0.149
1526.000 0.151
1527.000 0.152
1528.000 0.153
1529.000 0.154
1530.000 0.155
1531.000 0.156
1532.000 0.157
1533.000 0.157
1534.000 0.159
1535.000 0.160
1536.000 0.161
1537.000 0.162
1538.000 0.163
1539.000 0.164
1540.000 0.165
1541.000 0.167
1542.000 0.168
1543.000 0.169
1544.000 0.170
1545.000 0.171
1546.000 0.172
1547.000 0.174
1548.000 0.175
1549.000 0.176
1550.000 0.177
1551.000 0.178
1552.000 0.179
1553.000 0.180
1554.000 0.181
1555.000 0.182
1556.000 0.183
1557.000 0.184
1558.000 0.185
1559.000 0.186
1560.000 0.187
1561.000 0.188
1562.000 0.189
1563.000 0.189
1564.000 0.190
1565.000 0.191
1566.000 0.192
1567.000 0.193
1568.000 0.194
1569.000 0.196
1570.000 0.196
1571.000 0.197
1572.000 0.197
1573.000 0.198
1574.000 0.198
1575.000 0.200
1576.000 0.201
1577.000 0.201
1578.000 0.202
1579.000 0.204
1580.000 0.205
1581.000 0.205
1582.000 0.206
1583.000 0.206
1584.000 0.207
1585.000 0.207
1586.000 0.208
1587.000 0.210
1588.000 0.211
1589.000 0.212
1590.000 0.212
1591.000 0.213
1592.000 0.213
1593.000 0.214
1594.000 0.215
1595.000 0.215
1596.000 0.216
1597.000 0.217
1598.000 0.217
1599.000 0.218
1600.000 0.219
1601.000 0.220
1602.000 0.220
1603.000 0.221
1604.000 0.222
1605.000 0.222
1606.000 0.223
1607.000 0.223
1608.000 0.223
1609.000 0.224
1610.000 0.225
1611.000 0.226
1612.000 0.226
1613.000 0.226
1614.000 0.227
1615.000 0.228
1616.000 0.228
1617.000 0.229
1618.000 0.230
1619.000 0.231
1620.000 0.231
1621.000 0.232
1622.000 0.233
1623.000 0.233
1624.000 0.233
1625.000 0.234
1626.000 0.234
1627.000 0.235
1628.000 0.235
1629.000 0.236
1630.000 0.237
1631.000 0.237
1632.000 0.237
1633.000 0.238
1634.000 0.238
1635.000 0.238
1636.000 0.238
1637.000 0.238
1638.000 0.238
1639.000 0.239
1640.000 0.240
1641.000 0.240
1642.000 0.241
1643.000 0.241
1644.000 0.241
1645.000 0.242
1646.000 0.242
1647.000 0.242
1648.000 0.243
1649.000 0.243
1650.000 0.243
1651.000 0.243
1652.000 0.244
1653.000 0.244
1654.000 0.244
1655.000 0.244
1656.000 0.244
1657.000 0.244
1658.000 0.244
1659.000 0.245
1660.000 0.245
1661.000 0.246
1662.000 0.246
1663.000 0.245
1664.000 0.245
1665.000 0.244
1666.000 0.245
1667.000 0.245
1668.000 0.245
1669.000 0.246
1670.000 0.246
1671.000 0.247
1672.000 0.247
1673.000 0.246
1674.000 0.246
1675.000 0.247
1676.000 0.247
1677.000 0.246
1678.000 0.247
1679.000 0.247
1680.000 0.247
1681.000 0.247
1682.000 0.247
1683.000 0.246
1684.000 0.246
1685.000 0.246
1686.000 0.246
1687.000 0.246
1688.000 0.246
1689.000 0.245
1690.000 0.245
1691.000 0.245
1692.000 0.245
1693.000 0.245
1694.000 0.246
1695.000 0.245
1696.000 0.245
1697.000 0.244
1698.000 0.244
1699.000 0.244
1700.000 0.243
1701.000 0.243
1702.000 0.243
1703.000 0.242
1704.000 0.242
1705.000 0.241
1706.000 0.242
1707.000 0.242
1708.000 0.242
1709.000 0.241
1710.000 0.241
1711.000 0.240
1712.000 0.240
1713.000 0.239
1714.000 0.239
1715.000 0.239
1716.000 0.239
1717.000 0.239
1718.000 0.239
1719.000 0.237
1720.000 0.237
1721.000 0.236
1722.000 0.235
1723.000 0.235
1724.000 0.235
1725.000 0.237
1726.000 0.236
1727.000 0.236
1728.000 0.236
1729.000 0.235
1730.000 0.234
1731.000 0.233
1732.000 0.233
1733.000 0.232
1734.000 0.232
1735.000 0.231
1736.000 0.231
1737.000 0.230
1738.000 0.229
1739.000 0.228
1740.000 0.228
1741.000 0.227
1742.000 0.226
1743.000 0.225
1744.000 0.225
1745.000 0.224
1746.000 0.223
1747.000 0.223
1748.000 0.223
1749.000 0.222
1750.000 0.222
1751.000 0.221
1752.000 0.221
1753.000 0.220
1754.000 0.220
1755.000 0.219
1756.000 0.219
1757.000 0.217
1758.000 0.216
1759.000 0.216
1760.000 0.215
1761.000 0.214
1762.000 0.212
1763.000 0.211
1764.000 0.210
1765.000 0.209
1766.000 0.209
1767.000 0.209
1768.000 0.208
1769.000 0.208
1770.000 0.208
1771.000 0.207
1772.000 0.206
1773.000 0.205
1774.000 0.202
1775.000 0.202
1776.000 0.202
1777.000 0.203
1778.000 0.204
1779.000 0.205
1780.000 0.204
1781.000 0.204
1782.000 0.204
1783.000 0.204
1784.000 0.205
1785.000 0.208
1786.000 0.208
1787.000 0.206
1788.000 0.206
1789.000 0.203
1790.000 0.202
1791.000 0.204
1792.000 0.206
1793.000 0.209
1794.000 0.209
1795.000 0.209
1796.000 0.211
1797.000 0.204
1798.000 0.200
1799.000 0.203
1800.000 0.197
1801.000 0.242
1802.000 0.257
1803.000 0.261
1804.000 0.264
1805.000 0.267
1806.000 0.279
1807.000 0.289
1808.000 0.306
1809.000 0.312
1810.000 0.298
1811.000 0.312
1812.000 0.334
1813.000 0.374
1814.000 0.455
1815.000 0.476
1816.000 0.532
1817.000 0.557
1818.000 0.608
1819.000 0.230
1820.000 0.268
1821.000 0.303
1822.000 0.339
1823.000 0.466
1824.000 0.507
1825.000 0.506
1826.000 0.530
1827.000 0.639
1828.000 0.583
1829.000 0.540
1830.000 0.431
1831.000 0.425
1832.000 0.335
1833.000 0.244
1834.000 0.246
1835.000 0.196
1836.000 0.277
1837.000 0.534
1838.000 0.573
1839.000 0.762
1840.000 0.796
1841.000 0.828
1842.000 0.671
1843.000 0.619
1844.000 0.452
1845.000 0.460
1846.000 0.441
1847.000 0.519
1848.000 0.544
1849.000 0.528
1850.000 0.487
1851.000 0.383
1852.000 0.394
1853.000 0.404
1854.000 0.354
1855.000 0.448
1856.000 0.582
1857.000 0.701
1858.000 0.652
1859.000 0.576
1860.000 0.510
1861.000 0.565
1862.000 0.533
1863.000 0.632
1864.000 0.596
1865.000 0.603
1866.000 0.620
1867.000 0.530
1868.000 0.469
1869.000 0.484
1870.000 0.722
1871.000 0.767
1872.000 0.784
1873.000 0.728
1874.000 0.550
1875.000 0.496
1876.000 0.488
1877.000 0.341
1878.000 0.765
1879.000 0.675
1880.000 0.665
1881.000 0.624
1882.000 0.631
1883.000 0.603
1884.000 0.551
1885.000 0.529
1886.000 0.479
1887.000 0.539
1888.000 0.564
1889.000 0.492
1890.000 0.408
1891.000 0.354
1892.000 0.352
1893.000 0.371
1894.000 0.352
1895.000 0.438
1896.000 0.373
1897.000 0.465
1898.000 0.540
1899.000 0.508
1900.000 0.673
1901.000 0.673
1902.000 0.644
1903.000 0.627
1904.000 0.727
1905.000 0.639
1906.000 0.535
1907.000 0.507
1908.000 0.504
1909.000 0.487
1910.000 0.567
1911.000 0.656
1912.000 0.643
1913.000 0.670
1914.000 0.590
1915.000 0.492
1916.000 0.499
1917.000 0.488
1918.000 0.418
1919.000 0.515
1920.000 0.441
1921.000 0.455
1922.000 0.316
1923.000 0.312
1924.000 0.392
1925.000 0.441
1926.000 0.431
1927.000 0.392
1928.000 0.302
1929.000 0.352
1930.000 0.364
1931.000 0.462
1932.000 0.440
1933.000 0.441
1934.000 0.373
1935.000 0.294
1936.000 0.229
1937.000 0.213
1938.000 0.188
1939.000 0.185
1940.000 0.199
1941.000 0.230
1942.000 0.232
1943.000 0.261
1944.000 0.310
1945.000 0.298
1946.000 0.264
1947.000 0.221
1948.000 0.174
1949.000 0.150
1950.000 0.129
1951.000 0.138
1952.000 0.112
1953.000 0.152
1954.000 0.160
1955.000 0.133
1956.000 0.172
1957.000 0.169
1958.000 0.162
1959.000 0.150
1960.000 0.154
1961.000 0.140
1962.000 0.107
1963.000 0.089
1964.000 0.083
1965.000 0.071
1966.000 0.065
1967.000 0.057
1968.000 0.048
1969.000 0.049
1970.000 0.045
1971.000 0.044
1972.000 0.039
1973.000 0.031
1974.000 0.032
1975.000 0.031
1976.000 0.037
1977.000 0.035
1978.000 0.034
1979.000 0.028
1980.000 0.032
1981.000 0.034
1982.000 0.041
1983.000 0.040
1984.000 0.030
1985.000 0.038
1986.000 0.037
1987.000 0.037
1988.000 0.036
1989.000 0.036
1990.000 0.037
1991.000 0.045
1992.000 0.042
1993.000 0.044
1994.000 0.047
1995.000 0.048
1996.000 0.058
1997.000 0.065
1998.000 0.059
1999.000 0.062
2000.000 0.059
2001.000 0.058
2002.000 0.069
2003.000 0.073
2004.000 0.080
2005.000 0.084
2006.000 0.070
2007.000 0.067
2008.000 0.061
2009.000 0.057
2010.000 0.063
2011.000 0.070
2012.000 0.082
2013.000 0.075
2014.000 0.074
2015.000 0.070
2016.000 0.063
2017.000 0.047
2018.000 0.045
2019.000 0.051
2020.000 0.050
2021.000 0.062
2022.000 0.067
2023.000 0.066
2024.000 0.060
2025.000 0.060
2026.000 0.059
2027.000 0.060
2028.000 0.067
2029.000 0.068
2030.000 0.068
2031.000 0.068
2032.000 0.064
2033.000 0.063
2034.000 0.063
2035.000 0.064
2036.000 0.062
2037.000 0.064
2038.000 0.064
2039.000 0.064
2040.000 0.067
2041.000 0.068
2042.000 0.069
2043.000 0.073
2044.000 0.075
2045.000 0.077
2046.000 0.083
2047.000 0.084
2048.000 0.084
2049.000 0.082
2050.000 0.074
2051.000 0.078
2052.000 0.078
2053.000 0.076
2054.000 0.078
2055.000 0.079
2056.000 0.078
2057.000 0.079
2058.000 0.081
2059.000 0.079
2060.000 0.078
2061.000 0.079
2062.000 0.075
2063.000 0.076
2064.000 0.075
2065.000 0.075
2066.000 0.076
2067.000 0.078
2068.000 0.078
2069.000 0.077
2070.000 0.079
2071.000 0.078
2072.000 0.078
2073.000 0.081
2074.000 0.084
2075.000 0.087
2076.000 0.088
2077.000 0.093
2078.000 0.094
2079.000 0.091
2080.000 0.090
2081.000 0.091
2082.000 0.090
2083.000 0.090
2084.000 0.092
2085.000 0.093
2086.000 0.093
2087.000 0.094
2088.000 0.095
2089.000 0.096
2090.000 0.099
2091.000 0.099
2092.000 0.100
2093.000 0.098
2094.000 0.095
2095.000 0.094
2096.000 0.090
2097.000 0.089
2098.000 0.089
2099.000 0.091
2100.000 0.093
2101.000 0.095
2102.000 0.097
2103.000 0.099
2104.000 0.102
2105.000 0.105
2106.000 0.105
2107.000 0.107
2108.000 0.107
2109.000 0.108
2110.000 0.109
2111.000 0.109
2112.000 0.110
2113.000 0.111
2114.000 0.111
2115.000 0.112
2116.000 0.111
2117.000 0.110
2118.000 0.109
2119.000 0.109
2120.000 0.107
2121.000 0.106
2122.000 0.107
2123.000 0.108
2124.000 0.111
2125.000 0.113
2126.000 0.117
2127.000 0.118
2128.000 0.115
2129.000 0.115
2130.000 0.115
2131.000 0.116
2132.000 0.118
2133.000 0.120
2134.000 0.120
2135.000 0.120
2136.000 0.120
2137.000 0.120
2138.000 0.120
2139.000 0.124
2140.000 0.126
2141.000 0.130
2142.000 0.131
2143.000 0.129
2144.000 0.127
2145.000 0.123
2146.000 0.121
2147.000 0.124
2148.000 0.126
2149.000 0.125
2150.000 0.125
2151.000 0.124
2152.000 0.123
2153.000 0.122
2154.000 0.123
2155.000 0.123
2156.000 0.125
2157.000 0.128
2158.000 0.128
2159.000 0.126
2160.000 0.125
2161.000 0.124
2162.000 0.123
2163.000 0.123
2164.000 0.124
2165.000 0.125
2166.000 0.126
2167.000 0.129
2168.000 0.133
2169.000 0.135
2170.000 0.137
2171.000 0.137
2172.000 0.132
2173.000 0.131
2174.000 0.130
2175.000 0.129
2176.000 0.130
2177.000 0.131
2178.000 0.132
2179.000 0.132
2180.000 0.134
2181.000 0.134
2182.000 0.136
2183.000 0.137
2184.000 0.134
2185.000 0.128
2186.000 0.126
2187.000 0.124
2188.000 0.124
2189.000 0.128
2190.000 0.128
2191.000 0.127
2192.000 0.126
2193.000 0.127
2194.000 0.128
2195.000 0.127
2196.000 0.128
2197.000 0.130
2198.000 0.132
2199.000 0.135
2200.000 0.136
2201.000 0.139
2202.000 0.139
2203.000 0.137
2204.000 0.136
2205.000 0.134
2206.000 0.132
2207.000 0.134
2208.000 0.137
2209.000 0.139
2210.000 0.142
2211.000 0.142
2212.000 0.140
2213.000 0.138
2214.000 0.135
2215.000 0.133
2216.000 0.131
2217.000 0.132
2218.000 0.134
2219.000 0.134
2220.000 0.136
2221.000 0.136
2222.000 0.134
2223.000 0.133
2224.000 0.133
2225.000 0.133
2226.000 0.133
2227.000 0.132
2228.000 0.132
2229.000 0.132
2230.000 0.131
2231.000 0.130
2232.000 0.129
2233.000 0.129
2234.000 0.131
2235.000 0.135
2236.000 0.137
2237.000 0.139
2238.000 0.137
2239.000 0.134
2240.000 0.133
2241.000 0.130
2242.000 0.129
2243.000 0.128
2244.000 0.129
2245.000 0.132
2246.000 0.132
2247.000 0.131
2248.000 0.130
2249.000 0.126
2250.000 0.125
2251.000 0.125
2252.000 0.124
2253.000 0.122
2254.000 0.121
2255.000 0.121
2256.000 0.123
2257.000 0.127
2258.000 0.129
2259.000 0.130
2260.000 0.128
2261.000 0.125
2262.000 0.121
2263.000 0.119
2264.000 0.120
2265.000 0.120
2266.000 0.121
2267.000 0.118
2268.000 0.114
2269.000 0.113
2270.000 0.111
2271.000 0.112
2272.000 0.113
2273.000 0.113
2274.000 0.116
2275.000 0.117
2276.000 0.121
2277.000 0.122
2278.000 0.117
2279.000 0.119
2280.000 0.120
2281.000 0.121
2282.000 0.127
2283.000 0.129
2284.000 0.131
2285.000 0.126
2286.000 0.117
2287.000 0.114
2288.000 0.112
2289.000 0.107
2290.000 0.109
2291.000 0.108
2292.000 0.110
2293.000 0.110
2294.000 0.112
2295.000 0.113
2296.000 0.111
2297.000 0.114
2298.000 0.114
2299.000 0.116
2300.000 0.115
2301.000 0.108
2302.000 0.099
2303.000 0.096
2304.000 0.094
2305.000 0.096
2306.000 0.100
2307.000 0.098
2308.000 0.101
2309.000 0.102
2310.000 0.109
2311.000 0.112
2312.000 0.109
2313.000 0.106
2314.000 0.106
2315.000 0.104
2316.000 0.108
2317.000 0.109
2318.000 0.117
2319.000 0.099
2320.000 0.093
2321.000 0.092
2322.000 0.085
2323.000 0.076
2324.000 0.087
2325.000 0.081
2326.000 0.085
2327.000 0.089
2328.000 0.091
2329.000 0.089
2330.000 0.089
2331.000 0.090
2332.000 0.091
2333.000 0.094
2334.000 0.097
2335.000 0.107
2336.000 0.107
2337.000 0.106
2338.000 0.099
2339.000 0.105
2340.000 0.098
2341.000 0.097
2342.000 0.099
2343.000 0.099
2344.000 0.095
2345.000 0.090
2346.000 0.087
2347.000 0.083
2348.000 0.081
2349.000 0.084
2350.000 0.085
2351.000 0.087
2352.000 0.089
2353.000 0.055
2354.000 0.053
2355.000 0.067
2356.000 0.070
2357.000 0.070
2358.000 0.067
2359.000 0.056
2360.000 0.057
2361.000 0.067
2362.000 0.068
2363.000 0.072
2364.000 0.065
2365.000 0.062
2366.000 0.075
2367.000 0.084
2368.000 0.102
2369.000 0.094
2370.000 0.102
2371.000 0.086
2372.000 0.071
2373.000 0.072
2374.000 0.065
2375.000 0.073
2376.000 0.075
2377.000 0.081
2378.000 0.088
2379.000 0.082
2380.000 0.077
2381.000 0.054
2382.000 0.048
2383.000 0.065
2384.000 0.065
2385.000 0.062
2386.000 0.054
2387.000 0.042
2388.000 0.054
2389.000 0.050
2390.000 0.050
2391.000 0.046
2392.000 0.051
2393.000 0.055
2394.000 0.054
2395.000 0.061
2396.000 0.049
2397.000 0.076
2398.000 0.087
2399.000 0.087
2400.000 0.067
2401.000 0.073
2402.000 0.044
2403.000 0.046
2404.000 0.039
2405.000 0.059
2406.000 0.063
2407.000 0.057
2408.000 0.061
2409.000 0.067
2410.000 0.107
2411.000 0.082
2412.000 0.087
2413.000 0.096
2414.000 0.090
2415.000 0.102
2416.000 0.145
2417.000 0.132
2418.000 0.101
2419.000 0.081
2420.000 0.028
2421.000 0.064
2422.000 0.075
2423.000 0.093
2424.000 0.099
2425.000 0.120
2426.000 0.105
2427.000 0.098
2428.000 0.095
2429.000 0.105
2430.000 0.090
2431.000 0.124
2432.000 0.106
2433.000 0.162
2434.000 0.135
2435.000 0.146
2436.000 0.175
2437.000 0.078
2438.000 0.107
2439.000 0.146
2440.000 0.284
2441.000 0.296
2442.000 0.176
2443.000 0.145
2444.000 0.122
2445.000 0.136
2446.000 0.168
2447.000 0.132
2448.000 0.168
2449.000 0.198
2450.000 0.218
2451.000 0.271
2452.000 0.158
2453.000 0.157
2454.000 0.202
2455.000 0.114
2456.000 0.122
2457.000 0.161
2458.000 0.142
2459.000 0.100
2460.000 0.130
2461.000 0.153
2462.000 0.200
2463.000 0.184
2464.000 0.157
2465.000 0.276
2466.000 0.279
2467.000 0.315
2468.000 0.366
2469.000 0.453
2470.000 0.312
2471.000 0.329
2472.000 0.428
2473.000 0.438
2474.000 0.448
2475.000 0.445
2476.000 0.501
2477.000 0.471
2478.000 0.367
2479.000 0.567
2480.000 0.280
2481.000 0.461
2482.000 0.351
2483.000 0.527
2484.000 0.464
2485.000 0.513
2486.000 0.269
2487.000 0.156
2488.000 0.174
2489.000 0.171
2490.000 0.305
2491.000 0.370
2492.000 0.304
2493.000 0.313
2494.000 0.246
2495.000 0.277
2496.000 0.349
2497.000 0.471
2498.000 0.761
2499.000 0.630
2500.000 0.513
