391.000 0.038
392.000 0.032
393.000 0.039
394.000 0.041
395.000 0.040
396.000 0.041
397.000 0.046
398.000 0.044
399.000 0.041
400.000 0.040
401.000 0.042
402.000 0.043
403.000 0.041
404.000 0.037
405.000 0.035
406.000 0.036
407.000 0.038
408.000 0.040
409.000 0.039
410.000 0.039
411.000 0.041
412.000 0.044
413.000 0.039
414.000 0.040
415.000 0.043
416.000 0.042
417.000 0.041
418.000 0.041
419.000 0.040
420.000 0.038
421.000 0.039
422.000 0.040
423.000 0.038
424.000 0.037
425.000 0.038
426.000 0.039
427.000 0.039
428.000 0.041
429.000 0.042
430.000 0.042
431.000 0.041
432.000 0.039
433.000 0.038
434.000 0.038
435.000 0.042
436.000 0.041
437.000 0.038
438.000 0.037
439.000 0.037
440.000 0.038
441.000 0.039
442.000 0.040
443.000 0.040
444.000 0.040
445.000 0.039
446.000 0.038
447.000 0.038
448.000 0.039
449.000 0.040
450.000 0.042
451.000 0.042
452.000 0.040
453.000 0.040
454.000 0.039
455.000 0.037
456.000 0.039
457.000 0.040
458.000 0.040
459.000 0.039
460.000 0.038
461.000 0.039
462.000 0.040
463.000 0.041
464.000 0.041
465.000 0.039
466.000 0.039
467.000 0.040
468.000 0.040
469.000 0.040
470.000 0.040
471.000 0.039
472.000 0.039
473.000 0.039
474.000 0.041
475.000 0.041
476.000 0.041
477.000 0.039
478.000 0.039
479.000 0.037
480.000 0.039
481.000 0.041
482.000 0.041
483.000 0.040
484.000 0.041
485.000 0.041
486.000 0.040
487.000 0.041
488.000 0.040
489.000 0.039
490.000 0.039
491.000 0.039
492.000 0.040
493.000 0.042
494.000 0.041
495.000 0.041
496.000 0.041
497.000 0.043
498.000 0.043
499.000 0.044
500.000 0.042
501.000 0.042
502.000 0.042
503.000 0.041
504.000 0.041
505.000 0.042
506.000 0.044
507.000 0.048
508.000 0.047
509.000 0.047
510.000 0.048
511.000 0.048
512.000 0.049
513.000 0.051
514.000 0.051
515.000 0.053
516.000 0.055
517.000 0.057
518.000 0.059
519.000 0.061
520.000 0.062
521.000 0.064
522.000 0.065
523.000 0.067
524.000 0.068
525.000 0.070
526.000 0.073
527.000 0.075
528.000 0.078
529.000 0.081
530.000 0.080
531.000 0.082
532.000 0.083
533.000 0.085
534.000 0.086
535.000 0.087
536.000 0.089
537.000 0.089
538.000 0.090
539.000 0.091
540.000 0.092
541.000 0.092
542.000 0.094
543.000 0.094
544.000 0.094
545.000 0.093
546.000 0.092
547.000 0.093
548.000 0.095
549.000 0.095
550.000 0.094
551.000 0.094
552.000 0.094
553.000 0.093
554.000 0.093
555.000 0.094
556.000 0.094
557.000 0.094
558.000 0.093
559.000 0.091
560.000 0.089
561.000 0.090
562.000 0.088
563.000 0.087
564.000 0.086
565.000 0.085
566.000 0.084
567.000 0.083
568.000 0.080
569.000 0.079
570.000 0.078
571.000 0.077
572.000 0.076
573.000 0.075
574.000 0.073
575.000 0.072
576.000 0.070
577.000 0.069
578.000 0.068
579.000 0.067
580.000 0.067
581.000 0.066
582.000 0.065
583.000 0.065
584.000 0.065
585.000 0.065
586.000 0.065
587.000 0.064
588.000 0.063
589.000 0.063
590.000 0.063
591.000 0.061
592.000 0.061
593.000 0.061
594.000 0.060
595.000 0.061
596.000 0.061
597.000 0.060
598.000 0.060
599.000 0.058
600.000 0.058
601.000 0.058
602.000 0.057
603.000 0.057
604.000 0.057
605.000 0.056
606.000 0.057
607.000 0.056
608.000 0.056
609.000 0.059
610.000 0.059
611.000 0.057
612.000 0.057
613.000 0.053
614.000 0.053
615.000 0.054
616.000 0.053
617.000 0.053
618.000 0.053
619.000 0.054
620.000 0.054
621.000 0.053
622.000 0.052
623.000 0.053
624.000 0.053
625.000 0.053
626.000 0.053
627.000 0.053
628.000 0.053
629.000 0.052
630.000 0.052
631.000 0.051
632.000 0.052
633.000 0.053
634.000 0.052
635.000 0.051
636.000 0.052
637.000 0.052
638.000 0.049
639.000 0.048
640.000 0.050
641.000 0.051
642.000 0.049
643.000 0.048
644.000 0.048
645.000 0.048
646.000 0.048
647.000 0.048
648.000 0.048
649.000 0.049
650.000 0.049
651.000 0.049
652.000 0.047
653.000 0.047
654.000 0.047
655.000 0.049
656.000 0.048
657.000 0.048
658.000 0.049
659.000 0.050
660.000 0.050
661.000 0.049
662.000 0.048
663.000 0.048
664.000 0.047
665.000 0.046
666.000 0.046
667.000 0.046
668.000 0.047
669.000 0.048
670.000 0.047
671.000 0.049
672.000 0.049
673.000 0.046
674.000 0.046
675.000 0.049
676.000 0.051
677.000 0.049
678.000 0.051
679.000 0.051
680.000 0.050
681.000 0.051
682.000 0.051
683.000 0.053
684.000 0.055
685.000 0.057
686.000 0.057
687.000 0.058
688.000 0.060
689.000 0.062
690.000 0.065
691.000 0.067
692.000 0.069
693.000 0.072
694.000 0.075
695.000 0.080
696.000 0.086
697.000 0.092
698.000 0.099
699.000 0.104
700.000 0.112
701.000 0.120
702.000 0.129
703.000 0.136
704.000 0.144
705.000 0.153
706.000 0.161
707.000 0.171
708.000 0.179
709.000 0.188
710.000 0.198
711.000 0.207
712.000 0.218
713.000 0.229
714.000 0.239
715.000 0.249
716.000 0.260
717.000 0.273
718.000 0.288
719.000 0.302
720.000 0.314
721.000 0.323
722.000 0.332
723.000 0.343
724.000 0.356
725.000 0.369
726.000 0.381
727.000 0.391
728.000 0.401
729.000 0.412
730.000 0.423
731.000 0.400
732.000 0.407
733.000 0.413
734.000 0.419
735.000 0.426
736.000 0.433
737.000 0.440
738.000 0.446
739.000 0.450
740.000 0.455
741.000 0.460
742.000 0.465
743.000 0.469
744.000 0.472
745.000 0.477
746.000 0.481
747.000 0.484
748.000 0.487
749.000 0.489
750.000 0.462
751.000 0.465
752.000 0.467
753.000 0.469
754.000 0.471
755.000 0.473
756.000 0.474
757.000 0.476
758.000 0.478
759.000 0.481
760.000 0.488
761.000 0.499
762.000 0.504
763.000 0.504
764.000 0.501
765.000 0.498
766.000 0.493
767.000 0.490
768.000 0.489
769.000 0.488
770.000 0.487
771.000 0.487
772.000 0.488
773.000 0.488
774.000 0.488
775.000 0.489
776.000 0.489
777.000 0.489
778.000 0.490
779.000 0.490
780.000 0.490
781.000 0.491
782.000 0.491
783.000 0.491
784.000 0.492
785.000 0.493
786.000 0.494
787.000 0.495
788.000 0.496
789.000 0.497
790.000 0.497
791.000 0.498
792.000 0.498
793.000 0.498
794.000 0.498
795.000 0.499
796.000 0.499
797.000 0.500
798.000 0.500
799.000 0.501
800.000 0.501
801.000 0.502
802.000 0.503
803.000 0.503
804.000 0.503
805.000 0.502
806.000 0.502
807.000 0.502
808.000 0.503
809.000 0.504
810.000 0.506
811.000 0.507
812.000 0.510
813.000 0.512
814.000 0.515
815.000 0.518
816.000 0.520
817.000 0.520
818.000 0.519
819.000 0.518
820.000 0.517
821.000 0.517
822.000 0.517
823.000 0.518
824.000 0.518
825.000 0.517
826.000 0.516
827.000 0.517
828.000 0.517
829.000 0.517
830.000 0.517
831.000 0.517
832.000 0.517
833.000 0.516
834.000 0.516
835.000 0.515
836.000 0.515
837.000 0.514
838.000 0.514
839.000 0.513
840.000 0.513
841.000 0.513
842.000 0.513
843.000 0.512
844.000 0.512
845.000 0.512
846.000 0.512
847.000 0.512
848.000 0.513
849.000 0.513
850.000 0.513
851.000 0.512
852.000 0.513
853.000 0.514
854.000 0.514
855.000 0.514
856.000 0.514
857.000 0.514
858.000 0.514
859.000 0.514
860.000 0.514
861.000 0.514
862.000 0.515
863.000 0.515
864.000 0.515
865.000 0.515
866.000 0.515
867.000 0.516
868.000 0.516
869.000 0.516
870.000 0.517
871.000 0.516
872.000 0.516
873.000 0.518
874.000 0.517
875.000 0.517
876.000 0.517
877.000 0.518
878.000 0.518
879.000 0.518
880.000 0.519
881.000 0.520
882.000 0.520
883.000 0.520
884.000 0.521
885.000 0.521
886.000 0.521
887.000 0.521
888.000 0.522
889.000 0.523
890.000 0.524
891.000 0.525
892.000 0.526
893.000 0.528
894.000 0.530
895.000 0.532
896.000 0.535
897.000 0.538
898.000 0.540
899.000 0.541
900.000 0.544
901.000 0.544
902.000 0.542
903.000 0.540
904.000 0.541
905.000 0.541
906.000 0.543
907.000 0.544
908.000 0.546
909.000 0.547
910.000 0.548
911.000 0.548
912.000 0.550
913.000 0.552
914.000 0.552
915.000 0.553
916.000 0.551
917.000 0.550
918.000 0.548
919.000 0.546
920.000 0.546
921.000 0.547
922.000 0.547
923.000 0.546
924.000 0.548
925.000 0.548
926.000 0.551
927.000 0.555
928.000 0.556
929.000 0.560
930.000 0.462
931.000 0.465
932.000 0.466
933.000 0.469
934.000 0.473
935.000 0.476
936.000 0.473
937.000 0.469
938.000 0.469
939.000 0.474
940.000 0.478
941.000 0.471
942.000 0.469
943.000 0.474
944.000 0.473
945.000 0.469
946.000 0.470
947.000 0.477
948.000 0.472
949.000 0.468
950.000 0.467
951.000 0.466
952.000 0.466
953.000 0.462
954.000 0.462
955.000 0.469
956.000 0.468
957.000 0.463
958.000 0.461
959.000 0.463
960.000 0.459
961.000 0.535
962.000 0.561
963.000 0.562
964.000 0.554
965.000 0.552
966.000 0.550
967.000 0.547
968.000 0.552
969.000 0.545
970.000 0.540
971.000 0.543
972.000 0.545
973.000 0.545
974.000 0.542
975.000 0.540
976.000 0.544
977.000 0.544
978.000 0.543
979.000 0.542
980.000 0.543
981.000 0.542
982.000 0.540
983.000 0.537
984.000 0.534
985.000 0.534
986.000 0.533
987.000 0.531
988.000 0.534
989.000 0.533
990.000 0.532
991.000 0.531
992.000 0.528
993.000 0.531
994.000 0.532
995.000 0.532
996.000 0.533
997.000 0.533
998.000 0.531
999.000 0.530
1000.000 0.533
1001.000 0.538
1002.000 0.538
1003.000 0.539
1004.000 0.540
1005.000 0.541
1006.000 0.541
1007.000 0.541
1008.000 0.541
1009.000 0.542
1010.000 0.542
1011.000 0.542
1012.000 0.543
1013.000 0.543
1014.000 0.544
1015.000 0.544
1016.000 0.545
1017.000 0.546
1018.000 0.546
1019.000 0.547
1020.000 0.548
1021.000 0.547
1022.000 0.546
1023.000 0.546
1024.000 0.546
1025.000 0.547
1026.000 0.548
1027.000 0.548
1028.000 0.549
1029.000 0.549
1030.000 0.549
1031.000 0.550
1032.000 0.550
1033.000 0.550
1034.000 0.550
1035.000 0.551
1036.000 0.552
1037.000 0.552
1038.000 0.552
1039.000 0.551
1040.000 0.550
1041.000 0.551
1042.000 0.552
1043.000 0.552
1044.000 0.551
1045.000 0.551
1046.000 0.551
1047.000 0.551
1048.000 0.551
1049.000 0.552
1050.000 0.552
1051.000 0.551
1052.000 0.551
1053.000 0.552
1054.000 0.555
1055.000 0.557
1056.000 0.557
1057.000 0.557
1058.000 0.555
1059.000 0.554
1060.000 0.554
1061.000 0.555
1062.000 0.555
1063.000 0.557
1064.000 0.557
1065.000 0.556
1066.000 0.557
1067.000 0.556
1068.000 0.556
1069.000 0.557
1070.000 0.557
1071.000 0.557
1072.000 0.557
1073.000 0.557
1074.000 0.557
1075.000 0.559
1076.000 0.560
1077.000 0.561
1078.000 0.562
1079.000 0.562
1080.000 0.562
1081.000 0.562
1082.000 0.563
1083.000 0.562
1084.000 0.562
1085.000 0.562
1086.000 0.562
1087.000 0.562
1088.000 0.564
1089.000 0.565
1090.000 0.565
1091.000 0.566
1092.000 0.567
1093.000 0.568
1094.000 0.568
1095.000 0.571
1096.000 0.571
1097.000 0.573
1098.000 0.575
1099.000 0.550
1100.000 0.474
1101.000 0.473
1102.000 0.473
1103.000 0.473
1104.000 0.473
1105.000 0.474
1106.000 0.474
1107.000 0.475
1108.000 0.475
1109.000 0.474
1110.000 0.475
1111.000 0.475
1112.000 0.476
1113.000 0.477
1114.000 0.481
1115.000 0.481
1116.000 0.484
1117.000 0.489
1118.000 0.493
1119.000 0.500
1120.000 0.502
1121.000 0.501
1122.000 0.505
1123.000 0.506
1124.000 0.505
1125.000 0.505
1126.000 0.503
1127.000 0.500
1128.000 0.498
1129.000 0.500
1130.000 0.496
1131.000 0.489
1132.000 0.488
1133.000 0.487
1134.000 0.482
1135.000 0.482
1136.000 0.480
1137.000 0.477
1138.000 0.480
1139.000 0.483
1140.000 0.484
1141.000 0.484
1142.000 0.483
1143.000 0.483
1144.000 0.481
1145.000 0.476
1146.000 0.474
1147.000 0.470
1148.000 0.470
1149.000 0.473
1150.000 0.473
1151.000 0.474
1152.000 0.472
1153.000 0.467
1154.000 0.463
1155.000 0.459
1156.000 0.539
1157.000 0.565
1158.000 0.563
1159.000 0.560
1160.000 0.557
1161.000 0.555
1162.000 0.552
1163.000 0.550
1164.000 0.550
1165.000 0.547
1166.000 0.546
1167.000 0.544
1168.000 0.542
1169.000 0.541
1170.000 0.541
1171.000 0.541
1172.000 0.541
1173.000 0.541
1174.000 0.541
1175.000 0.541
1176.000 0.541
1177.000 0.539
1178.000 0.538
1179.000 0.537
1180.000 0.537
1181.000 0.537
1182.000 0.536
1183.000 0.536
1184.000 0.536
1185.000 0.535
1186.000 0.534
1187.000 0.535
1188.000 0.536
1189.000 0.536
1190.000 0.535
1191.000 0.534
1192.000 0.532
1193.000 0.531
1194.000 0.531
1195.000 0.531
1196.000 0.530
1197.000 0.531
1198.000 0.533
1199.000 0.533
1200.000 0.535
1201.000 0.535
1202.000 0.536
1203.000 0.536
1204.000 0.535
1205.000 0.535
1206.000 0.534
1207.000 0.533
1208.000 0.534
1209.000 0.534
1210.000 0.535
1211.000 0.535
1212.000 0.536
1213.000 0.534
1214.000 0.534
1215.000 0.532
1216.000 0.532
1217.000 0.532
1218.000 0.531
1219.000 0.531
1220.000 0.531
1221.000 0.530
1222.000 0.530
1223.000 0.529
1224.000 0.529
1225.000 0.530
1226.000 0.532
1227.000 0.532
1228.000 0.533
1229.000 0.532
1230.000 0.532
1231.000 0.532
1232.000 0.532
1233.000 0.532
1234.000 0.532
1235.000 0.532
1236.000 0.532
1237.000 0.532
1238.000 0.532
1239.000 0.532
1240.000 0.532
1241.000 0.532
1242.000 0.533
1243.000 0.533
1244.000 0.533
1245.000 0.533
1246.000 0.532
1247.000 0.533
1248.000 0.533
1249.000 0.533
1250.000 0.534
1251.000 0.534
1252.000 0.535
1253.000 0.534
1254.000 0.535
1255.000 0.537
1256.000 0.537
1257.000 0.539
1258.000 0.540
1259.000 0.541
1260.000 0.542
1261.000 0.543
1262.000 0.543
1263.000 0.544
1264.000 0.544
1265.000 0.545
1266.000 0.545
1267.000 0.545
1268.000 0.545
1269.000 0.545
1270.000 0.544
1271.000 0.544
1272.000 0.544
1273.000 0.545
1274.000 0.545
1275.000 0.544
1276.000 0.541
1277.000 0.541
1278.000 0.540
1279.000 0.540
1280.000 0.540
1281.000 0.541
1282.000 0.542
1283.000 0.542
1284.000 0.542
1285.000 0.542
1286.000 0.541
1287.000 0.542
1288.000 0.541
1289.000 0.541
1290.000 0.543
1291.000 0.543
1292.000 0.543
1293.000 0.543
1294.000 0.542
1295.000 0.540
1296.000 0.539
1297.000 0.538
1298.000 0.538
1299.000 0.539
1300.000 0.540
1301.000 0.541
1302.000 0.542
1303.000 0.541
1304.000 0.540
1305.000 0.539
1306.000 0.538
1307.000 0.537
1308.000 0.537
1309.000 0.538
1310.000 0.539
1311.000 0.541
1312.000 0.542
1313.000 0.542
1314.000 0.541
1315.000 0.539
1316.000 0.537
1317.000 0.536
1318.000 0.535
1319.000 0.534
1320.000 0.533
1321.000 0.533
1322.000 0.534
1323.000 0.534
1324.000 0.534
1325.000 0.534
1326.000 0.534
1327.000 0.534
1328.000 0.534
1329.000 0.534
1330.000 0.533
1331.000 0.534
1332.000 0.537
1333.000 0.537
1334.000 0.537
1335.000 0.536
1336.000 0.533
1337.000 0.530
1338.000 0.526
1339.000 0.523
1340.000 0.517
1341.000 0.516
1342.000 0.519
1343.000 0.523
1344.000 0.535
1345.000 0.543
1346.000 0.549
1347.000 0.557
1348.000 0.534
1349.000 0.426
1350.000 0.422
1351.000 0.432
1352.000 0.435
1353.000 0.450
1354.000 0.436
1355.000 0.395
1356.000 0.392
1357.000 0.406
1358.000 0.331
1359.000 0.387
1360.000 0.492
1361.000 0.419
1362.000 0.397
1363.000 0.402
1364.000 0.351
1365.000 0.511
1366.000 0.460
1367.000 0.334
1368.000 0.324
1369.000 0.317
1370.000 0.291
1371.000 0.243
1372.000 0.262
1373.000 0.336
1374.000 0.270
1375.000 0.245
1376.000 0.286
1377.000 0.309
1378.000 0.343
1379.000 0.301
1380.000 0.359
1381.000 0.306
1382.000 0.477
1383.000 0.669
1384.000 0.622
1385.000 0.655
1386.000 0.629
1387.000 0.558
1388.000 0.540
1389.000 0.484
1390.000 0.451
1391.000 0.430
1392.000 0.375
1393.000 0.281
1394.000 0.476
1395.000 0.429
1396.000 0.412
1397.000 0.443
1398.000 0.322
1399.000 0.152
1400.000 0.369
1401.000 0.278
1402.000 0.389
1403.000 0.372
1404.000 0.480
1405.000 0.416
1406.000 0.642
1407.000 0.423
1408.000 0.418
1409.000 0.179
1410.000 0.385
1411.000 0.451
1412.000 0.396
1413.000 0.361
1414.000 0.239
1415.000 0.294
1416.000 0.205
1417.000 0.187
1418.000 0.351
1419.000 0.205
1420.000 0.323
1421.000 0.335
1422.000 0.360
1423.000 0.395
1424.000 0.419
1425.000 0.413
1426.000 0.417
1427.000 0.577
1428.000 0.497
1429.000 0.243
1430.000 0.348
1431.000 0.330
1432.000 0.312
1433.000 0.549
1434.000 0.400
1435.000 0.345
1436.000 0.306
1437.000 0.481
1438.000 0.448
1439.000 0.447
1440.000 0.499
1441.000 0.438
1442.000 0.404
1443.000 0.403
1444.000 0.418
1445.000 0.466
1446.000 0.449
1447.000 0.440
1448.000 0.399
1449.000 0.345
1450.000 0.292
1451.000 0.263
1452.000 0.260
1453.000 0.273
1454.000 0.323
1455.000 0.338
1456.000 0.364
1457.000 0.367
1458.000 0.338
1459.000 0.321
1460.000 0.307
1461.000 0.296
1462.000 0.282
1463.000 0.269
1464.000 0.254
1465.000 0.257
1466.000 0.274
1467.000 0.275
1468.000 0.284
1469.000 0.291
1470.000 0.273
1471.000 0.275
1472.000 0.310
1473.000 0.314
1474.000 0.299
1475.000 0.292
1476.000 0.274
1477.000 0.271
1478.000 0.280
1479.000 0.283
1480.000 0.283
1481.000 0.287
1482.000 0.296
1483.000 0.294
1484.000 0.286
1485.000 0.286
1486.000 0.280
1487.000 0.283
1488.000 0.303
1489.000 0.313
1490.000 0.322
1491.000 0.322
1492.000 0.314
1493.000 0.307
1494.000 0.295
1495.000 0.288
1496.000 0.285
1497.000 0.282
1498.000 0.281
1499.000 0.281
1500.000 0.284
1501.000 0.283
1502.000 0.287
1503.000 0.289
1504.000 0.284
1505.000 0.284
1506.000 0.287
1507.000 0.291
1508.000 0.296
1509.000 0.310
1510.000 0.313
1511.000 0.308
1512.000 0.308
1513.000 0.308
1514.000 0.308
1515.000 0.311
1516.000 0.311
1517.000 0.309
1518.000 0.307
1519.000 0.303
1520.000 0.305
1521.000 0.310
1522.000 0.314
1523.000 0.324
1524.000 0.328
1525.000 0.330
1526.000 0.331
1527.000 0.328
1528.000 0.330
1529.000 0.334
1530.000 0.336
1531.000 0.341
1532.000 0.343
1533.000 0.340
1534.000 0.339
1535.000 0.337
1536.000 0.338
1537.000 0.341
1538.000 0.340
1539.000 0.339
1540.000 0.339
1541.000 0.339
1542.000 0.338
1543.000 0.339
1544.000 0.342
1545.000 0.342
1546.000 0.344
1547.000 0.351
1548.000 0.355
1549.000 0.358
1550.000 0.359
1551.000 0.356
1552.000 0.357
1553.000 0.359
1554.000 0.361
1555.000 0.368
1556.000 0.372
1557.000 0.372
1558.000 0.372
1559.000 0.368
1560.000 0.368
1561.000 0.370
1562.000 0.371
1563.000 0.372
1564.000 0.374
1565.000 0.379
1566.000 0.381
1567.000 0.382
1568.000 0.383
1569.000 0.378
1570.000 0.378
1571.000 0.382
1572.000 0.383
1573.000 0.386
1574.000 0.387
1575.000 0.386
1576.000 0.387
1577.000 0.392
1578.000 0.395
1579.000 0.401
1580.000 0.403
1581.000 0.400
1582.000 0.399
1583.000 0.397
1584.000 0.395
1585.000 0.395
1586.000 0.396
1587.000 0.399
1588.000 0.400
1589.000 0.402
1590.000 0.404
1591.000 0.406
1592.000 0.406
1593.000 0.406
1594.000 0.406
1595.000 0.403
1596.000 0.402
1597.000 0.402
1598.000 0.404
1599.000 0.408
1600.000 0.412
1601.000 0.419
1602.000 0.385
1603.000 0.387
1604.000 0.389
1605.000 0.391
1606.000 0.393
1607.000 0.393
1608.000 0.393
1609.000 0.392
1610.000 0.391
1611.000 0.390
1612.000 0.389
1613.000 0.389
1614.000 0.389
1615.000 0.389
1616.000 0.391
1617.000 0.394
1618.000 0.397
1619.000 0.401
1620.000 0.403
1621.000 0.404
1622.000 0.403
1623.000 0.401
1624.000 0.400
1625.000 0.395
1626.000 0.393
1627.000 0.394
1628.000 0.394
1629.000 0.393
1630.000 0.393
1631.000 0.393
1632.000 0.393
1633.000 0.397
1634.000 0.399
1635.000 0.402
1636.000 0.403
1637.000 0.402
1638.000 0.403
1639.000 0.403
1640.000 0.404
1641.000 0.406
1642.000 0.409
1643.000 0.413
1644.000 0.414
1645.000 0.412
1646.000 0.411
1647.000 0.407
1648.000 0.405
1649.000 0.403
1650.000 0.402
1651.000 0.404
1652.000 0.402
1653.000 0.400
1654.000 0.399
1655.000 0.395
1656.000 0.395
1657.000 0.397
1658.000 0.399
1659.000 0.401
1660.000 0.403
1661.000 0.406
1662.000 0.407
1663.000 0.409
1664.000 0.410
1665.000 0.407
1666.000 0.405
1667.000 0.402
1668.000 0.402
1669.000 0.403
1670.000 0.404
1671.000 0.407
1672.000 0.408
1673.000 0.409
1674.000 0.409
1675.000 0.409
1676.000 0.408
1677.000 0.408
1678.000 0.408
1679.000 0.406
1680.000 0.406
1681.000 0.410
1682.000 0.411
1683.000 0.407
1684.000 0.405
1685.000 0.398
1686.000 0.396
1687.000 0.396
1688.000 0.398
1689.000 0.403
1690.000 0.407
1691.000 0.414
1692.000 0.416
1693.000 0.410
1694.000 0.410
1695.000 0.407
1696.000 0.408
1697.000 0.417
1698.000 0.418
1699.000 0.416
1700.000 0.414
1701.000 0.407
1702.000 0.403
1703.000 0.399
1704.000 0.397
1705.000 0.395
1706.000 0.393
1707.000 0.396
1708.000 0.397
1709.000 0.398
1710.000 0.398
1711.000 0.398
1712.000 0.393
1713.000 0.389
1714.000 0.386
1715.000 0.385
1716.000 0.387
1717.000 0.392
1718.000 0.399
1719.000 0.403
1720.000 0.405
1721.000 0.404
1722.000 0.402
1723.000 0.400
1724.000 0.400
1725.000 0.404
1726.000 0.409
1727.000 0.411
1728.000 0.413
1729.000 0.413
1730.000 0.410
1731.000 0.406
1732.000 0.399
1733.000 0.396
1734.000 0.397
1735.000 0.398
1736.000 0.400
1737.000 0.399
1738.000 0.395
1739.000 0.393
1740.000 0.389
1741.000 0.390
1742.000 0.395
1743.000 0.396
1744.000 0.400
1745.000 0.402
1746.000 0.402
1747.000 0.396
1748.000 0.386
1749.000 0.381
1750.000 0.370
1751.000 0.367
1752.000 0.377
1753.000 0.375
1754.000 0.367
1755.000 0.368
1756.000 0.369
1757.000 0.371
1758.000 0.417
1759.000 0.385
1760.000 0.421
1761.000 0.422
1762.000 0.429
1763.000 0.429
1764.000 0.424
1765.000 0.384
1766.000 0.387
1767.000 0.388
1768.000 0.387
1769.000 0.393
1770.000 0.390
1771.000 0.386
1772.000 0.394
1773.000 0.429
1774.000 0.389
1775.000 0.387
1776.000 0.379
1777.000 0.370
1778.000 0.373
1779.000 0.375
1780.000 0.383
1781.000 0.395
1782.000 0.384
1783.000 0.378
1784.000 0.398
1785.000 0.391
1786.000 0.382
1787.000 0.358
1788.000 0.359
1789.000 0.383
1790.000 0.387
1791.000 0.400
1792.000 0.404
1793.000 0.379
1794.000 0.373
1795.000 0.375
1796.000 0.387
1797.000 0.378
1798.000 0.391
1799.000 0.406
1800.000 0.423
1801.000 0.528
1802.000 0.535
1803.000 0.588
1804.000 0.661
1805.000 0.680
1806.000 0.644
1807.000 0.638
1808.000 0.636
1809.000 0.631
1810.000 0.628
1811.000 0.554
1812.000 0.694
1813.000 0.747
1814.000 0.648
1815.000 0.663
1816.000 0.619
1817.000 0.506
1818.000 0.492
1819.000 0.485
1820.000 0.619
1821.000 0.703
1822.000 0.769
1823.000 0.664
1824.000 0.577
1825.000 0.567
1826.000 0.568
1827.000 0.544
1828.000 0.609
1829.000 0.436
1830.000 0.385
1831.000 0.406
1832.000 0.453
1833.000 0.586
1834.000 0.672
1835.000 0.781
1836.000 0.802
1837.000 0.624
1838.000 0.471
1839.000 0.502
1840.000 0.461
1841.000 0.509
1842.000 0.554
1843.000 0.600
1844.000 0.582
1845.000 0.608
1846.000 0.613
1847.000 0.561
1848.000 0.465
1849.000 0.550
1850.000 0.604
1851.000 0.695
1852.000 0.673
1853.000 0.565
1854.000 0.545
1855.000 0.510
1856.000 0.589
1857.000 0.446
1858.000 0.412
1859.000 0.479
1860.000 0.468
1861.000 0.430
1862.000 0.565
1863.000 0.562
1864.000 0.593
1865.000 0.592
1866.000 0.577
1867.000 0.518
1868.000 0.510
1869.000 0.482
1870.000 0.455
1871.000 0.494
1872.000 0.466
1873.000 0.612
1874.000 0.526
1875.000 0.521
1876.000 0.510
1877.000 0.598
1878.000 0.487
1879.000 0.466
1880.000 0.515
1881.000 0.432
1882.000 0.526
1883.000 0.251
1884.000 0.188
1885.000 0.210
1886.000 0.218
1887.000 0.315
1888.000 0.507
1889.000 0.633
1890.000 0.529
1891.000 0.762
1892.000 0.680
1893.000 0.473
1894.000 0.492
1895.000 0.542
1896.000 0.700
1897.000 0.633
1898.000 0.621
1899.000 0.583
1900.000 0.675
1901.000 0.681
1902.000 0.270
1903.000 0.380
1904.000 0.532
1905.000 0.590
1906.000 0.530
1907.000 0.488
1908.000 0.489
1909.000 0.432
1910.000 0.563
1911.000 0.529
1912.000 0.549
1913.000 0.581
1914.000 0.645
1915.000 0.247
1916.000 0.288
1917.000 0.323
1918.000 0.352
1919.000 0.395
1920.000 0.456
1921.000 0.312
1922.000 0.392
1923.000 0.491
1924.000 0.582
1925.000 0.603
1926.000 0.498
1927.000 0.550
1928.000 0.413
1929.000 0.390
1930.000 0.464
1931.000 0.371
1932.000 0.298
1933.000 0.313
1934.000 0.494
1935.000 0.546
1936.000 0.429
1937.000 0.454
1938.000 0.509
1939.000 0.525
1940.000 0.540
1941.000 0.605
1942.000 0.603
1943.000 0.537
1944.000 0.567
1945.000 0.562
1946.000 0.466
1947.000 0.390
1948.000 0.377
1949.000 0.334
1950.000 0.387
1951.000 0.429
1952.000 0.525
1953.000 0.524
1954.000 0.587
1955.000 0.610
1956.000 0.602
1957.000 0.617
1958.000 0.590
1959.000 0.438
1960.000 0.355
1961.000 0.327
1962.000 0.343
1963.000 0.471
1964.000 0.483
1965.000 0.398
1966.000 0.456
1967.000 0.409
1968.000 0.331
1969.000 0.304
1970.000 0.289
1971.000 0.300
1972.000 0.278
1973.000 0.283
1974.000 0.292
1975.000 0.275
1976.000 0.199
1977.000 0.179
1978.000 0.178
1979.000 0.197
1980.000 0.229
1981.000 0.219
1982.000 0.187
1983.000 0.157
1984.000 0.153
1985.000 0.186
1986.000 0.212
1987.000 0.293
1988.000 0.315
1989.000 0.269
1990.000 0.274
1991.000 0.257
1992.000 0.251
1993.000 0.306
1994.000 0.365
1995.000 0.397
1996.000 0.443
1997.000 0.444
1998.000 0.467
1999.000 0.453
2000.000 0.445
2001.000 0.454
2002.000 0.407
2003.000 0.398
2004.000 0.433
2005.000 0.496
2006.000 0.436
2007.000 0.414
2008.000 0.506
2009.000 0.450
2010.000 0.408
2011.000 0.374
2012.000 0.359
2013.000 0.328
2014.000 0.343
2015.000 0.346
2016.000 0.326
2017.000 0.270
2018.000 0.266
2019.000 0.264
2020.000 0.270
2021.000 0.311
2022.000 0.280
2023.000 0.239
2024.000 0.227
2025.000 0.208
2026.000 0.224
2027.000 0.209
2028.000 0.199
2029.000 0.206
2030.000 0.214
2031.000 0.220
2032.000 0.255
2033.000 0.259
2034.000 0.234
2035.000 0.221
2036.000 0.221
2037.000 0.229
2038.000 0.247
2039.000 0.261
2040.000 0.248
2041.000 0.221
2042.000 0.230
2043.000 0.221
2044.000 0.225
2045.000 0.231
2046.000 0.236
2047.000 0.241
2048.000 0.246
2049.000 0.247
2050.000 0.238
2051.000 0.227
2052.000 0.240
2053.000 0.240
2054.000 0.242
2055.000 0.285
2056.000 0.311
2057.000 0.313
2058.000 0.297
2059.000 0.287
2060.000 0.253
2061.000 0.240
2062.000 0.223
2063.000 0.225
2064.000 0.230
2065.000 0.244
2066.000 0.316
2067.000 0.368
2068.000 0.358
2069.000 0.323
2070.000 0.298
2071.000 0.271
2072.000 0.268
2073.000 0.274
2074.000 0.276
2075.000 0.299
2076.000 0.290
2077.000 0.262
2078.000 0.252
2079.000 0.224
2080.000 0.221
2081.000 0.230
2082.000 0.251
2083.000 0.283
2084.000 0.318
2085.000 0.317
2086.000 0.296
2087.000 0.278
2088.000 0.237
2089.000 0.228
2090.000 0.234
2091.000 0.229
2092.000 0.220
2093.000 0.223
2094.000 0.226
2095.000 0.237
2096.000 0.276
2097.000 0.301
2098.000 0.313
2099.000 0.315
2100.000 0.323
2101.000 0.311
2102.000 0.287
2103.000 0.285
2104.000 0.277
2105.000 0.263
2106.000 0.257
2107.000 0.255
2108.000 0.254
2109.000 0.251
2110.000 0.257
2111.000 0.280
2112.000 0.281
2113.000 0.281
2114.000 0.275
2115.000 0.248
2116.000 0.239
2117.000 0.233
2118.000 0.237
2119.000 0.236
2120.000 0.240
2121.000 0.243
2122.000 0.235
2123.000 0.238
2124.000 0.246
2125.000 0.256
2126.000 0.280
2127.000 0.282
2128.000 0.266
2129.000 0.263
2130.000 0.269
2131.000 0.263
2132.000 0.261
2133.000 0.258
2134.000 0.240
2135.000 0.235
2136.000 0.237
2137.000 0.247
2138.000 0.246
2139.000 0.250
2140.000 0.263
2141.000 0.255
2142.000 0.255
2143.000 0.260
2144.000 0.257
2145.000 0.243
2146.000 0.244
2147.000 0.254
2148.000 0.255
2149.000 0.262
2150.000 0.265
2151.000 0.252
2152.000 0.256
2153.000 0.285
2154.000 0.297
2155.000 0.310
2156.000 0.330
2157.000 0.318
2158.000 0.285
2159.000 0.274
2160.000 0.264
2161.000 0.259
2162.000 0.259
2163.000 0.264
2164.000 0.285
2165.000 0.288
2166.000 0.278
2167.000 0.284
2168.000 0.291
2169.000 0.291
2170.000 0.318
2171.000 0.315
2172.000 0.265
2173.000 0.250
2174.000 0.235
2175.000 0.231
2176.000 0.240
2177.000 0.258
2178.000 0.267
2179.000 0.273
2180.000 0.284
2181.000 0.296
2182.000 0.293
2183.000 0.299
2184.000 0.307
2185.000 0.308
2186.000 0.313
2187.000 0.336
2188.000 0.329
2189.000 0.303
2190.000 0.287
2191.000 0.255
2192.000 0.253
2193.000 0.277
2194.000 0.284
2195.000 0.308
2196.000 0.315
2197.000 0.294
2198.000 0.282
2199.000 0.268
2200.000 0.262
2201.000 0.250
2202.000 0.264
2203.000 0.261
2204.000 0.282
2205.000 0.310
2206.000 0.316
2207.000 0.329
2208.000 0.315
2209.000 0.306
2210.000 0.275
2211.000 0.274
2212.000 0.284
2213.000 0.291
2214.000 0.319
2215.000 0.316
2216.000 0.299
2217.000 0.288
2218.000 0.262
2219.000 0.255
2220.000 0.260
2221.000 0.261
2222.000 0.258
2223.000 0.265
2224.000 0.292
2225.000 0.303
2226.000 0.317
2227.000 0.326
2228.000 0.296
2229.000 0.273
2230.000 0.251
2231.000 0.245
2232.000 0.264
2233.000 0.254
2234.000 0.260
2235.000 0.291
2236.000 0.275
2237.000 0.271
2238.000 0.268
2239.000 0.251
2240.000 0.248
2241.000 0.254
2242.000 0.258
2243.000 0.267
2244.000 0.274
2245.000 0.291
2246.000 0.287
2247.000 0.265
2248.000 0.254
2249.000 0.233
2250.000 0.227
2251.000 0.237
2252.000 0.247
2253.000 0.260
2254.000 0.272
2255.000 0.287
2256.000 0.293
2257.000 0.292
2258.000 0.286
2259.000 0.272
2260.000 0.252
2261.000 0.238
2262.000 0.239
2263.000 0.249
2264.000 0.241
2265.000 0.246
2266.000 0.246
2267.000 0.233
2268.000 0.235
2269.000 0.222
2270.000 0.220
2271.000 0.244
2272.000 0.274
2273.000 0.288
2274.000 0.329
2275.000 0.327
2276.000 0.263
2277.000 0.274
2278.000 0.308
2279.000 0.315
2280.000 0.367
2281.000 0.341
2282.000 0.255
2283.000 0.224
2284.000 0.197
2285.000 0.188
2286.000 0.198
2287.000 0.216
2288.000 0.233
2289.000 0.264
2290.000 0.207
2291.000 0.212
2292.000 0.220
2293.000 0.230
2294.000 0.268
2295.000 0.336
2296.000 0.394
2297.000 0.429
2298.000 0.414
2299.000 0.370
2300.000 0.290
2301.000 0.213
2302.000 0.199
2303.000 0.178
2304.000 0.202
2305.000 0.239
2306.000 0.248
2307.000 0.252
2308.000 0.251
2309.000 0.232
2310.000 0.243
2311.000 0.247
2312.000 0.237
2313.000 0.222
2314.000 0.183
2315.000 0.162
2316.000 0.125
2317.000 0.156
2318.000 0.155
2319.000 0.171
2320.000 0.219
2321.000 0.202
2322.000 0.189
2323.000 0.221
2324.000 0.247
2325.000 0.235
2326.000 0.232
2327.000 0.237
2328.000 0.233
2329.000 0.205
2330.000 0.206
2331.000 0.273
2332.000 0.281
2333.000 0.290
2334.000 0.290
2335.000 0.245
2336.000 0.273
2337.000 0.253
2338.000 0.285
2339.000 0.357
2340.000 0.383
2341.000 0.448
2342.000 0.485
2343.000 0.440
2344.000 0.432
2345.000 0.401
2346.000 0.279
2347.000 0.296
2348.000 0.246
2349.000 0.243
2350.000 0.262
2351.000 0.439
2352.000 0.394
2353.000 0.259
2354.000 0.227
2355.000 0.188
2356.000 0.179
2357.000 0.183
2358.000 0.211
2359.000 0.334
2360.000 0.335
2361.000 0.337
2362.000 0.340
2363.000 0.350
2364.000 0.326
2365.000 0.264
2366.000 0.324
2367.000 0.466
2368.000 0.442
2369.000 0.383
2370.000 0.451
2371.000 0.440
2372.000 0.438
2373.000 0.513
2374.000 0.413
2375.000 0.405
2376.000 0.406
2377.000 0.244
2378.000 0.178
2379.000 0.143
2380.000 0.223
2381.000 0.268
2382.000 0.342
2383.000 0.500
2384.000 0.487
2385.000 0.307
2386.000 0.529
2387.000 0.232
2388.000 0.219
2389.000 0.349
2390.000 0.283
2391.000 0.286
2392.000 0.257
2393.000 0.516
2394.000 0.622
2395.000 0.353
2396.000 0.383
2397.000 0.322
2398.000 0.293
2399.000 0.203
2400.000 0.181
2401.000 0.246
2402.000 0.316
2403.000 0.451
2404.000 0.440
2405.000 0.368
2406.000 0.752
2407.000 0.416
2408.000 0.305
2409.000 0.292
2410.000 0.357
2411.000 0.273
2412.000 0.505
2413.000 0.684
2414.000 0.579
2415.000 0.481
2416.000 0.402
2417.000 0.532
2418.000 0.610
2419.000 0.672
2420.000 0.586
2421.000 0.438
2422.000 0.466
2423.000 0.337
2424.000 0.252
2425.000 0.499
2426.000 0.640
2427.000 0.454
2428.000 0.603
2429.000 0.711
2430.000 0.712
2431.000 0.724
2432.000 0.699
2433.000 0.248
2434.000 0.293
2435.000 0.305
2436.000 0.172
2437.000 0.571
2438.000 0.451
2439.000 0.373
2440.000 0.618
2441.000 0.447
2442.000 0.431
2443.000 0.517
2444.000 0.387
2445.000 0.287
2446.000 0.270
2447.000 0.225
2448.000 0.295
2449.000 0.425
2450.000 0.634
2451.000 0.577
2452.000 0.526
2453.000 0.582
2454.000 0.459
2455.000 0.230
2456.000 0.149
2457.000 0.565
2458.000 0.407
2459.000 0.376
2460.000 0.391
2461.000 0.507
2462.000 0.485
2463.000 0.466
2464.000 0.393
2465.000 0.315
2466.000 0.423
2467.000 0.297
2468.000 0.400
2469.000 0.258
2470.000 0.313
2471.000 0.281
2472.000 0.152
2473.000 0.161
2474.000 0.250
2475.000 0.316
2476.000 0.266
2477.000 0.745
2478.000 0.548
2479.000 0.581
2480.000 0.589
2481.000 0.306
2482.000 0.353
2483.000 0.382
2484.000 0.462
2485.000 0.406
2486.000 0.494
2487.000 0.357
2488.000 0.395
2489.000 0.481
2490.000 0.465
2491.000 0.402
2492.000 0.467
2493.000 0.324
2494.000 0.353
2495.000 0.388
2496.000 0.356
2497.000 0.456
2498.000 0.588
2499.000 0.241
2500.000 0.227
