391.000 0.026
392.000 0.028
393.000 0.027
394.000 0.023
395.000 0.025
396.000 0.027
397.000 0.025
398.000 0.023
399.000 0.025
400.000 0.027
401.000 0.027
402.000 0.028
403.000 0.028
404.000 0.028
405.000 0.027
406.000 0.026
407.000 0.028
408.000 0.029
409.000 0.027
410.000 0.026
411.000 0.027
412.000 0.029
413.000 0.026
414.000 0.027
415.000 0.029
416.000 0.028
417.000 0.029
418.000 0.028
419.000 0.028
420.000 0.030
421.000 0.029
422.000 0.028
423.000 0.029
424.000 0.029
425.000 0.029
426.000 0.029
427.000 0.030
428.000 0.029
429.000 0.029
430.000 0.030
431.000 0.029
432.000 0.029
433.000 0.029
434.000 0.029
435.000 0.030
436.000 0.030
437.000 0.029
438.000 0.029
439.000 0.030
440.000 0.030
441.000 0.031
442.000 0.031
443.000 0.031
444.000 0.030
445.000 0.029
446.000 0.030
447.000 0.031
448.000 0.031
449.000 0.031
450.000 0.031
451.000 0.031
452.000 0.031
453.000 0.032
454.000 0.032
455.000 0.031
456.000 0.031
457.000 0.031
458.000 0.032
459.000 0.032
460.000 0.032
461.000 0.031
462.000 0.031
463.000 0.032
464.000 0.033
465.000 0.032
466.000 0.031
467.000 0.032
468.000 0.031
469.000 0.031
470.000 0.032
471.000 0.031
472.000 0.032
473.000 0.032
474.000 0.032
475.000 0.032
476.000 0.032
477.000 0.032
478.000 0.032
479.000 0.033
480.000 0.033
481.000 0.033
482.000 0.032
483.000 0.032
484.000 0.032
485.000 0.032
486.000 0.032
487.000 0.032
488.000 0.032
489.000 0.032
490.000 0.033
491.000 0.034
492.000 0.033
493.000 0.033
494.000 0.033
495.000 0.033
496.000 0.034
497.000 0.034
498.000 0.033
499.000 0.034
500.000 0.034
501.000 0.035
502.000 0.036
503.000 0.036
504.000 0.036
505.000 0.037
506.000 0.037
507.000 0.039
508.000 0.039
509.000 0.040
510.000 0.041
511.000 0.042
512.000 0.044
513.000 0.045
514.000 0.047
515.000 0.048
516.000 0.049
517.000 0.051
518.000 0.054
519.000 0.056
520.000 0.058
521.000 0.061
522.000 0.063
523.000 0.066
524.000 0.068
525.000 0.070
526.000 0.073
527.000 0.075
528.000 0.076
529.000 0.078
530.000 0.080
531.000 0.082
532.000 0.084
533.000 0.085
534.000 0.086
535.000 0.087
536.000 0.088
537.000 0.089
538.000 0.090
539.000 0.091
540.000 0.091
541.000 0.092
542.000 0.092
543.000 0.092
544.000 0.092
545.000 0.092
546.000 0.093
547.000 0.094
548.000 0.093
549.000 0.094
550.000 0.095
551.000 0.094
552.000 0.094
553.000 0.094
554.000 0.094
555.000 0.094
556.000 0.094
557.000 0.093
558.000 0.091
559.000 0.091
560.000 0.090
561.000 0.089
562.000 0.088
563.000 0.087
564.000 0.085
565.000 0.084
566.000 0.083
567.000 0.081
568.000 0.080
569.000 0.078
570.000 0.077
571.000 0.075
572.000 0.074
573.000 0.072
574.000 0.071
575.000 0.070
576.000 0.068
577.000 0.067
578.000 0.066
579.000 0.065
580.000 0.065
581.000 0.064
582.000 0.063
583.000 0.063
584.000 0.062
585.000 0.061
586.000 0.061
587.000 0.061
588.000 0.060
589.000 0.059
590.000 0.059
591.000 0.058
592.000 0.058
593.000 0.058
594.000 0.057
595.000 0.057
596.000 0.057
597.000 0.057
598.000 0.057
599.000 0.057
600.000 0.056
601.000 0.056
602.000 0.055
603.000 0.055
604.000 0.055
605.000 0.054
606.000 0.054
607.000 0.053
608.000 0.054
609.000 0.053
610.000 0.053
611.000 0.052
612.000 0.051
613.000 0.050
614.000 0.051
615.000 0.051
616.000 0.050
617.000 0.049
618.000 0.049
619.000 0.049
620.000 0.048
621.000 0.047
622.000 0.048
623.000 0.048
624.000 0.047
625.000 0.047
626.000 0.047
627.000 0.047
628.000 0.047
629.000 0.047
630.000 0.047
631.000 0.047
632.000 0.047
633.000 0.047
634.000 0.047
635.000 0.046
636.000 0.046
637.000 0.045
638.000 0.046
639.000 0.045
640.000 0.044
641.000 0.043
642.000 0.043
643.000 0.042
644.000 0.041
645.000 0.041
646.000 0.041
647.000 0.040
648.000 0.039
649.000 0.040
650.000 0.040
651.000 0.040
652.000 0.040
653.000 0.038
654.000 0.038
655.000 0.040
656.000 0.038
657.000 0.039
658.000 0.039
659.000 0.038
660.000 0.038
661.000 0.038
662.000 0.038
663.000 0.038
664.000 0.038
665.000 0.038
666.000 0.038
667.000 0.037
668.000 0.037
669.000 0.036
670.000 0.037
671.000 0.037
672.000 0.037
673.000 0.038
674.000 0.038
675.000 0.038
676.000 0.039
677.000 0.039
678.000 0.039
679.000 0.039
680.000 0.040
681.000 0.040
682.000 0.041
683.000 0.042
684.000 0.043
685.000 0.043
686.000 0.044
687.000 0.047
688.000 0.049
689.000 0.050
690.000 0.051
691.000 0.053
692.000 0.057
693.000 0.060
694.000 0.065
695.000 0.070
696.000 0.076
697.000 0.082
698.000 0.089
699.000 0.096
700.000 0.104
701.000 0.113
702.000 0.122
703.000 0.131
704.000 0.139
705.000 0.147
706.000 0.157
707.000 0.166
708.000 0.175
709.000 0.184
710.000 0.193
711.000 0.203
712.000 0.213
713.000 0.222
714.000 0.232
715.000 0.241
716.000 0.251
717.000 0.261
718.000 0.272
719.000 0.282
720.000 0.294
721.000 0.305
722.000 0.315
723.000 0.324
724.000 0.334
725.000 0.345
726.000 0.355
727.000 0.364
728.000 0.374
729.000 0.383
730.000 0.392
731.000 0.402
732.000 0.410
733.000 0.419
734.000 0.427
735.000 0.434
736.000 0.442
737.000 0.448
738.000 0.455
739.000 0.462
740.000 0.468
741.000 0.474
742.000 0.479
743.000 0.484
744.000 0.488
745.000 0.492
746.000 0.496
747.000 0.500
748.000 0.503
749.000 0.506
750.000 0.509
751.000 0.511
752.000 0.514
753.000 0.516
754.000 0.518
755.000 0.520
756.000 0.522
757.000 0.523
758.000 0.524
759.000 0.524
760.000 0.524
761.000 0.522
762.000 0.521
763.000 0.522
764.000 0.524
765.000 0.526
766.000 0.528
767.000 0.531
768.000 0.533
769.000 0.534
770.000 0.535
771.000 0.536
772.000 0.537
773.000 0.538
774.000 0.538
775.000 0.539
776.000 0.539
777.000 0.540
778.000 0.540
779.000 0.540
780.000 0.541
781.000 0.541
782.000 0.542
783.000 0.542
784.000 0.542
785.000 0.542
786.000 0.542
787.000 0.542
788.000 0.542
789.000 0.542
790.000 0.543
791.000 0.543
792.000 0.543
793.000 0.544
794.000 0.545
795.000 0.545
796.000 0.545
797.000 0.545
798.000 0.545
799.000 0.545
800.000 0.545
801.000 0.545
802.000 0.546
803.000 0.546
804.000 0.547
805.000 0.547
806.000 0.548
807.000 0.549
808.000 0.549
809.000 0.548
810.000 0.549
811.000 0.547
812.000 0.547
813.000 0.546
814.000 0.544
815.000 0.544
816.000 0.543
817.000 0.544
818.000 0.544
819.000 0.546
820.000 0.547
821.000 0.547
822.000 0.548
823.000 0.548
824.000 0.548
825.000 0.549
826.000 0.550
827.000 0.550
828.000 0.550
829.000 0.550
830.000 0.551
831.000 0.551
832.000 0.552
833.000 0.553
834.000 0.553
835.000 0.554
836.000 0.555
837.000 0.555
838.000 0.556
839.000 0.557
840.000 0.557
841.000 0.558
842.000 0.559
843.000 0.559
844.000 0.559
845.000 0.560
846.000 0.561
847.000 0.561
848.000 0.561
849.000 0.562
850.000 0.562
851.000 0.562
852.000 0.562
853.000 0.563
854.000 0.563
855.000 0.563
856.000 0.564
857.000 0.564
858.000 0.564
859.000 0.565
860.000 0.565
861.000 0.565
862.000 0.565
863.000 0.566
864.000 0.566
865.000 0.567
866.000 0.567
867.000 0.567
868.000 0.567
869.000 0.568
870.000 0.568
871.000 0.568
872.000 0.568
873.000 0.568
874.000 0.569
875.000 0.569
876.000 0.568
877.000 0.568
878.000 0.569
879.000 0.569
880.000 0.569
881.000 0.569
882.000 0.569
883.000 0.569
884.000 0.570
885.000 0.570
886.000 0.570
887.000 0.570
888.000 0.570
889.000 0.570
890.000 0.570
891.000 0.569
892.000 0.568
893.000 0.568
894.000 0.567
895.000 0.566
896.000 0.564
897.000 0.563
898.000 0.562
899.000 0.562
900.000 0.560
901.000 0.561
902.000 0.562
903.000 0.563
904.000 0.564
905.000 0.563
906.000 0.563
907.000 0.562
908.000 0.562
909.000 0.561
910.000 0.560
911.000 0.560
912.000 0.561
913.000 0.560
914.000 0.559
915.000 0.560
916.000 0.560
917.000 0.562
918.000 0.562
919.000 0.562
920.000 0.563
921.000 0.563
922.000 0.564
923.000 0.564
924.000 0.564
925.000 0.563
926.000 0.561
927.000 0.560
928.000 0.557
929.000 0.553
930.000 0.551
931.000 0.549
932.000 0.541
933.000 0.538
934.000 0.536
935.000 0.533
936.000 0.530
937.000 0.529
938.000 0.528
939.000 0.528
940.000 0.531
941.000 0.532
942.000 0.530
943.000 0.527
944.000 0.529
945.000 0.528
946.000 0.528
947.000 0.530
948.000 0.530
949.000 0.526
950.000 0.524
951.000 0.524
952.000 0.529
953.000 0.529
954.000 0.527
955.000 0.525
956.000 0.524
957.000 0.530
958.000 0.530
959.000 0.524
960.000 0.531
961.000 0.531
962.000 0.530
963.000 0.529
964.000 0.535
965.000 0.538
966.000 0.537
967.000 0.535
968.000 0.539
969.000 0.541
970.000 0.541
971.000 0.541
972.000 0.541
973.000 0.542
974.000 0.541
975.000 0.539
976.000 0.541
977.000 0.542
978.000 0.543
979.000 0.543
980.000 0.543
981.000 0.545
982.000 0.547
983.000 0.549
984.000 0.548
985.000 0.547
986.000 0.549
987.000 0.552
988.000 0.553
989.000 0.553
990.000 0.553
991.000 0.553
992.000 0.553
993.000 0.555
994.000 0.555
995.000 0.556
996.000 0.557
997.000 0.559
998.000 0.558
999.000 0.558
1000.000 0.559
1001.000 0.565
1002.000 0.565
1003.000 0.567
1004.000 0.567
1005.000 0.567
1006.000 0.568
1007.000 0.567
1008.000 0.567
1009.000 0.568
1010.000 0.569
1011.000 0.569
1012.000 0.569
1013.000 0.570
1014.000 0.570
1015.000 0.571
1016.000 0.572
1017.000 0.572
1018.000 0.573
1019.000 0.573
1020.000 0.573
1021.000 0.573
1022.000 0.574
1023.000 0.574
1024.000 0.575
1025.000 0.575
1026.000 0.577
1027.000 0.578
1028.000 0.579
1029.000 0.580
1030.000 0.580
1031.000 0.581
1032.000 0.583
1033.000 0.585
1034.000 0.586
1035.000 0.587
1036.000 0.588
1037.000 0.587
1038.000 0.586
1039.000 0.586
1040.000 0.588
1041.000 0.589
1042.000 0.589
1043.000 0.588
1044.000 0.588
1045.000 0.588
1046.000 0.588
1047.000 0.589
1048.000 0.591
1049.000 0.592
1050.000 0.593
1051.000 0.593
1052.000 0.594
1053.000 0.594
1054.000 0.593
1055.000 0.594
1056.000 0.594
1057.000 0.595
1058.000 0.596
1059.000 0.596
1060.000 0.597
1061.000 0.597
1062.000 0.597
1063.000 0.597
1064.000 0.597
1065.000 0.597
1066.000 0.596
1067.000 0.597
1068.000 0.597
1069.000 0.596
1070.000 0.597
1071.000 0.597
1072.000 0.597
1073.000 0.598
1074.000 0.597
1075.000 0.597
1076.000 0.597
1077.000 0.597
1078.000 0.596
1079.000 0.597
1080.000 0.596
1081.000 0.596
1082.000 0.595
1083.000 0.594
1084.000 0.595
1085.000 0.595
1086.000 0.594
1087.000 0.595
1088.000 0.595
1089.000 0.595
1090.000 0.595
1091.000 0.596
1092.000 0.596
1093.000 0.596
1094.000 0.595
1095.000 0.594
1096.000 0.594
1097.000 0.592
1098.000 0.591
1099.000 0.591
1100.000 0.590
1101.000 0.588
1102.000 0.586
1103.000 0.585
1104.000 0.584
1105.000 0.584
1106.000 0.584
1107.000 0.584
1108.000 0.584
1109.000 0.584
1110.000 0.583
1111.000 0.580
1112.000 0.578
1113.000 0.577
1114.000 0.574
1115.000 0.572
1116.000 0.570
1117.000 0.565
1118.000 0.562
1119.000 0.558
1120.000 0.556
1121.000 0.555
1122.000 0.552
1123.000 0.549
1124.000 0.546
1125.000 0.542
1126.000 0.534
1127.000 0.532
1128.000 0.534
1129.000 0.535
1130.000 0.537
1131.000 0.539
1132.000 0.536
1133.000 0.535
1134.000 0.536
1135.000 0.535
1136.000 0.537
1137.000 0.536
1138.000 0.532
1139.000 0.530
1140.000 0.528
1141.000 0.524
1142.000 0.525
1143.000 0.529
1144.000 0.530
1145.000 0.537
1146.000 0.537
1147.000 0.533
1148.000 0.530
1149.000 0.525
1150.000 0.522
1151.000 0.521
1152.000 0.519
1153.000 0.518
1154.000 0.518
1155.000 0.517
1156.000 0.519
1157.000 0.520
1158.000 0.521
1159.000 0.522
1160.000 0.523
1161.000 0.523
1162.000 0.522
1163.000 0.521
1164.000 0.521
1165.000 0.522
1166.000 0.524
1167.000 0.525
1168.000 0.526
1169.000 0.526
1170.000 0.525
1171.000 0.524
1172.000 0.525
1173.000 0.525
1174.000 0.526
1175.000 0.526
1176.000 0.526
1177.000 0.526
1178.000 0.525
1179.000 0.525
1180.000 0.525
1181.000 0.525
1182.000 0.524
1183.000 0.522
1184.000 0.522
1185.000 0.522
1186.000 0.523
1187.000 0.523
1188.000 0.524
1189.000 0.523
1190.000 0.522
1191.000 0.522
1192.000 0.522
1193.000 0.522
1194.000 0.524
1195.000 0.524
1196.000 0.524
1197.000 0.524
1198.000 0.524
1199.000 0.524
1200.000 0.524
1201.000 0.524
1202.000 0.525
1203.000 0.525
1204.000 0.525
1205.000 0.525
1206.000 0.526
1207.000 0.526
1208.000 0.526
1209.000 0.526
1210.000 0.527
1211.000 0.527
1212.000 0.528
1213.000 0.528
1214.000 0.528
1215.000 0.529
1216.000 0.529
1217.000 0.530
1218.000 0.531
1219.000 0.531
1220.000 0.532
1221.000 0.532
1222.000 0.532
1223.000 0.534
1224.000 0.534
1225.000 0.535
1226.000 0.536
1227.000 0.537
1228.000 0.537
1229.000 0.538
1230.000 0.539
1231.000 0.539
1232.000 0.540
1233.000 0.541
1234.000 0.542
1235.000 0.542
1236.000 0.543
1237.000 0.544
1238.000 0.544
1239.000 0.545
1240.000 0.545
1241.000 0.546
1242.000 0.546
1243.000 0.547
1244.000 0.546
1245.000 0.546
1246.000 0.546
1247.000 0.546
1248.000 0.547
1249.000 0.548
1250.000 0.548
1251.000 0.548
1252.000 0.548
1253.000 0.548
1254.000 0.549
1255.000 0.549
1256.000 0.549
1257.000 0.549
1258.000 0.549
1259.000 0.550
1260.000 0.550
1261.000 0.551
1262.000 0.551
1263.000 0.551
1264.000 0.550
1265.000 0.550
1266.000 0.550
1267.000 0.551
1268.000 0.552
1269.000 0.553
1270.000 0.553
1271.000 0.553
1272.000 0.552
1273.000 0.552
1274.000 0.551
1275.000 0.551
1276.000 0.552
1277.000 0.552
1278.000 0.553
1279.000 0.553
1280.000 0.553
1281.000 0.553
1282.000 0.553
1283.000 0.553
1284.000 0.553
1285.000 0.552
1286.000 0.552
1287.000 0.552
1288.000 0.552
1289.000 0.552
1290.000 0.551
1291.000 0.551
1292.000 0.550
1293.000 0.550
1294.000 0.549
1295.000 0.547
1296.000 0.546
1297.000 0.544
1298.000 0.544
1299.000 0.543
1300.000 0.542
1301.000 0.543
1302.000 0.541
1303.000 0.541
1304.000 0.540
1305.000 0.539
1306.000 0.537
1307.000 0.535
1308.000 0.533
1309.000 0.530
1310.000 0.529
1311.000 0.529
1312.000 0.528
1313.000 0.527
1314.000 0.526
1315.000 0.523
1316.000 0.522
1317.000 0.520
1318.000 0.519
1319.000 0.517
1320.000 0.514
1321.000 0.512
1322.000 0.510
1323.000 0.509
1324.000 0.508
1325.000 0.507
1326.000 0.506
1327.000 0.504
1328.000 0.502
1329.000 0.500
1330.000 0.497
1331.000 0.494
1332.000 0.490
1333.000 0.486
1334.000 0.482
1335.000 0.479
1336.000 0.479
1337.000 0.476
1338.000 0.476
1339.000 0.474
1340.000 0.471
1341.000 0.468
1342.000 0.465
1343.000 0.463
1344.000 0.463
1345.000 0.462
1346.000 0.465
1347.000 0.467
1348.000 0.470
1349.000 0.476
1350.000 0.480
1351.000 0.490
1352.000 0.481
1353.000 0.426
1354.000 0.394
1355.000 0.346
1356.000 0.314
1357.000 0.421
1358.000 0.398
1359.000 0.443
1360.000 0.532
1361.000 0.763
1362.000 0.633
1363.000 0.606
1364.000 0.581
1365.000 0.570
1366.000 0.520
1367.000 0.414
1368.000 0.287
1369.000 0.165
1370.000 0.475
1371.000 0.509
1372.000 0.376
1373.000 0.185
1374.000 0.122
1375.000 0.140
1376.000 0.152
1377.000 0.217
1378.000 0.056
1379.000 0.274
1380.000 0.553
1381.000 0.469
1382.000 0.580
1383.000 0.533
1384.000 0.524
1385.000 0.374
1386.000 0.455
1387.000 0.324
1388.000 0.438
1389.000 0.565
1390.000 0.450
1391.000 0.450
1392.000 0.694
1393.000 0.794
1394.000 0.556
1395.000 0.458
1396.000 0.401
1397.000 0.277
1398.000 0.494
1399.000 0.680
1400.000 0.521
1401.000 0.457
1402.000 0.516
1403.000 0.415
1404.000 0.440
1405.000 0.335
1406.000 0.304
1407.000 0.266
1408.000 0.246
1409.000 0.233
1410.000 0.247
1411.000 0.257
1412.000 0.164
1413.000 0.177
1414.000 0.187
1415.000 0.198
1416.000 0.202
1417.000 0.265
1418.000 0.313
1419.000 0.329
1420.000 0.237
1421.000 0.237
1422.000 0.212
1423.000 0.180
1424.000 0.181
1425.000 0.229
1426.000 0.226
1427.000 0.231
1428.000 0.240
1429.000 0.246
1430.000 0.292
1431.000 0.265
1432.000 0.262
1433.000 0.238
1434.000 0.192
1435.000 0.244
1436.000 0.320
1437.000 0.159
1438.000 0.125
1439.000 0.251
1440.000 0.234
1441.000 0.093
1442.000 0.104
1443.000 0.249
1444.000 0.200
1445.000 0.214
1446.000 0.206
1447.000 0.192
1448.000 0.191
1449.000 0.179
1450.000 0.168
1451.000 0.167
1452.000 0.163
1453.000 0.163
1454.000 0.169
1455.000 0.173
1456.000 0.179
1457.000 0.181
1458.000 0.182
1459.000 0.178
1460.000 0.170
1461.000 0.167
1462.000 0.161
1463.000 0.161
1464.000 0.166
1465.000 0.169
1466.000 0.176
1467.000 0.179
1468.000 0.175
1469.000 0.176
1470.000 0.182
1471.000 0.178
1472.000 0.173
1473.000 0.168
1474.000 0.154
1475.000 0.152
1476.000 0.155
1477.000 0.158
1478.000 0.167
1479.000 0.173
1480.000 0.183
1481.000 0.188
1482.000 0.188
1483.000 0.188
1484.000 0.185
1485.000 0.183
1486.000 0.181
1487.000 0.180
1488.000 0.178
1489.000 0.178
1490.000 0.181
1491.000 0.185
1492.000 0.192
1493.000 0.196
1494.000 0.200
1495.000 0.203
1496.000 0.202
1497.000 0.203
1498.000 0.206
1499.000 0.207
1500.000 0.209
1501.000 0.209
1502.000 0.207
1503.000 0.206
1504.000 0.208
1505.000 0.210
1506.000 0.211
1507.000 0.213
1508.000 0.215
1509.000 0.218
1510.000 0.219
1511.000 0.221
1512.000 0.222
1513.000 0.222
1514.000 0.222
1515.000 0.224
1516.000 0.225
1517.000 0.225
1518.000 0.227
1519.000 0.228
1520.000 0.230
1521.000 0.234
1522.000 0.237
1523.000 0.238
1524.000 0.240
1525.000 0.241
1526.000 0.242
1527.000 0.244
1528.000 0.247
1529.000 0.250
1530.000 0.251
1531.000 0.254
1532.000 0.256
1533.000 0.257
1534.000 0.258
1535.000 0.260
1536.000 0.261
1537.000 0.262
1538.000 0.263
1539.000 0.266
1540.000 0.267
1541.000 0.269
1542.000 0.270
1543.000 0.271
1544.000 0.272
1545.000 0.274
1546.000 0.275
1547.000 0.275
1548.000 0.276
1549.000 0.277
1550.000 0.278
1551.000 0.280
1552.000 0.282
1553.000 0.283
1554.000 0.284
1555.000 0.286
1556.000 0.287
1557.000 0.288
1558.000 0.289
1559.000 0.290
1560.000 0.291
1561.000 0.292
1562.000 0.293
1563.000 0.294
1564.000 0.295
1565.000 0.296
1566.000 0.297
1567.000 0.298
1568.000 0.300
1569.000 0.304
1570.000 0.306
1571.000 0.309
1572.000 0.311
1573.000 0.312
1574.000 0.313
1575.000 0.312
1576.000 0.313
1577.000 0.314
1578.000 0.314
1579.000 0.314
1580.000 0.315
1581.000 0.315
1582.000 0.316
1583.000 0.318
1584.000 0.320
1585.000 0.319
1586.000 0.320
1587.000 0.321
1588.000 0.322
1589.000 0.324
1590.000 0.326
1591.000 0.328
1592.000 0.329
1593.000 0.330
1594.000 0.331
1595.000 0.333
1596.000 0.334
1597.000 0.334
1598.000 0.335
1599.000 0.335
1600.000 0.335
1601.000 0.336
1602.000 0.336
1603.000 0.337
1604.000 0.338
1605.000 0.338
1606.000 0.338
1607.000 0.340
1608.000 0.341
1609.000 0.343
1610.000 0.344
1611.000 0.343
1612.000 0.343
1613.000 0.344
1614.000 0.344
1615.000 0.346
1616.000 0.347
1617.000 0.347
1618.000 0.348
1619.000 0.349
1620.000 0.350
1621.000 0.351
1622.000 0.351
1623.000 0.353
1624.000 0.353
1625.000 0.353
1626.000 0.354
1627.000 0.355
1628.000 0.356
1629.000 0.358
1630.000 0.359
1631.000 0.361
1632.000 0.362
1633.000 0.363
1634.000 0.364
1635.000 0.362
1636.000 0.361
1637.000 0.362
1638.000 0.362
1639.000 0.364
1640.000 0.364
1641.000 0.365
1642.000 0.365
1643.000 0.364
1644.000 0.364
1645.000 0.364
1646.000 0.365
1647.000 0.367
1648.000 0.367
1649.000 0.366
1650.000 0.366
1651.000 0.366
1652.000 0.366
1653.000 0.368
1654.000 0.368
1655.000 0.366
1656.000 0.366
1657.000 0.368
1658.000 0.368
1659.000 0.368
1660.000 0.369
1661.000 0.368
1662.000 0.368
1663.000 0.370
1664.000 0.371
1665.000 0.370
1666.000 0.371
1667.000 0.372
1668.000 0.373
1669.000 0.373
1670.000 0.372
1671.000 0.371
1672.000 0.371
1673.000 0.371
1674.000 0.372
1675.000 0.372
1676.000 0.372
1677.000 0.373
1678.000 0.373
1679.000 0.373
1680.000 0.372
1681.000 0.371
1682.000 0.370
1683.000 0.370
1684.000 0.369
1685.000 0.368
1686.000 0.368
1687.000 0.368
1688.000 0.368
1689.000 0.368
1690.000 0.368
1691.000 0.367
1692.000 0.367
1693.000 0.369
1694.000 0.370
1695.000 0.369
1696.000 0.368
1697.000 0.367
1698.000 0.366
1699.000 0.366
1700.000 0.366
1701.000 0.367
1702.000 0.366
1703.000 0.364
1704.000 0.363
1705.000 0.362
1706.000 0.363
1707.000 0.364
1708.000 0.365
1709.000 0.364
1710.000 0.363
1711.000 0.362
1712.000 0.360
1713.000 0.360
1714.000 0.360
1715.000 0.362
1716.000 0.361
1717.000 0.360
1718.000 0.360
1719.000 0.360
1720.000 0.361
1721.000 0.363
1722.000 0.361
1723.000 0.359
1724.000 0.356
1725.000 0.354
1726.000 0.356
1727.000 0.356
1728.000 0.355
1729.000 0.356
1730.000 0.353
1731.000 0.351
1732.000 0.349
1733.000 0.345
1734.000 0.343
1735.000 0.342
1736.000 0.345
1737.000 0.345
1738.000 0.347
1739.000 0.347
1740.000 0.342
1741.000 0.341
1742.000 0.342
1743.000 0.343
1744.000 0.348
1745.000 0.348
1746.000 0.343
1747.000 0.343
1748.000 0.341
1749.000 0.340
1750.000 0.340
1751.000 0.339
1752.000 0.336
1753.000 0.336
1754.000 0.337
1755.000 0.339
1756.000 0.341
1757.000 0.343
1758.000 0.345
1759.000 0.343
1760.000 0.340
1761.000 0.337
1762.000 0.335
1763.000 0.334
1764.000 0.336
1765.000 0.338
1766.000 0.340
1767.000 0.343
1768.000 0.345
1769.000 0.340
1770.000 0.333
1771.000 0.327
1772.000 0.323
1773.000 0.318
1774.000 0.318
1775.000 0.321
1776.000 0.317
1777.000 0.317
1778.000 0.318
1779.000 0.316
1780.000 0.316
1781.000 0.316
1782.000 0.321
1783.000 0.326
1784.000 0.326
1785.000 0.321
1786.000 0.316
1787.000 0.307
1788.000 0.306
1789.000 0.309
1790.000 0.315
1791.000 0.328
1792.000 0.339
1793.000 0.337
1794.000 0.317
1795.000 0.300
1796.000 0.315
1797.000 0.345
1798.000 0.350
1799.000 0.343
1800.000 0.276
1801.000 0.427
1802.000 0.474
1803.000 0.456
1804.000 0.527
1805.000 0.549
1806.000 0.588
1807.000 0.544
1808.000 0.481
1809.000 0.505
1810.000 0.725
1811.000 0.672
1812.000 0.456
1813.000 0.406
1814.000 0.462
1815.000 0.437
1816.000 0.469
1817.000 0.628
1818.000 0.612
1819.000 0.263
1820.000 0.503
1821.000 0.273
1822.000 0.620
1823.000 0.561
1824.000 0.488
1825.000 0.432
1826.000 0.790
1827.000 0.619
1828.000 0.659
1829.000 0.791
1830.000 0.356
1831.000 0.288
1832.000 0.265
1833.000 0.270
1834.000 0.271
1835.000 0.323
1836.000 0.312
1837.000 0.365
1838.000 0.378
1839.000 0.485
1840.000 0.546
1841.000 0.424
1842.000 0.362
1843.000 0.195
1844.000 0.147
1845.000 0.204
1846.000 0.280
1847.000 0.293
1848.000 0.326
1849.000 0.352
1850.000 0.381
1851.000 0.412
1852.000 0.255
1853.000 0.550
1854.000 0.428
1855.000 0.387
1856.000 0.513
1857.000 0.278
1858.000 0.303
1859.000 0.190
1860.000 0.229
1861.000 0.282
1862.000 0.221
1863.000 0.162
1864.000 0.190
1865.000 0.337
1866.000 0.246
1867.000 0.459
1868.000 0.486
1869.000 0.516
1870.000 0.633
1871.000 0.737
1872.000 0.323
1873.000 0.478
1874.000 0.661
1875.000 0.346
1876.000 0.118
1877.000 0.086
1878.000 0.206
1879.000 0.493
1880.000 0.625
1881.000 0.631
1882.000 0.729
1883.000 0.786
1884.000 0.367
1885.000 0.445
1886.000 0.634
1887.000 0.453
1888.000 0.345
1889.000 0.357
1890.000 0.401
1891.000 0.289
1892.000 0.341
1893.000 0.359
1894.000 0.357
1895.000 0.554
1896.000 0.577
1897.000 0.591
1898.000 0.505
1899.000 0.420
1900.000 0.406
1901.000 0.474
1902.000 0.559
1903.000 0.360
1904.000 0.325
1905.000 0.285
1906.000 0.323
1907.000 0.415
1908.000 0.523
1909.000 0.414
1910.000 0.439
1911.000 0.422
1912.000 0.378
1913.000 0.337
1914.000 0.296
1915.000 0.274
1916.000 0.713
1917.000 0.712
1918.000 0.654
1919.000 0.655
1920.000 0.603
1921.000 0.540
1922.000 0.777
1923.000 0.616
1924.000 0.461
1925.000 0.428
1926.000 0.387
1927.000 0.373
1928.000 0.605
1929.000 0.627
1930.000 0.580
1931.000 0.642
1932.000 0.564
1933.000 0.657
1934.000 0.518
1935.000 0.553
1936.000 0.499
1937.000 0.169
1938.000 0.354
1939.000 0.791
1940.000 0.657
1941.000 0.536
1942.000 0.541
1943.000 0.496
1944.000 0.457
1945.000 0.724
1946.000 0.346
1947.000 0.732
1948.000 0.185
1949.000 0.185
1950.000 0.298
1951.000 0.776
1952.000 0.652
1953.000 0.479
1954.000 0.395
1955.000 0.533
1956.000 0.490
1957.000 0.557
1958.000 0.500
1959.000 0.407
1960.000 0.228
1961.000 0.214
1962.000 0.184
1963.000 0.117
1964.000 0.132
1965.000 0.170
1966.000 0.164
1967.000 0.203
1968.000 0.198
1969.000 0.168
1970.000 0.166
1971.000 0.169
1972.000 0.150
1973.000 0.153
1974.000 0.152
1975.000 0.144
1976.000 0.153
1977.000 0.151
1978.000 0.137
1979.000 0.139
1980.000 0.177
1981.000 0.169
1982.000 0.177
1983.000 0.188
1984.000 0.187
1985.000 0.150
1986.000 0.132
1987.000 0.097
1988.000 0.088
1989.000 0.083
1990.000 0.087
1991.000 0.098
1992.000 0.114
1993.000 0.123
1994.000 0.128
1995.000 0.132
1996.000 0.144
1997.000 0.172
1998.000 0.180
1999.000 0.187
2000.000 0.177
2001.000 0.182
2002.000 0.212
2003.000 0.190
2004.000 0.109
2005.000 0.134
2006.000 0.175
2007.000 0.267
2008.000 0.211
2009.000 0.198
2010.000 0.220
2011.000 0.235
2012.000 0.280
2013.000 0.285
2014.000 0.284
2015.000 0.277
2016.000 0.232
2017.000 0.220
2018.000 0.197
2019.000 0.175
2020.000 0.161
2021.000 0.148
2022.000 0.136
2023.000 0.136
2024.000 0.143
2025.000 0.140
2026.000 0.141
2027.000 0.140
2028.000 0.133
2029.000 0.132
2030.000 0.128
2031.000 0.128
2032.000 0.135
2033.000 0.134
2034.000 0.133
2035.000 0.136
2036.000 0.134
2037.000 0.129
2038.000 0.123
2039.000 0.119
2040.000 0.117
2041.000 0.129
2042.000 0.133
2043.000 0.136
2044.000 0.138
2045.000 0.137
2046.000 0.142
2047.000 0.147
2048.000 0.154
2049.000 0.176
2050.000 0.173
2051.000 0.177
2052.000 0.185
2053.000 0.173
2054.000 0.180
2055.000 0.189
2056.000 0.176
2057.000 0.172
2058.000 0.169
2059.000 0.166
2060.000 0.164
2061.000 0.163
2062.000 0.167
2063.000 0.165
2064.000 0.161
2065.000 0.160
2066.000 0.161
2067.000 0.156
2068.000 0.164
2069.000 0.173
2070.000 0.169
2071.000 0.166
2072.000 0.162
2073.000 0.153
2074.000 0.151
2075.000 0.156
2076.000 0.154
2077.000 0.145
2078.000 0.144
2079.000 0.145
2080.000 0.146
2081.000 0.154
2082.000 0.158
2083.000 0.155
2084.000 0.155
2085.000 0.146
2086.000 0.144
2087.000 0.142
2088.000 0.140
2089.000 0.143
2090.000 0.155
2091.000 0.160
2092.000 0.164
2093.000 0.166
2094.000 0.162
2095.000 0.163
2096.000 0.166
2097.000 0.170
2098.000 0.176
2099.000 0.179
2100.000 0.181
2101.000 0.173
2102.000 0.168
2103.000 0.164
2104.000 0.162
2105.000 0.162
2106.000 0.166
2107.000 0.174
2108.000 0.177
2109.000 0.184
2110.000 0.186
2111.000 0.178
2112.000 0.175
2113.000 0.171
2114.000 0.170
2115.000 0.172
2116.000 0.175
2117.000 0.179
2118.000 0.191
2119.000 0.203
2120.000 0.209
2121.000 0.201
2122.000 0.189
2123.000 0.182
2124.000 0.167
2125.000 0.164
2126.000 0.172
2127.000 0.177
2128.000 0.186
2129.000 0.191
2130.000 0.196
2131.000 0.199
2132.000 0.197
2133.000 0.196
2134.000 0.195
2135.000 0.195
2136.000 0.195
2137.000 0.194
2138.000 0.197
2139.000 0.199
2140.000 0.206
2141.000 0.212
2142.000 0.214
2143.000 0.213
2144.000 0.212
2145.000 0.206
2146.000 0.202
2147.000 0.200
2148.000 0.195
2149.000 0.181
2150.000 0.178
2151.000 0.176
2152.000 0.176
2153.000 0.190
2154.000 0.197
2155.000 0.205
2156.000 0.208
2157.000 0.212
2158.000 0.212
2159.000 0.205
2160.000 0.200
2161.000 0.199
2162.000 0.194
2163.000 0.196
2164.000 0.209
2165.000 0.212
2166.000 0.217
2167.000 0.219
2168.000 0.218
2169.000 0.218
2170.000 0.216
2171.000 0.216
2172.000 0.221
2173.000 0.220
2174.000 0.211
2175.000 0.208
2176.000 0.210
2177.000 0.205
2178.000 0.207
2179.000 0.208
2180.000 0.202
2181.000 0.198
2182.000 0.195
2183.000 0.191
2184.000 0.191
2185.000 0.196
2186.000 0.200
2187.000 0.210
2188.000 0.215
2189.000 0.218
2190.000 0.219
2191.000 0.215
2192.000 0.214
2193.000 0.214
2194.000 0.213
2195.000 0.211
2196.000 0.210
2197.000 0.206
2198.000 0.206
2199.000 0.212
2200.000 0.215
2201.000 0.216
2202.000 0.221
2203.000 0.225
2204.000 0.226
2205.000 0.225
2206.000 0.222
2207.000 0.217
2208.000 0.215
2209.000 0.215
2210.000 0.222
2211.000 0.220
2212.000 0.216
2213.000 0.215
2214.000 0.211
2215.000 0.212
2216.000 0.222
2217.000 0.222
2218.000 0.216
2219.000 0.215
2220.000 0.211
2221.000 0.210
2222.000 0.217
2223.000 0.220
2224.000 0.222
2225.000 0.222
2226.000 0.221
2227.000 0.215
2228.000 0.207
2229.000 0.207
2230.000 0.203
2231.000 0.201
2232.000 0.198
2233.000 0.190
2234.000 0.188
2235.000 0.186
2236.000 0.188
2237.000 0.195
2238.000 0.201
2239.000 0.206
2240.000 0.210
2241.000 0.216
2242.000 0.219
2243.000 0.218
2244.000 0.219
2245.000 0.219
2246.000 0.220
2247.000 0.224
2248.000 0.221
2249.000 0.213
2250.000 0.209
2251.000 0.201
2252.000 0.195
2253.000 0.195
2254.000 0.196
2255.000 0.202
2256.000 0.203
2257.000 0.207
2258.000 0.203
2259.000 0.198
2260.000 0.191
2261.000 0.187
2262.000 0.193
2263.000 0.189
2264.000 0.194
2265.000 0.200
2266.000 0.185
2267.000 0.184
2268.000 0.177
2269.000 0.171
2270.000 0.178
2271.000 0.181
2272.000 0.184
2273.000 0.184
2274.000 0.180
2275.000 0.182
2276.000 0.187
2277.000 0.187
2278.000 0.191
2279.000 0.189
2280.000 0.175
2281.000 0.169
2282.000 0.166
2283.000 0.166
2284.000 0.172
2285.000 0.173
2286.000 0.172
2287.000 0.170
2288.000 0.164
2289.000 0.163
2290.000 0.166
2291.000 0.169
2292.000 0.175
2293.000 0.176
2294.000 0.170
2295.000 0.169
2296.000 0.165
2297.000 0.167
2298.000 0.191
2299.000 0.199
2300.000 0.177
2301.000 0.172
2302.000 0.162
2303.000 0.141
2304.000 0.127
2305.000 0.129
2306.000 0.143
2307.000 0.165
2308.000 0.178
2309.000 0.185
2310.000 0.192
2311.000 0.178
2312.000 0.166
2313.000 0.169
2314.000 0.162
2315.000 0.184
2316.000 0.229
2317.000 0.236
2318.000 0.215
2319.000 0.185
2320.000 0.156
2321.000 0.155
2322.000 0.137
2323.000 0.163
2324.000 0.189
2325.000 0.198
2326.000 0.190
2327.000 0.159
2328.000 0.151
2329.000 0.132
2330.000 0.128
2331.000 0.147
2332.000 0.157
2333.000 0.165
2334.000 0.172
2335.000 0.195
2336.000 0.193
2337.000 0.186
2338.000 0.210
2339.000 0.184
2340.000 0.168
2341.000 0.155
2342.000 0.156
2343.000 0.201
2344.000 0.191
2345.000 0.170
2346.000 0.160
2347.000 0.199
2348.000 0.183
2349.000 0.149
2350.000 0.163
2351.000 0.242
2352.000 0.269
2353.000 0.319
2354.000 0.320
2355.000 0.301
2356.000 0.308
2357.000 0.275
2358.000 0.285
2359.000 0.183
2360.000 0.166
2361.000 0.142
2362.000 0.163
2363.000 0.195
2364.000 0.183
2365.000 0.192
2366.000 0.142
2367.000 0.119
2368.000 0.090
2369.000 0.062
2370.000 0.070
2371.000 0.061
2372.000 0.117
2373.000 0.129
2374.000 0.153
2375.000 0.217
2376.000 0.203
2377.000 0.237
2378.000 0.389
2379.000 0.267
2380.000 0.335
2381.000 0.270
2382.000 0.277
2383.000 0.207
2384.000 0.201
2385.000 0.160
2386.000 0.132
2387.000 0.183
2388.000 0.218
2389.000 0.192
2390.000 0.175
2391.000 0.311
2392.000 0.220
2393.000 0.138
2394.000 0.123
2395.000 0.143
2396.000 0.193
2397.000 0.260
2398.000 0.336
2399.000 0.207
2400.000 0.068
2401.000 0.102
2402.000 0.139
2403.000 0.174
2404.000 0.168
2405.000 0.196
2406.000 0.224
2407.000 0.188
2408.000 0.156
2409.000 0.164
2410.000 0.208
2411.000 0.460
2412.000 0.162
2413.000 0.424
2414.000 0.671
2415.000 0.053
2416.000 0.317
2417.000 0.307
2418.000 0.452
2419.000 0.417
2420.000 0.404
2421.000 0.252
2422.000 0.523
2423.000 0.451
2424.000 0.425
2425.000 0.361
2426.000 0.342
2427.000 0.323
2428.000 0.300
2429.000 0.232
2430.000 0.190
2431.000 0.304
2432.000 0.223
2433.000 0.218
2434.000 0.245
2435.000 0.265
2436.000 0.284
2437.000 0.615
2438.000 0.407
2439.000 0.594
2440.000 0.578
2441.000 0.562
2442.000 0.544
2443.000 0.466
2444.000 0.576
2445.000 0.645
2446.000 0.594
2447.000 0.240
2448.000 0.228
2449.000 0.229
2450.000 0.502
2451.000 0.738
2452.000 0.423
2453.000 0.313
2454.000 0.501
2455.000 0.313
2456.000 0.776
2457.000 0.416
2458.000 0.764
2459.000 0.762
2460.000 0.666
2461.000 0.591
2462.000 0.504
2463.000 0.434
2464.000 0.205
2465.000 0.412
2466.000 0.231
2467.000 0.213
2468.000 0.151
2469.000 0.256
2470.000 0.346
2471.000 0.415
2472.000 0.427
2473.000 0.168
2474.000 0.162
2475.000 0.313
2476.000 0.352
2477.000 0.460
2478.000 0.414
2479.000 0.317
2480.000 0.406
2481.000 0.487
2482.000 0.631
2483.000 0.726
2484.000 0.471
2485.000 0.440
2486.000 0.490
2487.000 0.522
2488.000 0.415
2489.000 0.253
2490.000 0.397
2491.000 0.515
2492.000 0.277
2493.000 0.310
2494.000 0.402
2495.000 0.486
2496.000 0.464
2497.000 0.420
2498.000 0.632
2499.000 0.506
2500.000 0.498
