391.000 0.022
392.000 0.019
393.000 0.016
394.000 0.020
395.000 0.020
396.000 0.017
397.000 0.016
398.000 0.015
399.000 0.015
400.000 0.017
401.000 0.022
402.000 0.015
403.000 0.016
404.000 0.020
405.000 0.019
406.000 0.018
407.000 0.016
408.000 0.015
409.000 0.019
410.000 0.018
411.000 0.016
412.000 0.016
413.000 0.017
414.000 0.018
415.000 0.018
416.000 0.018
417.000 0.018
418.000 0.018
419.000 0.018
420.000 0.018
421.000 0.018
422.000 0.017
423.000 0.017
424.000 0.016
425.000 0.017
426.000 0.018
427.000 0.018
428.000 0.018
429.000 0.018
430.000 0.017
431.000 0.017
432.000 0.017
433.000 0.018
434.000 0.019
435.000 0.017
436.000 0.016
437.000 0.017
438.000 0.019
439.000 0.018
440.000 0.017
441.000 0.017
442.000 0.016
443.000 0.016
444.000 0.017
445.000 0.018
446.000 0.017
447.000 0.017
448.000 0.018
449.000 0.018
450.000 0.018
451.000 0.018
452.000 0.018
453.000 0.018
454.000 0.019
455.000 0.019
456.000 0.018
457.000 0.018
458.000 0.018
459.000 0.018
460.000 0.018
461.000 0.017
462.000 0.016
463.000 0.016
464.000 0.018
465.000 0.018
466.000 0.017
467.000 0.019
468.000 0.018
469.000 0.019
470.000 0.019
471.000 0.019
472.000 0.017
473.000 0.018
474.000 0.019
475.000 0.019
476.000 0.018
477.000 0.018
478.000 0.018
479.000 0.018
480.000 0.019
481.000 0.019
482.000 0.018
483.000 0.018
484.000 0.017
485.000 0.018
486.000 0.018
487.000 0.018
488.000 0.020
489.000 0.020
490.000 0.018
491.000 0.017
492.000 0.017
493.000 0.019
494.000 0.019
495.000 0.019
496.000 0.020
497.000 0.021
498.000 0.020
499.000 0.019
500.000 0.019
501.000 0.021
502.000 0.021
503.000 0.021
504.000 0.021
505.000 0.022
506.000 0.022
507.000 0.023
508.000 0.023
509.000 0.025
510.000 0.026
511.000 0.026
512.000 0.028
513.000 0.029
514.000 0.029
515.000 0.030
516.000 0.032
517.000 0.034
518.000 0.036
519.000 0.038
520.000 0.039
521.000 0.041
522.000 0.042
523.000 0.043
524.000 0.045
525.000 0.046
526.000 0.049
527.000 0.050
528.000 0.052
529.000 0.053
530.000 0.054
531.000 0.056
532.000 0.057
533.000 0.057
534.000 0.059
535.000 0.060
536.000 0.060
537.000 0.061
538.000 0.062
539.000 0.062
540.000 0.061
541.000 0.063
542.000 0.063
543.000 0.063
544.000 0.063
545.000 0.063
546.000 0.063
547.000 0.063
548.000 0.064
549.000 0.064
550.000 0.064
551.000 0.064
552.000 0.064
553.000 0.064
554.000 0.064
555.000 0.064
556.000 0.063
557.000 0.063
558.000 0.063
559.000 0.062
560.000 0.060
561.000 0.060
562.000 0.060
563.000 0.059
564.000 0.058
565.000 0.057
566.000 0.055
567.000 0.055
568.000 0.054
569.000 0.053
570.000 0.051
571.000 0.050
572.000 0.048
573.000 0.048
574.000 0.047
575.000 0.046
576.000 0.046
577.000 0.045
578.000 0.044
579.000 0.043
580.000 0.043
581.000 0.043
582.000 0.041
583.000 0.042
584.000 0.042
585.000 0.041
586.000 0.040
587.000 0.039
588.000 0.039
589.000 0.038
590.000 0.038
591.000 0.038
592.000 0.037
593.000 0.037
594.000 0.038
595.000 0.037
596.000 0.036
597.000 0.036
598.000 0.037
599.000 0.037
600.000 0.037
601.000 0.037
602.000 0.036
603.000 0.035
604.000 0.035
605.000 0.035
606.000 0.035
607.000 0.034
608.000 0.034
609.000 0.034
610.000 0.034
611.000 0.034
612.000 0.033
613.000 0.032
614.000 0.032
615.000 0.032
616.000 0.032
617.000 0.031
618.000 0.031
619.000 0.032
620.000 0.031
621.000 0.030
622.000 0.030
623.000 0.029
624.000 0.029
625.000 0.030
626.000 0.031
627.000 0.030
628.000 0.031
629.000 0.031
630.000 0.031
631.000 0.031
632.000 0.031
633.000 0.031
634.000 0.030
635.000 0.030
636.000 0.030
637.000 0.028
638.000 0.028
639.000 0.028
640.000 0.028
641.000 0.027
642.000 0.026
643.000 0.026
644.000 0.027
645.000 0.026
646.000 0.025
647.000 0.026
648.000 0.026
649.000 0.024
650.000 0.024
651.000 0.025
652.000 0.025
653.000 0.024
654.000 0.024
655.000 0.025
656.000 0.025
657.000 0.024
658.000 0.024
659.000 0.025
660.000 0.025
661.000 0.024
662.000 0.024
663.000 0.023
664.000 0.024
665.000 0.023
666.000 0.022
667.000 0.024
668.000 0.024
669.000 0.024
670.000 0.024
671.000 0.023
672.000 0.024
673.000 0.025
674.000 0.024
675.000 0.024
676.000 0.025
677.000 0.026
678.000 0.027
679.000 0.027
680.000 0.026
681.000 0.027
682.000 0.027
683.000 0.028
684.000 0.029
685.000 0.029
686.000 0.031
687.000 0.031
688.000 0.032
689.000 0.034
690.000 0.036
691.000 0.038
692.000 0.040
693.000 0.042
694.000 0.046
695.000 0.052
696.000 0.056
697.000 0.060
698.000 0.064
699.000 0.069
700.000 0.075
701.000 0.081
702.000 0.088
703.000 0.093
704.000 0.099
705.000 0.106
706.000 0.111
707.000 0.116
708.000 0.123
709.000 0.130
710.000 0.135
711.000 0.142
712.000 0.149
713.000 0.155
714.000 0.161
715.000 0.167
716.000 0.174
717.000 0.182
718.000 0.190
719.000 0.199
720.000 0.208
721.000 0.214
722.000 0.221
723.000 0.228
724.000 0.237
725.000 0.245
726.000 0.253
727.000 0.261
728.000 0.269
729.000 0.276
730.000 0.284
731.000 0.292
732.000 0.299
733.000 0.306
734.000 0.312
735.000 0.318
736.000 0.325
737.000 0.330
738.000 0.336
739.000 0.342
740.000 0.348
741.000 0.352
742.000 0.357
743.000 0.361
744.000 0.365
745.000 0.369
746.000 0.373
747.000 0.376
748.000 0.379
749.000 0.382
750.000 0.384
751.000 0.387
752.000 0.389
753.000 0.392
754.000 0.393
755.000 0.395
756.000 0.396
757.000 0.398
758.000 0.400
759.000 0.401
760.000 0.402
761.000 0.405
762.000 0.406
763.000 0.407
764.000 0.407
765.000 0.407
766.000 0.408
767.000 0.408
768.000 0.409
769.000 0.409
770.000 0.410
771.000 0.411
772.000 0.411
773.000 0.412
774.000 0.412
775.000 0.412
776.000 0.413
777.000 0.414
778.000 0.414
779.000 0.414
780.000 0.415
781.000 0.415
782.000 0.415
783.000 0.416
784.000 0.416
785.000 0.416
786.000 0.417
787.000 0.417
788.000 0.418
789.000 0.418
790.000 0.419
791.000 0.419
792.000 0.419
793.000 0.420
794.000 0.420
795.000 0.420
796.000 0.421
797.000 0.421
798.000 0.421
799.000 0.422
800.000 0.422
801.000 0.422
802.000 0.423
803.000 0.423
804.000 0.424
805.000 0.424
806.000 0.424
807.000 0.424
808.000 0.425
809.000 0.425
810.000 0.425
811.000 0.426
812.000 0.427
813.000 0.428
814.000 0.428
815.000 0.429
816.000 0.430
817.000 0.429
818.000 0.430
819.000 0.430
820.000 0.430
821.000 0.430
822.000 0.430
823.000 0.431
824.000 0.432
825.000 0.431
826.000 0.432
827.000 0.432
828.000 0.432
829.000 0.432
830.000 0.432
831.000 0.432
832.000 0.433
833.000 0.433
834.000 0.433
835.000 0.433
836.000 0.433
837.000 0.433
838.000 0.433
839.000 0.434
840.000 0.434
841.000 0.434
842.000 0.434
843.000 0.435
844.000 0.435
845.000 0.435
846.000 0.435
847.000 0.435
848.000 0.436
849.000 0.436
850.000 0.436
851.000 0.437
852.000 0.437
853.000 0.437
854.000 0.437
855.000 0.438
856.000 0.438
857.000 0.439
858.000 0.438
859.000 0.439
860.000 0.439
861.000 0.439
862.000 0.439
863.000 0.439
864.000 0.440
865.000 0.440
866.000 0.441
867.000 0.441
868.000 0.440
869.000 0.440
870.000 0.441
871.000 0.442
872.000 0.442
873.000 0.442
874.000 0.442
875.000 0.442
876.000 0.442
877.000 0.443
878.000 0.443
879.000 0.443
880.000 0.443
881.000 0.443
882.000 0.444
883.000 0.444
884.000 0.444
885.000 0.445
886.000 0.445
887.000 0.445
888.000 0.445
889.000 0.446
890.000 0.446
891.000 0.446
892.000 0.447
893.000 0.447
894.000 0.447
895.000 0.448
896.000 0.449
897.000 0.449
898.000 0.450
899.000 0.450
900.000 0.450
901.000 0.451
902.000 0.451
903.000 0.451
904.000 0.451
905.000 0.451
906.000 0.451
907.000 0.451
908.000 0.452
909.000 0.452
910.000 0.453
911.000 0.453
912.000 0.455
913.000 0.454
914.000 0.453
915.000 0.454
916.000 0.455
917.000 0.454
918.000 0.455
919.000 0.455
920.000 0.454
921.000 0.454
922.000 0.454
923.000 0.454
924.000 0.454
925.000 0.455
926.000 0.456
927.000 0.456
928.000 0.456
929.000 0.457
930.000 0.459
931.000 0.460
932.000 0.459
933.000 0.462
934.000 0.466
935.000 0.467
936.000 0.469
937.000 0.466
938.000 0.462
939.000 0.463
940.000 0.464
941.000 0.462
942.000 0.462
943.000 0.464
944.000 0.467
945.000 0.463
946.000 0.460
947.000 0.462
948.000 0.462
949.000 0.458
950.000 0.456
951.000 0.460
952.000 0.461
953.000 0.455
954.000 0.451
955.000 0.451
956.000 0.456
957.000 0.456
958.000 0.454
959.000 0.451
960.000 0.449
961.000 0.451
962.000 0.451
963.000 0.450
964.000 0.449
965.000 0.448
966.000 0.447
967.000 0.448
968.000 0.447
969.000 0.447
970.000 0.447
971.000 0.447
972.000 0.446
973.000 0.447
974.000 0.446
975.000 0.446
976.000 0.446
977.000 0.447
978.000 0.447
979.000 0.447
980.000 0.444
981.000 0.445
982.000 0.446
983.000 0.445
984.000 0.448
985.000 0.447
986.000 0.447
987.000 0.447
988.000 0.449
989.000 0.449
990.000 0.448
991.000 0.448
992.000 0.448
993.000 0.449
994.000 0.450
995.000 0.451
996.000 0.450
997.000 0.452
998.000 0.451
999.000 0.452
1000.000 0.454
1001.000 0.457
1002.000 0.457
1003.000 0.457
1004.000 0.458
1005.000 0.458
1006.000 0.458
1007.000 0.459
1008.000 0.459
1009.000 0.460
1010.000 0.461
1011.000 0.461
1012.000 0.463
1013.000 0.463
1014.000 0.463
1015.000 0.463
1016.000 0.463
1017.000 0.464
1018.000 0.464
1019.000 0.465
1020.000 0.464
1021.000 0.464
1022.000 0.464
1023.000 0.465
1024.000 0.465
1025.000 0.465
1026.000 0.466
1027.000 0.467
1028.000 0.468
1029.000 0.471
1030.000 0.471
1031.000 0.472
1032.000 0.472
1033.000 0.472
1034.000 0.472
1035.000 0.472
1036.000 0.472
1037.000 0.471
1038.000 0.472
1039.000 0.472
1040.000 0.472
1041.000 0.474
1042.000 0.474
1043.000 0.474
1044.000 0.475
1045.000 0.475
1046.000 0.476
1047.000 0.476
1048.000 0.476
1049.000 0.476
1050.000 0.476
1051.000 0.475
1052.000 0.475
1053.000 0.476
1054.000 0.477
1055.000 0.478
1056.000 0.479
1057.000 0.478
1058.000 0.478
1059.000 0.478
1060.000 0.477
1061.000 0.478
1062.000 0.477
1063.000 0.479
1064.000 0.480
1065.000 0.481
1066.000 0.481
1067.000 0.481
1068.000 0.481
1069.000 0.481
1070.000 0.481
1071.000 0.482
1072.000 0.482
1073.000 0.480
1074.000 0.481
1075.000 0.481
1076.000 0.481
1077.000 0.482
1078.000 0.483
1079.000 0.483
1080.000 0.483
1081.000 0.484
1082.000 0.484
1083.000 0.483
1084.000 0.483
1085.000 0.483
1086.000 0.484
1087.000 0.485
1088.000 0.486
1089.000 0.487
1090.000 0.487
1091.000 0.487
1092.000 0.488
1093.000 0.488
1094.000 0.488
1095.000 0.488
1096.000 0.488
1097.000 0.486
1098.000 0.486
1099.000 0.487
1100.000 0.486
1101.000 0.487
1102.000 0.488
1103.000 0.488
1104.000 0.489
1105.000 0.489
1106.000 0.490
1107.000 0.490
1108.000 0.491
1109.000 0.494
1110.000 0.495
1111.000 0.496
1112.000 0.498
1113.000 0.499
1114.000 0.499
1115.000 0.500
1116.000 0.501
1117.000 0.502
1118.000 0.502
1119.000 0.505
1120.000 0.510
1121.000 0.514
1122.000 0.516
1123.000 0.519
1124.000 0.521
1125.000 0.523
1126.000 0.526
1127.000 0.526
1128.000 0.525
1129.000 0.521
1130.000 0.522
1131.000 0.522
1132.000 0.521
1133.000 0.525
1134.000 0.521
1135.000 0.512
1136.000 0.507
1137.000 0.499
1138.000 0.494
1139.000 0.492
1140.000 0.491
1141.000 0.494
1142.000 0.494
1143.000 0.496
1144.000 0.496
1145.000 0.492
1146.000 0.489
1147.000 0.484
1148.000 0.482
1149.000 0.478
1150.000 0.475
1151.000 0.473
1152.000 0.472
1153.000 0.471
1154.000 0.470
1155.000 0.469
1156.000 0.467
1157.000 0.465
1158.000 0.464
1159.000 0.462
1160.000 0.460
1161.000 0.458
1162.000 0.457
1163.000 0.456
1164.000 0.455
1165.000 0.454
1166.000 0.453
1167.000 0.452
1168.000 0.451
1169.000 0.450
1170.000 0.450
1171.000 0.449
1172.000 0.448
1173.000 0.449
1174.000 0.449
1175.000 0.448
1176.000 0.448
1177.000 0.448
1178.000 0.448
1179.000 0.448
1180.000 0.448
1181.000 0.447
1182.000 0.447
1183.000 0.447
1184.000 0.447
1185.000 0.449
1186.000 0.449
1187.000 0.448
1188.000 0.448
1189.000 0.447
1190.000 0.447
1191.000 0.447
1192.000 0.447
1193.000 0.446
1194.000 0.446
1195.000 0.445
1196.000 0.445
1197.000 0.445
1198.000 0.445
1199.000 0.446
1200.000 0.447
1201.000 0.447
1202.000 0.447
1203.000 0.447
1204.000 0.448
1205.000 0.448
1206.000 0.448
1207.000 0.449
1208.000 0.449
1209.000 0.449
1210.000 0.450
1211.000 0.450
1212.000 0.450
1213.000 0.450
1214.000 0.450
1215.000 0.450
1216.000 0.450
1217.000 0.451
1218.000 0.452
1219.000 0.452
1220.000 0.452
1221.000 0.453
1222.000 0.453
1223.000 0.454
1224.000 0.454
1225.000 0.454
1226.000 0.454
1227.000 0.454
1228.000 0.454
1229.000 0.455
1230.000 0.456
1231.000 0.456
1232.000 0.456
1233.000 0.456
1234.000 0.456
1235.000 0.457
1236.000 0.458
1237.000 0.458
1238.000 0.458
1239.000 0.459
1240.000 0.459
1241.000 0.459
1242.000 0.459
1243.000 0.459
1244.000 0.460
1245.000 0.460
1246.000 0.461
1247.000 0.461
1248.000 0.462
1249.000 0.462
1250.000 0.462
1251.000 0.462
1252.000 0.462
1253.000 0.463
1254.000 0.464
1255.000 0.464
1256.000 0.464
1257.000 0.464
1258.000 0.464
1259.000 0.464
1260.000 0.464
1261.000 0.465
1262.000 0.465
1263.000 0.465
1264.000 0.466
1265.000 0.465
1266.000 0.465
1267.000 0.465
1268.000 0.466
1269.000 0.466
1270.000 0.466
1271.000 0.467
1272.000 0.467
1273.000 0.467
1274.000 0.467
1275.000 0.467
1276.000 0.467
1277.000 0.467
1278.000 0.467
1279.000 0.467
1280.000 0.468
1281.000 0.469
1282.000 0.469
1283.000 0.469
1284.000 0.469
1285.000 0.469
1286.000 0.469
1287.000 0.469
1288.000 0.469
1289.000 0.469
1290.000 0.469
1291.000 0.469
1292.000 0.469
1293.000 0.469
1294.000 0.468
1295.000 0.469
1296.000 0.468
1297.000 0.467
1298.000 0.467
1299.000 0.467
1300.000 0.467
1301.000 0.467
1302.000 0.466
1303.000 0.466
1304.000 0.465
1305.000 0.465
1306.000 0.465
1307.000 0.464
1308.000 0.463
1309.000 0.464
1310.000 0.463
1311.000 0.463
1312.000 0.461
1313.000 0.459
1314.000 0.457
1315.000 0.458
1316.000 0.457
1317.000 0.458
1318.000 0.458
1319.000 0.455
1320.000 0.453
1321.000 0.452
1322.000 0.451
1323.000 0.449
1324.000 0.448
1325.000 0.448
1326.000 0.447
1327.000 0.447
1328.000 0.449
1329.000 0.448
1330.000 0.446
1331.000 0.444
1332.000 0.440
1333.000 0.437
1334.000 0.434
1335.000 0.433
1336.000 0.432
1337.000 0.433
1338.000 0.437
1339.000 0.440
1340.000 0.445
1341.000 0.448
1342.000 0.447
1343.000 0.447
1344.000 0.444
1345.000 0.444
1346.000 0.447
1347.000 0.449
1348.000 0.452
1349.000 0.460
1350.000 0.470
1351.000 0.477
1352.000 0.513
1353.000 0.619
1354.000 0.576
1355.000 0.716
1356.000 0.473
1357.000 0.365
1358.000 0.587
1359.000 0.538
1360.000 0.428
1361.000 0.502
1362.000 0.457
1363.000 0.404
1364.000 0.596
1365.000 0.320
1366.000 0.306
1367.000 0.307
1368.000 0.298
1369.000 0.602
1370.000 0.486
1371.000 0.465
1372.000 0.624
1373.000 0.502
1374.000 0.534
1375.000 0.557
1376.000 0.555
1377.000 0.461
1378.000 0.475
1379.000 0.544
1380.000 0.540
1381.000 0.564
1382.000 0.485
1383.000 0.445
1384.000 0.378
1385.000 0.226
1386.000 0.261
1387.000 0.337
1388.000 0.384
1389.000 0.486
1390.000 0.467
1391.000 0.495
1392.000 0.466
1393.000 0.496
1394.000 0.520
1395.000 0.363
1396.000 0.480
1397.000 0.632
1398.000 0.425
1399.000 0.436
1400.000 0.590
1401.000 0.581
1402.000 0.547
1403.000 0.526
1404.000 0.368
1405.000 0.238
1406.000 0.261
1407.000 0.230
1408.000 0.282
1409.000 0.271
1410.000 0.317
1411.000 0.596
1412.000 0.856
1413.000 0.847
1414.000 0.751
1415.000 0.570
1416.000 0.546
1417.000 0.382
1418.000 0.413
1419.000 0.510
1420.000 0.529
1421.000 0.578
1422.000 0.412
1423.000 0.358
1424.000 0.334
1425.000 0.329
1426.000 0.353
1427.000 0.431
1428.000 0.384
1429.000 0.384
1430.000 0.346
1431.000 0.344
1432.000 0.346
1433.000 0.552
1434.000 0.690
1435.000 0.738
1436.000 0.671
1437.000 0.424
1438.000 0.382
1439.000 0.436
1440.000 0.537
1441.000 0.417
1442.000 0.425
1443.000 0.424
1444.000 0.410
1445.000 0.359
1446.000 0.341
1447.000 0.377
1448.000 0.255
1449.000 0.243
1450.000 0.245
1451.000 0.252
1452.000 0.256
1453.000 0.244
1454.000 0.265
1455.000 0.274
1456.000 0.289
1457.000 0.261
1458.000 0.196
1459.000 0.176
1460.000 0.167
1461.000 0.167
1462.000 0.178
1463.000 0.183
1464.000 0.199
1465.000 0.213
1466.000 0.229
1467.000 0.223
1468.000 0.214
1469.000 0.207
1470.000 0.219
1471.000 0.210
1472.000 0.197
1473.000 0.184
1474.000 0.241
1475.000 0.256
1476.000 0.301
1477.000 0.293
1478.000 0.225
1479.000 0.217
1480.000 0.198
1481.000 0.194
1482.000 0.202
1483.000 0.202
1484.000 0.196
1485.000 0.193
1486.000 0.180
1487.000 0.179
1488.000 0.190
1489.000 0.192
1490.000 0.193
1491.000 0.195
1492.000 0.196
1493.000 0.195
1494.000 0.196
1495.000 0.196
1496.000 0.194
1497.000 0.194
1498.000 0.197
1499.000 0.199
1500.000 0.200
1501.000 0.202
1502.000 0.202
1503.000 0.202
1504.000 0.202
1505.000 0.201
1506.000 0.202
1507.000 0.203
1508.000 0.206
1509.000 0.213
1510.000 0.214
1511.000 0.214
1512.000 0.214
1513.000 0.213
1514.000 0.214
1515.000 0.217
1516.000 0.218
1517.000 0.220
1518.000 0.221
1519.000 0.223
1520.000 0.224
1521.000 0.222
1522.000 0.222
1523.000 0.224
1524.000 0.224
1525.000 0.224
1526.000 0.224
1527.000 0.222
1528.000 0.222
1529.000 0.223
1530.000 0.224
1531.000 0.226
1532.000 0.228
1533.000 0.231
1534.000 0.232
1535.000 0.233
1536.000 0.234
1537.000 0.236
1538.000 0.238
1539.000 0.240
1540.000 0.241
1541.000 0.241
1542.000 0.242
1543.000 0.245
1544.000 0.246
1545.000 0.247
1546.000 0.248
1547.000 0.249
1548.000 0.250
1549.000 0.253
1550.000 0.254
1551.000 0.253
1552.000 0.252
1553.000 0.252
1554.000 0.253
1555.000 0.256
1556.000 0.258
1557.000 0.262
1558.000 0.264
1559.000 0.263
1560.000 0.263
1561.000 0.262
1562.000 0.263
1563.000 0.265
1564.000 0.266
1565.000 0.266
1566.000 0.267
1567.000 0.267
1568.000 0.267
1569.000 0.268
1570.000 0.269
1571.000 0.271
1572.000 0.272
1573.000 0.274
1574.000 0.275
1575.000 0.273
1576.000 0.273
1577.000 0.275
1578.000 0.278
1579.000 0.283
1580.000 0.286
1581.000 0.288
1582.000 0.290
1583.000 0.289
1584.000 0.289
1585.000 0.290
1586.000 0.290
1587.000 0.290
1588.000 0.291
1589.000 0.292
1590.000 0.293
1591.000 0.295
1592.000 0.296
1593.000 0.296
1594.000 0.296
1595.000 0.297
1596.000 0.297
1597.000 0.298
1598.000 0.298
1599.000 0.297
1600.000 0.297
1601.000 0.297
1602.000 0.298
1603.000 0.298
1604.000 0.300
1605.000 0.301
1606.000 0.302
1607.000 0.303
1608.000 0.304
1609.000 0.303
1610.000 0.303
1611.000 0.303
1612.000 0.303
1613.000 0.302
1614.000 0.302
1615.000 0.302
1616.000 0.304
1617.000 0.306
1618.000 0.307
1619.000 0.308
1620.000 0.308
1621.000 0.307
1622.000 0.307
1623.000 0.306
1624.000 0.306
1625.000 0.306
1626.000 0.308
1627.000 0.312
1628.000 0.313
1629.000 0.313
1630.000 0.315
1631.000 0.314
1632.000 0.315
1633.000 0.320
1634.000 0.322
1635.000 0.320
1636.000 0.320
1637.000 0.320
1638.000 0.320
1639.000 0.319
1640.000 0.320
1641.000 0.321
1642.000 0.321
1643.000 0.322
1644.000 0.323
1645.000 0.324
1646.000 0.326
1647.000 0.329
1648.000 0.330
1649.000 0.330
1650.000 0.330
1651.000 0.329
1652.000 0.328
1653.000 0.325
1654.000 0.324
1655.000 0.324
1656.000 0.324
1657.000 0.327
1658.000 0.328
1659.000 0.326
1660.000 0.327
1661.000 0.328
1662.000 0.327
1663.000 0.328
1664.000 0.329
1665.000 0.326
1666.000 0.325
1667.000 0.326
1668.000 0.326
1669.000 0.325
1670.000 0.325
1671.000 0.324
1672.000 0.324
1673.000 0.325
1674.000 0.325
1675.000 0.325
1676.000 0.324
1677.000 0.322
1678.000 0.321
1679.000 0.321
1680.000 0.320
1681.000 0.318
1682.000 0.318
1683.000 0.320
1684.000 0.320
1685.000 0.321
1686.000 0.323
1687.000 0.325
1688.000 0.326
1689.000 0.328
1690.000 0.328
1691.000 0.324
1692.000 0.323
1693.000 0.323
1694.000 0.324
1695.000 0.327
1696.000 0.327
1697.000 0.324
1698.000 0.323
1699.000 0.321
1700.000 0.321
1701.000 0.324
1702.000 0.324
1703.000 0.321
1704.000 0.320
1705.000 0.317
1706.000 0.317
1707.000 0.321
1708.000 0.321
1709.000 0.322
1710.000 0.320
1711.000 0.313
1712.000 0.310
1713.000 0.309
1714.000 0.307
1715.000 0.309
1716.000 0.310
1717.000 0.308
1718.000 0.307
1719.000 0.309
1720.000 0.309
1721.000 0.312
1722.000 0.311
1723.000 0.308
1724.000 0.308
1725.000 0.309
1726.000 0.310
1727.000 0.312
1728.000 0.312
1729.000 0.311
1730.000 0.309
1731.000 0.307
1732.000 0.304
1733.000 0.303
1734.000 0.301
1735.000 0.304
1736.000 0.305
1737.000 0.306
1738.000 0.309
1739.000 0.309
1740.000 0.310
1741.000 0.310
1742.000 0.306
1743.000 0.305
1744.000 0.307
1745.000 0.307
1746.000 0.311
1747.000 0.311
1748.000 0.310
1749.000 0.307
1750.000 0.302
1751.000 0.298
1752.000 0.292
1753.000 0.288
1754.000 0.284
1755.000 0.282
1756.000 0.280
1757.000 0.280
1758.000 0.285
1759.000 0.283
1760.000 0.282
1761.000 0.285
1762.000 0.283
1763.000 0.287
1764.000 0.292
1765.000 0.288
1766.000 0.287
1767.000 0.282
1768.000 0.281
1769.000 0.286
1770.000 0.290
1771.000 0.296
1772.000 0.292
1773.000 0.282
1774.000 0.277
1775.000 0.278
1776.000 0.279
1777.000 0.283
1778.000 0.293
1779.000 0.299
1780.000 0.314
1781.000 0.335
1782.000 0.335
1783.000 0.318
1784.000 0.309
1785.000 0.292
1786.000 0.287
1787.000 0.299
1788.000 0.293
1789.000 0.275
1790.000 0.266
1791.000 0.253
1792.000 0.259
1793.000 0.281
1794.000 0.322
1795.000 0.349
1796.000 0.430
1797.000 0.479
1798.000 0.574
1799.000 0.590
1800.000 0.464
1801.000 0.585
1802.000 0.605
1803.000 0.763
1804.000 0.400
1805.000 0.486
1806.000 0.544
1807.000 0.591
1808.000 0.572
1809.000 0.598
1810.000 0.573
1811.000 0.564
1812.000 0.567
1813.000 0.457
1814.000 0.427
1815.000 0.524
1816.000 0.539
1817.000 0.599
1818.000 0.567
1819.000 0.304
1820.000 0.293
1821.000 0.329
1822.000 0.378
1823.000 0.446
1824.000 0.482
1825.000 0.443
1826.000 0.492
1827.000 0.539
1828.000 0.599
1829.000 0.516
1830.000 0.448
1831.000 0.312
1832.000 0.235
1833.000 0.268
1834.000 0.294
1835.000 0.276
1836.000 0.289
1837.000 0.383
1838.000 0.447
1839.000 0.535
1840.000 0.382
1841.000 0.393
1842.000 0.592
1843.000 0.644
1844.000 0.461
1845.000 0.331
1846.000 0.431
1847.000 0.299
1848.000 0.540
1849.000 0.397
1850.000 0.530
1851.000 0.430
1852.000 0.392
1853.000 0.562
1854.000 0.495
1855.000 0.331
1856.000 0.150
1857.000 0.286
1858.000 0.445
1859.000 0.558
1860.000 0.382
1861.000 0.212
1862.000 0.372
1863.000 0.394
1864.000 0.404
1865.000 0.529
1866.000 0.778
1867.000 0.583
1868.000 0.580
1869.000 0.666
1870.000 0.535
1871.000 0.542
1872.000 0.548
1873.000 0.493
1874.000 0.431
1875.000 0.410
1876.000 0.443
1877.000 0.464
1878.000 0.544
1879.000 0.655
1880.000 0.665
1881.000 0.454
1882.000 0.416
1883.000 0.540
1884.000 0.659
1885.000 0.388
1886.000 0.421
1887.000 0.494
1888.000 0.393
1889.000 0.354
1890.000 0.299
1891.000 0.363
1892.000 0.302
1893.000 0.254
1894.000 0.263
1895.000 0.247
1896.000 0.176
1897.000 0.458
1898.000 0.283
1899.000 0.171
1900.000 0.256
1901.000 0.340
1902.000 0.422
1903.000 0.506
1904.000 0.591
1905.000 0.586
1906.000 0.498
1907.000 0.453
1908.000 0.395
1909.000 0.429
1910.000 0.532
1911.000 0.422
1912.000 0.502
1913.000 0.534
1914.000 0.472
1915.000 0.599
1916.000 0.530
1917.000 0.327
1918.000 0.382
1919.000 0.460
1920.000 0.545
1921.000 0.626
1922.000 0.595
1923.000 0.566
1924.000 0.422
1925.000 0.526
1926.000 0.502
1927.000 0.511
1928.000 0.506
1929.000 0.427
1930.000 0.308
1931.000 0.602
1932.000 0.591
1933.000 0.428
1934.000 0.392
1935.000 0.322
1936.000 0.469
1937.000 0.492
1938.000 0.617
1939.000 0.650
1940.000 0.634
1941.000 0.357
1942.000 0.385
1943.000 0.475
1944.000 0.476
1945.000 0.378
1946.000 0.321
1947.000 0.369
1948.000 0.365
1949.000 0.322
1950.000 0.409
1951.000 0.556
1952.000 0.440
1953.000 0.360
1954.000 0.389
1955.000 0.361
1956.000 0.436
1957.000 0.580
1958.000 0.632
1959.000 0.663
1960.000 0.624
1961.000 0.488
1962.000 0.311
1963.000 0.268
1964.000 0.272
1965.000 0.182
1966.000 0.531
1967.000 0.532
1968.000 0.554
1969.000 0.588
1970.000 0.703
1971.000 0.779
1972.000 0.488
1973.000 0.599
1974.000 0.512
1975.000 0.482
1976.000 0.558
1977.000 0.507
1978.000 0.529
1979.000 0.670
1980.000 0.672
1981.000 0.625
1982.000 0.476
1983.000 0.427
1984.000 0.592
1985.000 0.454
1986.000 0.398
1987.000 0.388
1988.000 0.380
1989.000 0.375
1990.000 0.428
1991.000 0.443
1992.000 0.472
1993.000 0.413
1994.000 0.502
1995.000 0.426
1996.000 0.371
1997.000 0.256
1998.000 0.309
1999.000 0.361
2000.000 0.481
2001.000 0.577
2002.000 0.557
2003.000 0.585
2004.000 0.501
2005.000 0.427
2006.000 0.344
2007.000 0.263
2008.000 0.308
2009.000 0.595
2010.000 0.729
2011.000 0.605
2012.000 0.395
2013.000 0.548
2014.000 0.439
2015.000 0.465
2016.000 0.357
2017.000 0.562
2018.000 0.557
2019.000 0.438
2020.000 0.466
2021.000 0.367
2022.000 0.341
2023.000 0.439
2024.000 0.366
2025.000 0.497
2026.000 0.611
2027.000 0.437
2028.000 0.334
2029.000 0.298
2030.000 0.324
2031.000 0.300
2032.000 0.338
2033.000 0.329
2034.000 0.298
2035.000 0.270
2036.000 0.348
2037.000 0.234
2038.000 0.247
2039.000 0.235
2040.000 0.225
2041.000 0.314
2042.000 0.358
2043.000 0.419
2044.000 0.414
2045.000 0.330
2046.000 0.323
2047.000 0.306
2048.000 0.300
2049.000 0.371
2050.000 0.402
2051.000 0.366
2052.000 0.401
2053.000 0.379
2054.000 0.309
2055.000 0.321
2056.000 0.328
2057.000 0.329
2058.000 0.302
2059.000 0.328
2060.000 0.335
2061.000 0.322
2062.000 0.305
2063.000 0.309
2064.000 0.299
2065.000 0.287
2066.000 0.271
2067.000 0.316
2068.000 0.338
2069.000 0.392
2070.000 0.417
2071.000 0.387
2072.000 0.362
2073.000 0.303
2074.000 0.266
2075.000 0.231
2076.000 0.218
2077.000 0.231
2078.000 0.207
2079.000 0.221
2080.000 0.229
2081.000 0.241
2082.000 0.237
2083.000 0.243
2084.000 0.250
2085.000 0.233
2086.000 0.228
2087.000 0.225
2088.000 0.221
2089.000 0.222
2090.000 0.247
2091.000 0.253
2092.000 0.246
2093.000 0.246
2094.000 0.236
2095.000 0.243
2096.000 0.274
2097.000 0.279
2098.000 0.280
2099.000 0.264
2100.000 0.229
2101.000 0.202
2102.000 0.192
2103.000 0.192
2104.000 0.189
2105.000 0.192
2106.000 0.199
2107.000 0.220
2108.000 0.213
2109.000 0.231
2110.000 0.241
2111.000 0.241
2112.000 0.246
2113.000 0.258
2114.000 0.258
2115.000 0.252
2116.000 0.250
2117.000 0.241
2118.000 0.233
2119.000 0.221
2120.000 0.238
2121.000 0.250
2122.000 0.247
2123.000 0.242
2124.000 0.228
2125.000 0.227
2126.000 0.218
2127.000 0.223
2128.000 0.256
2129.000 0.256
2130.000 0.240
2131.000 0.237
2132.000 0.225
2133.000 0.220
2134.000 0.225
2135.000 0.226
2136.000 0.216
2137.000 0.223
2138.000 0.231
2139.000 0.237
2140.000 0.242
2141.000 0.236
2142.000 0.234
2143.000 0.227
2144.000 0.224
2145.000 0.224
2146.000 0.218
2147.000 0.208
2148.000 0.203
2149.000 0.195
2150.000 0.199
2151.000 0.221
2152.000 0.229
2153.000 0.244
2154.000 0.251
2155.000 0.245
2156.000 0.247
2157.000 0.255
2158.000 0.251
2159.000 0.261
2160.000 0.253
2161.000 0.246
2162.000 0.233
2163.000 0.226
2164.000 0.219
2165.000 0.212
2166.000 0.205
2167.000 0.203
2168.000 0.202
2169.000 0.203
2170.000 0.214
2171.000 0.215
2172.000 0.210
2173.000 0.213
2174.000 0.212
2175.000 0.216
2176.000 0.230
2177.000 0.234
2178.000 0.242
2179.000 0.253
2180.000 0.240
2181.000 0.245
2182.000 0.257
2183.000 0.253
2184.000 0.259
2185.000 0.284
2186.000 0.277
2187.000 0.250
2188.000 0.241
2189.000 0.220
2190.000 0.214
2191.000 0.221
2192.000 0.218
2193.000 0.208
2194.000 0.209
2195.000 0.220
2196.000 0.227
2197.000 0.241
2198.000 0.246
2199.000 0.246
2200.000 0.246
2201.000 0.240
2202.000 0.236
2203.000 0.228
2204.000 0.224
2205.000 0.206
2206.000 0.197
2207.000 0.189
2208.000 0.179
2209.000 0.181
2210.000 0.195
2211.000 0.199
2212.000 0.203
2213.000 0.205
2214.000 0.201
2215.000 0.206
2216.000 0.222
2217.000 0.230
2218.000 0.244
2219.000 0.247
2220.000 0.234
2221.000 0.234
2222.000 0.242
2223.000 0.242
2224.000 0.253
2225.000 0.250
2226.000 0.236
2227.000 0.211
2228.000 0.196
2229.000 0.189
2230.000 0.193
2231.000 0.198
2232.000 0.214
2233.000 0.219
2234.000 0.223
2235.000 0.236
2236.000 0.235
2237.000 0.239
2238.000 0.243
2239.000 0.241
2240.000 0.240
2241.000 0.245
2242.000 0.238
2243.000 0.222
2244.000 0.213
2245.000 0.196
2246.000 0.211
2247.000 0.220
2248.000 0.235
2249.000 0.239
2250.000 0.269
2251.000 0.255
2252.000 0.258
2253.000 0.267
2254.000 0.275
2255.000 0.297
2256.000 0.290
2257.000 0.261
2258.000 0.227
2259.000 0.201
2260.000 0.169
2261.000 0.187
2262.000 0.204
2263.000 0.240
2264.000 0.271
2265.000 0.269
2266.000 0.241
2267.000 0.247
2268.000 0.258
2269.000 0.249
2270.000 0.247
2271.000 0.242
2272.000 0.212
2273.000 0.205
2274.000 0.187
2275.000 0.191
2276.000 0.174
2277.000 0.174
2278.000 0.208
2279.000 0.197
2280.000 0.159
2281.000 0.154
2282.000 0.154
2283.000 0.160
2284.000 0.200
2285.000 0.217
2286.000 0.224
2287.000 0.225
2288.000 0.251
2289.000 0.257
2290.000 0.284
2291.000 0.283
2292.000 0.217
2293.000 0.213
2294.000 0.208
2295.000 0.220
2296.000 0.274
2297.000 0.349
2298.000 0.356
2299.000 0.295
2300.000 0.245
2301.000 0.216
2302.000 0.222
2303.000 0.226
2304.000 0.292
2305.000 0.310
2306.000 0.365
2307.000 0.300
2308.000 0.261
2309.000 0.227
2310.000 0.209
2311.000 0.153
2312.000 0.152
2313.000 0.165
2314.000 0.198
2315.000 0.248
2316.000 0.286
2317.000 0.266
2318.000 0.244
2319.000 0.280
2320.000 0.344
2321.000 0.339
2322.000 0.297
2323.000 0.377
2324.000 0.383
2325.000 0.255
2326.000 0.306
2327.000 0.423
2328.000 0.466
2329.000 0.612
2330.000 0.531
2331.000 0.326
2332.000 0.355
2333.000 0.267
2334.000 0.369
2335.000 0.393
2336.000 0.387
2337.000 0.491
2338.000 0.540
2339.000 0.423
2340.000 0.368
2341.000 0.310
2342.000 0.298
2343.000 0.302
2344.000 0.427
2345.000 0.316
2346.000 0.321
2347.000 0.260
2348.000 0.243
2349.000 0.162
2350.000 0.156
2351.000 0.364
2352.000 0.434
2353.000 0.463
2354.000 0.650
2355.000 0.363
2356.000 0.336
2357.000 0.277
2358.000 0.471
2359.000 0.472
2360.000 0.445
2361.000 0.403
2362.000 0.321
2363.000 0.280
2364.000 0.355
2365.000 0.443
2366.000 0.423
2367.000 0.448
2368.000 0.377
2369.000 0.436
2370.000 0.241
2371.000 0.215
2372.000 0.339
2373.000 0.397
2374.000 0.440
2375.000 0.490
2376.000 0.470
2377.000 0.437
2378.000 0.452
2379.000 0.427
2380.000 0.394
2381.000 0.437
2382.000 0.430
2383.000 0.455
2384.000 0.553
2385.000 0.466
2386.000 0.514
2387.000 0.439
2388.000 0.362
2389.000 0.584
2390.000 0.599
2391.000 0.545
2392.000 0.330
2393.000 0.190
2394.000 0.344
2395.000 0.382
2396.000 0.249
2397.000 0.329
2398.000 0.433
2399.000 0.278
2400.000 0.471
2401.000 0.352
2402.000 0.352
2403.000 0.322
2404.000 0.367
2405.000 0.447
2406.000 0.540
2407.000 0.351
2408.000 0.414
2409.000 0.369
2410.000 0.620
2411.000 0.615
2412.000 0.546
2413.000 0.573
2414.000 0.390
2415.000 0.347
2416.000 0.358
2417.000 0.319
2418.000 0.352
2419.000 0.469
2420.000 0.573
2421.000 0.623
2422.000 0.624
2423.000 0.620
2424.000 0.754
2425.000 0.546
2426.000 0.496
2427.000 0.370
2428.000 0.648
2429.000 0.690
2430.000 0.634
2431.000 0.458
2432.000 0.369
2433.000 0.254
2434.000 0.205
2435.000 0.265
2436.000 0.258
2437.000 0.275
2438.000 0.326
2439.000 0.519
2440.000 0.369
2441.000 0.360
2442.000 0.419
2443.000 0.476
2444.000 0.347
2445.000 0.298
2446.000 0.260
2447.000 0.278
2448.000 0.298
2449.000 0.318
2450.000 0.438
2451.000 0.482
2452.000 0.302
2453.000 0.547
2454.000 0.647
2455.000 0.724
2456.000 0.767
2457.000 0.716
2458.000 0.655
2459.000 0.624
2460.000 0.519
2461.000 0.388
2462.000 0.368
2463.000 0.321
2464.000 0.383
2465.000 0.409
2466.000 0.380
2467.000 0.388
2468.000 0.444
2469.000 0.411
2470.000 0.263
2471.000 0.210
2472.000 0.348
2473.000 0.315
2474.000 0.436
2475.000 0.456
2476.000 0.383
2477.000 0.389
2478.000 0.463
2479.000 0.544
2480.000 0.428
2481.000 0.586
2482.000 0.451
2483.000 0.351
2484.000 0.317
2485.000 0.212
2486.000 0.440
2487.000 0.587
2488.000 0.490
2489.000 0.407
2490.000 0.260
2491.000 0.264
2492.000 0.270
2493.000 0.408
2494.000 0.343
2495.000 0.283
2496.000 0.462
2497.000 0.326
2498.000 0.450
2499.000 0.407
2500.000 0.628
