391.000 0.020
392.000 0.024
393.000 0.015
394.000 0.013
395.000 0.017
396.000 0.017
397.000 0.016
398.000 0.022
399.000 0.025
400.000 0.023
401.000 0.020
402.000 0.032
403.000 0.028
404.000 0.019
405.000 0.027
406.000 0.018
407.000 0.013
408.000 0.019
409.000 0.023
410.000 0.025
411.000 0.023
412.000 0.019
413.000 0.022
414.000 0.021
415.000 0.020
416.000 0.024
417.000 0.025
418.000 0.028
419.000 0.030
420.000 0.026
421.000 0.021
422.000 0.023
423.000 0.027
424.000 0.022
425.000 0.024
426.000 0.028
427.000 0.024
428.000 0.023
429.000 0.023
430.000 0.025
431.000 0.027
432.000 0.030
433.000 0.028
434.000 0.022
435.000 0.022
436.000 0.021
437.000 0.022
438.000 0.025
439.000 0.024
440.000 0.025
441.000 0.025
442.000 0.017
443.000 0.019
444.000 0.022
445.000 0.024
446.000 0.027
447.000 0.025
448.000 0.024
449.000 0.027
450.000 0.022
451.000 0.022
452.000 0.025
453.000 0.028
454.000 0.025
455.000 0.024
456.000 0.026
457.000 0.026
458.000 0.026
459.000 0.027
460.000 0.026
461.000 0.022
462.000 0.023
463.000 0.026
464.000 0.024
465.000 0.024
466.000 0.024
467.000 0.025
468.000 0.023
469.000 0.024
470.000 0.025
471.000 0.026
472.000 0.024
473.000 0.021
474.000 0.021
475.000 0.028
476.000 0.028
477.000 0.024
478.000 0.021
479.000 0.023
480.000 0.026
481.000 0.029
482.000 0.029
483.000 0.026
484.000 0.023
485.000 0.021
486.000 0.022
487.000 0.029
488.000 0.032
489.000 0.026
490.000 0.025
491.000 0.026
492.000 0.028
493.000 0.028
494.000 0.028
495.000 0.026
496.000 0.023
497.000 0.029
498.000 0.032
499.000 0.032
500.000 0.028
501.000 0.029
502.000 0.031
503.000 0.031
504.000 0.027
505.000 0.028
506.000 0.031
507.000 0.034
508.000 0.033
509.000 0.032
510.000 0.034
511.000 0.035
512.000 0.032
513.000 0.032
514.000 0.035
515.000 0.037
516.000 0.036
517.000 0.035
518.000 0.037
519.000 0.038
520.000 0.039
521.000 0.041
522.000 0.044
523.000 0.044
524.000 0.046
525.000 0.047
526.000 0.048
527.000 0.048
528.000 0.049
529.000 0.050
530.000 0.051
531.000 0.052
532.000 0.053
533.000 0.054
534.000 0.055
535.000 0.057
536.000 0.057
537.000 0.056
538.000 0.057
539.000 0.059
540.000 0.057
541.000 0.058
542.000 0.059
543.000 0.060
544.000 0.059
545.000 0.059
546.000 0.060
547.000 0.059
548.000 0.059
549.000 0.059
550.000 0.059
551.000 0.059
552.000 0.059
553.000 0.059
554.000 0.061
555.000 0.059
556.000 0.059
557.000 0.059
558.000 0.058
559.000 0.056
560.000 0.057
561.000 0.059
562.000 0.056
563.000 0.055
564.000 0.057
565.000 0.057
566.000 0.055
567.000 0.054
568.000 0.052
569.000 0.053
570.000 0.052
571.000 0.051
572.000 0.050
573.000 0.048
574.000 0.047
575.000 0.047
576.000 0.046
577.000 0.046
578.000 0.047
579.000 0.047
580.000 0.045
581.000 0.045
582.000 0.046
583.000 0.045
584.000 0.043
585.000 0.043
586.000 0.043
587.000 0.042
588.000 0.043
589.000 0.044
590.000 0.044
591.000 0.042
592.000 0.044
593.000 0.045
594.000 0.041
595.000 0.041
596.000 0.043
597.000 0.043
598.000 0.043
599.000 0.043
600.000 0.044
601.000 0.045
602.000 0.043
603.000 0.040
604.000 0.039
605.000 0.044
606.000 0.044
607.000 0.041
608.000 0.040
609.000 0.040
610.000 0.038
611.000 0.038
612.000 0.042
613.000 0.041
614.000 0.039
615.000 0.038
616.000 0.042
617.000 0.040
618.000 0.039
619.000 0.041
620.000 0.036
621.000 0.037
622.000 0.041
623.000 0.039
624.000 0.041
625.000 0.043
626.000 0.043
627.000 0.040
628.000 0.039
629.000 0.037
630.000 0.037
631.000 0.043
632.000 0.043
633.000 0.040
634.000 0.039
635.000 0.040
636.000 0.040
637.000 0.040
638.000 0.040
639.000 0.042
640.000 0.042
641.000 0.036
642.000 0.036
643.000 0.037
644.000 0.036
645.000 0.039
646.000 0.038
647.000 0.035
648.000 0.035
649.000 0.036
650.000 0.035
651.000 0.035
652.000 0.040
653.000 0.037
654.000 0.036
655.000 0.040
656.000 0.043
657.000 0.043
658.000 0.041
659.000 0.040
660.000 0.035
661.000 0.034
662.000 0.037
663.000 0.038
664.000 0.039
665.000 0.037
666.000 0.035
667.000 0.038
668.000 0.038
669.000 0.038
670.000 0.042
671.000 0.039
672.000 0.038
673.000 0.041
674.000 0.038
675.000 0.039
676.000 0.039
677.000 0.038
678.000 0.042
679.000 0.042
680.000 0.041
681.000 0.044
682.000 0.044
683.000 0.044
684.000 0.043
685.000 0.040
686.000 0.043
687.000 0.048
688.000 0.051
689.000 0.052
690.000 0.048
691.000 0.045
692.000 0.052
693.000 0.054
694.000 0.057
695.000 0.060
696.000 0.064
697.000 0.067
698.000 0.070
699.000 0.075
700.000 0.080
701.000 0.085
702.000 0.091
703.000 0.093
704.000 0.096
705.000 0.100
706.000 0.107
707.000 0.113
708.000 0.120
709.000 0.125
710.000 0.129
711.000 0.133
712.000 0.139
713.000 0.144
714.000 0.150
715.000 0.157
716.000 0.164
717.000 0.170
718.000 0.177
719.000 0.184
720.000 0.190
721.000 0.197
722.000 0.202
723.000 0.207
724.000 0.214
725.000 0.219
726.000 0.225
727.000 0.232
728.000 0.237
729.000 0.243
730.000 0.248
731.000 0.253
732.000 0.260
733.000 0.264
734.000 0.268
735.000 0.272
736.000 0.277
737.000 0.281
738.000 0.285
739.000 0.289
740.000 0.293
741.000 0.296
742.000 0.299
743.000 0.302
744.000 0.304
745.000 0.307
746.000 0.310
747.000 0.313
748.000 0.315
749.000 0.317
750.000 0.319
751.000 0.321
752.000 0.322
753.000 0.324
754.000 0.325
755.000 0.327
756.000 0.328
757.000 0.329
758.000 0.331
759.000 0.332
760.000 0.333
761.000 0.336
762.000 0.339
763.000 0.339
764.000 0.340
765.000 0.340
766.000 0.340
767.000 0.339
768.000 0.339
769.000 0.340
770.000 0.340
771.000 0.340
772.000 0.341
773.000 0.342
774.000 0.342
775.000 0.343
776.000 0.343
777.000 0.343
778.000 0.344
779.000 0.345
780.000 0.345
781.000 0.345
782.000 0.346
783.000 0.346
784.000 0.347
785.000 0.348
786.000 0.348
787.000 0.349
788.000 0.350
789.000 0.351
790.000 0.352
791.000 0.352
792.000 0.352
793.000 0.352
794.000 0.353
795.000 0.353
796.000 0.354
797.000 0.354
798.000 0.354
799.000 0.355
800.000 0.355
801.000 0.356
802.000 0.357
803.000 0.357
804.000 0.357
805.000 0.358
806.000 0.358
807.000 0.358
808.000 0.359
809.000 0.359
810.000 0.360
811.000 0.361
812.000 0.362
813.000 0.362
814.000 0.363
815.000 0.364
816.000 0.364
817.000 0.365
818.000 0.365
819.000 0.365
820.000 0.366
821.000 0.366
822.000 0.366
823.000 0.367
824.000 0.366
825.000 0.367
826.000 0.368
827.000 0.368
828.000 0.368
829.000 0.370
830.000 0.370
831.000 0.369
832.000 0.370
833.000 0.370
834.000 0.370
835.000 0.370
836.000 0.371
837.000 0.371
838.000 0.372
839.000 0.372
840.000 0.372
841.000 0.372
842.000 0.373
843.000 0.373
844.000 0.374
845.000 0.374
846.000 0.374
847.000 0.374
848.000 0.375
849.000 0.375
850.000 0.375
851.000 0.375
852.000 0.376
853.000 0.376
854.000 0.375
855.000 0.376
856.000 0.377
857.000 0.378
858.000 0.377
859.000 0.377
860.000 0.378
861.000 0.379
862.000 0.378
863.000 0.379
864.000 0.379
865.000 0.379
866.000 0.379
867.000 0.380
868.000 0.380
869.000 0.380
870.000 0.381
871.000 0.382
872.000 0.382
873.000 0.381
874.000 0.381
875.000 0.382
876.000 0.383
877.000 0.383
878.000 0.383
879.000 0.384
880.000 0.385
881.000 0.385
882.000 0.385
883.000 0.385
884.000 0.386
885.000 0.386
886.000 0.387
887.000 0.388
888.000 0.388
889.000 0.388
890.000 0.388
891.000 0.389
892.000 0.389
893.000 0.390
894.000 0.390
895.000 0.392
896.000 0.392
897.000 0.392
898.000 0.391
899.000 0.391
900.000 0.392
901.000 0.395
902.000 0.396
903.000 0.396
904.000 0.394
905.000 0.395
906.000 0.394
907.000 0.395
908.000 0.398
909.000 0.397
910.000 0.395
911.000 0.395
912.000 0.398
913.000 0.398
914.000 0.399
915.000 0.400
916.000 0.399
917.000 0.399
918.000 0.399
919.000 0.401
920.000 0.400
921.000 0.399
922.000 0.399
923.000 0.401
924.000 0.402
925.000 0.402
926.000 0.401
927.000 0.400
928.000 0.399
929.000 0.395
930.000 0.396
931.000 0.401
932.000 0.403
933.000 0.395
934.000 0.392
935.000 0.398
936.000 0.387
937.000 0.377
938.000 0.380
939.000 0.391
940.000 0.398
941.000 0.405
942.000 0.407
943.000 0.400
944.000 0.397
945.000 0.387
946.000 0.388
947.000 0.401
948.000 0.394
949.000 0.384
950.000 0.386
951.000 0.395
952.000 0.380
953.000 0.393
954.000 0.403
955.000 0.394
956.000 0.397
957.000 0.402
958.000 0.397
959.000 0.389
960.000 0.392
961.000 0.388
962.000 0.390
963.000 0.397
964.000 0.392
965.000 0.395
966.000 0.399
967.000 0.399
968.000 0.399
969.000 0.399
970.000 0.398
971.000 0.400
972.000 0.402
973.000 0.396
974.000 0.394
975.000 0.398
976.000 0.389
977.000 0.400
978.000 0.401
979.000 0.392
980.000 0.404
981.000 0.404
982.000 0.400
983.000 0.398
984.000 0.399
985.000 0.400
986.000 0.401
987.000 0.401
988.000 0.403
989.000 0.400
990.000 0.398
991.000 0.399
992.000 0.398
993.000 0.400
994.000 0.404
995.000 0.407
996.000 0.406
997.000 0.409
998.000 0.410
999.000 0.410
1000.000 0.410
1001.000 0.403
1002.000 0.403
1003.000 0.403
1004.000 0.404
1005.000 0.404
1006.000 0.405
1007.000 0.407
1008.000 0.409
1009.000 0.412
1010.000 0.414
1011.000 0.414
1012.000 0.415
1013.000 0.415
1014.000 0.413
1015.000 0.414
1016.000 0.416
1017.000 0.416
1018.000 0.416
1019.000 0.418
1020.000 0.419
1021.000 0.417
1022.000 0.417
1023.000 0.414
1024.000 0.415
1025.000 0.417
1026.000 0.418
1027.000 0.421
1028.000 0.422
1029.000 0.419
1030.000 0.420
1031.000 0.421
1032.000 0.422
1033.000 0.423
1034.000 0.423
1035.000 0.422
1036.000 0.422
1037.000 0.423
1038.000 0.424
1039.000 0.426
1040.000 0.426
1041.000 0.426
1042.000 0.426
1043.000 0.426
1044.000 0.427
1045.000 0.427
1046.000 0.429
1047.000 0.430
1048.000 0.428
1049.000 0.427
1050.000 0.427
1051.000 0.427
1052.000 0.428
1053.000 0.428
1054.000 0.429
1055.000 0.430
1056.000 0.431
1057.000 0.433
1058.000 0.434
1059.000 0.433
1060.000 0.432
1061.000 0.432
1062.000 0.433
1063.000 0.434
1064.000 0.435
1065.000 0.436
1066.000 0.435
1067.000 0.434
1068.000 0.435
1069.000 0.436
1070.000 0.435
1071.000 0.434
1072.000 0.435
1073.000 0.434
1074.000 0.434
1075.000 0.436
1076.000 0.437
1077.000 0.438
1078.000 0.437
1079.000 0.437
1080.000 0.437
1081.000 0.437
1082.000 0.439
1083.000 0.439
1084.000 0.440
1085.000 0.443
1086.000 0.445
1087.000 0.445
1088.000 0.445
1089.000 0.444
1090.000 0.442
1091.000 0.441
1092.000 0.443
1093.000 0.443
1094.000 0.443
1095.000 0.444
1096.000 0.444
1097.000 0.444
1098.000 0.446
1099.000 0.446
1100.000 0.446
1101.000 0.448
1102.000 0.447
1103.000 0.446
1104.000 0.444
1105.000 0.445
1106.000 0.445
1107.000 0.445
1108.000 0.445
1109.000 0.449
1110.000 0.450
1111.000 0.450
1112.000 0.453
1113.000 0.453
1114.000 0.451
1115.000 0.449
1116.000 0.451
1117.000 0.452
1118.000 0.447
1119.000 0.460
1120.000 0.468
1121.000 0.465
1122.000 0.464
1123.000 0.457
1124.000 0.420
1125.000 0.410
1126.000 0.424
1127.000 0.423
1128.000 0.422
1129.000 0.416
1130.000 0.418
1131.000 0.424
1132.000 0.431
1133.000 0.440
1134.000 0.428
1135.000 0.415
1136.000 0.406
1137.000 0.401
1138.000 0.412
1139.000 0.423
1140.000 0.432
1141.000 0.454
1142.000 0.462
1143.000 0.456
1144.000 0.448
1145.000 0.431
1146.000 0.419
1147.000 0.399
1148.000 0.394
1149.000 0.396
1150.000 0.399
1151.000 0.407
1152.000 0.415
1153.000 0.414
1154.000 0.414
1155.000 0.417
1156.000 0.418
1157.000 0.416
1158.000 0.414
1159.000 0.414
1160.000 0.415
1161.000 0.414
1162.000 0.415
1163.000 0.415
1164.000 0.411
1165.000 0.410
1166.000 0.411
1167.000 0.413
1168.000 0.413
1169.000 0.413
1170.000 0.412
1171.000 0.413
1172.000 0.413
1173.000 0.414
1174.000 0.416
1175.000 0.418
1176.000 0.419
1177.000 0.420
1178.000 0.420
1179.000 0.418
1180.000 0.416
1181.000 0.411
1182.000 0.410
1183.000 0.408
1184.000 0.408
1185.000 0.411
1186.000 0.413
1187.000 0.415
1188.000 0.416
1189.000 0.416
1190.000 0.417
1191.000 0.417
1192.000 0.417
1193.000 0.416
1194.000 0.415
1195.000 0.415
1196.000 0.416
1197.000 0.417
1198.000 0.419
1199.000 0.420
1200.000 0.419
1201.000 0.419
1202.000 0.417
1203.000 0.417
1204.000 0.419
1205.000 0.419
1206.000 0.418
1207.000 0.420
1208.000 0.420
1209.000 0.418
1210.000 0.417
1211.000 0.417
1212.000 0.417
1213.000 0.416
1214.000 0.417
1215.000 0.418
1216.000 0.418
1217.000 0.419
1218.000 0.420
1219.000 0.419
1220.000 0.420
1221.000 0.423
1222.000 0.423
1223.000 0.423
1224.000 0.424
1225.000 0.424
1226.000 0.422
1227.000 0.421
1228.000 0.422
1229.000 0.422
1230.000 0.423
1231.000 0.424
1232.000 0.426
1233.000 0.426
1234.000 0.427
1235.000 0.426
1236.000 0.425
1237.000 0.425
1238.000 0.425
1239.000 0.426
1240.000 0.428
1241.000 0.430
1242.000 0.431
1243.000 0.431
1244.000 0.433
1245.000 0.433
1246.000 0.432
1247.000 0.432
1248.000 0.433
1249.000 0.432
1250.000 0.433
1251.000 0.435
1252.000 0.436
1253.000 0.437
1254.000 0.437
1255.000 0.439
1256.000 0.440
1257.000 0.440
1258.000 0.440
1259.000 0.440
1260.000 0.440
1261.000 0.441
1262.000 0.441
1263.000 0.440
1264.000 0.441
1265.000 0.443
1266.000 0.443
1267.000 0.444
1268.000 0.444
1269.000 0.441
1270.000 0.440
1271.000 0.441
1272.000 0.440
1273.000 0.440
1274.000 0.442
1275.000 0.443
1276.000 0.444
1277.000 0.444
1278.000 0.444
1279.000 0.445
1280.000 0.445
1281.000 0.445
1282.000 0.445
1283.000 0.445
1284.000 0.444
1285.000 0.443
1286.000 0.443
1287.000 0.442
1288.000 0.442
1289.000 0.442
1290.000 0.443
1291.000 0.444
1292.000 0.445
1293.000 0.445
1294.000 0.446
1295.000 0.445
1296.000 0.445
1297.000 0.443
1298.000 0.443
1299.000 0.442
1300.000 0.441
1301.000 0.443
1302.000 0.443
1303.000 0.444
1304.000 0.444
1305.000 0.444
1306.000 0.444
1307.000 0.444
1308.000 0.444
1309.000 0.444
1310.000 0.443
1311.000 0.441
1312.000 0.438
1313.000 0.434
1314.000 0.432
1315.000 0.430
1316.000 0.428
1317.000 0.428
1318.000 0.427
1319.000 0.425
1320.000 0.424
1321.000 0.422
1322.000 0.420
1323.000 0.420
1324.000 0.423
1325.000 0.424
1326.000 0.425
1327.000 0.424
1328.000 0.420
1329.000 0.416
1330.000 0.409
1331.000 0.406
1332.000 0.408
1333.000 0.407
1334.000 0.408
1335.000 0.410
1336.000 0.411
1337.000 0.410
1338.000 0.410
1339.000 0.412
1340.000 0.412
1341.000 0.413
1342.000 0.422
1343.000 0.430
1344.000 0.443
1345.000 0.446
1346.000 0.429
1347.000 0.427
1348.000 0.428
1349.000 0.416
1350.000 0.423
1351.000 0.519
1352.000 0.481
1353.000 0.488
1354.000 0.568
1355.000 0.481
1356.000 0.479
1357.000 0.454
1358.000 0.576
1359.000 0.602
1360.000 0.617
1361.000 0.427
1362.000 0.540
1363.000 0.576
1364.000 0.515
1365.000 0.366
1366.000 0.439
1367.000 0.548
1368.000 0.749
1369.000 0.526
1370.000 0.396
1371.000 0.573
1372.000 0.681
1373.000 0.734
1374.000 0.531
1375.000 0.387
1376.000 0.343
1377.000 0.308
1378.000 0.415
1379.000 0.482
1380.000 0.323
1381.000 0.329
1382.000 0.386
1383.000 0.301
1384.000 0.347
1385.000 0.294
1386.000 0.283
1387.000 0.614
1388.000 0.561
1389.000 0.319
1390.000 0.271
1391.000 0.218
1392.000 0.440
1393.000 0.408
1394.000 0.519
1395.000 0.522
1396.000 0.636
1397.000 0.567
1398.000 0.528
1399.000 0.545
1400.000 0.775
1401.000 0.930
1402.000 0.430
1403.000 0.400
1404.000 0.747
1405.000 0.709
1406.000 0.610
1407.000 0.585
1408.000 0.444
1409.000 0.344
1410.000 0.512
1411.000 0.601
1412.000 0.549
1413.000 0.588
1414.000 0.576
1415.000 0.573
1416.000 0.600
1417.000 0.573
1418.000 0.575
1419.000 0.272
1420.000 0.254
1421.000 0.264
1422.000 0.236
1423.000 0.250
1424.000 0.424
1425.000 0.403
1426.000 0.338
1427.000 0.338
1428.000 0.464
1429.000 0.423
1430.000 0.420
1431.000 0.458
1432.000 0.435
1433.000 0.315
1434.000 0.339
1435.000 0.401
1436.000 0.423
1437.000 0.461
1438.000 0.392
1439.000 0.338
1440.000 0.299
1441.000 0.314
1442.000 0.462
1443.000 0.461
1444.000 0.474
1445.000 0.311
1446.000 0.387
1447.000 0.211
1448.000 0.145
1449.000 0.399
1450.000 0.621
1451.000 0.174
1452.000 0.611
1453.000 0.541
1454.000 0.413
1455.000 0.433
1456.000 0.369
1457.000 0.232
1458.000 0.403
1459.000 0.579
1460.000 0.346
1461.000 0.293
1462.000 0.211
1463.000 0.189
1464.000 0.438
1465.000 0.294
1466.000 0.380
1467.000 0.279
1468.000 0.328
1469.000 0.376
1470.000 0.426
1471.000 0.483
1472.000 0.542
1473.000 0.499
1474.000 0.395
1475.000 0.361
1476.000 0.311
1477.000 0.421
1478.000 0.345
1479.000 0.270
1480.000 0.479
1481.000 0.404
1482.000 0.252
1483.000 0.231
1484.000 0.279
1485.000 0.319
1486.000 0.368
1487.000 0.444
1488.000 0.386
1489.000 0.429
1490.000 0.357
1491.000 0.318
1492.000 0.289
1493.000 0.275
1494.000 0.291
1495.000 0.262
1496.000 0.207
1497.000 0.193
1498.000 0.168
1499.000 0.164
1500.000 0.188
1501.000 0.209
1502.000 0.214
1503.000 0.211
1504.000 0.202
1505.000 0.204
1506.000 0.203
1507.000 0.202
1508.000 0.202
1509.000 0.200
1510.000 0.204
1511.000 0.215
1512.000 0.214
1513.000 0.214
1514.000 0.209
1515.000 0.195
1516.000 0.189
1517.000 0.181
1518.000 0.184
1519.000 0.191
1520.000 0.196
1521.000 0.210
1522.000 0.215
1523.000 0.206
1524.000 0.211
1525.000 0.220
1526.000 0.228
1527.000 0.248
1528.000 0.250
1529.000 0.243
1530.000 0.240
1531.000 0.234
1532.000 0.231
1533.000 0.233
1534.000 0.232
1535.000 0.229
1536.000 0.229
1537.000 0.231
1538.000 0.229
1539.000 0.223
1540.000 0.224
1541.000 0.226
1542.000 0.226
1543.000 0.228
1544.000 0.232
1545.000 0.235
1546.000 0.236
1547.000 0.241
1548.000 0.246
1549.000 0.254
1550.000 0.253
1551.000 0.250
1552.000 0.247
1553.000 0.230
1554.000 0.227
1555.000 0.234
1556.000 0.238
1557.000 0.251
1558.000 0.252
1559.000 0.243
1560.000 0.237
1561.000 0.226
1562.000 0.222
1563.000 0.221
1564.000 0.223
1565.000 0.230
1566.000 0.236
1567.000 0.247
1568.000 0.255
1569.000 0.261
1570.000 0.266
1571.000 0.266
1572.000 0.268
1573.000 0.268
1574.000 0.269
1575.000 0.269
1576.000 0.271
1577.000 0.271
1578.000 0.274
1579.000 0.276
1580.000 0.280
1581.000 0.288
1582.000 0.292
1583.000 0.294
1584.000 0.295
1585.000 0.292
1586.000 0.289
1587.000 0.282
1588.000 0.281
1589.000 0.279
1590.000 0.281
1591.000 0.290
1592.000 0.294
1593.000 0.301
1594.000 0.304
1595.000 0.297
1596.000 0.297
1597.000 0.295
1598.000 0.297
1599.000 0.309
1600.000 0.313
1601.000 0.313
1602.000 0.310
1603.000 0.297
1604.000 0.290
1605.000 0.280
1606.000 0.278
1607.000 0.287
1608.000 0.293
1609.000 0.308
1610.000 0.314
1611.000 0.316
1612.000 0.315
1613.000 0.303
1614.000 0.300
1615.000 0.302
1616.000 0.299
1617.000 0.290
1618.000 0.289
1619.000 0.286
1620.000 0.287
1621.000 0.302
1622.000 0.308
1623.000 0.307
1624.000 0.308
1625.000 0.308
1626.000 0.307
1627.000 0.309
1628.000 0.310
1629.000 0.309
1630.000 0.310
1631.000 0.309
1632.000 0.312
1633.000 0.324
1634.000 0.328
1635.000 0.331
1636.000 0.334
1637.000 0.330
1638.000 0.327
1639.000 0.324
1640.000 0.323
1641.000 0.325
1642.000 0.323
1643.000 0.322
1644.000 0.320
1645.000 0.310
1646.000 0.308
1647.000 0.309
1648.000 0.310
1649.000 0.317
1650.000 0.318
1651.000 0.313
1652.000 0.316
1653.000 0.319
1654.000 0.323
1655.000 0.338
1656.000 0.341
1657.000 0.329
1658.000 0.327
1659.000 0.323
1660.000 0.320
1661.000 0.320
1662.000 0.323
1663.000 0.326
1664.000 0.329
1665.000 0.345
1666.000 0.346
1667.000 0.328
1668.000 0.326
1669.000 0.324
1670.000 0.322
1671.000 0.331
1672.000 0.333
1673.000 0.331
1674.000 0.325
1675.000 0.316
1676.000 0.313
1677.000 0.308
1678.000 0.304
1679.000 0.304
1680.000 0.303
1681.000 0.300
1682.000 0.301
1683.000 0.309
1684.000 0.314
1685.000 0.320
1686.000 0.326
1687.000 0.335
1688.000 0.336
1689.000 0.330
1690.000 0.328
1691.000 0.316
1692.000 0.314
1693.000 0.322
1694.000 0.319
1695.000 0.315
1696.000 0.309
1697.000 0.289
1698.000 0.286
1699.000 0.290
1700.000 0.293
1701.000 0.311
1702.000 0.320
1703.000 0.325
1704.000 0.327
1705.000 0.322
1706.000 0.322
1707.000 0.320
1708.000 0.322
1709.000 0.329
1710.000 0.334
1711.000 0.341
1712.000 0.337
1713.000 0.334
1714.000 0.331
1715.000 0.308
1716.000 0.299
1717.000 0.300
1718.000 0.298
1719.000 0.308
1720.000 0.308
1721.000 0.298
1722.000 0.304
1723.000 0.307
1724.000 0.315
1725.000 0.332
1726.000 0.326
1727.000 0.316
1728.000 0.317
1729.000 0.322
1730.000 0.328
1731.000 0.343
1732.000 0.360
1733.000 0.343
1734.000 0.326
1735.000 0.311
1736.000 0.299
1737.000 0.291
1738.000 0.295
1739.000 0.289
1740.000 0.274
1741.000 0.268
1742.000 0.261
1743.000 0.261
1744.000 0.272
1745.000 0.277
1746.000 0.286
1747.000 0.293
1748.000 0.299
1749.000 0.295
1750.000 0.281
1751.000 0.272
1752.000 0.254
1753.000 0.248
1754.000 0.246
1755.000 0.251
1756.000 0.269
1757.000 0.269
1758.000 0.270
1759.000 0.268
1760.000 0.272
1761.000 0.278
1762.000 0.306
1763.000 0.330
1764.000 0.314
1765.000 0.319
1766.000 0.313
1767.000 0.279
1768.000 0.272
1769.000 0.283
1770.000 0.301
1771.000 0.335
1772.000 0.358
1773.000 0.344
1774.000 0.350
1775.000 0.341
1776.000 0.307
1777.000 0.292
1778.000 0.264
1779.000 0.249
1780.000 0.266
1781.000 0.271
1782.000 0.271
1783.000 0.276
1784.000 0.280
1785.000 0.388
1786.000 0.389
1787.000 0.371
1788.000 0.340
1789.000 0.264
1790.000 0.240
1791.000 0.209
1792.000 0.195
1793.000 0.192
1794.000 0.181
1795.000 0.169
1796.000 0.168
1797.000 0.126
1798.000 0.089
1799.000 0.120
1800.000 0.154
1801.000 0.494
1802.000 0.484
1803.000 0.655
1804.000 0.427
1805.000 0.419
1806.000 0.547
1807.000 0.714
1808.000 0.502
1809.000 0.591
1810.000 0.769
1811.000 0.711
1812.000 0.621
1813.000 0.709
1814.000 0.536
1815.000 0.569
1816.000 0.574
1817.000 0.496
1818.000 0.469
1819.000 0.403
1820.000 0.365
1821.000 0.373
1822.000 0.287
1823.000 0.386
1824.000 0.413
1825.000 0.505
1826.000 0.669
1827.000 0.598
1828.000 0.557
1829.000 0.354
1830.000 0.441
1831.000 0.447
1832.000 0.560
1833.000 0.540
1834.000 0.531
1835.000 0.490
1836.000 0.459
1837.000 0.414
1838.000 0.354
1839.000 0.440
1840.000 0.503
1841.000 0.610
1842.000 0.610
1843.000 0.503
1844.000 0.446
1845.000 0.398
1846.000 0.318
1847.000 0.348
1848.000 0.307
1849.000 0.402
1850.000 0.435
1851.000 0.472
1852.000 0.696
1853.000 0.731
1854.000 0.706
1855.000 0.700
1856.000 0.805
1857.000 0.885
1858.000 0.832
1859.000 0.756
1860.000 0.687
1861.000 0.571
1862.000 0.406
1863.000 0.486
1864.000 0.394
1865.000 0.306
1866.000 0.240
1867.000 0.187
1868.000 0.258
1869.000 0.160
1870.000 0.328
1871.000 0.456
1872.000 0.432
1873.000 0.433
1874.000 0.402
1875.000 0.471
1876.000 0.527
1877.000 0.604
1878.000 0.618
1879.000 0.653
1880.000 0.703
1881.000 0.770
1882.000 0.587
1883.000 0.432
1884.000 0.393
1885.000 0.439
1886.000 0.360
1887.000 0.645
1888.000 0.570
1889.000 0.498
1890.000 0.482
1891.000 0.608
1892.000 0.742
1893.000 0.578
1894.000 0.457
1895.000 0.246
1896.000 0.475
1897.000 0.681
1898.000 0.739
1899.000 0.670
1900.000 0.358
1901.000 0.258
1902.000 0.346
1903.000 0.239
1904.000 0.378
1905.000 0.184
1906.000 0.220
1907.000 0.313
1908.000 0.378
1909.000 0.566
1910.000 0.399
1911.000 0.355
1912.000 0.339
1913.000 0.349
1914.000 0.403
1915.000 0.660
1916.000 0.509
1917.000 0.369
1918.000 0.208
1919.000 0.270
1920.000 0.473
1921.000 0.517
1922.000 0.489
1923.000 0.481
1924.000 0.500
1925.000 0.431
1926.000 0.533
1927.000 0.611
1928.000 0.646
1929.000 0.633
1930.000 0.833
1931.000 0.497
1932.000 0.507
1933.000 0.468
1934.000 0.613
1935.000 0.475
1936.000 0.523
1937.000 0.465
1938.000 0.665
1939.000 0.464
1940.000 0.426
1941.000 0.344
1942.000 0.510
1943.000 0.408
1944.000 0.634
1945.000 0.412
1946.000 0.207
1947.000 0.171
1948.000 0.066
1949.000 0.445
1950.000 0.526
1951.000 0.594
1952.000 0.596
1953.000 0.513
1954.000 0.380
1955.000 0.418
1956.000 0.453
1957.000 0.424
1958.000 0.431
1959.000 0.538
1960.000 0.364
1961.000 0.349
1962.000 0.321
1963.000 0.327
1964.000 0.337
1965.000 0.388
1966.000 0.366
1967.000 0.125
1968.000 0.223
1969.000 0.303
1970.000 0.391
1971.000 0.271
1972.000 0.479
1973.000 0.378
1974.000 0.566
1975.000 0.639
1976.000 0.691
1977.000 0.681
1978.000 0.656
1979.000 0.650
1980.000 0.643
1981.000 0.648
1982.000 0.647
1983.000 0.641
1984.000 0.634
1985.000 0.618
1986.000 0.123
1987.000 0.318
1988.000 0.537
1989.000 0.572
1990.000 0.626
1991.000 0.394
1992.000 0.359
1993.000 0.358
1994.000 0.293
1995.000 0.254
1996.000 0.213
1997.000 0.195
1998.000 0.176
1999.000 0.162
2000.000 0.218
2001.000 0.427
2002.000 0.279
2003.000 0.138
2004.000 0.141
2005.000 0.355
2006.000 0.546
2007.000 0.391
2008.000 0.431
2009.000 0.451
2010.000 0.483
2011.000 0.606
2012.000 0.271
2013.000 0.478
2014.000 0.399
2015.000 0.195
2016.000 0.185
2017.000 0.399
2018.000 0.408
2019.000 0.317
2020.000 0.343
2021.000 0.232
2022.000 0.187
2023.000 0.229
2024.000 0.298
2025.000 0.348
2026.000 0.393
2027.000 0.386
2028.000 0.400
2029.000 0.375
2030.000 0.470
2031.000 0.564
2032.000 0.197
2033.000 0.391
2034.000 0.385
2035.000 0.389
2036.000 0.408
2037.000 0.407
2038.000 0.411
2039.000 0.417
2040.000 0.579
2041.000 0.204
2042.000 0.323
2043.000 0.325
2044.000 0.320
2045.000 0.358
2046.000 0.342
2047.000 0.359
2048.000 0.376
2049.000 0.319
2050.000 0.355
2051.000 0.329
2052.000 0.340
2053.000 0.283
2054.000 0.163
2055.000 0.125
2056.000 0.298
2057.000 0.340
2058.000 0.502
2059.000 0.391
2060.000 0.380
2061.000 0.401
2062.000 0.180
2063.000 0.136
2064.000 0.231
2065.000 0.280
2066.000 0.278
2067.000 0.286
2068.000 0.536
2069.000 0.386
2070.000 0.236
2071.000 0.257
2072.000 0.286
2073.000 0.216
2074.000 0.188
2075.000 0.289
2076.000 0.303
2077.000 0.303
2078.000 0.306
2079.000 0.223
2080.000 0.267
2081.000 0.304
2082.000 0.377
2083.000 0.434
2084.000 0.463
2085.000 0.483
2086.000 0.600
2087.000 0.682
2088.000 0.654
2089.000 0.634
2090.000 0.621
2091.000 0.487
2092.000 0.374
2093.000 0.367
2094.000 0.405
2095.000 0.400
2096.000 0.503
2097.000 0.438
2098.000 0.397
2099.000 0.295
2100.000 0.227
2101.000 0.207
2102.000 0.188
2103.000 0.189
2104.000 0.244
2105.000 0.243
2106.000 0.250
2107.000 0.179
2108.000 0.277
2109.000 0.458
2110.000 0.341
2111.000 0.409
2112.000 0.454
2113.000 0.408
2114.000 0.393
2115.000 0.351
2116.000 0.350
2117.000 0.451
2118.000 0.291
2119.000 0.308
2120.000 0.324
2121.000 0.279
2122.000 0.293
2123.000 0.280
2124.000 0.218
2125.000 0.282
2126.000 0.432
2127.000 0.327
2128.000 0.343
2129.000 0.319
2130.000 0.239
2131.000 0.303
2132.000 0.446
2133.000 0.498
2134.000 0.303
2135.000 0.267
2136.000 0.194
2137.000 0.186
2138.000 0.305
2139.000 0.479
2140.000 0.334
2141.000 0.330
2142.000 0.285
2143.000 0.262
2144.000 0.243
2145.000 0.188
2146.000 0.203
2147.000 0.217
2148.000 0.247
2149.000 0.358
2150.000 0.366
2151.000 0.421
2152.000 0.491
2153.000 0.255
2154.000 0.239
2155.000 0.319
2156.000 0.413
2157.000 0.382
2158.000 0.440
2159.000 0.293
2160.000 0.416
2161.000 0.432
2162.000 0.436
2163.000 0.267
2164.000 0.227
2165.000 0.611
2166.000 0.552
2167.000 0.298
2168.000 0.351
2169.000 0.319
2170.000 0.477
2171.000 0.411
2172.000 0.424
2173.000 0.205
2174.000 0.411
2175.000 0.405
2176.000 0.421
2177.000 0.442
2178.000 0.387
2179.000 0.704
2180.000 0.510
2181.000 0.195
2182.000 0.212
2183.000 0.262
2184.000 0.204
2185.000 0.166
2186.000 0.143
2187.000 0.130
2188.000 0.144
2189.000 0.164
2190.000 0.170
2191.000 0.281
2192.000 0.342
2193.000 0.570
2194.000 0.532
2195.000 0.491
2196.000 0.453
2197.000 0.408
2198.000 0.365
2199.000 0.320
2200.000 0.251
2201.000 0.219
2202.000 0.204
2203.000 0.228
2204.000 0.277
2205.000 0.296
2206.000 0.285
2207.000 0.294
2208.000 0.327
2209.000 0.355
2210.000 0.376
2211.000 0.386
2212.000 0.393
2213.000 0.357
2214.000 0.283
2215.000 0.208
2216.000 0.266
2217.000 0.307
2218.000 0.385
2219.000 0.411
2220.000 0.345
2221.000 0.382
2222.000 0.424
2223.000 0.382
2224.000 0.277
2225.000 0.203
2226.000 0.174
2227.000 0.185
2228.000 0.245
2229.000 0.318
2230.000 0.314
2231.000 0.498
2232.000 0.240
2233.000 0.306
2234.000 0.300
2235.000 0.227
2236.000 0.314
2237.000 0.237
2238.000 0.235
2239.000 0.267
2240.000 0.246
2241.000 0.254
2242.000 0.274
2243.000 0.308
2244.000 0.312
2245.000 0.305
2246.000 0.312
2247.000 0.382
2248.000 0.338
2249.000 0.267
2250.000 0.235
2251.000 0.138
2252.000 0.135
2253.000 0.115
2254.000 0.226
2255.000 0.257
2256.000 0.283
2257.000 0.426
2258.000 0.240
2259.000 0.059
2260.000 0.591
2261.000 0.584
2262.000 0.575
2263.000 0.301
2264.000 0.318
2265.000 0.274
2266.000 0.288
2267.000 0.310
2268.000 0.215
2269.000 0.244
2270.000 0.185
2271.000 0.157
2272.000 0.146
2273.000 0.157
2274.000 0.184
2275.000 0.210
2276.000 0.332
2277.000 0.377
2278.000 0.345
2279.000 0.294
2280.000 0.318
2281.000 0.333
2282.000 0.251
2283.000 0.217
2284.000 0.280
2285.000 0.249
2286.000 0.371
2287.000 0.464
2288.000 0.521
2289.000 0.444
2290.000 0.183
2291.000 0.239
2292.000 0.154
2293.000 0.168
2294.000 0.187
2295.000 0.242
2296.000 0.401
2297.000 0.391
2298.000 0.296
2299.000 0.249
2300.000 0.179
2301.000 0.537
2302.000 0.389
2303.000 0.241
2304.000 0.086
2305.000 0.069
2306.000 0.482
2307.000 0.242
2308.000 0.188
2309.000 0.167
2310.000 0.172
2311.000 0.261
2312.000 0.221
2313.000 0.303
2314.000 0.318
2315.000 0.222
2316.000 0.178
2317.000 0.138
2318.000 0.064
2319.000 0.124
2320.000 0.152
2321.000 0.215
2322.000 0.258
2323.000 0.322
2324.000 0.337
2325.000 0.246
2326.000 0.243
2327.000 0.444
2328.000 0.385
2329.000 0.523
2330.000 0.515
2331.000 0.369
2332.000 0.135
2333.000 0.281
2334.000 0.262
2335.000 0.345
2336.000 0.409
2337.000 0.346
2338.000 0.301
2339.000 0.268
2340.000 0.258
2341.000 0.321
2342.000 0.212
2343.000 0.294
2344.000 0.358
2345.000 0.340
2346.000 0.634
2347.000 0.476
2348.000 0.136
2349.000 0.454
2350.000 0.552
2351.000 0.473
2352.000 0.355
2353.000 0.308
2354.000 0.366
2355.000 0.045
2356.000 0.311
2357.000 0.317
2358.000 0.341
2359.000 0.367
2360.000 0.530
2361.000 0.651
2362.000 0.638
2363.000 0.639
2364.000 0.634
2365.000 0.306
2366.000 0.454
2367.000 0.083
2368.000 0.113
2369.000 0.108
2370.000 0.163
2371.000 0.132
2372.000 0.094
2373.000 0.241
2374.000 0.220
2375.000 0.311
2376.000 0.343
2377.000 0.353
2378.000 0.381
2379.000 0.130
2380.000 0.437
2381.000 0.396
2382.000 0.103
2383.000 0.703
2384.000 0.340
2385.000 0.471
2386.000 0.398
2387.000 0.316
2388.000 0.235
2389.000 0.124
2390.000 0.054
2391.000 0.280
2392.000 0.484
2393.000 0.390
2394.000 0.209
2395.000 0.121
2396.000 0.187
2397.000 0.206
2398.000 0.160
2399.000 0.224
2400.000 0.239
2401.000 0.425
2402.000 0.454
2403.000 0.516
2404.000 0.590
2405.000 0.589
2406.000 0.599
2407.000 0.593
2408.000 0.294
2409.000 0.230
2410.000 0.243
2411.000 0.489
2412.000 0.445
2413.000 0.428
2414.000 0.408
2415.000 0.376
2416.000 0.365
2417.000 0.536
2418.000 0.410
2419.000 0.273
2420.000 0.251
2421.000 0.231
2422.000 0.498
2423.000 0.564
2424.000 0.524
2425.000 0.618
2426.000 0.181
2427.000 0.362
2428.000 0.253
2429.000 0.359
2430.000 0.430
2431.000 0.556
2432.000 0.642
2433.000 0.382
2434.000 0.356
2435.000 0.351
2436.000 0.292
2437.000 0.455
2438.000 0.530
2439.000 0.590
2440.000 0.493
2441.000 0.363
2442.000 0.247
2443.000 0.353
2444.000 0.465
2445.000 0.393
2446.000 0.444
2447.000 0.363
2448.000 0.443
2449.000 0.174
2450.000 0.365
2451.000 0.304
2452.000 0.273
2453.000 0.390
2454.000 0.497
2455.000 0.576
2456.000 0.425
2457.000 0.664
2458.000 0.577
2459.000 0.439
2460.000 0.541
2461.000 0.508
2462.000 0.466
2463.000 0.117
2464.000 0.659
2465.000 0.309
2466.000 0.305
2467.000 0.285
2468.000 0.353
2469.000 0.356
2470.000 0.399
2471.000 0.466
2472.000 0.414
2473.000 0.339
2474.000 0.237
2475.000 0.167
2476.000 0.436
2477.000 0.328
2478.000 0.380
2479.000 0.313
2480.000 0.294
2481.000 0.373
2482.000 0.362
2483.000 0.379
2484.000 0.342
2485.000 0.303
2486.000 0.264
2487.000 0.145
2488.000 0.402
2489.000 0.575
2490.000 0.530
2491.000 0.383
2492.000 0.401
2493.000 0.485
2494.000 0.374
2495.000 0.303
2496.000 0.270
2497.000 0.429
2498.000 0.553
2499.000 0.534
2500.000 0.440
