391.000 0.047
392.000 0.033
393.000 0.022
394.000 0.038
395.000 0.039
396.000 0.040
397.000 0.045
398.000 0.044
399.000 0.046
400.000 0.046
401.000 0.043
402.000 0.041
403.000 0.039
404.000 0.038
405.000 0.038
406.000 0.045
407.000 0.048
408.000 0.044
409.000 0.037
410.000 0.036
411.000 0.040
412.000 0.043
413.000 0.043
414.000 0.042
415.000 0.044
416.000 0.049
417.000 0.047
418.000 0.044
419.000 0.041
420.000 0.040
421.000 0.044
422.000 0.044
423.000 0.043
424.000 0.043
425.000 0.041
426.000 0.041
427.000 0.043
428.000 0.044
429.000 0.042
430.000 0.041
431.000 0.043
432.000 0.041
433.000 0.040
434.000 0.043
435.000 0.041
436.000 0.042
437.000 0.044
438.000 0.045
439.000 0.046
440.000 0.045
441.000 0.041
442.000 0.039
443.000 0.042
444.000 0.044
445.000 0.044
446.000 0.045
447.000 0.045
448.000 0.043
449.000 0.044
450.000 0.043
451.000 0.043
452.000 0.044
453.000 0.045
454.000 0.047
455.000 0.049
456.000 0.048
457.000 0.047
458.000 0.046
459.000 0.045
460.000 0.045
461.000 0.046
462.000 0.045
463.000 0.045
464.000 0.047
465.000 0.046
466.000 0.046
467.000 0.048
468.000 0.046
469.000 0.046
470.000 0.047
471.000 0.047
472.000 0.046
473.000 0.046
474.000 0.047
475.000 0.046
476.000 0.045
477.000 0.045
478.000 0.046
479.000 0.047
480.000 0.047
481.000 0.046
482.000 0.045
483.000 0.048
484.000 0.049
485.000 0.048
486.000 0.047
487.000 0.046
488.000 0.046
489.000 0.047
490.000 0.048
491.000 0.049
492.000 0.049
493.000 0.047
494.000 0.048
495.000 0.048
496.000 0.048
497.000 0.049
498.000 0.050
499.000 0.050
500.000 0.052
501.000 0.051
502.000 0.049
503.000 0.049
504.000 0.050
505.000 0.050
506.000 0.049
507.000 0.049
508.000 0.054
509.000 0.055
510.000 0.055
511.000 0.055
512.000 0.055
513.000 0.057
514.000 0.060
515.000 0.060
516.000 0.060
517.000 0.061
518.000 0.064
519.000 0.063
520.000 0.064
521.000 0.065
522.000 0.068
523.000 0.069
524.000 0.070
525.000 0.072
526.000 0.073
527.000 0.074
528.000 0.076
529.000 0.077
530.000 0.079
531.000 0.079
532.000 0.079
533.000 0.082
534.000 0.084
535.000 0.085
536.000 0.085
537.000 0.086
538.000 0.086
539.000 0.087
540.000 0.087
541.000 0.087
542.000 0.088
543.000 0.088
544.000 0.088
545.000 0.087
546.000 0.087
547.000 0.088
548.000 0.088
549.000 0.088
550.000 0.088
551.000 0.089
552.000 0.089
553.000 0.089
554.000 0.088
555.000 0.088
556.000 0.089
557.000 0.089
558.000 0.088
559.000 0.087
560.000 0.087
561.000 0.086
562.000 0.086
563.000 0.085
564.000 0.084
565.000 0.083
566.000 0.082
567.000 0.082
568.000 0.080
569.000 0.079
570.000 0.079
571.000 0.078
572.000 0.077
573.000 0.077
574.000 0.077
575.000 0.076
576.000 0.075
577.000 0.074
578.000 0.073
579.000 0.073
580.000 0.072
581.000 0.071
582.000 0.072
583.000 0.074
584.000 0.073
585.000 0.072
586.000 0.072
587.000 0.070
588.000 0.070
589.000 0.069
590.000 0.068
591.000 0.068
592.000 0.069
593.000 0.069
594.000 0.068
595.000 0.067
596.000 0.068
597.000 0.068
598.000 0.071
599.000 0.070
600.000 0.067
601.000 0.068
602.000 0.068
603.000 0.069
604.000 0.069
605.000 0.068
606.000 0.069
607.000 0.069
608.000 0.067
609.000 0.068
610.000 0.068
611.000 0.066
612.000 0.066
613.000 0.066
614.000 0.066
615.000 0.066
616.000 0.066
617.000 0.066
618.000 0.067
619.000 0.066
620.000 0.066
621.000 0.065
622.000 0.065
623.000 0.068
624.000 0.067
625.000 0.067
626.000 0.067
627.000 0.068
628.000 0.068
629.000 0.068
630.000 0.068
631.000 0.067
632.000 0.068
633.000 0.069
634.000 0.069
635.000 0.069
636.000 0.068
637.000 0.067
638.000 0.067
639.000 0.068
640.000 0.069
641.000 0.067
642.000 0.068
643.000 0.068
644.000 0.067
645.000 0.066
646.000 0.067
647.000 0.068
648.000 0.069
649.000 0.070
650.000 0.069
651.000 0.068
652.000 0.066
653.000 0.067
654.000 0.068
655.000 0.067
656.000 0.068
657.000 0.070
658.000 0.070
659.000 0.069
660.000 0.068
661.000 0.070
662.000 0.071
663.000 0.071
664.000 0.070
665.000 0.070
666.000 0.072
667.000 0.072
668.000 0.072
669.000 0.073
670.000 0.074
671.000 0.072
672.000 0.071
673.000 0.075
674.000 0.076
675.000 0.075
676.000 0.075
677.000 0.077
678.000 0.078
679.000 0.079
680.000 0.079
681.000 0.075
682.000 0.075
683.000 0.078
684.000 0.081
685.000 0.082
686.000 0.083
687.000 0.084
688.000 0.083
689.000 0.086
690.000 0.086
691.000 0.085
692.000 0.088
693.000 0.091
694.000 0.093
695.000 0.096
696.000 0.098
697.000 0.102
698.000 0.105
699.000 0.109
700.000 0.114
701.000 0.119
702.000 0.124
703.000 0.130
704.000 0.135
705.000 0.141
706.000 0.146
707.000 0.150
708.000 0.156
709.000 0.162
710.000 0.168
711.000 0.174
712.000 0.179
713.000 0.185
714.000 0.191
715.000 0.196
716.000 0.202
717.000 0.208
718.000 0.214
719.000 0.220
720.000 0.226
721.000 0.232
722.000 0.238
723.000 0.244
724.000 0.249
725.000 0.256
726.000 0.261
727.000 0.266
728.000 0.273
729.000 0.278
730.000 0.283
731.000 0.289
732.000 0.294
733.000 0.299
734.000 0.305
735.000 0.309
736.000 0.313
737.000 0.318
738.000 0.321
739.000 0.325
740.000 0.329
741.000 0.332
742.000 0.336
743.000 0.339
744.000 0.342
745.000 0.344
746.000 0.347
747.000 0.349
748.000 0.351
749.000 0.353
750.000 0.355
751.000 0.356
752.000 0.358
753.000 0.359
754.000 0.361
755.000 0.362
756.000 0.364
757.000 0.364
758.000 0.365
759.000 0.364
760.000 0.363
761.000 0.361
762.000 0.361
763.000 0.361
764.000 0.363
765.000 0.365
766.000 0.367
767.000 0.369
768.000 0.371
769.000 0.372
770.000 0.373
771.000 0.374
772.000 0.374
773.000 0.374
774.000 0.375
775.000 0.375
776.000 0.375
777.000 0.376
778.000 0.376
779.000 0.377
780.000 0.377
781.000 0.378
782.000 0.378
783.000 0.378
784.000 0.378
785.000 0.378
786.000 0.379
787.000 0.378
788.000 0.379
789.000 0.379
790.000 0.379
791.000 0.379
792.000 0.380
793.000 0.380
794.000 0.381
795.000 0.381
796.000 0.381
797.000 0.381
798.000 0.381
799.000 0.382
800.000 0.382
801.000 0.382
802.000 0.383
803.000 0.384
804.000 0.384
805.000 0.385
806.000 0.385
807.000 0.385
808.000 0.385
809.000 0.385
810.000 0.385
811.000 0.385
812.000 0.384
813.000 0.383
814.000 0.383
815.000 0.383
816.000 0.382
817.000 0.383
818.000 0.383
819.000 0.384
820.000 0.385
821.000 0.385
822.000 0.386
823.000 0.386
824.000 0.387
825.000 0.388
826.000 0.388
827.000 0.388
828.000 0.388
829.000 0.389
830.000 0.389
831.000 0.389
832.000 0.390
833.000 0.391
834.000 0.392
835.000 0.392
836.000 0.392
837.000 0.393
838.000 0.393
839.000 0.394
840.000 0.394
841.000 0.395
842.000 0.395
843.000 0.395
844.000 0.396
845.000 0.396
846.000 0.397
847.000 0.398
848.000 0.398
849.000 0.398
850.000 0.398
851.000 0.398
852.000 0.398
853.000 0.398
854.000 0.399
855.000 0.399
856.000 0.400
857.000 0.400
858.000 0.400
859.000 0.400
860.000 0.400
861.000 0.400
862.000 0.401
863.000 0.401
864.000 0.402
865.000 0.402
866.000 0.402
867.000 0.402
868.000 0.402
869.000 0.403
870.000 0.403
871.000 0.403
872.000 0.403
873.000 0.404
874.000 0.404
875.000 0.404
876.000 0.404
877.000 0.404
878.000 0.405
879.000 0.405
880.000 0.405
881.000 0.405
882.000 0.406
883.000 0.406
884.000 0.406
885.000 0.406
886.000 0.407
887.000 0.407
888.000 0.407
889.000 0.407
890.000 0.407
891.000 0.407
892.000 0.406
893.000 0.406
894.000 0.406
895.000 0.405
896.000 0.404
897.000 0.404
898.000 0.403
899.000 0.403
900.000 0.403
901.000 0.403
902.000 0.404
903.000 0.404
904.000 0.405
905.000 0.405
906.000 0.405
907.000 0.405
908.000 0.405
909.000 0.405
910.000 0.405
911.000 0.404
912.000 0.405
913.000 0.404
914.000 0.404
915.000 0.404
916.000 0.405
917.000 0.406
918.000 0.407
919.000 0.407
920.000 0.408
921.000 0.407
922.000 0.408
923.000 0.408
924.000 0.408
925.000 0.407
926.000 0.406
927.000 0.405
928.000 0.403
929.000 0.403
930.000 0.402
931.000 0.401
932.000 0.400
933.000 0.397
934.000 0.395
935.000 0.394
936.000 0.394
937.000 0.395
938.000 0.396
939.000 0.396
940.000 0.394
941.000 0.394
942.000 0.394
943.000 0.394
944.000 0.394
945.000 0.394
946.000 0.392
947.000 0.393
948.000 0.393
949.000 0.392
950.000 0.393
951.000 0.393
952.000 0.393
953.000 0.394
954.000 0.396
955.000 0.397
956.000 0.394
957.000 0.394
958.000 0.395
959.000 0.396
960.000 0.395
961.000 0.396
962.000 0.396
963.000 0.396
964.000 0.396
965.000 0.397
966.000 0.398
967.000 0.401
968.000 0.402
969.000 0.402
970.000 0.402
971.000 0.403
972.000 0.403
973.000 0.403
974.000 0.403
975.000 0.403
976.000 0.403
977.000 0.404
978.000 0.405
979.000 0.405
980.000 0.405
981.000 0.404
982.000 0.405
983.000 0.407
984.000 0.406
985.000 0.406
986.000 0.407
987.000 0.410
988.000 0.410
989.000 0.410
990.000 0.410
991.000 0.412
992.000 0.413
993.000 0.412
994.000 0.411
995.000 0.412
996.000 0.413
997.000 0.414
998.000 0.414
999.000 0.413
1000.000 0.414
1001.000 0.417
1002.000 0.417
1003.000 0.418
1004.000 0.418
1005.000 0.418
1006.000 0.419
1007.000 0.419
1008.000 0.420
1009.000 0.420
1010.000 0.418
1011.000 0.418
1012.000 0.418
1013.000 0.419
1014.000 0.421
1015.000 0.422
1016.000 0.423
1017.000 0.423
1018.000 0.423
1019.000 0.423
1020.000 0.424
1021.000 0.424
1022.000 0.425
1023.000 0.426
1024.000 0.426
1025.000 0.427
1026.000 0.427
1027.000 0.427
1028.000 0.427
1029.000 0.428
1030.000 0.428
1031.000 0.428
1032.000 0.428
1033.000 0.429
1034.000 0.429
1035.000 0.430
1036.000 0.431
1037.000 0.431
1038.000 0.431
1039.000 0.431
1040.000 0.431
1041.000 0.431
1042.000 0.431
1043.000 0.431
1044.000 0.431
1045.000 0.431
1046.000 0.432
1047.000 0.432
1048.000 0.432
1049.000 0.433
1050.000 0.433
1051.000 0.434
1052.000 0.434
1053.000 0.434
1054.000 0.434
1055.000 0.434
1056.000 0.434
1057.000 0.434
1058.000 0.434
1059.000 0.434
1060.000 0.434
1061.000 0.435
1062.000 0.435
1063.000 0.434
1064.000 0.434
1065.000 0.434
1066.000 0.435
1067.000 0.436
1068.000 0.437
1069.000 0.438
1070.000 0.438
1071.000 0.438
1072.000 0.437
1073.000 0.436
1074.000 0.436
1075.000 0.436
1076.000 0.437
1077.000 0.436
1078.000 0.437
1079.000 0.437
1080.000 0.437
1081.000 0.436
1082.000 0.436
1083.000 0.437
1084.000 0.437
1085.000 0.437
1086.000 0.437
1087.000 0.436
1088.000 0.435
1089.000 0.435
1090.000 0.435
1091.000 0.434
1092.000 0.434
1093.000 0.435
1094.000 0.434
1095.000 0.434
1096.000 0.434
1097.000 0.433
1098.000 0.433
1099.000 0.431
1100.000 0.431
1101.000 0.429
1102.000 0.429
1103.000 0.429
1104.000 0.428
1105.000 0.429
1106.000 0.428
1107.000 0.427
1108.000 0.426
1109.000 0.426
1110.000 0.425
1111.000 0.425
1112.000 0.426
1113.000 0.425
1114.000 0.424
1115.000 0.423
1116.000 0.423
1117.000 0.421
1118.000 0.419
1119.000 0.418
1120.000 0.417
1121.000 0.418
1122.000 0.417
1123.000 0.416
1124.000 0.416
1125.000 0.415
1126.000 0.414
1127.000 0.413
1128.000 0.412
1129.000 0.412
1130.000 0.411
1131.000 0.411
1132.000 0.411
1133.000 0.409
1134.000 0.410
1135.000 0.411
1136.000 0.410
1137.000 0.411
1138.000 0.412
1139.000 0.410
1140.000 0.409
1141.000 0.407
1142.000 0.406
1143.000 0.406
1144.000 0.406
1145.000 0.407
1146.000 0.406
1147.000 0.406
1148.000 0.404
1149.000 0.404
1150.000 0.403
1151.000 0.403
1152.000 0.403
1153.000 0.402
1154.000 0.402
1155.000 0.402
1156.000 0.401
1157.000 0.402
1158.000 0.403
1159.000 0.403
1160.000 0.404
1161.000 0.404
1162.000 0.405
1163.000 0.405
1164.000 0.404
1165.000 0.404
1166.000 0.404
1167.000 0.403
1168.000 0.404
1169.000 0.405
1170.000 0.406
1171.000 0.407
1172.000 0.408
1173.000 0.408
1174.000 0.408
1175.000 0.407
1176.000 0.407
1177.000 0.407
1178.000 0.407
1179.000 0.407
1180.000 0.407
1181.000 0.407
1182.000 0.407
1183.000 0.408
1184.000 0.408
1185.000 0.407
1186.000 0.408
1187.000 0.407
1188.000 0.406
1189.000 0.406
1190.000 0.406
1191.000 0.407
1192.000 0.408
1193.000 0.408
1194.000 0.408
1195.000 0.408
1196.000 0.407
1197.000 0.407
1198.000 0.408
1199.000 0.408
1200.000 0.409
1201.000 0.409
1202.000 0.409
1203.000 0.409
1204.000 0.409
1205.000 0.409
1206.000 0.408
1207.000 0.409
1208.000 0.409
1209.000 0.411
1210.000 0.410
1211.000 0.412
1212.000 0.412
1213.000 0.412
1214.000 0.412
1215.000 0.413
1216.000 0.413
1217.000 0.414
1218.000 0.414
1219.000 0.414
1220.000 0.414
1221.000 0.414
1222.000 0.414
1223.000 0.415
1224.000 0.415
1225.000 0.415
1226.000 0.416
1227.000 0.416
1228.000 0.417
1229.000 0.417
1230.000 0.418
1231.000 0.418
1232.000 0.418
1233.000 0.419
1234.000 0.419
1235.000 0.420
1236.000 0.419
1237.000 0.420
1238.000 0.419
1239.000 0.420
1240.000 0.420
1241.000 0.421
1242.000 0.420
1243.000 0.420
1244.000 0.421
1245.000 0.421
1246.000 0.421
1247.000 0.422
1248.000 0.421
1249.000 0.422
1250.000 0.421
1251.000 0.422
1252.000 0.422
1253.000 0.422
1254.000 0.421
1255.000 0.421
1256.000 0.421
1257.000 0.421
1258.000 0.421
1259.000 0.422
1260.000 0.421
1261.000 0.422
1262.000 0.422
1263.000 0.422
1264.000 0.422
1265.000 0.421
1266.000 0.421
1267.000 0.422
1268.000 0.422
1269.000 0.423
1270.000 0.423
1271.000 0.423
1272.000 0.423
1273.000 0.423
1274.000 0.423
1275.000 0.424
1276.000 0.425
1277.000 0.425
1278.000 0.426
1279.000 0.426
1280.000 0.426
1281.000 0.426
1282.000 0.425
1283.000 0.425
1284.000 0.425
1285.000 0.425
1286.000 0.425
1287.000 0.425
1288.000 0.424
1289.000 0.424
1290.000 0.424
1291.000 0.424
1292.000 0.424
1293.000 0.424
1294.000 0.423
1295.000 0.422
1296.000 0.421
1297.000 0.420
1298.000 0.420
1299.000 0.420
1300.000 0.420
1301.000 0.419
1302.000 0.419
1303.000 0.418
1304.000 0.417
1305.000 0.416
1306.000 0.415
1307.000 0.415
1308.000 0.414
1309.000 0.414
1310.000 0.413
1311.000 0.412
1312.000 0.411
1313.000 0.410
1314.000 0.409
1315.000 0.408
1316.000 0.408
1317.000 0.406
1318.000 0.406
1319.000 0.404
1320.000 0.404
1321.000 0.404
1322.000 0.403
1323.000 0.403
1324.000 0.403
1325.000 0.402
1326.000 0.401
1327.000 0.401
1328.000 0.400
1329.000 0.398
1330.000 0.396
1331.000 0.394
1332.000 0.392
1333.000 0.389
1334.000 0.388
1335.000 0.386
1336.000 0.384
1337.000 0.382
1338.000 0.381
1339.000 0.380
1340.000 0.380
1341.000 0.379
1342.000 0.378
1343.000 0.378
1344.000 0.376
1345.000 0.374
1346.000 0.372
1347.000 0.371
1348.000 0.370
1349.000 0.373
1350.000 0.368
1351.000 0.356
1352.000 0.349
1353.000 0.337
1354.000 0.388
1355.000 0.459
1356.000 0.448
1357.000 0.521
1358.000 0.535
1359.000 0.480
1360.000 0.407
1361.000 0.335
1362.000 0.341
1363.000 0.478
1364.000 0.410
1365.000 0.461
1366.000 0.630
1367.000 0.566
1368.000 0.419
1369.000 0.343
1370.000 0.310
1371.000 0.187
1372.000 0.166
1373.000 0.129
1374.000 0.168
1375.000 0.237
1376.000 0.289
1377.000 0.750
1378.000 0.721
1379.000 0.703
1380.000 0.701
1381.000 0.323
1382.000 0.342
1383.000 0.374
1384.000 0.399
1385.000 0.314
1386.000 0.367
1387.000 0.415
1388.000 0.389
1389.000 0.436
1390.000 0.467
1391.000 0.504
1392.000 0.535
1393.000 0.569
1394.000 0.437
1395.000 0.409
1396.000 0.428
1397.000 0.602
1398.000 0.424
1399.000 0.415
1400.000 0.526
1401.000 0.546
1402.000 0.502
1403.000 0.485
1404.000 0.166
1405.000 0.136
1406.000 0.263
1407.000 0.548
1408.000 0.411
1409.000 0.465
1410.000 0.259
1411.000 0.351
1412.000 0.290
1413.000 0.372
1414.000 0.370
1415.000 0.233
1416.000 0.282
1417.000 0.474
1418.000 0.523
1419.000 0.352
1420.000 0.351
1421.000 0.383
1422.000 0.387
1423.000 0.370
1424.000 0.450
1425.000 0.492
1426.000 0.445
1427.000 0.320
1428.000 0.290
1429.000 0.258
1430.000 0.250
1431.000 0.318
1432.000 0.315
1433.000 0.279
1434.000 0.287
1435.000 0.262
1436.000 0.244
1437.000 0.219
1438.000 0.222
1439.000 0.246
1440.000 0.260
1441.000 0.301
1442.000 0.297
1443.000 0.257
1444.000 0.214
1445.000 0.196
1446.000 0.192
1447.000 0.194
1448.000 0.195
1449.000 0.194
1450.000 0.197
1451.000 0.193
1452.000 0.186
1453.000 0.181
1454.000 0.173
1455.000 0.174
1456.000 0.177
1457.000 0.176
1458.000 0.178
1459.000 0.177
1460.000 0.168
1461.000 0.168
1462.000 0.170
1463.000 0.174
1464.000 0.177
1465.000 0.185
1466.000 0.201
1467.000 0.206
1468.000 0.213
1469.000 0.206
1470.000 0.182
1471.000 0.177
1472.000 0.165
1473.000 0.163
1474.000 0.171
1475.000 0.174
1476.000 0.174
1477.000 0.179
1478.000 0.189
1479.000 0.192
1480.000 0.194
1481.000 0.195
1482.000 0.190
1483.000 0.191
1484.000 0.194
1485.000 0.196
1486.000 0.197
1487.000 0.199
1488.000 0.204
1489.000 0.205
1490.000 0.205
1491.000 0.204
1492.000 0.198
1493.000 0.198
1494.000 0.201
1495.000 0.203
1496.000 0.206
1497.000 0.208
1498.000 0.208
1499.000 0.206
1500.000 0.206
1501.000 0.208
1502.000 0.211
1503.000 0.215
1504.000 0.219
1505.000 0.220
1506.000 0.220
1507.000 0.217
1508.000 0.218
1509.000 0.220
1510.000 0.222
1511.000 0.224
1512.000 0.226
1513.000 0.227
1514.000 0.226
1515.000 0.227
1516.000 0.227
1517.000 0.227
1518.000 0.229
1519.000 0.233
1520.000 0.236
1521.000 0.239
1522.000 0.241
1523.000 0.242
1524.000 0.244
1525.000 0.247
1526.000 0.248
1527.000 0.248
1528.000 0.249
1529.000 0.248
1530.000 0.249
1531.000 0.250
1532.000 0.251
1533.000 0.251
1534.000 0.252
1535.000 0.253
1536.000 0.253
1537.000 0.254
1538.000 0.256
1539.000 0.258
1540.000 0.259
1541.000 0.261
1542.000 0.262
1543.000 0.263
1544.000 0.264
1545.000 0.266
1546.000 0.266
1547.000 0.266
1548.000 0.266
1549.000 0.266
1550.000 0.267
1551.000 0.268
1552.000 0.269
1553.000 0.269
1554.000 0.271
1555.000 0.273
1556.000 0.274
1557.000 0.278
1558.000 0.280
1559.000 0.280
1560.000 0.281
1561.000 0.282
1562.000 0.282
1563.000 0.282
1564.000 0.283
1565.000 0.284
1566.000 0.285
1567.000 0.287
1568.000 0.288
1569.000 0.287
1570.000 0.288
1571.000 0.288
1572.000 0.289
1573.000 0.290
1574.000 0.292
1575.000 0.294
1576.000 0.295
1577.000 0.296
1578.000 0.297
1579.000 0.295
1580.000 0.296
1581.000 0.297
1582.000 0.298
1583.000 0.299
1584.000 0.300
1585.000 0.301
1586.000 0.301
1587.000 0.302
1588.000 0.302
1589.000 0.303
1590.000 0.303
1591.000 0.303
1592.000 0.303
1593.000 0.304
1594.000 0.305
1595.000 0.306
1596.000 0.307
1597.000 0.307
1598.000 0.307
1599.000 0.307
1600.000 0.307
1601.000 0.308
1602.000 0.308
1603.000 0.309
1604.000 0.309
1605.000 0.310
1606.000 0.311
1607.000 0.312
1608.000 0.311
1609.000 0.312
1610.000 0.313
1611.000 0.314
1612.000 0.315
1613.000 0.316
1614.000 0.317
1615.000 0.318
1616.000 0.319
1617.000 0.320
1618.000 0.322
1619.000 0.323
1620.000 0.323
1621.000 0.324
1622.000 0.324
1623.000 0.323
1624.000 0.323
1625.000 0.325
1626.000 0.325
1627.000 0.326
1628.000 0.326
1629.000 0.326
1630.000 0.326
1631.000 0.326
1632.000 0.326
1633.000 0.327
1634.000 0.326
1635.000 0.326
1636.000 0.325
1637.000 0.324
1638.000 0.324
1639.000 0.324
1640.000 0.324
1641.000 0.325
1642.000 0.325
1643.000 0.324
1644.000 0.325
1645.000 0.327
1646.000 0.327
1647.000 0.329
1648.000 0.330
1649.000 0.329
1650.000 0.329
1651.000 0.328
1652.000 0.327
1653.000 0.327
1654.000 0.326
1655.000 0.326
1656.000 0.325
1657.000 0.326
1658.000 0.325
1659.000 0.325
1660.000 0.325
1661.000 0.324
1662.000 0.324
1663.000 0.325
1664.000 0.326
1665.000 0.327
1666.000 0.327
1667.000 0.328
1668.000 0.328
1669.000 0.327
1670.000 0.327
1671.000 0.327
1672.000 0.328
1673.000 0.330
1674.000 0.330
1675.000 0.329
1676.000 0.329
1677.000 0.328
1678.000 0.327
1679.000 0.327
1680.000 0.327
1681.000 0.327
1682.000 0.326
1683.000 0.327
1684.000 0.327
1685.000 0.326
1686.000 0.327
1687.000 0.328
1688.000 0.328
1689.000 0.328
1690.000 0.328
1691.000 0.329
1692.000 0.329
1693.000 0.329
1694.000 0.329
1695.000 0.328
1696.000 0.327
1697.000 0.328
1698.000 0.326
1699.000 0.324
1700.000 0.324
1701.000 0.324
1702.000 0.324
1703.000 0.327
1704.000 0.327
1705.000 0.326
1706.000 0.325
1707.000 0.323
1708.000 0.323
1709.000 0.323
1710.000 0.323
1711.000 0.321
1712.000 0.321
1713.000 0.319
1714.000 0.319
1715.000 0.320
1716.000 0.318
1717.000 0.319
1718.000 0.318
1719.000 0.317
1720.000 0.320
1721.000 0.322
1722.000 0.323
1723.000 0.323
1724.000 0.324
1725.000 0.321
1726.000 0.321
1727.000 0.322
1728.000 0.322
1729.000 0.322
1730.000 0.321
1731.000 0.321
1732.000 0.320
1733.000 0.318
1734.000 0.316
1735.000 0.316
1736.000 0.319
1737.000 0.319
1738.000 0.321
1739.000 0.321
1740.000 0.318
1741.000 0.316
1742.000 0.314
1743.000 0.311
1744.000 0.310
1745.000 0.309
1746.000 0.310
1747.000 0.310
1748.000 0.313
1749.000 0.314
1750.000 0.314
1751.000 0.315
1752.000 0.314
1753.000 0.316
1754.000 0.321
1755.000 0.321
1756.000 0.317
1757.000 0.317
1758.000 0.314
1759.000 0.315
1760.000 0.314
1761.000 0.313
1762.000 0.311
1763.000 0.309
1764.000 0.311
1765.000 0.314
1766.000 0.314
1767.000 0.312
1768.000 0.307
1769.000 0.300
1770.000 0.295
1771.000 0.295
1772.000 0.297
1773.000 0.302
1774.000 0.306
1775.000 0.305
1776.000 0.300
1777.000 0.296
1778.000 0.292
1779.000 0.288
1780.000 0.288
1781.000 0.290
1782.000 0.288
1783.000 0.284
1784.000 0.279
1785.000 0.273
1786.000 0.274
1787.000 0.280
1788.000 0.285
1789.000 0.294
1790.000 0.295
1791.000 0.289
1792.000 0.294
1793.000 0.299
1794.000 0.303
1795.000 0.317
1796.000 0.317
1797.000 0.301
1798.000 0.295
1799.000 0.330
1800.000 0.318
1801.000 0.469
1802.000 0.478
1803.000 0.451
1804.000 0.486
1805.000 0.487
1806.000 0.450
1807.000 0.447
1808.000 0.464
1809.000 0.460
1810.000 0.489
1811.000 0.495
1812.000 0.450
1813.000 0.491
1814.000 0.627
1815.000 0.479
1816.000 0.506
1817.000 0.656
1818.000 0.691
1819.000 0.592
1820.000 0.527
1821.000 0.436
1822.000 0.489
1823.000 0.695
1824.000 0.764
1825.000 0.774
1826.000 0.742
1827.000 0.739
1828.000 0.696
1829.000 0.703
1830.000 0.724
1831.000 0.641
1832.000 0.651
1833.000 0.667
1834.000 0.684
1835.000 0.703
1836.000 0.716
1837.000 0.733
1838.000 0.741
1839.000 0.636
1840.000 0.676
1841.000 0.722
1842.000 0.698
1843.000 0.735
1844.000 0.741
1845.000 0.788
1846.000 0.741
1847.000 0.716
1848.000 0.723
1849.000 0.773
1850.000 0.730
1851.000 0.698
1852.000 0.669
1853.000 0.682
1854.000 0.668
1855.000 0.698
1856.000 0.719
1857.000 0.753
1858.000 0.760
1859.000 0.766
1860.000 0.706
1861.000 0.715
1862.000 0.674
1863.000 0.712
1864.000 0.650
1865.000 0.637
1866.000 0.632
1867.000 0.641
1868.000 0.661
1869.000 0.665
1870.000 0.666
1871.000 0.684
1872.000 0.710
1873.000 0.725
1874.000 0.744
1875.000 0.829
1876.000 0.621
1877.000 0.530
1878.000 0.469
1879.000 0.430
1880.000 0.433
1881.000 0.438
1882.000 0.444
1883.000 0.478
1884.000 0.471
1885.000 0.616
1886.000 0.625
1887.000 0.630
1888.000 0.699
1889.000 0.648
1890.000 0.692
1891.000 0.640
1892.000 0.613
1893.000 0.548
1894.000 0.539
1895.000 0.424
1896.000 0.425
1897.000 0.667
1898.000 0.674
1899.000 0.516
1900.000 0.332
1901.000 0.611
1902.000 0.518
1903.000 0.615
1904.000 0.651
1905.000 0.691
1906.000 0.808
1907.000 0.715
1908.000 0.540
1909.000 0.350
1910.000 0.359
1911.000 0.374
1912.000 0.380
1913.000 0.459
1914.000 0.452
1915.000 0.423
1916.000 0.382
1917.000 0.335
1918.000 0.382
1919.000 0.418
1920.000 0.413
1921.000 0.417
1922.000 0.413
1923.000 0.285
1924.000 0.365
1925.000 0.253
1926.000 0.291
1927.000 0.288
1928.000 0.272
1929.000 0.269
1930.000 0.263
1931.000 0.269
1932.000 0.487
1933.000 0.286
1934.000 0.483
1935.000 0.611
1936.000 0.645
1937.000 0.565
1938.000 0.506
1939.000 0.473
1940.000 0.464
1941.000 0.556
1942.000 0.521
1943.000 0.595
1944.000 0.704
1945.000 0.444
1946.000 0.576
1947.000 0.559
1948.000 0.499
1949.000 0.435
1950.000 0.500
1951.000 0.505
1952.000 0.433
1953.000 0.443
1954.000 0.455
1955.000 0.544
1956.000 0.514
1957.000 0.445
1958.000 0.288
1959.000 0.349
1960.000 0.445
1961.000 0.499
1962.000 0.576
1963.000 0.649
1964.000 0.715
1965.000 0.571
1966.000 0.485
1967.000 0.393
1968.000 0.351
1969.000 0.318
1970.000 0.300
1971.000 0.294
1972.000 0.267
1973.000 0.286
1974.000 0.322
1975.000 0.323
1976.000 0.302
1977.000 0.304
1978.000 0.322
1979.000 0.302
1980.000 0.270
1981.000 0.254
1982.000 0.233
1983.000 0.223
1984.000 0.221
1985.000 0.210
1986.000 0.206
1987.000 0.189
1988.000 0.191
1989.000 0.206
1990.000 0.221
1991.000 0.253
1992.000 0.264
1993.000 0.243
1994.000 0.236
1995.000 0.214
1996.000 0.185
1997.000 0.195
1998.000 0.201
1999.000 0.204
2000.000 0.198
2001.000 0.208
2002.000 0.229
2003.000 0.259
2004.000 0.300
2005.000 0.351
2006.000 0.485
2007.000 0.556
2008.000 0.490
2009.000 0.552
2010.000 0.509
2011.000 0.458
2012.000 0.348
2013.000 0.363
2014.000 0.354
2015.000 0.315
2016.000 0.290
2017.000 0.259
2018.000 0.243
2019.000 0.229
2020.000 0.232
2021.000 0.231
2022.000 0.217
2023.000 0.183
2024.000 0.174
2025.000 0.183
2026.000 0.203
2027.000 0.219
2028.000 0.256
2029.000 0.258
2030.000 0.241
2031.000 0.232
2032.000 0.215
2033.000 0.205
2034.000 0.203
2035.000 0.192
2036.000 0.185
2037.000 0.177
2038.000 0.173
2039.000 0.170
2040.000 0.170
2041.000 0.177
2042.000 0.186
2043.000 0.209
2044.000 0.218
2045.000 0.221
2046.000 0.226
2047.000 0.222
2048.000 0.219
2049.000 0.219
2050.000 0.217
2051.000 0.210
2052.000 0.203
2053.000 0.203
2054.000 0.205
2055.000 0.204
2056.000 0.205
2057.000 0.205
2058.000 0.204
2059.000 0.205
2060.000 0.208
2061.000 0.211
2062.000 0.213
2063.000 0.220
2064.000 0.232
2065.000 0.237
2066.000 0.241
2067.000 0.243
2068.000 0.216
2069.000 0.193
2070.000 0.188
2071.000 0.174
2072.000 0.180
2073.000 0.220
2074.000 0.232
2075.000 0.245
2076.000 0.244
2077.000 0.214
2078.000 0.205
2079.000 0.199
2080.000 0.194
2081.000 0.195
2082.000 0.197
2083.000 0.199
2084.000 0.200
2085.000 0.207
2086.000 0.213
2087.000 0.218
2088.000 0.220
2089.000 0.222
2090.000 0.225
2091.000 0.219
2092.000 0.205
2093.000 0.202
2094.000 0.195
2095.000 0.194
2096.000 0.201
2097.000 0.208
2098.000 0.215
2099.000 0.223
2100.000 0.236
2101.000 0.231
2102.000 0.222
2103.000 0.215
2104.000 0.212
2105.000 0.210
2106.000 0.212
2107.000 0.220
2108.000 0.221
2109.000 0.217
2110.000 0.219
2111.000 0.220
2112.000 0.221
2113.000 0.230
2114.000 0.231
2115.000 0.225
2116.000 0.222
2117.000 0.215
2118.000 0.217
2119.000 0.211
2120.000 0.211
2121.000 0.209
2122.000 0.200
2123.000 0.199
2124.000 0.204
2125.000 0.205
2126.000 0.208
2127.000 0.208
2128.000 0.198
2129.000 0.198
2130.000 0.203
2131.000 0.206
2132.000 0.212
2133.000 0.216
2134.000 0.219
2135.000 0.221
2136.000 0.220
2137.000 0.228
2138.000 0.228
2139.000 0.222
2140.000 0.223
2141.000 0.223
2142.000 0.228
2143.000 0.241
2144.000 0.242
2145.000 0.239
2146.000 0.238
2147.000 0.227
2148.000 0.227
2149.000 0.236
2150.000 0.235
2151.000 0.233
2152.000 0.231
2153.000 0.221
2154.000 0.220
2155.000 0.226
2156.000 0.227
2157.000 0.232
2158.000 0.226
2159.000 0.217
2160.000 0.217
2161.000 0.221
2162.000 0.232
2163.000 0.237
2164.000 0.245
2165.000 0.249
2166.000 0.255
2167.000 0.252
2168.000 0.241
2169.000 0.234
2170.000 0.212
2171.000 0.211
2172.000 0.227
2173.000 0.233
2174.000 0.242
2175.000 0.247
2176.000 0.244
2177.000 0.240
2178.000 0.239
2179.000 0.242
2180.000 0.246
2181.000 0.249
2182.000 0.261
2183.000 0.265
2184.000 0.263
2185.000 0.256
2186.000 0.249
2187.000 0.230
2188.000 0.222
2189.000 0.218
2190.000 0.215
2191.000 0.217
2192.000 0.218
2193.000 0.216
2194.000 0.221
2195.000 0.226
2196.000 0.233
2197.000 0.251
2198.000 0.257
2199.000 0.254
2200.000 0.253
2201.000 0.243
2202.000 0.242
2203.000 0.243
2204.000 0.247
2205.000 0.258
2206.000 0.262
2207.000 0.264
2208.000 0.258
2209.000 0.248
2210.000 0.226
2211.000 0.224
2212.000 0.229
2213.000 0.231
2214.000 0.244
2215.000 0.248
2216.000 0.243
2217.000 0.246
2218.000 0.252
2219.000 0.253
2220.000 0.252
2221.000 0.249
2222.000 0.242
2223.000 0.238
2224.000 0.234
2225.000 0.231
2226.000 0.223
2227.000 0.223
2228.000 0.234
2229.000 0.238
2230.000 0.250
2231.000 0.261
2232.000 0.255
2233.000 0.257
2234.000 0.244
2235.000 0.222
2236.000 0.214
2237.000 0.203
2238.000 0.200
2239.000 0.206
2240.000 0.209
2241.000 0.211
2242.000 0.216
2243.000 0.227
2244.000 0.231
2245.000 0.234
2246.000 0.236
2247.000 0.232
2248.000 0.230
2249.000 0.232
2250.000 0.231
2251.000 0.233
2252.000 0.230
2253.000 0.224
2254.000 0.217
2255.000 0.199
2256.000 0.194
2257.000 0.197
2258.000 0.193
2259.000 0.198
2260.000 0.211
2261.000 0.221
2262.000 0.232
2263.000 0.236
2264.000 0.226
2265.000 0.216
2266.000 0.205
2267.000 0.195
2268.000 0.192
2269.000 0.183
2270.000 0.177
2271.000 0.182
2272.000 0.193
2273.000 0.200
2274.000 0.204
2275.000 0.216
2276.000 0.234
2277.000 0.249
2278.000 0.283
2279.000 0.299
2280.000 0.296
2281.000 0.286
2282.000 0.272
2283.000 0.251
2284.000 0.213
2285.000 0.197
2286.000 0.181
2287.000 0.171
2288.000 0.176
2289.000 0.179
2290.000 0.190
2291.000 0.197
2292.000 0.197
2293.000 0.202
2294.000 0.208
2295.000 0.217
2296.000 0.231
2297.000 0.278
2298.000 0.287
2299.000 0.282
2300.000 0.258
2301.000 0.218
2302.000 0.198
2303.000 0.205
2304.000 0.229
2305.000 0.248
2306.000 0.247
2307.000 0.228
2308.000 0.212
2309.000 0.206
2310.000 0.197
2311.000 0.212
2312.000 0.223
2313.000 0.200
2314.000 0.199
2315.000 0.184
2316.000 0.164
2317.000 0.190
2318.000 0.216
2319.000 0.250
2320.000 0.281
2321.000 0.282
2322.000 0.262
2323.000 0.217
2324.000 0.211
2325.000 0.194
2326.000 0.189
2327.000 0.175
2328.000 0.192
2329.000 0.251
2330.000 0.303
2331.000 0.351
2332.000 0.432
2333.000 0.542
2334.000 0.507
2335.000 0.409
2336.000 0.354
2337.000 0.272
2338.000 0.244
2339.000 0.232
2340.000 0.232
2341.000 0.323
2342.000 0.259
2343.000 0.194
2344.000 0.178
2345.000 0.153
2346.000 0.144
2347.000 0.207
2348.000 0.239
2349.000 0.232
2350.000 0.205
2351.000 0.176
2352.000 0.212
2353.000 0.244
2354.000 0.269
2355.000 0.267
2356.000 0.287
2357.000 0.319
2358.000 0.338
2359.000 0.393
2360.000 0.528
2361.000 0.399
2362.000 0.345
2363.000 0.382
2364.000 0.375
2365.000 0.380
2366.000 0.426
2367.000 0.367
2368.000 0.449
2369.000 0.260
2370.000 0.108
2371.000 0.299
2372.000 0.449
2373.000 0.617
2374.000 0.559
2375.000 0.552
2376.000 0.537
2377.000 0.448
2378.000 0.424
2379.000 0.307
2380.000 0.386
2381.000 0.504
2382.000 0.491
2383.000 0.327
2384.000 0.760
2385.000 0.491
2386.000 0.489
2387.000 0.204
2388.000 0.321
2389.000 0.418
2390.000 0.455
2391.000 0.462
2392.000 0.599
2393.000 0.572
2394.000 0.490
2395.000 0.350
2396.000 0.296
2397.000 0.214
2398.000 0.199
2399.000 0.340
2400.000 0.281
2401.000 0.467
2402.000 0.529
2403.000 0.484
2404.000 0.101
2405.000 0.252
2406.000 0.201
2407.000 0.180
2408.000 0.536
2409.000 0.549
2410.000 0.477
2411.000 0.422
2412.000 0.501
2413.000 0.398
2414.000 0.245
2415.000 0.270
2416.000 0.222
2417.000 0.475
2418.000 0.305
2419.000 0.173
2420.000 0.463
2421.000 0.209
2422.000 0.354
2423.000 0.369
2424.000 0.232
2425.000 0.307
2426.000 0.316
2427.000 0.285
2428.000 0.431
2429.000 0.610
2430.000 0.376
2431.000 0.128
2432.000 0.344
2433.000 0.445
2434.000 0.403
2435.000 0.352
2436.000 0.423
2437.000 0.184
2438.000 0.137
2439.000 0.309
2440.000 0.272
2441.000 0.371
2442.000 0.275
2443.000 0.319
2444.000 0.103
2445.000 0.240
2446.000 0.424
2447.000 0.399
2448.000 0.510
2449.000 0.411
2450.000 0.207
2451.000 0.314
2452.000 0.316
2453.000 0.368
2454.000 0.644
2455.000 0.139
2456.000 0.608
2457.000 0.190
2458.000 0.393
2459.000 0.417
2460.000 0.451
2461.000 0.391
2462.000 0.542
2463.000 0.335
2464.000 0.309
2465.000 0.269
2466.000 0.265
2467.000 0.259
2468.000 0.464
2469.000 0.186
2470.000 0.332
2471.000 0.215
2472.000 0.093
2473.000 0.091
2474.000 0.249
2475.000 0.243
2476.000 0.597
2477.000 0.442
2478.000 0.315
2479.000 0.173
2480.000 0.679
2481.000 0.383
2482.000 0.433
2483.000 0.249
2484.000 0.479
2485.000 0.469
2486.000 0.539
2487.000 0.530
2488.000 0.431
2489.000 0.494
2490.000 0.443
2491.000 0.312
2492.000 0.365
2493.000 0.303
2494.000 0.268
2495.000 0.311
2496.000 0.462
2497.000 0.410
2498.000 0.231
2499.000 0.311
2500.000 0.340
