391.000 0.038
392.000 0.034
393.000 0.030
394.000 0.036
395.000 0.037
396.000 0.034
397.000 0.030
398.000 0.028
399.000 0.029
400.000 0.034
401.000 0.038
402.000 0.032
403.000 0.033
404.000 0.038
405.000 0.036
406.000 0.034
407.000 0.033
408.000 0.033
409.000 0.034
410.000 0.033
411.000 0.031
412.000 0.033
413.000 0.032
414.000 0.033
415.000 0.035
416.000 0.033
417.000 0.034
418.000 0.035
419.000 0.034
420.000 0.034
421.000 0.034
422.000 0.033
423.000 0.033
424.000 0.033
425.000 0.034
426.000 0.035
427.000 0.035
428.000 0.033
429.000 0.032
430.000 0.033
431.000 0.032
432.000 0.032
433.000 0.034
434.000 0.035
435.000 0.032
436.000 0.031
437.000 0.032
438.000 0.033
439.000 0.033
440.000 0.033
441.000 0.033
442.000 0.031
443.000 0.031
444.000 0.032
445.000 0.032
446.000 0.032
447.000 0.033
448.000 0.033
449.000 0.033
450.000 0.034
451.000 0.033
452.000 0.033
453.000 0.035
454.000 0.035
455.000 0.035
456.000 0.034
457.000 0.034
458.000 0.034
459.000 0.035
460.000 0.033
461.000 0.031
462.000 0.031
463.000 0.032
464.000 0.035
465.000 0.034
466.000 0.033
467.000 0.034
468.000 0.034
469.000 0.034
470.000 0.035
471.000 0.034
472.000 0.033
473.000 0.033
474.000 0.034
475.000 0.035
476.000 0.034
477.000 0.033
478.000 0.033
479.000 0.035
480.000 0.035
481.000 0.035
482.000 0.035
483.000 0.033
484.000 0.032
485.000 0.033
486.000 0.033
487.000 0.035
488.000 0.036
489.000 0.036
490.000 0.034
491.000 0.033
492.000 0.033
493.000 0.035
494.000 0.036
495.000 0.037
496.000 0.038
497.000 0.038
498.000 0.038
499.000 0.038
500.000 0.038
501.000 0.039
502.000 0.040
503.000 0.041
504.000 0.041
505.000 0.042
506.000 0.043
507.000 0.044
508.000 0.046
509.000 0.049
510.000 0.051
511.000 0.052
512.000 0.055
513.000 0.057
514.000 0.059
515.000 0.062
516.000 0.064
517.000 0.068
518.000 0.072
519.000 0.076
520.000 0.078
521.000 0.081
522.000 0.085
523.000 0.089
524.000 0.092
525.000 0.096
526.000 0.100
527.000 0.103
528.000 0.106
529.000 0.109
530.000 0.111
531.000 0.114
532.000 0.117
533.000 0.118
534.000 0.121
535.000 0.122
536.000 0.123
537.000 0.125
538.000 0.126
539.000 0.126
540.000 0.126
541.000 0.127
542.000 0.129
543.000 0.128
544.000 0.129
545.000 0.129
546.000 0.129
547.000 0.130
548.000 0.130
549.000 0.131
550.000 0.131
551.000 0.131
552.000 0.132
553.000 0.131
554.000 0.131
555.000 0.131
556.000 0.130
557.000 0.129
558.000 0.127
559.000 0.126
560.000 0.125
561.000 0.124
562.000 0.122
563.000 0.121
564.000 0.120
565.000 0.117
566.000 0.114
567.000 0.112
568.000 0.110
569.000 0.107
570.000 0.105
571.000 0.103
572.000 0.100
573.000 0.098
574.000 0.097
575.000 0.095
576.000 0.094
577.000 0.092
578.000 0.090
579.000 0.088
580.000 0.088
581.000 0.086
582.000 0.085
583.000 0.085
584.000 0.084
585.000 0.083
586.000 0.081
587.000 0.080
588.000 0.080
589.000 0.079
590.000 0.078
591.000 0.077
592.000 0.076
593.000 0.076
594.000 0.075
595.000 0.075
596.000 0.074
597.000 0.074
598.000 0.074
599.000 0.074
600.000 0.074
601.000 0.073
602.000 0.071
603.000 0.071
604.000 0.070
605.000 0.070
606.000 0.069
607.000 0.069
608.000 0.068
609.000 0.068
610.000 0.068
611.000 0.067
612.000 0.065
613.000 0.064
614.000 0.064
615.000 0.063
616.000 0.063
617.000 0.062
618.000 0.062
619.000 0.062
620.000 0.060
621.000 0.058
622.000 0.059
623.000 0.058
624.000 0.058
625.000 0.059
626.000 0.060
627.000 0.058
628.000 0.059
629.000 0.060
630.000 0.059
631.000 0.059
632.000 0.059
633.000 0.058
634.000 0.057
635.000 0.058
636.000 0.058
637.000 0.055
638.000 0.054
639.000 0.054
640.000 0.053
641.000 0.050
642.000 0.049
643.000 0.049
644.000 0.049
645.000 0.047
646.000 0.046
647.000 0.046
648.000 0.047
649.000 0.044
650.000 0.044
651.000 0.044
652.000 0.045
653.000 0.042
654.000 0.042
655.000 0.045
656.000 0.043
657.000 0.043
658.000 0.043
659.000 0.043
660.000 0.043
661.000 0.042
662.000 0.041
663.000 0.041
664.000 0.041
665.000 0.040
666.000 0.038
667.000 0.040
668.000 0.041
669.000 0.040
670.000 0.039
671.000 0.039
672.000 0.040
673.000 0.041
674.000 0.040
675.000 0.040
676.000 0.042
677.000 0.043
678.000 0.045
679.000 0.045
680.000 0.044
681.000 0.046
682.000 0.047
683.000 0.048
684.000 0.049
685.000 0.051
686.000 0.054
687.000 0.057
688.000 0.059
689.000 0.062
690.000 0.066
691.000 0.070
692.000 0.075
693.000 0.079
694.000 0.086
695.000 0.097
696.000 0.106
697.000 0.114
698.000 0.123
699.000 0.133
700.000 0.144
701.000 0.155
702.000 0.167
703.000 0.178
704.000 0.189
705.000 0.199
706.000 0.210
707.000 0.220
708.000 0.231
709.000 0.242
710.000 0.252
711.000 0.263
712.000 0.273
713.000 0.283
714.000 0.294
715.000 0.303
716.000 0.313
717.000 0.325
718.000 0.336
719.000 0.348
720.000 0.360
721.000 0.371
722.000 0.380
723.000 0.390
724.000 0.400
725.000 0.411
726.000 0.422
727.000 0.432
728.000 0.442
729.000 0.450
730.000 0.460
731.000 0.470
732.000 0.478
733.000 0.487
734.000 0.495
735.000 0.502
736.000 0.510
737.000 0.517
738.000 0.523
739.000 0.530
740.000 0.537
741.000 0.542
742.000 0.547
743.000 0.553
744.000 0.557
745.000 0.561
746.000 0.565
747.000 0.569
748.000 0.572
749.000 0.574
750.000 0.577
751.000 0.580
752.000 0.582
753.000 0.585
754.000 0.587
755.000 0.588
756.000 0.589
757.000 0.591
758.000 0.592
759.000 0.592
760.000 0.591
761.000 0.589
762.000 0.587
763.000 0.588
764.000 0.589
765.000 0.591
766.000 0.595
767.000 0.596
768.000 0.598
769.000 0.599
770.000 0.601
771.000 0.601
772.000 0.602
773.000 0.602
774.000 0.602
775.000 0.603
776.000 0.603
777.000 0.603
778.000 0.604
779.000 0.604
780.000 0.604
781.000 0.604
782.000 0.605
783.000 0.605
784.000 0.605
785.000 0.604
786.000 0.604
787.000 0.605
788.000 0.604
789.000 0.604
790.000 0.604
791.000 0.604
792.000 0.605
793.000 0.606
794.000 0.606
795.000 0.606
796.000 0.606
797.000 0.605
798.000 0.605
799.000 0.606
800.000 0.606
801.000 0.606
802.000 0.606
803.000 0.606
804.000 0.606
805.000 0.607
806.000 0.607
807.000 0.607
808.000 0.608
809.000 0.608
810.000 0.607
811.000 0.606
812.000 0.605
813.000 0.605
814.000 0.604
815.000 0.603
816.000 0.603
817.000 0.603
818.000 0.603
819.000 0.604
820.000 0.605
821.000 0.605
822.000 0.605
823.000 0.606
824.000 0.606
825.000 0.607
826.000 0.607
827.000 0.607
828.000 0.607
829.000 0.606
830.000 0.607
831.000 0.607
832.000 0.607
833.000 0.607
834.000 0.608
835.000 0.608
836.000 0.609
837.000 0.609
838.000 0.610
839.000 0.611
840.000 0.610
841.000 0.611
842.000 0.611
843.000 0.612
844.000 0.612
845.000 0.612
846.000 0.612
847.000 0.613
848.000 0.613
849.000 0.612
850.000 0.612
851.000 0.613
852.000 0.613
853.000 0.613
854.000 0.613
855.000 0.613
856.000 0.613
857.000 0.614
858.000 0.613
859.000 0.614
860.000 0.614
861.000 0.614
862.000 0.614
863.000 0.614
864.000 0.615
865.000 0.615
866.000 0.615
867.000 0.615
868.000 0.615
869.000 0.615
870.000 0.615
871.000 0.615
872.000 0.615
873.000 0.615
874.000 0.615
875.000 0.615
876.000 0.615
877.000 0.616
878.000 0.616
879.000 0.615
880.000 0.615
881.000 0.616
882.000 0.616
883.000 0.616
884.000 0.615
885.000 0.615
886.000 0.615
887.000 0.615
888.000 0.615
889.000 0.615
890.000 0.615
891.000 0.615
892.000 0.614
893.000 0.613
894.000 0.612
895.000 0.612
896.000 0.612
897.000 0.610
898.000 0.609
899.000 0.609
900.000 0.608
901.000 0.609
902.000 0.609
903.000 0.610
904.000 0.610
905.000 0.610
906.000 0.609
907.000 0.608
908.000 0.609
909.000 0.608
910.000 0.608
911.000 0.608
912.000 0.609
913.000 0.608
914.000 0.606
915.000 0.606
916.000 0.608
917.000 0.608
918.000 0.608
919.000 0.608
920.000 0.608
921.000 0.609
922.000 0.610
923.000 0.609
924.000 0.608
925.000 0.607
926.000 0.607
927.000 0.607
928.000 0.605
929.000 0.604
930.000 0.603
931.000 0.602
932.000 0.596
933.000 0.599
934.000 0.600
935.000 0.596
936.000 0.599
937.000 0.590
938.000 0.586
939.000 0.591
940.000 0.591
941.000 0.591
942.000 0.590
943.000 0.587
944.000 0.591
945.000 0.586
946.000 0.583
947.000 0.586
948.000 0.586
949.000 0.581
950.000 0.580
951.000 0.583
952.000 0.584
953.000 0.580
954.000 0.578
955.000 0.580
956.000 0.583
957.000 0.583
958.000 0.580
959.000 0.577
960.000 0.577
961.000 0.579
962.000 0.581
963.000 0.582
964.000 0.584
965.000 0.583
966.000 0.582
967.000 0.582
968.000 0.584
969.000 0.583
970.000 0.582
971.000 0.583
972.000 0.582
973.000 0.585
974.000 0.584
975.000 0.581
976.000 0.583
977.000 0.583
978.000 0.582
979.000 0.582
980.000 0.583
981.000 0.583
982.000 0.585
983.000 0.587
984.000 0.588
985.000 0.587
986.000 0.587
987.000 0.589
988.000 0.591
989.000 0.591
990.000 0.590
991.000 0.590
992.000 0.591
993.000 0.593
994.000 0.594
995.000 0.593
996.000 0.593
997.000 0.596
998.000 0.596
999.000 0.595
1000.000 0.596
1001.000 0.598
1002.000 0.598
1003.000 0.599
1004.000 0.601
1005.000 0.601
1006.000 0.602
1007.000 0.602
1008.000 0.602
1009.000 0.602
1010.000 0.603
1011.000 0.603
1012.000 0.604
1013.000 0.604
1014.000 0.604
1015.000 0.604
1016.000 0.605
1017.000 0.606
1018.000 0.606
1019.000 0.606
1020.000 0.606
1021.000 0.606
1022.000 0.605
1023.000 0.606
1024.000 0.607
1025.000 0.606
1026.000 0.607
1027.000 0.608
1028.000 0.609
1029.000 0.614
1030.000 0.615
1031.000 0.616
1032.000 0.615
1033.000 0.614
1034.000 0.615
1035.000 0.616
1036.000 0.616
1037.000 0.615
1038.000 0.615
1039.000 0.614
1040.000 0.615
1041.000 0.617
1042.000 0.617
1043.000 0.618
1044.000 0.618
1045.000 0.618
1046.000 0.619
1047.000 0.619
1048.000 0.619
1049.000 0.619
1050.000 0.619
1051.000 0.618
1052.000 0.619
1053.000 0.620
1054.000 0.621
1055.000 0.621
1056.000 0.622
1057.000 0.622
1058.000 0.622
1059.000 0.622
1060.000 0.621
1061.000 0.621
1062.000 0.620
1063.000 0.620
1064.000 0.621
1065.000 0.622
1066.000 0.623
1067.000 0.622
1068.000 0.621
1069.000 0.619
1070.000 0.619
1071.000 0.620
1072.000 0.620
1073.000 0.620
1074.000 0.620
1075.000 0.620
1076.000 0.620
1077.000 0.620
1078.000 0.621
1079.000 0.621
1080.000 0.621
1081.000 0.621
1082.000 0.620
1083.000 0.619
1084.000 0.619
1085.000 0.619
1086.000 0.619
1087.000 0.620
1088.000 0.620
1089.000 0.621
1090.000 0.621
1091.000 0.621
1092.000 0.622
1093.000 0.621
1094.000 0.620
1095.000 0.618
1096.000 0.618
1097.000 0.615
1098.000 0.614
1099.000 0.613
1100.000 0.611
1101.000 0.611
1102.000 0.610
1103.000 0.609
1104.000 0.609
1105.000 0.608
1106.000 0.608
1107.000 0.608
1108.000 0.608
1109.000 0.610
1110.000 0.610
1111.000 0.609
1112.000 0.609
1113.000 0.607
1114.000 0.604
1115.000 0.604
1116.000 0.602
1117.000 0.599
1118.000 0.597
1119.000 0.597
1120.000 0.600
1121.000 0.602
1122.000 0.603
1123.000 0.602
1124.000 0.599
1125.000 0.598
1126.000 0.596
1127.000 0.593
1128.000 0.594
1129.000 0.589
1130.000 0.586
1131.000 0.586
1132.000 0.588
1133.000 0.594
1134.000 0.592
1135.000 0.586
1136.000 0.581
1137.000 0.574
1138.000 0.570
1139.000 0.569
1140.000 0.569
1141.000 0.572
1142.000 0.572
1143.000 0.572
1144.000 0.571
1145.000 0.570
1146.000 0.567
1147.000 0.563
1148.000 0.562
1149.000 0.559
1150.000 0.554
1151.000 0.551
1152.000 0.550
1153.000 0.553
1154.000 0.554
1155.000 0.555
1156.000 0.556
1157.000 0.556
1158.000 0.555
1159.000 0.554
1160.000 0.554
1161.000 0.554
1162.000 0.554
1163.000 0.553
1164.000 0.552
1165.000 0.552
1166.000 0.552
1167.000 0.552
1168.000 0.552
1169.000 0.551
1170.000 0.550
1171.000 0.549
1172.000 0.549
1173.000 0.550
1174.000 0.551
1175.000 0.552
1176.000 0.552
1177.000 0.551
1178.000 0.551
1179.000 0.549
1180.000 0.549
1181.000 0.549
1182.000 0.549
1183.000 0.547
1184.000 0.548
1185.000 0.549
1186.000 0.550
1187.000 0.549
1188.000 0.550
1189.000 0.548
1190.000 0.548
1191.000 0.549
1192.000 0.549
1193.000 0.548
1194.000 0.548
1195.000 0.548
1196.000 0.547
1197.000 0.547
1198.000 0.548
1199.000 0.549
1200.000 0.550
1201.000 0.550
1202.000 0.550
1203.000 0.550
1204.000 0.550
1205.000 0.551
1206.000 0.551
1207.000 0.551
1208.000 0.551
1209.000 0.551
1210.000 0.551
1211.000 0.550
1212.000 0.550
1213.000 0.551
1214.000 0.551
1215.000 0.551
1216.000 0.551
1217.000 0.552
1218.000 0.553
1219.000 0.554
1220.000 0.554
1221.000 0.554
1222.000 0.554
1223.000 0.556
1224.000 0.556
1225.000 0.556
1226.000 0.557
1227.000 0.557
1228.000 0.557
1229.000 0.557
1230.000 0.557
1231.000 0.557
1232.000 0.557
1233.000 0.557
1234.000 0.556
1235.000 0.557
1236.000 0.559
1237.000 0.559
1238.000 0.560
1239.000 0.560
1240.000 0.560
1241.000 0.560
1242.000 0.559
1243.000 0.559
1244.000 0.560
1245.000 0.561
1246.000 0.562
1247.000 0.562
1248.000 0.563
1249.000 0.563
1250.000 0.563
1251.000 0.562
1252.000 0.562
1253.000 0.563
1254.000 0.563
1255.000 0.563
1256.000 0.562
1257.000 0.562
1258.000 0.562
1259.000 0.561
1260.000 0.561
1261.000 0.562
1262.000 0.562
1263.000 0.561
1264.000 0.561
1265.000 0.560
1266.000 0.560
1267.000 0.560
1268.000 0.561
1269.000 0.561
1270.000 0.561
1271.000 0.562
1272.000 0.562
1273.000 0.563
1274.000 0.563
1275.000 0.564
1276.000 0.564
1277.000 0.563
1278.000 0.563
1279.000 0.563
1280.000 0.563
1281.000 0.564
1282.000 0.565
1283.000 0.565
1284.000 0.564
1285.000 0.564
1286.000 0.563
1287.000 0.563
1288.000 0.563
1289.000 0.562
1290.000 0.562
1291.000 0.562
1292.000 0.561
1293.000 0.561
1294.000 0.559
1295.000 0.559
1296.000 0.558
1297.000 0.556
1298.000 0.556
1299.000 0.555
1300.000 0.554
1301.000 0.554
1302.000 0.553
1303.000 0.553
1304.000 0.552
1305.000 0.551
1306.000 0.550
1307.000 0.548
1308.000 0.546
1309.000 0.546
1310.000 0.545
1311.000 0.545
1312.000 0.543
1313.000 0.539
1314.000 0.537
1315.000 0.537
1316.000 0.535
1317.000 0.536
1318.000 0.535
1319.000 0.532
1320.000 0.528
1321.000 0.525
1322.000 0.520
1323.000 0.518
1324.000 0.517
1325.000 0.515
1326.000 0.517
1327.000 0.516
1328.000 0.515
1329.000 0.513
1330.000 0.510
1331.000 0.506
1332.000 0.500
1333.000 0.497
1334.000 0.492
1335.000 0.490
1336.000 0.493
1337.000 0.495
1338.000 0.501
1339.000 0.503
1340.000 0.503
1341.000 0.504
1342.000 0.502
1343.000 0.501
1344.000 0.500
1345.000 0.501
1346.000 0.503
1347.000 0.508
1348.000 0.516
1349.000 0.546
1350.000 0.569
1351.000 0.592
1352.000 0.636
1353.000 0.639
1354.000 0.696
1355.000 0.625
1356.000 0.573
1357.000 0.442
1358.000 0.375
1359.000 0.318
1360.000 0.261
1361.000 0.364
1362.000 0.349
1363.000 0.332
1364.000 0.362
1365.000 0.421
1366.000 0.507
1367.000 0.402
1368.000 0.470
1369.000 0.483
1370.000 0.416
1371.000 0.409
1372.000 0.490
1373.000 0.312
1374.000 0.431
1375.000 0.533
1376.000 0.515
1377.000 0.309
1378.000 0.103
1379.000 0.315
1380.000 0.353
1381.000 0.387
1382.000 0.279
1383.000 0.293
1384.000 0.466
1385.000 0.359
1386.000 0.416
1387.000 0.541
1388.000 0.591
1389.000 0.571
1390.000 0.672
1391.000 0.686
1392.000 0.526
1393.000 0.639
1394.000 0.540
1395.000 0.520
1396.000 0.553
1397.000 0.588
1398.000 0.301
1399.000 0.378
1400.000 0.599
1401.000 0.523
1402.000 0.458
1403.000 0.488
1404.000 0.357
1405.000 0.389
1406.000 0.350
1407.000 0.317
1408.000 0.310
1409.000 0.319
1410.000 0.434
1411.000 0.568
1412.000 0.666
1413.000 0.804
1414.000 0.779
1415.000 0.757
1416.000 0.650
1417.000 0.469
1418.000 0.439
1419.000 0.503
1420.000 0.503
1421.000 0.542
1422.000 0.519
1423.000 0.436
1424.000 0.408
1425.000 0.424
1426.000 0.404
1427.000 0.377
1428.000 0.356
1429.000 0.390
1430.000 0.295
1431.000 0.173
1432.000 0.139
1433.000 0.382
1434.000 0.526
1435.000 0.565
1436.000 0.455
1437.000 0.315
1438.000 0.204
1439.000 0.245
1440.000 0.210
1441.000 0.197
1442.000 0.227
1443.000 0.265
1444.000 0.252
1445.000 0.158
1446.000 0.156
1447.000 0.161
1448.000 0.162
1449.000 0.169
1450.000 0.194
1451.000 0.209
1452.000 0.221
1453.000 0.221
1454.000 0.242
1455.000 0.237
1456.000 0.220
1457.000 0.213
1458.000 0.200
1459.000 0.193
1460.000 0.183
1461.000 0.193
1462.000 0.221
1463.000 0.232
1464.000 0.245
1465.000 0.255
1466.000 0.257
1467.000 0.250
1468.000 0.247
1469.000 0.237
1470.000 0.208
1471.000 0.188
1472.000 0.165
1473.000 0.162
1474.000 0.165
1475.000 0.178
1476.000 0.247
1477.000 0.264
1478.000 0.234
1479.000 0.235
1480.000 0.217
1481.000 0.219
1482.000 0.246
1483.000 0.249
1484.000 0.238
1485.000 0.233
1486.000 0.220
1487.000 0.218
1488.000 0.227
1489.000 0.228
1490.000 0.230
1491.000 0.234
1492.000 0.242
1493.000 0.242
1494.000 0.239
1495.000 0.238
1496.000 0.227
1497.000 0.225
1498.000 0.232
1499.000 0.234
1500.000 0.236
1501.000 0.241
1502.000 0.240
1503.000 0.240
1504.000 0.242
1505.000 0.242
1506.000 0.243
1507.000 0.243
1508.000 0.247
1509.000 0.255
1510.000 0.256
1511.000 0.254
1512.000 0.255
1513.000 0.253
1514.000 0.253
1515.000 0.256
1516.000 0.258
1517.000 0.258
1518.000 0.260
1519.000 0.266
1520.000 0.267
1521.000 0.266
1522.000 0.268
1523.000 0.270
1524.000 0.271
1525.000 0.276
1526.000 0.275
1527.000 0.272
1528.000 0.271
1529.000 0.268
1530.000 0.269
1531.000 0.273
1532.000 0.276
1533.000 0.282
1534.000 0.285
1535.000 0.287
1536.000 0.288
1537.000 0.289
1538.000 0.291
1539.000 0.294
1540.000 0.295
1541.000 0.295
1542.000 0.296
1543.000 0.298
1544.000 0.299
1545.000 0.302
1546.000 0.304
1547.000 0.306
1548.000 0.308
1549.000 0.312
1550.000 0.314
1551.000 0.313
1552.000 0.313
1553.000 0.311
1554.000 0.312
1555.000 0.315
1556.000 0.318
1557.000 0.323
1558.000 0.325
1559.000 0.324
1560.000 0.324
1561.000 0.325
1562.000 0.326
1563.000 0.328
1564.000 0.329
1565.000 0.328
1566.000 0.329
1567.000 0.330
1568.000 0.331
1569.000 0.333
1570.000 0.335
1571.000 0.337
1572.000 0.339
1573.000 0.343
1574.000 0.345
1575.000 0.342
1576.000 0.343
1577.000 0.345
1578.000 0.347
1579.000 0.352
1580.000 0.355
1581.000 0.355
1582.000 0.356
1583.000 0.354
1584.000 0.353
1585.000 0.353
1586.000 0.353
1587.000 0.354
1588.000 0.355
1589.000 0.357
1590.000 0.359
1591.000 0.362
1592.000 0.363
1593.000 0.364
1594.000 0.366
1595.000 0.368
1596.000 0.368
1597.000 0.370
1598.000 0.370
1599.000 0.370
1600.000 0.369
1601.000 0.370
1602.000 0.369
1603.000 0.367
1604.000 0.368
1605.000 0.367
1606.000 0.368
1607.000 0.372
1608.000 0.374
1609.000 0.376
1610.000 0.376
1611.000 0.375
1612.000 0.373
1613.000 0.372
1614.000 0.371
1615.000 0.372
1616.000 0.373
1617.000 0.374
1618.000 0.375
1619.000 0.376
1620.000 0.376
1621.000 0.376
1622.000 0.376
1623.000 0.376
1624.000 0.376
1625.000 0.376
1626.000 0.378
1627.000 0.381
1628.000 0.382
1629.000 0.385
1630.000 0.387
1631.000 0.388
1632.000 0.390
1633.000 0.393
1634.000 0.394
1635.000 0.392
1636.000 0.392
1637.000 0.392
1638.000 0.391
1639.000 0.392
1640.000 0.394
1641.000 0.395
1642.000 0.396
1643.000 0.395
1644.000 0.396
1645.000 0.398
1646.000 0.399
1647.000 0.403
1648.000 0.404
1649.000 0.402
1650.000 0.402
1651.000 0.400
1652.000 0.399
1653.000 0.400
1654.000 0.400
1655.000 0.398
1656.000 0.398
1657.000 0.400
1658.000 0.400
1659.000 0.399
1660.000 0.400
1661.000 0.404
1662.000 0.404
1663.000 0.404
1664.000 0.404
1665.000 0.398
1666.000 0.397
1667.000 0.397
1668.000 0.398
1669.000 0.402
1670.000 0.402
1671.000 0.400
1672.000 0.401
1673.000 0.402
1674.000 0.402
1675.000 0.404
1676.000 0.403
1677.000 0.399
1678.000 0.397
1679.000 0.394
1680.000 0.393
1681.000 0.393
1682.000 0.393
1683.000 0.397
1684.000 0.397
1685.000 0.396
1686.000 0.397
1687.000 0.401
1688.000 0.401
1689.000 0.401
1690.000 0.402
1691.000 0.396
1692.000 0.394
1693.000 0.396
1694.000 0.398
1695.000 0.404
1696.000 0.405
1697.000 0.403
1698.000 0.402
1699.000 0.396
1700.000 0.395
1701.000 0.399
1702.000 0.397
1703.000 0.394
1704.000 0.393
1705.000 0.390
1706.000 0.391
1707.000 0.398
1708.000 0.399
1709.000 0.401
1710.000 0.399
1711.000 0.391
1712.000 0.387
1713.000 0.385
1714.000 0.383
1715.000 0.385
1716.000 0.387
1717.000 0.384
1718.000 0.383
1719.000 0.382
1720.000 0.382
1721.000 0.387
1722.000 0.387
1723.000 0.387
1724.000 0.387
1725.000 0.385
1726.000 0.387
1727.000 0.388
1728.000 0.387
1729.000 0.387
1730.000 0.385
1731.000 0.382
1732.000 0.378
1733.000 0.374
1734.000 0.372
1735.000 0.373
1736.000 0.374
1737.000 0.375
1738.000 0.378
1739.000 0.378
1740.000 0.379
1741.000 0.380
1742.000 0.377
1743.000 0.376
1744.000 0.375
1745.000 0.375
1746.000 0.377
1747.000 0.379
1748.000 0.384
1749.000 0.382
1750.000 0.375
1751.000 0.371
1752.000 0.363
1753.000 0.359
1754.000 0.357
1755.000 0.357
1756.000 0.360
1757.000 0.362
1758.000 0.367
1759.000 0.363
1760.000 0.358
1761.000 0.358
1762.000 0.353
1763.000 0.355
1764.000 0.359
1765.000 0.358
1766.000 0.357
1767.000 0.357
1768.000 0.359
1769.000 0.362
1770.000 0.368
1771.000 0.375
1772.000 0.372
1773.000 0.362
1774.000 0.355
1775.000 0.353
1776.000 0.348
1777.000 0.346
1778.000 0.360
1779.000 0.376
1780.000 0.394
1781.000 0.415
1782.000 0.419
1783.000 0.394
1784.000 0.381
1785.000 0.361
1786.000 0.352
1787.000 0.354
1788.000 0.344
1789.000 0.325
1790.000 0.321
1791.000 0.315
1792.000 0.335
1793.000 0.381
1794.000 0.425
1795.000 0.439
1796.000 0.534
1797.000 0.496
1798.000 0.531
1799.000 0.570
1800.000 0.433
1801.000 0.465
1802.000 0.437
1803.000 0.430
1804.000 0.579
1805.000 0.717
1806.000 0.728
1807.000 0.694
1808.000 0.643
1809.000 0.657
1810.000 0.658
1811.000 0.632
1812.000 0.606
1813.000 0.468
1814.000 0.546
1815.000 0.695
1816.000 0.709
1817.000 0.731
1818.000 0.678
1819.000 0.454
1820.000 0.480
1821.000 0.454
1822.000 0.431
1823.000 0.401
1824.000 0.378
1825.000 0.343
1826.000 0.319
1827.000 0.320
1828.000 0.493
1829.000 0.454
1830.000 0.318
1831.000 0.219
1832.000 0.173
1833.000 0.316
1834.000 0.470
1835.000 0.635
1836.000 0.470
1837.000 0.282
1838.000 0.306
1839.000 0.305
1840.000 0.255
1841.000 0.496
1842.000 0.756
1843.000 0.469
1844.000 0.572
1845.000 0.483
1846.000 0.710
1847.000 0.392
1848.000 0.607
1849.000 0.520
1850.000 0.398
1851.000 0.355
1852.000 0.282
1853.000 0.494
1854.000 0.540
1855.000 0.417
1856.000 0.305
1857.000 0.234
1858.000 0.312
1859.000 0.250
1860.000 0.209
1861.000 0.213
1862.000 0.202
1863.000 0.204
1864.000 0.239
1865.000 0.440
1866.000 0.734
1867.000 0.486
1868.000 0.577
1869.000 0.673
1870.000 0.452
1871.000 0.372
1872.000 0.222
1873.000 0.163
1874.000 0.157
1875.000 0.191
1876.000 0.155
1877.000 0.147
1878.000 0.266
1879.000 0.441
1880.000 0.410
1881.000 0.415
1882.000 0.525
1883.000 0.589
1884.000 0.573
1885.000 0.416
1886.000 0.649
1887.000 0.692
1888.000 0.601
1889.000 0.466
1890.000 0.301
1891.000 0.212
1892.000 0.197
1893.000 0.131
1894.000 0.236
1895.000 0.399
1896.000 0.413
1897.000 0.299
1898.000 0.336
1899.000 0.141
1900.000 0.167
1901.000 0.423
1902.000 0.443
1903.000 0.441
1904.000 0.454
1905.000 0.504
1906.000 0.407
1907.000 0.292
1908.000 0.154
1909.000 0.159
1910.000 0.184
1911.000 0.236
1912.000 0.545
1913.000 0.560
1914.000 0.584
1915.000 0.611
1916.000 0.574
1917.000 0.420
1918.000 0.444
1919.000 0.440
1920.000 0.540
1921.000 0.605
1922.000 0.587
1923.000 0.626
1924.000 0.384
1925.000 0.525
1926.000 0.511
1927.000 0.437
1928.000 0.416
1929.000 0.362
1930.000 0.305
1931.000 0.732
1932.000 0.619
1933.000 0.553
1934.000 0.387
1935.000 0.346
1936.000 0.455
1937.000 0.211
1938.000 0.312
1939.000 0.467
1940.000 0.706
1941.000 0.293
1942.000 0.210
1943.000 0.483
1944.000 0.689
1945.000 0.592
1946.000 0.496
1947.000 0.505
1948.000 0.387
1949.000 0.346
1950.000 0.327
1951.000 0.842
1952.000 0.683
1953.000 0.427
1954.000 0.411
1955.000 0.323
1956.000 0.375
1957.000 0.639
1958.000 0.641
1959.000 0.583
1960.000 0.445
1961.000 0.441
1962.000 0.340
1963.000 0.343
1964.000 0.425
1965.000 0.274
1966.000 0.237
1967.000 0.257
1968.000 0.260
1969.000 0.322
1970.000 0.506
1971.000 0.489
1972.000 0.387
1973.000 0.498
1974.000 0.380
1975.000 0.285
1976.000 0.478
1977.000 0.470
1978.000 0.308
1979.000 0.372
1980.000 0.443
1981.000 0.374
1982.000 0.262
1983.000 0.165
1984.000 0.584
1985.000 0.421
1986.000 0.363
1987.000 0.316
1988.000 0.298
1989.000 0.242
1990.000 0.232
1991.000 0.231
1992.000 0.230
1993.000 0.238
1994.000 0.346
1995.000 0.317
1996.000 0.285
1997.000 0.285
1998.000 0.308
1999.000 0.334
2000.000 0.472
2001.000 0.514
2002.000 0.488
2003.000 0.460
2004.000 0.484
2005.000 0.348
2006.000 0.186
2007.000 0.227
2008.000 0.332
2009.000 0.324
2010.000 0.470
2011.000 0.445
2012.000 0.418
2013.000 0.303
2014.000 0.304
2015.000 0.256
2016.000 0.271
2017.000 0.262
2018.000 0.231
2019.000 0.166
2020.000 0.294
2021.000 0.241
2022.000 0.218
2023.000 0.305
2024.000 0.403
2025.000 0.405
2026.000 0.380
2027.000 0.348
2028.000 0.272
2029.000 0.233
2030.000 0.197
2031.000 0.178
2032.000 0.197
2033.000 0.193
2034.000 0.195
2035.000 0.180
2036.000 0.169
2037.000 0.151
2038.000 0.127
2039.000 0.129
2040.000 0.138
2041.000 0.170
2042.000 0.183
2043.000 0.194
2044.000 0.219
2045.000 0.246
2046.000 0.264
2047.000 0.277
2048.000 0.289
2049.000 0.301
2050.000 0.298
2051.000 0.284
2052.000 0.296
2053.000 0.283
2054.000 0.315
2055.000 0.349
2056.000 0.346
2057.000 0.328
2058.000 0.249
2059.000 0.249
2060.000 0.245
2061.000 0.250
2062.000 0.290
2063.000 0.301
2064.000 0.311
2065.000 0.284
2066.000 0.232
2067.000 0.180
2068.000 0.160
2069.000 0.148
2070.000 0.162
2071.000 0.198
2072.000 0.209
2073.000 0.235
2074.000 0.224
2075.000 0.179
2076.000 0.163
2077.000 0.150
2078.000 0.144
2079.000 0.151
2080.000 0.158
2081.000 0.170
2082.000 0.178
2083.000 0.190
2084.000 0.196
2085.000 0.172
2086.000 0.168
2087.000 0.176
2088.000 0.193
2089.000 0.211
2090.000 0.271
2091.000 0.285
2092.000 0.264
2093.000 0.263
2094.000 0.242
2095.000 0.240
2096.000 0.263
2097.000 0.268
2098.000 0.268
2099.000 0.260
2100.000 0.250
2101.000 0.219
2102.000 0.201
2103.000 0.200
2104.000 0.198
2105.000 0.203
2106.000 0.209
2107.000 0.222
2108.000 0.226
2109.000 0.236
2110.000 0.240
2111.000 0.232
2112.000 0.237
2113.000 0.249
2114.000 0.253
2115.000 0.259
2116.000 0.267
2117.000 0.272
2118.000 0.277
2119.000 0.264
2120.000 0.281
2121.000 0.286
2122.000 0.259
2123.000 0.249
2124.000 0.236
2125.000 0.234
2126.000 0.234
2127.000 0.242
2128.000 0.271
2129.000 0.275
2130.000 0.271
2131.000 0.269
2132.000 0.252
2133.000 0.247
2134.000 0.254
2135.000 0.256
2136.000 0.257
2137.000 0.264
2138.000 0.262
2139.000 0.263
2140.000 0.272
2141.000 0.280
2142.000 0.283
2143.000 0.287
2144.000 0.281
2145.000 0.263
2146.000 0.251
2147.000 0.234
2148.000 0.224
2149.000 0.210
2150.000 0.211
2151.000 0.223
2152.000 0.231
2153.000 0.252
2154.000 0.268
2155.000 0.278
2156.000 0.295
2157.000 0.305
2158.000 0.305
2159.000 0.309
2160.000 0.291
2161.000 0.280
2162.000 0.267
2163.000 0.258
2164.000 0.242
2165.000 0.236
2166.000 0.240
2167.000 0.239
2168.000 0.237
2169.000 0.238
2170.000 0.244
2171.000 0.244
2172.000 0.246
2173.000 0.246
2174.000 0.235
2175.000 0.238
2176.000 0.258
2177.000 0.259
2178.000 0.274
2179.000 0.295
2180.000 0.276
2181.000 0.273
2182.000 0.277
2183.000 0.263
2184.000 0.266
2185.000 0.290
2186.000 0.287
2187.000 0.274
2188.000 0.269
2189.000 0.249
2190.000 0.244
2191.000 0.245
2192.000 0.246
2193.000 0.252
2194.000 0.258
2195.000 0.274
2196.000 0.280
2197.000 0.285
2198.000 0.280
2199.000 0.255
2200.000 0.246
2201.000 0.240
2202.000 0.230
2203.000 0.232
2204.000 0.240
2205.000 0.234
2206.000 0.226
2207.000 0.218
2208.000 0.209
2209.000 0.207
2210.000 0.212
2211.000 0.214
2212.000 0.221
2213.000 0.227
2214.000 0.234
2215.000 0.245
2216.000 0.269
2217.000 0.276
2218.000 0.275
2219.000 0.273
2220.000 0.257
2221.000 0.251
2222.000 0.251
2223.000 0.252
2224.000 0.265
2225.000 0.264
2226.000 0.263
2227.000 0.242
2228.000 0.218
2229.000 0.208
2230.000 0.200
2231.000 0.208
2232.000 0.220
2233.000 0.224
2234.000 0.242
2235.000 0.263
2236.000 0.274
2237.000 0.291
2238.000 0.298
2239.000 0.290
2240.000 0.281
2241.000 0.277
2242.000 0.259
2243.000 0.214
2244.000 0.204
2245.000 0.201
2246.000 0.214
2247.000 0.245
2248.000 0.261
2249.000 0.271
2250.000 0.276
2251.000 0.270
2252.000 0.269
2253.000 0.267
2254.000 0.263
2255.000 0.267
2256.000 0.256
2257.000 0.230
2258.000 0.212
2259.000 0.198
2260.000 0.183
2261.000 0.196
2262.000 0.218
2263.000 0.228
2264.000 0.247
2265.000 0.259
2266.000 0.254
2267.000 0.244
2268.000 0.250
2269.000 0.227
2270.000 0.217
2271.000 0.227
2272.000 0.203
2273.000 0.200
2274.000 0.200
2275.000 0.209
2276.000 0.237
2277.000 0.248
2278.000 0.281
2279.000 0.273
2280.000 0.216
2281.000 0.205
2282.000 0.191
2283.000 0.201
2284.000 0.262
2285.000 0.275
2286.000 0.255
2287.000 0.246
2288.000 0.262
2289.000 0.260
2290.000 0.306
2291.000 0.307
2292.000 0.219
2293.000 0.225
2294.000 0.223
2295.000 0.238
2296.000 0.313
2297.000 0.393
2298.000 0.369
2299.000 0.359
2300.000 0.277
2301.000 0.244
2302.000 0.241
2303.000 0.189
2304.000 0.181
2305.000 0.188
2306.000 0.199
2307.000 0.205
2308.000 0.242
2309.000 0.271
2310.000 0.257
2311.000 0.197
2312.000 0.192
2313.000 0.219
2314.000 0.250
2315.000 0.244
2316.000 0.359
2317.000 0.326
2318.000 0.327
2319.000 0.334
2320.000 0.222
2321.000 0.192
2322.000 0.181
2323.000 0.220
2324.000 0.210
2325.000 0.175
2326.000 0.188
2327.000 0.150
2328.000 0.149
2329.000 0.187
2330.000 0.169
2331.000 0.192
2332.000 0.222
2333.000 0.128
2334.000 0.144
2335.000 0.178
2336.000 0.187
2337.000 0.329
2338.000 0.370
2339.000 0.270
2340.000 0.263
2341.000 0.203
2342.000 0.179
2343.000 0.217
2344.000 0.207
2345.000 0.127
2346.000 0.132
2347.000 0.134
2348.000 0.131
2349.000 0.125
2350.000 0.161
2351.000 0.195
2352.000 0.262
2353.000 0.264
2354.000 0.646
2355.000 0.300
2356.000 0.327
2357.000 0.224
2358.000 0.458
2359.000 0.399
2360.000 0.351
2361.000 0.267
2362.000 0.268
2363.000 0.277
2364.000 0.211
2365.000 0.252
2366.000 0.274
2367.000 0.420
2368.000 0.342
2369.000 0.297
2370.000 0.253
2371.000 0.196
2372.000 0.133
2373.000 0.217
2374.000 0.277
2375.000 0.094
2376.000 0.214
2377.000 0.322
2378.000 0.547
2379.000 0.581
2380.000 0.483
2381.000 0.497
2382.000 0.447
2383.000 0.370
2384.000 0.535
2385.000 0.254
2386.000 0.330
2387.000 0.259
2388.000 0.352
2389.000 0.536
2390.000 0.656
2391.000 0.814
2392.000 0.573
2393.000 0.236
2394.000 0.245
2395.000 0.397
2396.000 0.155
2397.000 0.322
2398.000 0.385
2399.000 0.359
2400.000 0.401
2401.000 0.384
2402.000 0.409
2403.000 0.306
2404.000 0.193
2405.000 0.352
2406.000 0.421
2407.000 0.460
2408.000 0.454
2409.000 0.491
2410.000 0.493
2411.000 0.526
2412.000 0.620
2413.000 0.521
2414.000 0.276
2415.000 0.227
2416.000 0.406
2417.000 0.520
2418.000 0.461
2419.000 0.553
2420.000 0.652
2421.000 0.480
2422.000 0.549
2423.000 0.586
2424.000 0.734
2425.000 0.324
2426.000 0.311
2427.000 0.360
2428.000 0.411
2429.000 0.435
2430.000 0.442
2431.000 0.481
2432.000 0.207
2433.000 0.211
2434.000 0.233
2435.000 0.375
2436.000 0.377
2437.000 0.382
2438.000 0.355
2439.000 0.505
2440.000 0.424
2441.000 0.406
2442.000 0.335
2443.000 0.288
2444.000 0.480
2445.000 0.528
2446.000 0.568
2447.000 0.517
2448.000 0.376
2449.000 0.392
2450.000 0.676
2451.000 0.563
2452.000 0.402
2453.000 0.632
2454.000 0.753
2455.000 0.662
2456.000 0.801
2457.000 0.728
2458.000 0.910
2459.000 0.858
2460.000 0.775
2461.000 0.775
2462.000 0.672
2463.000 0.643
2464.000 0.557
2465.000 0.539
2466.000 0.371
2467.000 0.246
2468.000 0.170
2469.000 0.405
2470.000 0.400
2471.000 0.321
2472.000 0.263
2473.000 0.191
2474.000 0.335
2475.000 0.423
2476.000 0.444
2477.000 0.475
2478.000 0.470
2479.000 0.486
2480.000 0.565
2481.000 0.742
2482.000 0.566
2483.000 0.386
2484.000 0.290
2485.000 0.246
2486.000 0.332
2487.000 0.699
2488.000 0.629
2489.000 0.562
2490.000 0.478
2491.000 0.389
2492.000 0.377
2493.000 0.379
2494.000 0.334
2495.000 0.321
2496.000 0.343
2497.000 0.396
2498.000 0.492
2499.000 0.548
2500.000 0.732
