391.000 0.019
392.000 0.018
393.000 0.014
394.000 0.014
395.000 0.015
396.000 0.016
397.000 0.017
398.000 0.015
399.000 0.016
400.000 0.017
401.000 0.016
402.000 0.016
403.000 0.015
404.000 0.015
405.000 0.016
406.000 0.016
407.000 0.015
408.000 0.015
409.000 0.017
410.000 0.017
411.000 0.016
412.000 0.017
413.000 0.016
414.000 0.015
415.000 0.015
416.000 0.016
417.000 0.016
418.000 0.015
419.000 0.016
420.000 0.016
421.000 0.016
422.000 0.015
423.000 0.016
424.000 0.016
425.000 0.016
426.000 0.016
427.000 0.015
428.000 0.016
429.000 0.017
430.000 0.016
431.000 0.016
432.000 0.016
433.000 0.016
434.000 0.016
435.000 0.016
436.000 0.016
437.000 0.016
438.000 0.016
439.000 0.016
440.000 0.016
441.000 0.016
442.000 0.016
443.000 0.016
444.000 0.016
445.000 0.016
446.000 0.016
447.000 0.017
448.000 0.017
449.000 0.016
450.000 0.016
451.000 0.016
452.000 0.016
453.000 0.016
454.000 0.016
455.000 0.017
456.000 0.016
457.000 0.016
458.000 0.016
459.000 0.016
460.000 0.017
461.000 0.017
462.000 0.017
463.000 0.016
464.000 0.016
465.000 0.016
466.000 0.016
467.000 0.017
468.000 0.017
469.000 0.017
470.000 0.016
471.000 0.016
472.000 0.016
473.000 0.016
474.000 0.016
475.000 0.016
476.000 0.016
477.000 0.016
478.000 0.016
479.000 0.016
480.000 0.016
481.000 0.016
482.000 0.016
483.000 0.016
484.000 0.016
485.000 0.016
486.000 0.016
487.000 0.017
488.000 0.017
489.000 0.017
490.000 0.017
491.000 0.017
492.000 0.017
493.000 0.016
494.000 0.017
495.000 0.017
496.000 0.017
497.000 0.017
498.000 0.017
499.000 0.016
500.000 0.017
501.000 0.018
502.000 0.018
503.000 0.018
504.000 0.018
505.000 0.019
506.000 0.019
507.000 0.020
508.000 0.020
509.000 0.020
510.000 0.021
511.000 0.021
512.000 0.022
513.000 0.023
514.000 0.024
515.000 0.025
516.000 0.026
517.000 0.026
518.000 0.028
519.000 0.030
520.000 0.031
521.000 0.033
522.000 0.033
523.000 0.035
524.000 0.036
525.000 0.037
526.000 0.039
527.000 0.040
528.000 0.042
529.000 0.042
530.000 0.044
531.000 0.044
532.000 0.046
533.000 0.047
534.000 0.048
535.000 0.048
536.000 0.049
537.000 0.049
538.000 0.049
539.000 0.050
540.000 0.049
541.000 0.051
542.000 0.051
543.000 0.051
544.000 0.051
545.000 0.051
546.000 0.051
547.000 0.051
548.000 0.052
549.000 0.052
550.000 0.052
551.000 0.052
552.000 0.052
553.000 0.052
554.000 0.051
555.000 0.052
556.000 0.051
557.000 0.051
558.000 0.051
559.000 0.050
560.000 0.049
561.000 0.049
562.000 0.048
563.000 0.047
564.000 0.046
565.000 0.046
566.000 0.044
567.000 0.044
568.000 0.043
569.000 0.042
570.000 0.041
571.000 0.040
572.000 0.039
573.000 0.038
574.000 0.037
575.000 0.036
576.000 0.036
577.000 0.035
578.000 0.035
579.000 0.034
580.000 0.034
581.000 0.034
582.000 0.033
583.000 0.032
584.000 0.032
585.000 0.032
586.000 0.031
587.000 0.031
588.000 0.030
589.000 0.029
590.000 0.029
591.000 0.029
592.000 0.029
593.000 0.028
594.000 0.029
595.000 0.028
596.000 0.028
597.000 0.028
598.000 0.028
599.000 0.028
600.000 0.027
601.000 0.028
602.000 0.028
603.000 0.027
604.000 0.027
605.000 0.027
606.000 0.026
607.000 0.026
608.000 0.026
609.000 0.025
610.000 0.025
611.000 0.025
612.000 0.025
613.000 0.024
614.000 0.024
615.000 0.024
616.000 0.024
617.000 0.023
618.000 0.023
619.000 0.023
620.000 0.023
621.000 0.023
622.000 0.022
623.000 0.022
624.000 0.022
625.000 0.022
626.000 0.022
627.000 0.023
628.000 0.022
629.000 0.022
630.000 0.022
631.000 0.022
632.000 0.022
633.000 0.022
634.000 0.022
635.000 0.022
636.000 0.021
637.000 0.021
638.000 0.021
639.000 0.020
640.000 0.020
641.000 0.020
642.000 0.019
643.000 0.019
644.000 0.019
645.000 0.019
646.000 0.018
647.000 0.017
648.000 0.017
649.000 0.018
650.000 0.017
651.000 0.017
652.000 0.017
653.000 0.018
654.000 0.017
655.000 0.017
656.000 0.017
657.000 0.017
658.000 0.017
659.000 0.017
660.000 0.016
661.000 0.016
662.000 0.017
663.000 0.017
664.000 0.016
665.000 0.016
666.000 0.016
667.000 0.016
668.000 0.017
669.000 0.017
670.000 0.016
671.000 0.016
672.000 0.016
673.000 0.017
674.000 0.016
675.000 0.017
676.000 0.017
677.000 0.018
678.000 0.017
679.000 0.017
680.000 0.017
681.000 0.018
682.000 0.019
683.000 0.019
684.000 0.020
685.000 0.020
686.000 0.021
687.000 0.022
688.000 0.023
689.000 0.024
690.000 0.025
691.000 0.026
692.000 0.027
693.000 0.030
694.000 0.033
695.000 0.036
696.000 0.040
697.000 0.044
698.000 0.048
699.000 0.052
700.000 0.057
701.000 0.063
702.000 0.069
703.000 0.074
704.000 0.080
705.000 0.086
706.000 0.091
707.000 0.097
708.000 0.103
709.000 0.109
710.000 0.115
711.000 0.122
712.000 0.128
713.000 0.135
714.000 0.142
715.000 0.149
716.000 0.156
717.000 0.163
718.000 0.171
719.000 0.180
720.000 0.189
721.000 0.197
722.000 0.204
723.000 0.212
724.000 0.220
725.000 0.228
726.000 0.237
727.000 0.245
728.000 0.254
729.000 0.261
730.000 0.269
731.000 0.277
732.000 0.285
733.000 0.292
734.000 0.299
735.000 0.305
736.000 0.312
737.000 0.318
738.000 0.324
739.000 0.330
740.000 0.336
741.000 0.341
742.000 0.346
743.000 0.350
744.000 0.355
745.000 0.359
746.000 0.363
747.000 0.366
748.000 0.370
749.000 0.372
750.000 0.376
751.000 0.378
752.000 0.381
753.000 0.383
754.000 0.385
755.000 0.387
756.000 0.389
757.000 0.390
758.000 0.391
759.000 0.393
760.000 0.394
761.000 0.396
762.000 0.397
763.000 0.398
764.000 0.398
765.000 0.399
766.000 0.400
767.000 0.401
768.000 0.402
769.000 0.403
770.000 0.403
771.000 0.404
772.000 0.405
773.000 0.406
774.000 0.406
775.000 0.407
776.000 0.407
777.000 0.408
778.000 0.408
779.000 0.409
780.000 0.409
781.000 0.410
782.000 0.410
783.000 0.411
784.000 0.411
785.000 0.411
786.000 0.412
787.000 0.412
788.000 0.412
789.000 0.413
790.000 0.413
791.000 0.414
792.000 0.414
793.000 0.414
794.000 0.415
795.000 0.415
796.000 0.416
797.000 0.416
798.000 0.416
799.000 0.417
800.000 0.417
801.000 0.417
802.000 0.418
803.000 0.418
804.000 0.419
805.000 0.419
806.000 0.420
807.000 0.420
808.000 0.420
809.000 0.420
810.000 0.420
811.000 0.420
812.000 0.421
813.000 0.421
814.000 0.421
815.000 0.421
816.000 0.422
817.000 0.422
818.000 0.423
819.000 0.423
820.000 0.423
821.000 0.424
822.000 0.424
823.000 0.425
824.000 0.425
825.000 0.426
826.000 0.426
827.000 0.426
828.000 0.426
829.000 0.427
830.000 0.427
831.000 0.427
832.000 0.428
833.000 0.428
834.000 0.429
835.000 0.429
836.000 0.429
837.000 0.430
838.000 0.430
839.000 0.430
840.000 0.431
841.000 0.431
842.000 0.431
843.000 0.432
844.000 0.433
845.000 0.433
846.000 0.433
847.000 0.433
848.000 0.434
849.000 0.434
850.000 0.434
851.000 0.435
852.000 0.435
853.000 0.435
854.000 0.436
855.000 0.436
856.000 0.436
857.000 0.436
858.000 0.437
859.000 0.437
860.000 0.437
861.000 0.438
862.000 0.438
863.000 0.438
864.000 0.438
865.000 0.438
866.000 0.439
867.000 0.439
868.000 0.439
869.000 0.439
870.000 0.440
871.000 0.441
872.000 0.441
873.000 0.441
874.000 0.441
875.000 0.441
876.000 0.442
877.000 0.442
878.000 0.442
879.000 0.442
880.000 0.442
881.000 0.442
882.000 0.443
883.000 0.443
884.000 0.443
885.000 0.444
886.000 0.444
887.000 0.444
888.000 0.445
889.000 0.445
890.000 0.445
891.000 0.444
892.000 0.445
893.000 0.445
894.000 0.445
895.000 0.445
896.000 0.445
897.000 0.444
898.000 0.445
899.000 0.445
900.000 0.445
901.000 0.445
902.000 0.446
903.000 0.446
904.000 0.445
905.000 0.446
906.000 0.446
907.000 0.446
908.000 0.447
909.000 0.446
910.000 0.447
911.000 0.447
912.000 0.447
913.000 0.447
914.000 0.447
915.000 0.448
916.000 0.449
917.000 0.449
918.000 0.449
919.000 0.450
920.000 0.449
921.000 0.449
922.000 0.449
923.000 0.449
924.000 0.449
925.000 0.450
926.000 0.449
927.000 0.448
928.000 0.449
929.000 0.448
930.000 0.448
931.000 0.449
932.000 0.448
933.000 0.448
934.000 0.447
935.000 0.444
936.000 0.447
937.000 0.448
938.000 0.446
939.000 0.443
940.000 0.445
941.000 0.443
942.000 0.442
943.000 0.444
944.000 0.445
945.000 0.444
946.000 0.442
947.000 0.441
948.000 0.443
949.000 0.440
950.000 0.438
951.000 0.439
952.000 0.440
953.000 0.437
954.000 0.434
955.000 0.434
956.000 0.435
957.000 0.436
958.000 0.435
959.000 0.433
960.000 0.432
961.000 0.435
962.000 0.435
963.000 0.432
964.000 0.432
965.000 0.432
966.000 0.433
967.000 0.434
968.000 0.433
969.000 0.435
970.000 0.436
971.000 0.435
972.000 0.435
973.000 0.434
974.000 0.433
975.000 0.434
976.000 0.434
977.000 0.435
978.000 0.436
979.000 0.436
980.000 0.435
981.000 0.437
982.000 0.437
983.000 0.435
984.000 0.437
985.000 0.438
986.000 0.439
987.000 0.439
988.000 0.440
989.000 0.440
990.000 0.440
991.000 0.442
992.000 0.443
993.000 0.440
994.000 0.442
995.000 0.444
996.000 0.444
997.000 0.444
998.000 0.444
999.000 0.446
1000.000 0.447
1001.000 0.452
1002.000 0.452
1003.000 0.452
1004.000 0.452
1005.000 0.452
1006.000 0.452
1007.000 0.453
1008.000 0.453
1009.000 0.454
1010.000 0.454
1011.000 0.455
1012.000 0.456
1013.000 0.457
1014.000 0.458
1015.000 0.459
1016.000 0.459
1017.000 0.459
1018.000 0.460
1019.000 0.461
1020.000 0.461
1021.000 0.462
1022.000 0.462
1023.000 0.463
1024.000 0.464
1025.000 0.464
1026.000 0.465
1027.000 0.466
1028.000 0.466
1029.000 0.466
1030.000 0.467
1031.000 0.468
1032.000 0.469
1033.000 0.469
1034.000 0.469
1035.000 0.469
1036.000 0.469
1037.000 0.469
1038.000 0.470
1039.000 0.472
1040.000 0.472
1041.000 0.473
1042.000 0.474
1043.000 0.474
1044.000 0.475
1045.000 0.475
1046.000 0.476
1047.000 0.476
1048.000 0.476
1049.000 0.477
1050.000 0.477
1051.000 0.477
1052.000 0.478
1053.000 0.478
1054.000 0.478
1055.000 0.479
1056.000 0.479
1057.000 0.479
1058.000 0.479
1059.000 0.479
1060.000 0.479
1061.000 0.480
1062.000 0.480
1063.000 0.481
1064.000 0.482
1065.000 0.483
1066.000 0.482
1067.000 0.482
1068.000 0.483
1069.000 0.483
1070.000 0.483
1071.000 0.483
1072.000 0.484
1073.000 0.483
1074.000 0.483
1075.000 0.482
1076.000 0.482
1077.000 0.483
1078.000 0.483
1079.000 0.484
1080.000 0.484
1081.000 0.485
1082.000 0.485
1083.000 0.484
1084.000 0.484
1085.000 0.485
1086.000 0.486
1087.000 0.486
1088.000 0.487
1089.000 0.487
1090.000 0.486
1091.000 0.485
1092.000 0.485
1093.000 0.485
1094.000 0.484
1095.000 0.484
1096.000 0.484
1097.000 0.484
1098.000 0.484
1099.000 0.484
1100.000 0.484
1101.000 0.485
1102.000 0.485
1103.000 0.486
1104.000 0.486
1105.000 0.486
1106.000 0.486
1107.000 0.486
1108.000 0.485
1109.000 0.486
1110.000 0.485
1111.000 0.485
1112.000 0.486
1113.000 0.488
1114.000 0.488
1115.000 0.489
1116.000 0.489
1117.000 0.487
1118.000 0.487
1119.000 0.489
1120.000 0.487
1121.000 0.488
1122.000 0.487
1123.000 0.486
1124.000 0.485
1125.000 0.486
1126.000 0.490
1127.000 0.491
1128.000 0.491
1129.000 0.493
1130.000 0.498
1131.000 0.498
1132.000 0.494
1133.000 0.494
1134.000 0.488
1135.000 0.481
1136.000 0.479
1137.000 0.473
1138.000 0.468
1139.000 0.467
1140.000 0.465
1141.000 0.465
1142.000 0.464
1143.000 0.466
1144.000 0.463
1145.000 0.459
1146.000 0.456
1147.000 0.451
1148.000 0.448
1149.000 0.447
1150.000 0.447
1151.000 0.447
1152.000 0.446
1153.000 0.443
1154.000 0.442
1155.000 0.440
1156.000 0.437
1157.000 0.435
1158.000 0.435
1159.000 0.433
1160.000 0.432
1161.000 0.431
1162.000 0.431
1163.000 0.430
1164.000 0.430
1165.000 0.430
1166.000 0.430
1167.000 0.429
1168.000 0.428
1169.000 0.428
1170.000 0.428
1171.000 0.428
1172.000 0.427
1173.000 0.427
1174.000 0.427
1175.000 0.426
1176.000 0.426
1177.000 0.427
1178.000 0.427
1179.000 0.428
1180.000 0.427
1181.000 0.425
1182.000 0.425
1183.000 0.424
1184.000 0.424
1185.000 0.425
1186.000 0.425
1187.000 0.425
1188.000 0.425
1189.000 0.425
1190.000 0.424
1191.000 0.424
1192.000 0.424
1193.000 0.424
1194.000 0.424
1195.000 0.424
1196.000 0.424
1197.000 0.424
1198.000 0.423
1199.000 0.423
1200.000 0.424
1201.000 0.424
1202.000 0.424
1203.000 0.425
1204.000 0.426
1205.000 0.425
1206.000 0.426
1207.000 0.427
1208.000 0.427
1209.000 0.428
1210.000 0.429
1211.000 0.429
1212.000 0.429
1213.000 0.429
1214.000 0.429
1215.000 0.428
1216.000 0.429
1217.000 0.429
1218.000 0.430
1219.000 0.430
1220.000 0.430
1221.000 0.432
1222.000 0.433
1223.000 0.433
1224.000 0.434
1225.000 0.434
1226.000 0.434
1227.000 0.434
1228.000 0.434
1229.000 0.435
1230.000 0.436
1231.000 0.436
1232.000 0.437
1233.000 0.438
1234.000 0.438
1235.000 0.439
1236.000 0.439
1237.000 0.440
1238.000 0.440
1239.000 0.440
1240.000 0.441
1241.000 0.442
1242.000 0.442
1243.000 0.443
1244.000 0.443
1245.000 0.443
1246.000 0.443
1247.000 0.443
1248.000 0.444
1249.000 0.444
1250.000 0.444
1251.000 0.444
1252.000 0.444
1253.000 0.445
1254.000 0.445
1255.000 0.446
1256.000 0.447
1257.000 0.447
1258.000 0.447
1259.000 0.447
1260.000 0.447
1261.000 0.448
1262.000 0.449
1263.000 0.448
1264.000 0.449
1265.000 0.448
1266.000 0.449
1267.000 0.449
1268.000 0.450
1269.000 0.450
1270.000 0.450
1271.000 0.450
1272.000 0.450
1273.000 0.450
1274.000 0.450
1275.000 0.450
1276.000 0.449
1277.000 0.449
1278.000 0.450
1279.000 0.450
1280.000 0.451
1281.000 0.451
1282.000 0.450
1283.000 0.450
1284.000 0.450
1285.000 0.450
1286.000 0.449
1287.000 0.449
1288.000 0.448
1289.000 0.448
1290.000 0.448
1291.000 0.447
1292.000 0.448
1293.000 0.447
1294.000 0.447
1295.000 0.448
1296.000 0.447
1297.000 0.446
1298.000 0.445
1299.000 0.445
1300.000 0.443
1301.000 0.443
1302.000 0.443
1303.000 0.442
1304.000 0.441
1305.000 0.440
1306.000 0.439
1307.000 0.438
1308.000 0.437
1309.000 0.437
1310.000 0.436
1311.000 0.435
1312.000 0.433
1313.000 0.432
1314.000 0.430
1315.000 0.430
1316.000 0.428
1317.000 0.427
1318.000 0.425
1319.000 0.423
1320.000 0.421
1321.000 0.421
1322.000 0.421
1323.000 0.420
1324.000 0.419
1325.000 0.418
1326.000 0.414
1327.000 0.413
1328.000 0.413
1329.000 0.413
1330.000 0.411
1331.000 0.410
1332.000 0.406
1333.000 0.404
1334.000 0.402
1335.000 0.399
1336.000 0.395
1337.000 0.394
1338.000 0.393
1339.000 0.392
1340.000 0.397
1341.000 0.398
1342.000 0.396
1343.000 0.396
1344.000 0.396
1345.000 0.396
1346.000 0.400
1347.000 0.401
1348.000 0.403
1349.000 0.399
1350.000 0.405
1351.000 0.423
1352.000 0.454
1353.000 0.556
1354.000 0.433
1355.000 0.611
1356.000 0.450
1357.000 0.409
1358.000 0.758
1359.000 0.703
1360.000 0.573
1361.000 0.483
1362.000 0.359
1363.000 0.421
1364.000 0.536
1365.000 0.256
1366.000 0.190
1367.000 0.304
1368.000 0.288
1369.000 0.520
1370.000 0.463
1371.000 0.381
1372.000 0.534
1373.000 0.569
1374.000 0.600
1375.000 0.586
1376.000 0.609
1377.000 0.629
1378.000 0.706
1379.000 0.725
1380.000 0.701
1381.000 0.687
1382.000 0.667
1383.000 0.584
1384.000 0.505
1385.000 0.490
1386.000 0.272
1387.000 0.194
1388.000 0.409
1389.000 0.433
1390.000 0.405
1391.000 0.339
1392.000 0.388
1393.000 0.646
1394.000 0.639
1395.000 0.434
1396.000 0.416
1397.000 0.588
1398.000 0.547
1399.000 0.480
1400.000 0.395
1401.000 0.344
1402.000 0.382
1403.000 0.370
1404.000 0.207
1405.000 0.059
1406.000 0.311
1407.000 0.327
1408.000 0.479
1409.000 0.429
1410.000 0.339
1411.000 0.560
1412.000 0.789
1413.000 0.694
1414.000 0.589
1415.000 0.517
1416.000 0.441
1417.000 0.343
1418.000 0.333
1419.000 0.399
1420.000 0.468
1421.000 0.614
1422.000 0.292
1423.000 0.344
1424.000 0.412
1425.000 0.224
1426.000 0.310
1427.000 0.371
1428.000 0.427
1429.000 0.381
1430.000 0.415
1431.000 0.548
1432.000 0.637
1433.000 0.480
1434.000 0.546
1435.000 0.623
1436.000 0.625
1437.000 0.639
1438.000 0.689
1439.000 0.715
1440.000 0.744
1441.000 0.651
1442.000 0.716
1443.000 0.713
1444.000 0.647
1445.000 0.558
1446.000 0.465
1447.000 0.501
1448.000 0.321
1449.000 0.284
1450.000 0.206
1451.000 0.234
1452.000 0.247
1453.000 0.227
1454.000 0.232
1455.000 0.239
1456.000 0.267
1457.000 0.242
1458.000 0.182
1459.000 0.160
1460.000 0.153
1461.000 0.140
1462.000 0.111
1463.000 0.111
1464.000 0.136
1465.000 0.152
1466.000 0.185
1467.000 0.194
1468.000 0.175
1469.000 0.168
1470.000 0.186
1471.000 0.183
1472.000 0.176
1473.000 0.158
1474.000 0.229
1475.000 0.236
1476.000 0.230
1477.000 0.213
1478.000 0.162
1479.000 0.157
1480.000 0.162
1481.000 0.161
1482.000 0.145
1483.000 0.142
1484.000 0.140
1485.000 0.136
1486.000 0.128
1487.000 0.127
1488.000 0.131
1489.000 0.132
1490.000 0.133
1491.000 0.135
1492.000 0.133
1493.000 0.134
1494.000 0.139
1495.000 0.142
1496.000 0.148
1497.000 0.150
1498.000 0.149
1499.000 0.150
1500.000 0.149
1501.000 0.149
1502.000 0.148
1503.000 0.149
1504.000 0.147
1505.000 0.146
1506.000 0.147
1507.000 0.149
1508.000 0.151
1509.000 0.154
1510.000 0.155
1511.000 0.155
1512.000 0.155
1513.000 0.157
1514.000 0.159
1515.000 0.163
1516.000 0.165
1517.000 0.169
1518.000 0.169
1519.000 0.168
1520.000 0.168
1521.000 0.167
1522.000 0.167
1523.000 0.169
1524.000 0.169
1525.000 0.169
1526.000 0.169
1527.000 0.170
1528.000 0.172
1529.000 0.174
1530.000 0.176
1531.000 0.177
1532.000 0.178
1533.000 0.179
1534.000 0.180
1535.000 0.181
1536.000 0.182
1537.000 0.183
1538.000 0.185
1539.000 0.186
1540.000 0.187
1541.000 0.188
1542.000 0.190
1543.000 0.192
1544.000 0.193
1545.000 0.193
1546.000 0.194
1547.000 0.194
1548.000 0.195
1549.000 0.196
1550.000 0.197
1551.000 0.197
1552.000 0.198
1553.000 0.200
1554.000 0.201
1555.000 0.204
1556.000 0.206
1557.000 0.206
1558.000 0.208
1559.000 0.209
1560.000 0.210
1561.000 0.210
1562.000 0.211
1563.000 0.212
1564.000 0.212
1565.000 0.213
1566.000 0.214
1567.000 0.215
1568.000 0.216
1569.000 0.218
1570.000 0.219
1571.000 0.220
1572.000 0.220
1573.000 0.220
1574.000 0.221
1575.000 0.222
1576.000 0.223
1577.000 0.224
1578.000 0.226
1579.000 0.228
1580.000 0.229
1581.000 0.232
1582.000 0.233
1583.000 0.234
1584.000 0.236
1585.000 0.237
1586.000 0.237
1587.000 0.238
1588.000 0.239
1589.000 0.239
1590.000 0.240
1591.000 0.241
1592.000 0.242
1593.000 0.242
1594.000 0.242
1595.000 0.241
1596.000 0.241
1597.000 0.243
1598.000 0.243
1599.000 0.243
1600.000 0.243
1601.000 0.243
1602.000 0.244
1603.000 0.247
1604.000 0.248
1605.000 0.249
1606.000 0.250
1607.000 0.249
1608.000 0.250
1609.000 0.249
1610.000 0.249
1611.000 0.250
1612.000 0.251
1613.000 0.252
1614.000 0.253
1615.000 0.253
1616.000 0.254
1617.000 0.257
1618.000 0.258
1619.000 0.258
1620.000 0.258
1621.000 0.256
1622.000 0.256
1623.000 0.258
1624.000 0.259
1625.000 0.260
1626.000 0.262
1627.000 0.264
1628.000 0.264
1629.000 0.264
1630.000 0.264
1631.000 0.263
1632.000 0.264
1633.000 0.266
1634.000 0.267
1635.000 0.267
1636.000 0.267
1637.000 0.267
1638.000 0.267
1639.000 0.267
1640.000 0.267
1641.000 0.267
1642.000 0.267
1643.000 0.268
1644.000 0.269
1645.000 0.270
1646.000 0.272
1647.000 0.274
1648.000 0.275
1649.000 0.275
1650.000 0.276
1651.000 0.275
1652.000 0.274
1653.000 0.272
1654.000 0.272
1655.000 0.272
1656.000 0.273
1657.000 0.276
1658.000 0.277
1659.000 0.277
1660.000 0.276
1661.000 0.275
1662.000 0.275
1663.000 0.277
1664.000 0.277
1665.000 0.278
1666.000 0.278
1667.000 0.278
1668.000 0.278
1669.000 0.275
1670.000 0.274
1671.000 0.274
1672.000 0.274
1673.000 0.277
1674.000 0.277
1675.000 0.277
1676.000 0.277
1677.000 0.277
1678.000 0.276
1679.000 0.277
1680.000 0.276
1681.000 0.274
1682.000 0.273
1683.000 0.272
1684.000 0.272
1685.000 0.275
1686.000 0.276
1687.000 0.278
1688.000 0.279
1689.000 0.280
1690.000 0.279
1691.000 0.277
1692.000 0.276
1693.000 0.275
1694.000 0.274
1695.000 0.274
1696.000 0.273
1697.000 0.271
1698.000 0.271
1699.000 0.273
1700.000 0.274
1701.000 0.276
1702.000 0.276
1703.000 0.274
1704.000 0.273
1705.000 0.271
1706.000 0.270
1707.000 0.270
1708.000 0.269
1709.000 0.269
1710.000 0.270
1711.000 0.271
1712.000 0.270
1713.000 0.269
1714.000 0.268
1715.000 0.269
1716.000 0.269
1717.000 0.267
1718.000 0.266
1719.000 0.265
1720.000 0.265
1721.000 0.265
1722.000 0.263
1723.000 0.260
1724.000 0.257
1725.000 0.258
1726.000 0.256
1727.000 0.257
1728.000 0.259
1729.000 0.259
1730.000 0.261
1731.000 0.261
1732.000 0.260
1733.000 0.259
1734.000 0.256
1735.000 0.256
1736.000 0.258
1737.000 0.258
1738.000 0.263
1739.000 0.265
1740.000 0.263
1741.000 0.263
1742.000 0.260
1743.000 0.259
1744.000 0.260
1745.000 0.259
1746.000 0.257
1747.000 0.254
1748.000 0.250
1749.000 0.248
1750.000 0.249
1751.000 0.247
1752.000 0.244
1753.000 0.244
1754.000 0.241
1755.000 0.241
1756.000 0.242
1757.000 0.242
1758.000 0.241
1759.000 0.235
1760.000 0.234
1761.000 0.237
1762.000 0.236
1763.000 0.241
1764.000 0.241
1765.000 0.236
1766.000 0.237
1767.000 0.235
1768.000 0.239
1769.000 0.240
1770.000 0.239
1771.000 0.238
1772.000 0.231
1773.000 0.224
1774.000 0.224
1775.000 0.225
1776.000 0.226
1777.000 0.229
1778.000 0.226
1779.000 0.217
1780.000 0.220
1781.000 0.228
1782.000 0.230
1783.000 0.236
1784.000 0.238
1785.000 0.231
1786.000 0.230
1787.000 0.232
1788.000 0.231
1789.000 0.226
1790.000 0.221
1791.000 0.213
1792.000 0.227
1793.000 0.223
1794.000 0.231
1795.000 0.248
1796.000 0.262
1797.000 0.308
1798.000 0.344
1799.000 0.356
1800.000 0.307
1801.000 0.488
1802.000 0.618
1803.000 0.741
1804.000 0.306
1805.000 0.354
1806.000 0.462
1807.000 0.527
1808.000 0.557
1809.000 0.488
1810.000 0.438
1811.000 0.363
1812.000 0.420
1813.000 0.436
1814.000 0.437
1815.000 0.406
1816.000 0.370
1817.000 0.302
1818.000 0.553
1819.000 0.365
1820.000 0.340
1821.000 0.363
1822.000 0.408
1823.000 0.624
1824.000 0.428
1825.000 0.614
1826.000 0.796
1827.000 0.740
1828.000 0.623
1829.000 0.528
1830.000 0.455
1831.000 0.539
1832.000 0.479
1833.000 0.426
1834.000 0.371
1835.000 0.337
1836.000 0.386
1837.000 0.574
1838.000 0.639
1839.000 0.705
1840.000 0.401
1841.000 0.280
1842.000 0.395
1843.000 0.643
1844.000 0.424
1845.000 0.323
1846.000 0.219
1847.000 0.223
1848.000 0.397
1849.000 0.161
1850.000 0.441
1851.000 0.401
1852.000 0.340
1853.000 0.422
1854.000 0.428
1855.000 0.415
1856.000 0.086
1857.000 0.313
1858.000 0.730
1859.000 0.890
1860.000 0.500
1861.000 0.411
1862.000 0.653
1863.000 0.608
1864.000 0.518
1865.000 0.496
1866.000 0.512
1867.000 0.583
1868.000 0.632
1869.000 0.550
1870.000 0.473
1871.000 0.422
1872.000 0.525
1873.000 0.572
1874.000 0.614
1875.000 0.655
1876.000 0.655
1877.000 0.708
1878.000 0.650
1879.000 0.700
1880.000 0.714
1881.000 0.482
1882.000 0.414
1883.000 0.406
1884.000 0.521
1885.000 0.317
1886.000 0.304
1887.000 0.259
1888.000 0.239
1889.000 0.263
1890.000 0.341
1891.000 0.408
1892.000 0.470
1893.000 0.392
1894.000 0.408
1895.000 0.306
1896.000 0.276
1897.000 0.644
1898.000 0.592
1899.000 0.550
1900.000 0.571
1901.000 0.583
1902.000 0.570
1903.000 0.572
1904.000 0.533
1905.000 0.506
1906.000 0.459
1907.000 0.510
1908.000 0.636
1909.000 0.617
1910.000 0.707
1911.000 0.588
1912.000 0.423
1913.000 0.451
1914.000 0.279
1915.000 0.425
1916.000 0.471
1917.000 0.402
1918.000 0.473
1919.000 0.314
1920.000 0.499
1921.000 0.556
1922.000 0.582
1923.000 0.402
1924.000 0.246
1925.000 0.206
1926.000 0.388
1927.000 0.424
1928.000 0.451
1929.000 0.465
1930.000 0.323
1931.000 0.340
1932.000 0.366
1933.000 0.210
1934.000 0.203
1935.000 0.456
1936.000 0.297
1937.000 0.460
1938.000 0.544
1939.000 0.590
1940.000 0.570
1941.000 0.493
1942.000 0.567
1943.000 0.518
1944.000 0.471
1945.000 0.377
1946.000 0.254
1947.000 0.345
1948.000 0.411
1949.000 0.384
1950.000 0.465
1951.000 0.303
1952.000 0.238
1953.000 0.252
1954.000 0.305
1955.000 0.341
1956.000 0.416
1957.000 0.438
1958.000 0.470
1959.000 0.491
1960.000 0.514
1961.000 0.397
1962.000 0.304
1963.000 0.290
1964.000 0.247
1965.000 0.168
1966.000 0.605
1967.000 0.568
1968.000 0.578
1969.000 0.659
1970.000 0.594
1971.000 0.638
1972.000 0.330
1973.000 0.355
1974.000 0.394
1975.000 0.404
1976.000 0.402
1977.000 0.323
1978.000 0.431
1979.000 0.541
1980.000 0.559
1981.000 0.552
1982.000 0.498
1983.000 0.476
1984.000 0.315
1985.000 0.232
1986.000 0.211
1987.000 0.232
1988.000 0.242
1989.000 0.292
1990.000 0.369
1991.000 0.350
1992.000 0.397
1993.000 0.312
1994.000 0.404
1995.000 0.372
1996.000 0.377
1997.000 0.233
1998.000 0.264
1999.000 0.282
2000.000 0.294
2001.000 0.320
2002.000 0.364
2003.000 0.491
2004.000 0.551
2005.000 0.541
2006.000 0.486
2007.000 0.293
2008.000 0.400
2009.000 0.597
2010.000 0.681
2011.000 0.583
2012.000 0.358
2013.000 0.418
2014.000 0.490
2015.000 0.471
2016.000 0.277
2017.000 0.486
2018.000 0.500
2019.000 0.440
2020.000 0.344
2021.000 0.367
2022.000 0.333
2023.000 0.348
2024.000 0.173
2025.000 0.320
2026.000 0.465
2027.000 0.303
2028.000 0.245
2029.000 0.229
2030.000 0.274
2031.000 0.264
2032.000 0.296
2033.000 0.287
2034.000 0.239
2035.000 0.214
2036.000 0.304
2037.000 0.197
2038.000 0.236
2039.000 0.219
2040.000 0.215
2041.000 0.306
2042.000 0.351
2043.000 0.409
2044.000 0.385
2045.000 0.268
2046.000 0.243
2047.000 0.208
2048.000 0.195
2049.000 0.256
2050.000 0.308
2051.000 0.301
2052.000 0.337
2053.000 0.305
2054.000 0.204
2055.000 0.192
2056.000 0.204
2057.000 0.209
2058.000 0.228
2059.000 0.244
2060.000 0.242
2061.000 0.231
2062.000 0.196
2063.000 0.187
2064.000 0.171
2065.000 0.181
2066.000 0.208
2067.000 0.299
2068.000 0.339
2069.000 0.411
2070.000 0.438
2071.000 0.366
2072.000 0.330
2073.000 0.254
2074.000 0.223
2075.000 0.218
2076.000 0.210
2077.000 0.233
2078.000 0.205
2079.000 0.208
2080.000 0.213
2081.000 0.228
2082.000 0.216
2083.000 0.219
2084.000 0.227
2085.000 0.212
2086.000 0.204
2087.000 0.193
2088.000 0.182
2089.000 0.171
2090.000 0.155
2091.000 0.153
2092.000 0.159
2093.000 0.162
2094.000 0.171
2095.000 0.182
2096.000 0.198
2097.000 0.201
2098.000 0.206
2099.000 0.198
2100.000 0.168
2101.000 0.159
2102.000 0.156
2103.000 0.148
2104.000 0.144
2105.000 0.145
2106.000 0.146
2107.000 0.162
2108.000 0.148
2109.000 0.153
2110.000 0.157
2111.000 0.162
2112.000 0.164
2113.000 0.171
2114.000 0.172
2115.000 0.168
2116.000 0.165
2117.000 0.157
2118.000 0.151
2119.000 0.149
2120.000 0.158
2121.000 0.162
2122.000 0.171
2123.000 0.175
2124.000 0.174
2125.000 0.179
2126.000 0.186
2127.000 0.190
2128.000 0.203
2129.000 0.199
2130.000 0.182
2131.000 0.179
2132.000 0.178
2133.000 0.173
2134.000 0.168
2135.000 0.167
2136.000 0.154
2137.000 0.151
2138.000 0.165
2139.000 0.174
2140.000 0.175
2141.000 0.172
2142.000 0.170
2143.000 0.161
2144.000 0.159
2145.000 0.161
2146.000 0.162
2147.000 0.166
2148.000 0.166
2149.000 0.166
2150.000 0.169
2151.000 0.180
2152.000 0.182
2153.000 0.183
2154.000 0.182
2155.000 0.171
2156.000 0.163
2157.000 0.169
2158.000 0.173
2159.000 0.177
2160.000 0.177
2161.000 0.180
2162.000 0.178
2163.000 0.179
2164.000 0.190
2165.000 0.188
2166.000 0.175
2167.000 0.173
2168.000 0.174
2169.000 0.173
2170.000 0.181
2171.000 0.182
2172.000 0.172
2173.000 0.175
2174.000 0.184
2175.000 0.185
2176.000 0.187
2177.000 0.186
2178.000 0.180
2179.000 0.174
2180.000 0.173
2181.000 0.182
2182.000 0.188
2183.000 0.193
2184.000 0.200
2185.000 0.211
2186.000 0.208
2187.000 0.200
2188.000 0.198
2189.000 0.190
2190.000 0.186
2191.000 0.191
2192.000 0.185
2193.000 0.166
2194.000 0.162
2195.000 0.163
2196.000 0.165
2197.000 0.180
2198.000 0.190
2199.000 0.204
2200.000 0.214
2201.000 0.222
2202.000 0.233
2203.000 0.241
2204.000 0.235
2205.000 0.209
2206.000 0.196
2207.000 0.176
2208.000 0.159
2209.000 0.156
2210.000 0.166
2211.000 0.169
2212.000 0.182
2213.000 0.181
2214.000 0.172
2215.000 0.170
2216.000 0.164
2217.000 0.166
2218.000 0.185
2219.000 0.188
2220.000 0.180
2221.000 0.183
2222.000 0.185
2223.000 0.183
2224.000 0.191
2225.000 0.191
2226.000 0.174
2227.000 0.165
2228.000 0.176
2229.000 0.179
2230.000 0.182
2231.000 0.179
2232.000 0.177
2233.000 0.171
2234.000 0.165
2235.000 0.166
2236.000 0.166
2237.000 0.170
2238.000 0.178
2239.000 0.202
2240.000 0.206
2241.000 0.199
2242.000 0.195
2243.000 0.180
2244.000 0.174
2245.000 0.172
2246.000 0.188
2247.000 0.184
2248.000 0.183
2249.000 0.169
2250.000 0.196
2251.000 0.183
2252.000 0.191
2253.000 0.196
2254.000 0.204
2255.000 0.224
2256.000 0.224
2257.000 0.216
2258.000 0.200
2259.000 0.183
2260.000 0.153
2261.000 0.158
2262.000 0.154
2263.000 0.190
2264.000 0.224
2265.000 0.218
2266.000 0.190
2267.000 0.195
2268.000 0.187
2269.000 0.186
2270.000 0.193
2271.000 0.184
2272.000 0.171
2273.000 0.157
2274.000 0.142
2275.000 0.146
2276.000 0.124
2277.000 0.115
2278.000 0.122
2279.000 0.110
2280.000 0.100
2281.000 0.101
2282.000 0.113
2283.000 0.117
2284.000 0.130
2285.000 0.141
2286.000 0.152
2287.000 0.158
2288.000 0.184
2289.000 0.193
2290.000 0.193
2291.000 0.192
2292.000 0.166
2293.000 0.156
2294.000 0.139
2295.000 0.142
2296.000 0.165
2297.000 0.195
2298.000 0.219
2299.000 0.196
2300.000 0.194
2301.000 0.197
2302.000 0.194
2303.000 0.208
2304.000 0.263
2305.000 0.248
2306.000 0.291
2307.000 0.215
2308.000 0.151
2309.000 0.115
2310.000 0.111
2311.000 0.101
2312.000 0.120
2313.000 0.127
2314.000 0.178
2315.000 0.230
2316.000 0.233
2317.000 0.232
2318.000 0.203
2319.000 0.225
2320.000 0.333
2321.000 0.331
2322.000 0.287
2323.000 0.319
2324.000 0.301
2325.000 0.217
2326.000 0.282
2327.000 0.469
2328.000 0.506
2329.000 0.620
2330.000 0.561
2331.000 0.314
2332.000 0.320
2333.000 0.250
2334.000 0.380
2335.000 0.391
2336.000 0.406
2337.000 0.470
2338.000 0.499
2339.000 0.461
2340.000 0.488
2341.000 0.529
2342.000 0.427
2343.000 0.343
2344.000 0.516
2345.000 0.354
2346.000 0.319
2347.000 0.278
2348.000 0.223
2349.000 0.154
2350.000 0.132
2351.000 0.342
2352.000 0.358
2353.000 0.356
2354.000 0.326
2355.000 0.254
2356.000 0.234
2357.000 0.205
2358.000 0.312
2359.000 0.303
2360.000 0.403
2361.000 0.337
2362.000 0.266
2363.000 0.195
2364.000 0.340
2365.000 0.416
2366.000 0.417
2367.000 0.292
2368.000 0.326
2369.000 0.324
2370.000 0.334
2371.000 0.055
2372.000 0.254
2373.000 0.625
2374.000 0.363
2375.000 0.533
2376.000 0.598
2377.000 0.468
2378.000 0.400
2379.000 0.329
2380.000 0.316
2381.000 0.283
2382.000 0.343
2383.000 0.357
2384.000 0.375
2385.000 0.638
2386.000 0.699
2387.000 0.572
2388.000 0.393
2389.000 0.549
2390.000 0.419
2391.000 0.296
2392.000 0.312
2393.000 0.204
2394.000 0.421
2395.000 0.301
2396.000 0.234
2397.000 0.221
2398.000 0.344
2399.000 0.123
2400.000 0.341
2401.000 0.209
2402.000 0.146
2403.000 0.288
2404.000 0.373
2405.000 0.411
2406.000 0.454
2407.000 0.241
2408.000 0.313
2409.000 0.212
2410.000 0.482
2411.000 0.531
2412.000 0.544
2413.000 0.452
2414.000 0.335
2415.000 0.444
2416.000 0.472
2417.000 0.299
2418.000 0.311
2419.000 0.370
2420.000 0.377
2421.000 0.479
2422.000 0.465
2423.000 0.518
2424.000 0.506
2425.000 0.540
2426.000 0.500
2427.000 0.223
2428.000 0.489
2429.000 0.487
2430.000 0.661
2431.000 0.438
2432.000 0.529
2433.000 0.445
2434.000 0.529
2435.000 0.290
2436.000 0.394
2437.000 0.505
2438.000 0.326
2439.000 0.329
2440.000 0.279
2441.000 0.329
2442.000 0.393
2443.000 0.341
2444.000 0.280
2445.000 0.248
2446.000 0.232
2447.000 0.255
2448.000 0.269
2449.000 0.317
2450.000 0.356
2451.000 0.362
2452.000 0.256
2453.000 0.443
2454.000 0.376
2455.000 0.583
2456.000 0.580
2457.000 0.561
2458.000 0.540
2459.000 0.563
2460.000 0.509
2461.000 0.213
2462.000 0.194
2463.000 0.200
2464.000 0.369
2465.000 0.370
2466.000 0.363
2467.000 0.444
2468.000 0.516
2469.000 0.388
2470.000 0.303
2471.000 0.302
2472.000 0.502
2473.000 0.436
2474.000 0.386
2475.000 0.362
2476.000 0.349
2477.000 0.268
2478.000 0.413
2479.000 0.637
2480.000 0.278
2481.000 0.344
2482.000 0.254
2483.000 0.331
2484.000 0.432
2485.000 0.225
2486.000 0.355
2487.000 0.367
2488.000 0.426
2489.000 0.393
2490.000 0.270
2491.000 0.288
2492.000 0.383
2493.000 0.436
2494.000 0.381
2495.000 0.284
2496.000 0.518
2497.000 0.411
2498.000 0.408
2499.000 0.319
2500.000 0.347
