391.000 0.032
392.000 0.029
393.000 0.027
394.000 0.029
395.000 0.030
396.000 0.029
397.000 0.026
398.000 0.025
399.000 0.025
400.000 0.028
401.000 0.032
402.000 0.027
403.000 0.028
404.000 0.031
405.000 0.030
406.000 0.029
407.000 0.028
408.000 0.028
409.000 0.029
410.000 0.028
411.000 0.027
412.000 0.028
413.000 0.027
414.000 0.028
415.000 0.030
416.000 0.028
417.000 0.029
418.000 0.030
419.000 0.029
420.000 0.030
421.000 0.029
422.000 0.028
423.000 0.028
424.000 0.028
425.000 0.029
426.000 0.030
427.000 0.030
428.000 0.029
429.000 0.028
430.000 0.029
431.000 0.028
432.000 0.028
433.000 0.029
434.000 0.030
435.000 0.028
436.000 0.027
437.000 0.028
438.000 0.029
439.000 0.029
440.000 0.029
441.000 0.029
442.000 0.028
443.000 0.028
444.000 0.028
445.000 0.028
446.000 0.028
447.000 0.029
448.000 0.029
449.000 0.029
450.000 0.030
451.000 0.029
452.000 0.029
453.000 0.030
454.000 0.030
455.000 0.031
456.000 0.030
457.000 0.029
458.000 0.030
459.000 0.030
460.000 0.029
461.000 0.028
462.000 0.028
463.000 0.029
464.000 0.031
465.000 0.030
466.000 0.029
467.000 0.030
468.000 0.030
469.000 0.030
470.000 0.031
471.000 0.030
472.000 0.029
473.000 0.029
474.000 0.030
475.000 0.030
476.000 0.030
477.000 0.029
478.000 0.030
479.000 0.030
480.000 0.031
481.000 0.031
482.000 0.031
483.000 0.029
484.000 0.029
485.000 0.030
486.000 0.029
487.000 0.030
488.000 0.031
489.000 0.031
490.000 0.030
491.000 0.029
492.000 0.029
493.000 0.031
494.000 0.031
495.000 0.032
496.000 0.033
497.000 0.033
498.000 0.033
499.000 0.033
500.000 0.032
501.000 0.034
502.000 0.035
503.000 0.035
504.000 0.036
505.000 0.037
506.000 0.037
507.000 0.038
508.000 0.040
509.000 0.042
510.000 0.043
511.000 0.044
512.000 0.047
513.000 0.048
514.000 0.050
515.000 0.052
516.000 0.054
517.000 0.057
518.000 0.061
519.000 0.064
520.000 0.066
521.000 0.069
522.000 0.072
523.000 0.075
524.000 0.078
525.000 0.081
526.000 0.084
527.000 0.087
528.000 0.090
529.000 0.092
530.000 0.094
531.000 0.097
532.000 0.099
533.000 0.100
534.000 0.102
535.000 0.103
536.000 0.104
537.000 0.105
538.000 0.106
539.000 0.107
540.000 0.107
541.000 0.108
542.000 0.109
543.000 0.109
544.000 0.109
545.000 0.109
546.000 0.109
547.000 0.110
548.000 0.110
549.000 0.111
550.000 0.111
551.000 0.111
552.000 0.111
553.000 0.111
554.000 0.111
555.000 0.110
556.000 0.110
557.000 0.109
558.000 0.107
559.000 0.106
560.000 0.105
561.000 0.104
562.000 0.103
563.000 0.101
564.000 0.100
565.000 0.098
566.000 0.096
567.000 0.094
568.000 0.092
569.000 0.090
570.000 0.088
571.000 0.086
572.000 0.084
573.000 0.082
574.000 0.081
575.000 0.079
576.000 0.078
577.000 0.076
578.000 0.075
579.000 0.074
580.000 0.073
581.000 0.072
582.000 0.070
583.000 0.070
584.000 0.070
585.000 0.069
586.000 0.067
587.000 0.066
588.000 0.066
589.000 0.065
590.000 0.064
591.000 0.063
592.000 0.063
593.000 0.063
594.000 0.062
595.000 0.062
596.000 0.061
597.000 0.061
598.000 0.061
599.000 0.061
600.000 0.061
601.000 0.060
602.000 0.059
603.000 0.059
604.000 0.058
605.000 0.058
606.000 0.057
607.000 0.057
608.000 0.057
609.000 0.056
610.000 0.056
611.000 0.055
612.000 0.054
613.000 0.053
614.000 0.053
615.000 0.052
616.000 0.051
617.000 0.051
618.000 0.051
619.000 0.051
620.000 0.049
621.000 0.048
622.000 0.049
623.000 0.048
624.000 0.048
625.000 0.048
626.000 0.049
627.000 0.048
628.000 0.048
629.000 0.049
630.000 0.048
631.000 0.048
632.000 0.048
633.000 0.048
634.000 0.047
635.000 0.047
636.000 0.047
637.000 0.045
638.000 0.045
639.000 0.044
640.000 0.043
641.000 0.041
642.000 0.040
643.000 0.040
644.000 0.040
645.000 0.039
646.000 0.038
647.000 0.038
648.000 0.038
649.000 0.036
650.000 0.036
651.000 0.036
652.000 0.037
653.000 0.035
654.000 0.035
655.000 0.037
656.000 0.035
657.000 0.035
658.000 0.035
659.000 0.035
660.000 0.035
661.000 0.034
662.000 0.034
663.000 0.034
664.000 0.034
665.000 0.033
666.000 0.032
667.000 0.033
668.000 0.033
669.000 0.033
670.000 0.033
671.000 0.032
672.000 0.033
673.000 0.034
674.000 0.033
675.000 0.033
676.000 0.035
677.000 0.035
678.000 0.036
679.000 0.037
680.000 0.036
681.000 0.037
682.000 0.038
683.000 0.039
684.000 0.040
685.000 0.041
686.000 0.043
687.000 0.046
688.000 0.048
689.000 0.050
690.000 0.053
691.000 0.056
692.000 0.060
693.000 0.064
694.000 0.070
695.000 0.079
696.000 0.086
697.000 0.093
698.000 0.101
699.000 0.110
700.000 0.119
701.000 0.130
702.000 0.140
703.000 0.150
704.000 0.160
705.000 0.170
706.000 0.180
707.000 0.190
708.000 0.200
709.000 0.211
710.000 0.220
711.000 0.231
712.000 0.241
713.000 0.251
714.000 0.262
715.000 0.271
716.000 0.281
717.000 0.293
718.000 0.304
719.000 0.316
720.000 0.329
721.000 0.340
722.000 0.350
723.000 0.359
724.000 0.370
725.000 0.381
726.000 0.392
727.000 0.403
728.000 0.413
729.000 0.422
730.000 0.432
731.000 0.442
732.000 0.451
733.000 0.460
734.000 0.469
735.000 0.476
736.000 0.484
737.000 0.491
738.000 0.498
739.000 0.505
740.000 0.512
741.000 0.517
742.000 0.523
743.000 0.528
744.000 0.533
745.000 0.537
746.000 0.542
747.000 0.545
748.000 0.549
749.000 0.551
750.000 0.554
751.000 0.557
752.000 0.560
753.000 0.562
754.000 0.564
755.000 0.566
756.000 0.567
757.000 0.569
758.000 0.570
759.000 0.570
760.000 0.569
761.000 0.568
762.000 0.567
763.000 0.567
764.000 0.568
765.000 0.571
766.000 0.573
767.000 0.576
768.000 0.577
769.000 0.578
770.000 0.580
771.000 0.580
772.000 0.581
773.000 0.582
774.000 0.582
775.000 0.582
776.000 0.583
777.000 0.583
778.000 0.583
779.000 0.584
780.000 0.584
781.000 0.584
782.000 0.585
783.000 0.585
784.000 0.585
785.000 0.585
786.000 0.585
787.000 0.585
788.000 0.584
789.000 0.584
790.000 0.585
791.000 0.585
792.000 0.585
793.000 0.586
794.000 0.586
795.000 0.586
796.000 0.586
797.000 0.586
798.000 0.586
799.000 0.586
800.000 0.586
801.000 0.587
802.000 0.587
803.000 0.587
804.000 0.587
805.000 0.588
806.000 0.588
807.000 0.589
808.000 0.589
809.000 0.589
810.000 0.588
811.000 0.587
812.000 0.587
813.000 0.587
814.000 0.585
815.000 0.585
816.000 0.585
817.000 0.584
818.000 0.585
819.000 0.586
820.000 0.587
821.000 0.587
822.000 0.587
823.000 0.587
824.000 0.588
825.000 0.589
826.000 0.589
827.000 0.589
828.000 0.589
829.000 0.589
830.000 0.589
831.000 0.589
832.000 0.590
833.000 0.590
834.000 0.591
835.000 0.591
836.000 0.592
837.000 0.592
838.000 0.593
839.000 0.593
840.000 0.593
841.000 0.594
842.000 0.594
843.000 0.595
844.000 0.595
845.000 0.596
846.000 0.596
847.000 0.596
848.000 0.596
849.000 0.596
850.000 0.596
851.000 0.596
852.000 0.596
853.000 0.597
854.000 0.597
855.000 0.597
856.000 0.597
857.000 0.598
858.000 0.597
859.000 0.598
860.000 0.598
861.000 0.598
862.000 0.598
863.000 0.598
864.000 0.599
865.000 0.599
866.000 0.599
867.000 0.599
868.000 0.599
869.000 0.599
870.000 0.599
871.000 0.600
872.000 0.600
873.000 0.600
874.000 0.600
875.000 0.600
876.000 0.600
877.000 0.600
878.000 0.600
879.000 0.600
880.000 0.600
881.000 0.600
882.000 0.600
883.000 0.600
884.000 0.600
885.000 0.600
886.000 0.600
887.000 0.600
888.000 0.600
889.000 0.601
890.000 0.600
891.000 0.600
892.000 0.599
893.000 0.598
894.000 0.598
895.000 0.597
896.000 0.596
897.000 0.595
898.000 0.594
899.000 0.594
900.000 0.593
901.000 0.594
902.000 0.594
903.000 0.595
904.000 0.595
905.000 0.595
906.000 0.595
907.000 0.594
908.000 0.594
909.000 0.593
910.000 0.593
911.000 0.593
912.000 0.594
913.000 0.593
914.000 0.592
915.000 0.592
916.000 0.593
917.000 0.593
918.000 0.594
919.000 0.594
920.000 0.593
921.000 0.595
922.000 0.595
923.000 0.594
924.000 0.594
925.000 0.593
926.000 0.593
927.000 0.592
928.000 0.590
929.000 0.588
930.000 0.587
931.000 0.586
932.000 0.580
933.000 0.581
934.000 0.582
935.000 0.579
936.000 0.579
937.000 0.573
938.000 0.571
939.000 0.574
940.000 0.575
941.000 0.575
942.000 0.573
943.000 0.572
944.000 0.574
945.000 0.570
946.000 0.568
947.000 0.572
948.000 0.572
949.000 0.567
950.000 0.565
951.000 0.567
952.000 0.569
953.000 0.567
954.000 0.563
955.000 0.563
956.000 0.566
957.000 0.569
958.000 0.567
959.000 0.562
960.000 0.564
961.000 0.565
962.000 0.566
963.000 0.567
964.000 0.569
965.000 0.569
966.000 0.568
967.000 0.568
968.000 0.571
969.000 0.570
970.000 0.570
971.000 0.571
972.000 0.570
973.000 0.572
974.000 0.571
975.000 0.568
976.000 0.570
977.000 0.571
978.000 0.571
979.000 0.571
980.000 0.570
981.000 0.571
982.000 0.573
983.000 0.575
984.000 0.576
985.000 0.575
986.000 0.575
987.000 0.577
988.000 0.579
989.000 0.579
990.000 0.578
991.000 0.578
992.000 0.579
993.000 0.581
994.000 0.582
995.000 0.582
996.000 0.582
997.000 0.584
998.000 0.584
999.000 0.583
1000.000 0.585
1001.000 0.588
1002.000 0.588
1003.000 0.589
1004.000 0.590
1005.000 0.590
1006.000 0.591
1007.000 0.591
1008.000 0.590
1009.000 0.591
1010.000 0.592
1011.000 0.593
1012.000 0.594
1013.000 0.594
1014.000 0.593
1015.000 0.594
1016.000 0.595
1017.000 0.595
1018.000 0.595
1019.000 0.596
1020.000 0.596
1021.000 0.596
1022.000 0.595
1023.000 0.596
1024.000 0.596
1025.000 0.597
1026.000 0.597
1027.000 0.599
1028.000 0.600
1029.000 0.603
1030.000 0.604
1031.000 0.605
1032.000 0.605
1033.000 0.605
1034.000 0.606
1035.000 0.607
1036.000 0.607
1037.000 0.606
1038.000 0.606
1039.000 0.605
1040.000 0.606
1041.000 0.608
1042.000 0.608
1043.000 0.608
1044.000 0.608
1045.000 0.609
1046.000 0.609
1047.000 0.610
1048.000 0.610
1049.000 0.610
1050.000 0.610
1051.000 0.610
1052.000 0.610
1053.000 0.611
1054.000 0.611
1055.000 0.612
1056.000 0.613
1057.000 0.613
1058.000 0.613
1059.000 0.613
1060.000 0.612
1061.000 0.612
1062.000 0.612
1063.000 0.612
1064.000 0.613
1065.000 0.614
1066.000 0.614
1067.000 0.614
1068.000 0.613
1069.000 0.612
1070.000 0.612
1071.000 0.613
1072.000 0.613
1073.000 0.612
1074.000 0.612
1075.000 0.612
1076.000 0.612
1077.000 0.612
1078.000 0.612
1079.000 0.613
1080.000 0.613
1081.000 0.613
1082.000 0.612
1083.000 0.611
1084.000 0.611
1085.000 0.611
1086.000 0.611
1087.000 0.612
1088.000 0.612
1089.000 0.612
1090.000 0.612
1091.000 0.612
1092.000 0.613
1093.000 0.613
1094.000 0.612
1095.000 0.611
1096.000 0.610
1097.000 0.607
1098.000 0.607
1099.000 0.606
1100.000 0.605
1101.000 0.604
1102.000 0.603
1103.000 0.602
1104.000 0.602
1105.000 0.601
1106.000 0.601
1107.000 0.601
1108.000 0.601
1109.000 0.603
1110.000 0.602
1111.000 0.601
1112.000 0.600
1113.000 0.600
1114.000 0.597
1115.000 0.596
1116.000 0.595
1117.000 0.592
1118.000 0.589
1119.000 0.588
1120.000 0.589
1121.000 0.590
1122.000 0.589
1123.000 0.588
1124.000 0.586
1125.000 0.584
1126.000 0.582
1127.000 0.580
1128.000 0.581
1129.000 0.579
1130.000 0.579
1131.000 0.580
1132.000 0.579
1133.000 0.583
1134.000 0.580
1135.000 0.574
1136.000 0.571
1137.000 0.566
1138.000 0.561
1139.000 0.559
1140.000 0.559
1141.000 0.560
1142.000 0.561
1143.000 0.563
1144.000 0.563
1145.000 0.563
1146.000 0.561
1147.000 0.556
1148.000 0.555
1149.000 0.551
1150.000 0.546
1151.000 0.545
1152.000 0.544
1153.000 0.544
1154.000 0.545
1155.000 0.546
1156.000 0.546
1157.000 0.547
1158.000 0.546
1159.000 0.546
1160.000 0.546
1161.000 0.545
1162.000 0.545
1163.000 0.544
1164.000 0.544
1165.000 0.544
1166.000 0.544
1167.000 0.544
1168.000 0.543
1169.000 0.543
1170.000 0.542
1171.000 0.541
1172.000 0.541
1173.000 0.542
1174.000 0.542
1175.000 0.543
1176.000 0.543
1177.000 0.543
1178.000 0.543
1179.000 0.542
1180.000 0.541
1181.000 0.541
1182.000 0.541
1183.000 0.539
1184.000 0.540
1185.000 0.541
1186.000 0.541
1187.000 0.540
1188.000 0.541
1189.000 0.540
1190.000 0.539
1191.000 0.540
1192.000 0.540
1193.000 0.539
1194.000 0.539
1195.000 0.539
1196.000 0.539
1197.000 0.539
1198.000 0.539
1199.000 0.540
1200.000 0.541
1201.000 0.541
1202.000 0.540
1203.000 0.541
1204.000 0.541
1205.000 0.542
1206.000 0.542
1207.000 0.542
1208.000 0.542
1209.000 0.542
1210.000 0.542
1211.000 0.542
1212.000 0.543
1213.000 0.542
1214.000 0.543
1215.000 0.543
1216.000 0.543
1217.000 0.544
1218.000 0.545
1219.000 0.546
1220.000 0.546
1221.000 0.546
1222.000 0.546
1223.000 0.547
1224.000 0.548
1225.000 0.548
1226.000 0.549
1227.000 0.549
1228.000 0.550
1229.000 0.550
1230.000 0.551
1231.000 0.551
1232.000 0.551
1233.000 0.551
1234.000 0.551
1235.000 0.552
1236.000 0.553
1237.000 0.554
1238.000 0.554
1239.000 0.554
1240.000 0.554
1241.000 0.555
1242.000 0.554
1243.000 0.555
1244.000 0.555
1245.000 0.556
1246.000 0.556
1247.000 0.556
1248.000 0.557
1249.000 0.557
1250.000 0.557
1251.000 0.557
1252.000 0.557
1253.000 0.558
1254.000 0.558
1255.000 0.558
1256.000 0.557
1257.000 0.557
1258.000 0.557
1259.000 0.557
1260.000 0.557
1261.000 0.557
1262.000 0.558
1263.000 0.557
1264.000 0.557
1265.000 0.556
1266.000 0.556
1267.000 0.557
1268.000 0.557
1269.000 0.558
1270.000 0.558
1271.000 0.558
1272.000 0.558
1273.000 0.558
1274.000 0.558
1275.000 0.558
1276.000 0.558
1277.000 0.558
1278.000 0.558
1279.000 0.559
1280.000 0.559
1281.000 0.559
1282.000 0.560
1283.000 0.560
1284.000 0.560
1285.000 0.559
1286.000 0.559
1287.000 0.559
1288.000 0.559
1289.000 0.558
1290.000 0.558
1291.000 0.558
1292.000 0.557
1293.000 0.556
1294.000 0.555
1295.000 0.555
1296.000 0.554
1297.000 0.552
1298.000 0.551
1299.000 0.551
1300.000 0.550
1301.000 0.550
1302.000 0.549
1303.000 0.548
1304.000 0.547
1305.000 0.547
1306.000 0.545
1307.000 0.543
1308.000 0.542
1309.000 0.541
1310.000 0.539
1311.000 0.539
1312.000 0.537
1313.000 0.535
1314.000 0.533
1315.000 0.532
1316.000 0.531
1317.000 0.531
1318.000 0.530
1319.000 0.527
1320.000 0.524
1321.000 0.521
1322.000 0.518
1323.000 0.516
1324.000 0.515
1325.000 0.514
1326.000 0.514
1327.000 0.513
1328.000 0.512
1329.000 0.510
1330.000 0.507
1331.000 0.503
1332.000 0.498
1333.000 0.495
1334.000 0.491
1335.000 0.488
1336.000 0.489
1337.000 0.489
1338.000 0.493
1339.000 0.495
1340.000 0.495
1341.000 0.495
1342.000 0.493
1343.000 0.491
1344.000 0.490
1345.000 0.489
1346.000 0.492
1347.000 0.495
1348.000 0.500
1349.000 0.516
1350.000 0.531
1351.000 0.548
1352.000 0.580
1353.000 0.594
1354.000 0.625
1355.000 0.541
1356.000 0.481
1357.000 0.434
1358.000 0.444
1359.000 0.437
1360.000 0.379
1361.000 0.514
1362.000 0.394
1363.000 0.383
1364.000 0.438
1365.000 0.427
1366.000 0.465
1367.000 0.351
1368.000 0.334
1369.000 0.394
1370.000 0.448
1371.000 0.463
1372.000 0.502
1373.000 0.301
1374.000 0.345
1375.000 0.416
1376.000 0.457
1377.000 0.340
1378.000 0.137
1379.000 0.290
1380.000 0.449
1381.000 0.437
1382.000 0.386
1383.000 0.372
1384.000 0.464
1385.000 0.335
1386.000 0.431
1387.000 0.469
1388.000 0.530
1389.000 0.580
1390.000 0.590
1391.000 0.595
1392.000 0.578
1393.000 0.685
1394.000 0.530
1395.000 0.444
1396.000 0.445
1397.000 0.430
1398.000 0.313
1399.000 0.450
1400.000 0.521
1401.000 0.471
1402.000 0.440
1403.000 0.422
1404.000 0.381
1405.000 0.340
1406.000 0.339
1407.000 0.276
1408.000 0.275
1409.000 0.285
1410.000 0.340
1411.000 0.495
1412.000 0.563
1413.000 0.638
1414.000 0.593
1415.000 0.566
1416.000 0.513
1417.000 0.381
1418.000 0.406
1419.000 0.433
1420.000 0.418
1421.000 0.510
1422.000 0.425
1423.000 0.370
1424.000 0.346
1425.000 0.355
1426.000 0.327
1427.000 0.318
1428.000 0.330
1429.000 0.378
1430.000 0.322
1431.000 0.224
1432.000 0.205
1433.000 0.355
1434.000 0.474
1435.000 0.497
1436.000 0.464
1437.000 0.312
1438.000 0.242
1439.000 0.343
1440.000 0.286
1441.000 0.207
1442.000 0.256
1443.000 0.301
1444.000 0.278
1445.000 0.220
1446.000 0.213
1447.000 0.225
1448.000 0.194
1449.000 0.174
1450.000 0.170
1451.000 0.193
1452.000 0.210
1453.000 0.210
1454.000 0.232
1455.000 0.230
1456.000 0.224
1457.000 0.213
1458.000 0.190
1459.000 0.181
1460.000 0.171
1461.000 0.177
1462.000 0.188
1463.000 0.201
1464.000 0.212
1465.000 0.220
1466.000 0.232
1467.000 0.228
1468.000 0.215
1469.000 0.205
1470.000 0.188
1471.000 0.176
1472.000 0.164
1473.000 0.160
1474.000 0.178
1475.000 0.191
1476.000 0.240
1477.000 0.248
1478.000 0.211
1479.000 0.210
1480.000 0.196
1481.000 0.197
1482.000 0.213
1483.000 0.215
1484.000 0.211
1485.000 0.208
1486.000 0.196
1487.000 0.196
1488.000 0.205
1489.000 0.207
1490.000 0.208
1491.000 0.212
1492.000 0.218
1493.000 0.219
1494.000 0.219
1495.000 0.220
1496.000 0.214
1497.000 0.214
1498.000 0.219
1499.000 0.221
1500.000 0.223
1501.000 0.226
1502.000 0.225
1503.000 0.225
1504.000 0.226
1505.000 0.226
1506.000 0.227
1507.000 0.228
1508.000 0.231
1509.000 0.237
1510.000 0.239
1511.000 0.239
1512.000 0.240
1513.000 0.238
1514.000 0.239
1515.000 0.242
1516.000 0.244
1517.000 0.244
1518.000 0.246
1519.000 0.250
1520.000 0.251
1521.000 0.252
1522.000 0.253
1523.000 0.255
1524.000 0.256
1525.000 0.258
1526.000 0.259
1527.000 0.258
1528.000 0.258
1529.000 0.257
1530.000 0.259
1531.000 0.262
1532.000 0.265
1533.000 0.269
1534.000 0.271
1535.000 0.272
1536.000 0.273
1537.000 0.275
1538.000 0.276
1539.000 0.280
1540.000 0.281
1541.000 0.281
1542.000 0.282
1543.000 0.284
1544.000 0.285
1545.000 0.288
1546.000 0.290
1547.000 0.291
1548.000 0.292
1549.000 0.295
1550.000 0.297
1551.000 0.297
1552.000 0.297
1553.000 0.296
1554.000 0.298
1555.000 0.301
1556.000 0.303
1557.000 0.307
1558.000 0.308
1559.000 0.309
1560.000 0.309
1561.000 0.309
1562.000 0.310
1563.000 0.312
1564.000 0.313
1565.000 0.313
1566.000 0.314
1567.000 0.314
1568.000 0.315
1569.000 0.317
1570.000 0.319
1571.000 0.321
1572.000 0.323
1573.000 0.325
1574.000 0.327
1575.000 0.324
1576.000 0.324
1577.000 0.326
1578.000 0.328
1579.000 0.332
1580.000 0.335
1581.000 0.336
1582.000 0.337
1583.000 0.337
1584.000 0.337
1585.000 0.337
1586.000 0.338
1587.000 0.338
1588.000 0.339
1589.000 0.341
1590.000 0.342
1591.000 0.345
1592.000 0.346
1593.000 0.347
1594.000 0.348
1595.000 0.350
1596.000 0.350
1597.000 0.351
1598.000 0.351
1599.000 0.351
1600.000 0.351
1601.000 0.351
1602.000 0.351
1603.000 0.351
1604.000 0.352
1605.000 0.351
1606.000 0.352
1607.000 0.355
1608.000 0.357
1609.000 0.358
1610.000 0.359
1611.000 0.358
1612.000 0.357
1613.000 0.356
1614.000 0.356
1615.000 0.357
1616.000 0.358
1617.000 0.359
1618.000 0.360
1619.000 0.361
1620.000 0.361
1621.000 0.361
1622.000 0.361
1623.000 0.362
1624.000 0.362
1625.000 0.362
1626.000 0.364
1627.000 0.366
1628.000 0.367
1629.000 0.369
1630.000 0.371
1631.000 0.372
1632.000 0.373
1633.000 0.376
1634.000 0.378
1635.000 0.375
1636.000 0.375
1637.000 0.375
1638.000 0.374
1639.000 0.375
1640.000 0.376
1641.000 0.378
1642.000 0.378
1643.000 0.378
1644.000 0.379
1645.000 0.380
1646.000 0.381
1647.000 0.385
1648.000 0.385
1649.000 0.384
1650.000 0.384
1651.000 0.382
1652.000 0.382
1653.000 0.382
1654.000 0.382
1655.000 0.380
1656.000 0.380
1657.000 0.382
1658.000 0.382
1659.000 0.382
1660.000 0.383
1661.000 0.385
1662.000 0.384
1663.000 0.386
1664.000 0.386
1665.000 0.382
1666.000 0.381
1667.000 0.382
1668.000 0.383
1669.000 0.384
1670.000 0.384
1671.000 0.383
1672.000 0.383
1673.000 0.384
1674.000 0.384
1675.000 0.385
1676.000 0.385
1677.000 0.382
1678.000 0.381
1679.000 0.379
1680.000 0.378
1681.000 0.377
1682.000 0.377
1683.000 0.379
1684.000 0.379
1685.000 0.379
1686.000 0.380
1687.000 0.382
1688.000 0.382
1689.000 0.383
1690.000 0.383
1691.000 0.379
1692.000 0.378
1693.000 0.380
1694.000 0.382
1695.000 0.385
1696.000 0.385
1697.000 0.382
1698.000 0.381
1699.000 0.378
1700.000 0.377
1701.000 0.381
1702.000 0.380
1703.000 0.377
1704.000 0.376
1705.000 0.373
1706.000 0.374
1707.000 0.379
1708.000 0.380
1709.000 0.381
1710.000 0.379
1711.000 0.373
1712.000 0.369
1713.000 0.368
1714.000 0.367
1715.000 0.370
1716.000 0.371
1717.000 0.369
1718.000 0.368
1719.000 0.368
1720.000 0.369
1721.000 0.371
1722.000 0.371
1723.000 0.369
1724.000 0.368
1725.000 0.367
1726.000 0.369
1727.000 0.369
1728.000 0.369
1729.000 0.369
1730.000 0.366
1731.000 0.364
1732.000 0.361
1733.000 0.358
1734.000 0.356
1735.000 0.357
1736.000 0.359
1737.000 0.359
1738.000 0.362
1739.000 0.362
1740.000 0.361
1741.000 0.362
1742.000 0.360
1743.000 0.360
1744.000 0.360
1745.000 0.360
1746.000 0.360
1747.000 0.361
1748.000 0.362
1749.000 0.360
1750.000 0.355
1751.000 0.352
1752.000 0.347
1753.000 0.344
1754.000 0.343
1755.000 0.342
1756.000 0.343
1757.000 0.344
1758.000 0.349
1759.000 0.346
1760.000 0.342
1761.000 0.341
1762.000 0.338
1763.000 0.338
1764.000 0.342
1765.000 0.341
1766.000 0.341
1767.000 0.342
1768.000 0.344
1769.000 0.346
1770.000 0.349
1771.000 0.353
1772.000 0.349
1773.000 0.339
1774.000 0.334
1775.000 0.333
1776.000 0.328
1777.000 0.329
1778.000 0.338
1779.000 0.347
1780.000 0.360
1781.000 0.376
1782.000 0.378
1783.000 0.362
1784.000 0.350
1785.000 0.337
1786.000 0.331
1787.000 0.336
1788.000 0.331
1789.000 0.316
1790.000 0.312
1791.000 0.305
1792.000 0.315
1793.000 0.337
1794.000 0.367
1795.000 0.378
1796.000 0.453
1797.000 0.448
1798.000 0.482
1799.000 0.507
1800.000 0.388
1801.000 0.476
1802.000 0.500
1803.000 0.499
1804.000 0.495
1805.000 0.600
1806.000 0.645
1807.000 0.627
1808.000 0.568
1809.000 0.579
1810.000 0.673
1811.000 0.637
1812.000 0.541
1813.000 0.419
1814.000 0.487
1815.000 0.562
1816.000 0.579
1817.000 0.630
1818.000 0.598
1819.000 0.324
1820.000 0.434
1821.000 0.324
1822.000 0.456
1823.000 0.454
1824.000 0.445
1825.000 0.398
1826.000 0.541
1827.000 0.458
1828.000 0.571
1829.000 0.570
1830.000 0.304
1831.000 0.215
1832.000 0.156
1833.000 0.240
1834.000 0.331
1835.000 0.439
1836.000 0.362
1837.000 0.289
1838.000 0.342
1839.000 0.428
1840.000 0.383
1841.000 0.450
1842.000 0.598
1843.000 0.413
1844.000 0.408
1845.000 0.351
1846.000 0.533
1847.000 0.338
1848.000 0.567
1849.000 0.463
1850.000 0.438
1851.000 0.398
1852.000 0.301
1853.000 0.574
1854.000 0.533
1855.000 0.426
1856.000 0.338
1857.000 0.229
1858.000 0.324
1859.000 0.304
1860.000 0.283
1861.000 0.242
1862.000 0.206
1863.000 0.221
1864.000 0.278
1865.000 0.457
1866.000 0.597
1867.000 0.507
1868.000 0.570
1869.000 0.632
1870.000 0.532
1871.000 0.482
1872.000 0.241
1873.000 0.292
1874.000 0.365
1875.000 0.266
1876.000 0.181
1877.000 0.209
1878.000 0.297
1879.000 0.476
1880.000 0.533
1881.000 0.500
1882.000 0.608
1883.000 0.636
1884.000 0.520
1885.000 0.397
1886.000 0.569
1887.000 0.538
1888.000 0.448
1889.000 0.350
1890.000 0.305
1891.000 0.166
1892.000 0.297
1893.000 0.265
1894.000 0.292
1895.000 0.415
1896.000 0.403
1897.000 0.392
1898.000 0.394
1899.000 0.247
1900.000 0.258
1901.000 0.405
1902.000 0.442
1903.000 0.440
1904.000 0.466
1905.000 0.495
1906.000 0.395
1907.000 0.352
1908.000 0.298
1909.000 0.333
1910.000 0.343
1911.000 0.299
1912.000 0.489
1913.000 0.503
1914.000 0.480
1915.000 0.488
1916.000 0.626
1917.000 0.483
1918.000 0.486
1919.000 0.501
1920.000 0.547
1921.000 0.566
1922.000 0.670
1923.000 0.632
1924.000 0.433
1925.000 0.474
1926.000 0.401
1927.000 0.329
1928.000 0.400
1929.000 0.379
1930.000 0.358
1931.000 0.681
1932.000 0.587
1933.000 0.505
1934.000 0.387
1935.000 0.357
1936.000 0.438
1937.000 0.218
1938.000 0.365
1939.000 0.588
1940.000 0.635
1941.000 0.288
1942.000 0.281
1943.000 0.440
1944.000 0.530
1945.000 0.572
1946.000 0.355
1947.000 0.514
1948.000 0.232
1949.000 0.214
1950.000 0.299
1951.000 0.811
1952.000 0.618
1953.000 0.411
1954.000 0.376
1955.000 0.375
1956.000 0.400
1957.000 0.643
1958.000 0.573
1959.000 0.513
1960.000 0.409
1961.000 0.368
1962.000 0.279
1963.000 0.245
1964.000 0.293
1965.000 0.205
1966.000 0.276
1967.000 0.300
1968.000 0.303
1969.000 0.339
1970.000 0.462
1971.000 0.472
1972.000 0.365
1973.000 0.437
1974.000 0.371
1975.000 0.307
1976.000 0.448
1977.000 0.419
1978.000 0.316
1979.000 0.388
1980.000 0.406
1981.000 0.372
1982.000 0.302
1983.000 0.227
1984.000 0.486
1985.000 0.342
1986.000 0.290
1987.000 0.256
1988.000 0.246
1989.000 0.219
1990.000 0.212
1991.000 0.205
1992.000 0.212
1993.000 0.218
1994.000 0.332
1995.000 0.305
1996.000 0.332
1997.000 0.249
1998.000 0.317
1999.000 0.322
2000.000 0.409
2001.000 0.425
2002.000 0.412
2003.000 0.404
2004.000 0.411
2005.000 0.313
2006.000 0.198
2007.000 0.240
2008.000 0.313
2009.000 0.295
2010.000 0.417
2011.000 0.419
2012.000 0.395
2013.000 0.349
2014.000 0.323
2015.000 0.289
2016.000 0.241
2017.000 0.278
2018.000 0.289
2019.000 0.221
2020.000 0.288
2021.000 0.248
2022.000 0.252
2023.000 0.315
2024.000 0.349
2025.000 0.375
2026.000 0.386
2027.000 0.331
2028.000 0.269
2029.000 0.237
2030.000 0.228
2031.000 0.212
2032.000 0.212
2033.000 0.209
2034.000 0.192
2035.000 0.178
2036.000 0.200
2037.000 0.175
2038.000 0.169
2039.000 0.168
2040.000 0.174
2041.000 0.216
2042.000 0.234
2043.000 0.246
2044.000 0.251
2045.000 0.244
2046.000 0.242
2047.000 0.251
2048.000 0.259
2049.000 0.271
2050.000 0.297
2051.000 0.283
2052.000 0.288
2053.000 0.277
2054.000 0.267
2055.000 0.288
2056.000 0.286
2057.000 0.276
2058.000 0.236
2059.000 0.249
2060.000 0.242
2061.000 0.244
2062.000 0.256
2063.000 0.262
2064.000 0.267
2065.000 0.246
2066.000 0.221
2067.000 0.211
2068.000 0.204
2069.000 0.212
2070.000 0.233
2071.000 0.234
2072.000 0.234
2073.000 0.232
2074.000 0.220
2075.000 0.196
2076.000 0.184
2077.000 0.179
2078.000 0.165
2079.000 0.160
2080.000 0.161
2081.000 0.171
2082.000 0.178
2083.000 0.185
2084.000 0.191
2085.000 0.178
2086.000 0.176
2087.000 0.181
2088.000 0.191
2089.000 0.203
2090.000 0.240
2091.000 0.248
2092.000 0.234
2093.000 0.234
2094.000 0.223
2095.000 0.224
2096.000 0.244
2097.000 0.249
2098.000 0.250
2099.000 0.242
2100.000 0.229
2101.000 0.205
2102.000 0.196
2103.000 0.196
2104.000 0.195
2105.000 0.203
2106.000 0.208
2107.000 0.217
2108.000 0.216
2109.000 0.222
2110.000 0.222
2111.000 0.215
2112.000 0.217
2113.000 0.222
2114.000 0.223
2115.000 0.228
2116.000 0.235
2117.000 0.236
2118.000 0.237
2119.000 0.233
2120.000 0.246
2121.000 0.248
2122.000 0.231
2123.000 0.223
2124.000 0.212
2125.000 0.211
2126.000 0.210
2127.000 0.218
2128.000 0.240
2129.000 0.244
2130.000 0.244
2131.000 0.244
2132.000 0.234
2133.000 0.229
2134.000 0.228
2135.000 0.228
2136.000 0.224
2137.000 0.229
2138.000 0.228
2139.000 0.232
2140.000 0.241
2141.000 0.250
2142.000 0.253
2143.000 0.253
2144.000 0.250
2145.000 0.241
2146.000 0.233
2147.000 0.223
2148.000 0.216
2149.000 0.200
2150.000 0.201
2151.000 0.211
2152.000 0.217
2153.000 0.234
2154.000 0.246
2155.000 0.251
2156.000 0.259
2157.000 0.268
2158.000 0.272
2159.000 0.272
2160.000 0.261
2161.000 0.253
2162.000 0.236
2163.000 0.228
2164.000 0.219
2165.000 0.216
2166.000 0.220
2167.000 0.221
2168.000 0.222
2169.000 0.223
2170.000 0.228
2171.000 0.229
2172.000 0.231
2173.000 0.231
2174.000 0.223
2175.000 0.225
2176.000 0.238
2177.000 0.238
2178.000 0.249
2179.000 0.263
2180.000 0.251
2181.000 0.248
2182.000 0.252
2183.000 0.243
2184.000 0.246
2185.000 0.259
2186.000 0.255
2187.000 0.243
2188.000 0.241
2189.000 0.229
2190.000 0.226
2191.000 0.226
2192.000 0.225
2193.000 0.226
2194.000 0.230
2195.000 0.239
2196.000 0.245
2197.000 0.252
2198.000 0.252
2199.000 0.243
2200.000 0.242
2201.000 0.241
2202.000 0.234
2203.000 0.237
2204.000 0.242
2205.000 0.233
2206.000 0.226
2207.000 0.217
2208.000 0.207
2209.000 0.205
2210.000 0.213
2211.000 0.214
2212.000 0.218
2213.000 0.222
2214.000 0.223
2215.000 0.230
2216.000 0.247
2217.000 0.252
2218.000 0.255
2219.000 0.254
2220.000 0.243
2221.000 0.240
2222.000 0.244
2223.000 0.244
2224.000 0.253
2225.000 0.252
2226.000 0.246
2227.000 0.228
2228.000 0.211
2229.000 0.205
2230.000 0.202
2231.000 0.206
2232.000 0.216
2233.000 0.215
2234.000 0.223
2235.000 0.237
2236.000 0.242
2237.000 0.253
2238.000 0.259
2239.000 0.258
2240.000 0.256
2241.000 0.257
2242.000 0.246
2243.000 0.215
2244.000 0.207
2245.000 0.201
2246.000 0.211
2247.000 0.232
2248.000 0.240
2249.000 0.244
2250.000 0.254
2251.000 0.246
2252.000 0.249
2253.000 0.252
2254.000 0.253
2255.000 0.262
2256.000 0.254
2257.000 0.234
2258.000 0.213
2259.000 0.198
2260.000 0.184
2261.000 0.195
2262.000 0.210
2263.000 0.225
2264.000 0.245
2265.000 0.250
2266.000 0.240
2267.000 0.228
2268.000 0.224
2269.000 0.207
2270.000 0.201
2271.000 0.211
2272.000 0.196
2273.000 0.188
2274.000 0.181
2275.000 0.188
2276.000 0.206
2277.000 0.213
2278.000 0.247
2279.000 0.241
2280.000 0.193
2281.000 0.183
2282.000 0.172
2283.000 0.179
2284.000 0.224
2285.000 0.236
2286.000 0.226
2287.000 0.222
2288.000 0.245
2289.000 0.248
2290.000 0.275
2291.000 0.275
2292.000 0.210
2293.000 0.211
2294.000 0.207
2295.000 0.217
2296.000 0.267
2297.000 0.327
2298.000 0.322
2299.000 0.304
2300.000 0.239
2301.000 0.214
2302.000 0.209
2303.000 0.166
2304.000 0.175
2305.000 0.173
2306.000 0.193
2307.000 0.194
2308.000 0.212
2309.000 0.233
2310.000 0.218
2311.000 0.174
2312.000 0.174
2313.000 0.193
2314.000 0.212
2315.000 0.229
2316.000 0.311
2317.000 0.291
2318.000 0.292
2319.000 0.305
2320.000 0.253
2321.000 0.229
2322.000 0.240
2323.000 0.281
2324.000 0.227
2325.000 0.218
2326.000 0.238
2327.000 0.231
2328.000 0.228
2329.000 0.276
2330.000 0.243
2331.000 0.211
2332.000 0.229
2333.000 0.150
2334.000 0.208
2335.000 0.214
2336.000 0.259
2337.000 0.341
2338.000 0.380
2339.000 0.295
2340.000 0.323
2341.000 0.222
2342.000 0.206
2343.000 0.205
2344.000 0.237
2345.000 0.178
2346.000 0.206
2347.000 0.187
2348.000 0.181
2349.000 0.169
2350.000 0.188
2351.000 0.242
2352.000 0.293
2353.000 0.308
2354.000 0.556
2355.000 0.304
2356.000 0.316
2357.000 0.239
2358.000 0.404
2359.000 0.321
2360.000 0.284
2361.000 0.228
2362.000 0.232
2363.000 0.259
2364.000 0.249
2365.000 0.321
2366.000 0.362
2367.000 0.401
2368.000 0.316
2369.000 0.309
2370.000 0.225
2371.000 0.138
2372.000 0.140
2373.000 0.200
2374.000 0.282
2375.000 0.226
2376.000 0.253
2377.000 0.295
2378.000 0.470
2379.000 0.440
2380.000 0.406
2381.000 0.408
2382.000 0.405
2383.000 0.305
2384.000 0.438
2385.000 0.255
2386.000 0.302
2387.000 0.214
2388.000 0.284
2389.000 0.459
2390.000 0.485
2391.000 0.598
2392.000 0.422
2393.000 0.218
2394.000 0.266
2395.000 0.338
2396.000 0.206
2397.000 0.344
2398.000 0.412
2399.000 0.293
2400.000 0.302
2401.000 0.280
2402.000 0.278
2403.000 0.253
2404.000 0.200
2405.000 0.359
2406.000 0.408
2407.000 0.415
2408.000 0.395
2409.000 0.428
2410.000 0.505
2411.000 0.580
2412.000 0.449
2413.000 0.501
2414.000 0.445
2415.000 0.165
2416.000 0.317
2417.000 0.411
2418.000 0.450
2419.000 0.512
2420.000 0.607
2421.000 0.450
2422.000 0.597
2423.000 0.598
2424.000 0.650
2425.000 0.398
2426.000 0.427
2427.000 0.377
2428.000 0.456
2429.000 0.453
2430.000 0.374
2431.000 0.427
2432.000 0.226
2433.000 0.200
2434.000 0.208
2435.000 0.312
2436.000 0.327
2437.000 0.467
2438.000 0.385
2439.000 0.538
2440.000 0.463
2441.000 0.445
2442.000 0.399
2443.000 0.337
2444.000 0.521
2445.000 0.549
2446.000 0.520
2447.000 0.332
2448.000 0.299
2449.000 0.310
2450.000 0.564
2451.000 0.585
2452.000 0.402
2453.000 0.550
2454.000 0.688
2455.000 0.574
2456.000 0.812
2457.000 0.688
2458.000 0.883
2459.000 0.865
2460.000 0.756
2461.000 0.683
2462.000 0.588
2463.000 0.541
2464.000 0.432
2465.000 0.499
2466.000 0.335
2467.000 0.257
2468.000 0.204
2469.000 0.322
2470.000 0.297
2471.000 0.283
2472.000 0.280
2473.000 0.196
2474.000 0.311
2475.000 0.451
2476.000 0.475
2477.000 0.542
2478.000 0.485
2479.000 0.508
2480.000 0.528
2481.000 0.685
2482.000 0.552
2483.000 0.467
2484.000 0.333
2485.000 0.296
2486.000 0.417
2487.000 0.625
2488.000 0.499
2489.000 0.404
2490.000 0.391
2491.000 0.418
2492.000 0.350
2493.000 0.349
2494.000 0.323
2495.000 0.313
2496.000 0.355
2497.000 0.348
2498.000 0.525
2499.000 0.520
2500.000 0.638
