391.000 0.038
392.000 0.035
393.000 0.030
394.000 0.033
395.000 0.035
396.000 0.035
397.000 0.034
398.000 0.035
399.000 0.036
400.000 0.034
401.000 0.028
402.000 0.029
403.000 0.032
404.000 0.033
405.000 0.033
406.000 0.033
407.000 0.033
408.000 0.032
409.000 0.033
410.000 0.032
411.000 0.032
412.000 0.033
413.000 0.033
414.000 0.032
415.000 0.032
416.000 0.032
417.000 0.031
418.000 0.031
419.000 0.032
420.000 0.032
421.000 0.031
422.000 0.032
423.000 0.034
424.000 0.031
425.000 0.031
426.000 0.032
427.000 0.032
428.000 0.032
429.000 0.033
430.000 0.034
431.000 0.033
432.000 0.031
433.000 0.031
434.000 0.032
435.000 0.031
436.000 0.032
437.000 0.034
438.000 0.034
439.000 0.032
440.000 0.032
441.000 0.032
442.000 0.032
443.000 0.033
444.000 0.033
445.000 0.032
446.000 0.032
447.000 0.033
448.000 0.033
449.000 0.032
450.000 0.032
451.000 0.032
452.000 0.033
453.000 0.034
454.000 0.033
455.000 0.033
456.000 0.033
457.000 0.032
458.000 0.032
459.000 0.033
460.000 0.033
461.000 0.034
462.000 0.034
463.000 0.033
464.000 0.033
465.000 0.034
466.000 0.034
467.000 0.034
468.000 0.034
469.000 0.033
470.000 0.033
471.000 0.033
472.000 0.033
473.000 0.033
474.000 0.033
475.000 0.033
476.000 0.033
477.000 0.032
478.000 0.032
479.000 0.033
480.000 0.033
481.000 0.033
482.000 0.033
483.000 0.034
484.000 0.034
485.000 0.031
486.000 0.033
487.000 0.033
488.000 0.033
489.000 0.034
490.000 0.034
491.000 0.034
492.000 0.033
493.000 0.034
494.000 0.034
495.000 0.035
496.000 0.035
497.000 0.035
498.000 0.035
499.000 0.036
500.000 0.036
501.000 0.036
502.000 0.037
503.000 0.038
504.000 0.038
505.000 0.037
506.000 0.038
507.000 0.040
508.000 0.042
509.000 0.043
510.000 0.043
511.000 0.044
512.000 0.046
513.000 0.048
514.000 0.049
515.000 0.051
516.000 0.053
517.000 0.055
518.000 0.057
519.000 0.060
520.000 0.062
521.000 0.064
522.000 0.066
523.000 0.070
524.000 0.072
525.000 0.074
526.000 0.077
527.000 0.080
528.000 0.082
529.000 0.084
530.000 0.086
531.000 0.087
532.000 0.089
533.000 0.091
534.000 0.092
535.000 0.092
536.000 0.094
537.000 0.096
538.000 0.097
539.000 0.097
540.000 0.097
541.000 0.099
542.000 0.099
543.000 0.098
544.000 0.100
545.000 0.100
546.000 0.100
547.000 0.100
548.000 0.100
549.000 0.100
550.000 0.100
551.000 0.101
552.000 0.101
553.000 0.101
554.000 0.101
555.000 0.101
556.000 0.099
557.000 0.100
558.000 0.100
559.000 0.099
560.000 0.097
561.000 0.096
562.000 0.095
563.000 0.094
564.000 0.092
565.000 0.090
566.000 0.089
567.000 0.087
568.000 0.086
569.000 0.084
570.000 0.082
571.000 0.080
572.000 0.080
573.000 0.078
574.000 0.076
575.000 0.074
576.000 0.074
577.000 0.072
578.000 0.071
579.000 0.069
580.000 0.069
581.000 0.067
582.000 0.067
583.000 0.068
584.000 0.066
585.000 0.065
586.000 0.064
587.000 0.063
588.000 0.063
589.000 0.063
590.000 0.061
591.000 0.061
592.000 0.060
593.000 0.059
594.000 0.060
595.000 0.060
596.000 0.060
597.000 0.059
598.000 0.058
599.000 0.057
600.000 0.057
601.000 0.058
602.000 0.058
603.000 0.057
604.000 0.057
605.000 0.057
606.000 0.058
607.000 0.058
608.000 0.056
609.000 0.055
610.000 0.055
611.000 0.054
612.000 0.054
613.000 0.053
614.000 0.053
615.000 0.054
616.000 0.053
617.000 0.052
618.000 0.051
619.000 0.049
620.000 0.049
621.000 0.050
622.000 0.051
623.000 0.049
624.000 0.050
625.000 0.050
626.000 0.049
627.000 0.050
628.000 0.050
629.000 0.049
630.000 0.049
631.000 0.050
632.000 0.051
633.000 0.050
634.000 0.050
635.000 0.049
636.000 0.048
637.000 0.048
638.000 0.047
639.000 0.046
640.000 0.045
641.000 0.045
642.000 0.045
643.000 0.044
644.000 0.043
645.000 0.043
646.000 0.041
647.000 0.040
648.000 0.041
649.000 0.042
650.000 0.042
651.000 0.041
652.000 0.041
653.000 0.042
654.000 0.042
655.000 0.040
656.000 0.042
657.000 0.041
658.000 0.040
659.000 0.040
660.000 0.040
661.000 0.040
662.000 0.041
663.000 0.041
664.000 0.040
665.000 0.039
666.000 0.040
667.000 0.039
668.000 0.039
669.000 0.040
670.000 0.040
671.000 0.040
672.000 0.040
673.000 0.040
674.000 0.041
675.000 0.041
676.000 0.042
677.000 0.043
678.000 0.044
679.000 0.044
680.000 0.045
681.000 0.046
682.000 0.045
683.000 0.045
684.000 0.046
685.000 0.049
686.000 0.051
687.000 0.052
688.000 0.055
689.000 0.056
690.000 0.058
691.000 0.061
692.000 0.065
693.000 0.068
694.000 0.074
695.000 0.081
696.000 0.087
697.000 0.094
698.000 0.103
699.000 0.111
700.000 0.120
701.000 0.130
702.000 0.139
703.000 0.148
704.000 0.158
705.000 0.169
706.000 0.178
707.000 0.188
708.000 0.198
709.000 0.208
710.000 0.218
711.000 0.228
712.000 0.238
713.000 0.248
714.000 0.259
715.000 0.269
716.000 0.279
717.000 0.292
718.000 0.304
719.000 0.317
720.000 0.329
721.000 0.340
722.000 0.350
723.000 0.360
724.000 0.371
725.000 0.383
726.000 0.394
727.000 0.404
728.000 0.415
729.000 0.423
730.000 0.434
731.000 0.444
732.000 0.452
733.000 0.460
734.000 0.467
735.000 0.474
736.000 0.481
737.000 0.489
738.000 0.495
739.000 0.501
740.000 0.507
741.000 0.512
742.000 0.517
743.000 0.522
744.000 0.526
745.000 0.530
746.000 0.534
747.000 0.537
748.000 0.541
749.000 0.544
750.000 0.546
751.000 0.549
752.000 0.551
753.000 0.554
754.000 0.556
755.000 0.557
756.000 0.559
757.000 0.561
758.000 0.562
759.000 0.563
760.000 0.566
761.000 0.571
762.000 0.572
763.000 0.573
764.000 0.573
765.000 0.573
766.000 0.573
767.000 0.573
768.000 0.573
769.000 0.573
770.000 0.574
771.000 0.574
772.000 0.575
773.000 0.575
774.000 0.576
775.000 0.577
776.000 0.577
777.000 0.578
778.000 0.579
779.000 0.579
780.000 0.579
781.000 0.580
782.000 0.581
783.000 0.581
784.000 0.581
785.000 0.582
786.000 0.583
787.000 0.583
788.000 0.584
789.000 0.584
790.000 0.584
791.000 0.585
792.000 0.586
793.000 0.586
794.000 0.586
795.000 0.587
796.000 0.588
797.000 0.588
798.000 0.588
799.000 0.588
800.000 0.589
801.000 0.590
802.000 0.591
803.000 0.591
804.000 0.592
805.000 0.592
806.000 0.593
807.000 0.593
808.000 0.593
809.000 0.594
810.000 0.594
811.000 0.594
812.000 0.596
813.000 0.596
814.000 0.597
815.000 0.597
816.000 0.597
817.000 0.599
818.000 0.599
819.000 0.599
820.000 0.599
821.000 0.599
822.000 0.600
823.000 0.601
824.000 0.601
825.000 0.601
826.000 0.602
827.000 0.602
828.000 0.603
829.000 0.603
830.000 0.603
831.000 0.603
832.000 0.604
833.000 0.604
834.000 0.605
835.000 0.605
836.000 0.606
837.000 0.606
838.000 0.606
839.000 0.606
840.000 0.607
841.000 0.607
842.000 0.607
843.000 0.608
844.000 0.608
845.000 0.608
846.000 0.608
847.000 0.609
848.000 0.610
849.000 0.610
850.000 0.610
851.000 0.610
852.000 0.611
853.000 0.612
854.000 0.612
855.000 0.612
856.000 0.612
857.000 0.612
858.000 0.613
859.000 0.613
860.000 0.614
861.000 0.614
862.000 0.614
863.000 0.615
864.000 0.615
865.000 0.615
866.000 0.616
867.000 0.616
868.000 0.616
869.000 0.616
870.000 0.617
871.000 0.617
872.000 0.617
873.000 0.617
874.000 0.617
875.000 0.618
876.000 0.618
877.000 0.618
878.000 0.619
879.000 0.619
880.000 0.619
881.000 0.620
882.000 0.620
883.000 0.621
884.000 0.621
885.000 0.622
886.000 0.622
887.000 0.622
888.000 0.623
889.000 0.623
890.000 0.624
891.000 0.624
892.000 0.624
893.000 0.625
894.000 0.625
895.000 0.626
896.000 0.627
897.000 0.627
898.000 0.627
899.000 0.628
900.000 0.629
901.000 0.629
902.000 0.630
903.000 0.630
904.000 0.629
905.000 0.630
906.000 0.630
907.000 0.630
908.000 0.632
909.000 0.632
910.000 0.632
911.000 0.633
912.000 0.634
913.000 0.632
914.000 0.633
915.000 0.635
916.000 0.636
917.000 0.636
918.000 0.636
919.000 0.635
920.000 0.634
921.000 0.635
922.000 0.635
923.000 0.636
924.000 0.636
925.000 0.635
926.000 0.635
927.000 0.635
928.000 0.636
929.000 0.634
930.000 0.635
931.000 0.637
932.000 0.639
933.000 0.641
934.000 0.642
935.000 0.641
936.000 0.641
937.000 0.643
938.000 0.640
939.000 0.636
940.000 0.636
941.000 0.639
942.000 0.636
943.000 0.631
944.000 0.642
945.000 0.644
946.000 0.640
947.000 0.638
948.000 0.638
949.000 0.638
950.000 0.635
951.000 0.631
952.000 0.635
953.000 0.639
954.000 0.635
955.000 0.629
956.000 0.634
957.000 0.633
958.000 0.635
959.000 0.640
960.000 0.634
961.000 0.634
962.000 0.637
963.000 0.636
964.000 0.632
965.000 0.632
966.000 0.630
967.000 0.628
968.000 0.630
969.000 0.632
970.000 0.631
971.000 0.631
972.000 0.633
973.000 0.632
974.000 0.630
975.000 0.630
976.000 0.632
977.000 0.632
978.000 0.635
979.000 0.637
980.000 0.632
981.000 0.632
982.000 0.632
983.000 0.631
984.000 0.631
985.000 0.633
986.000 0.635
987.000 0.636
988.000 0.632
989.000 0.636
990.000 0.639
991.000 0.638
992.000 0.639
993.000 0.638
994.000 0.637
995.000 0.638
996.000 0.638
997.000 0.640
998.000 0.642
999.000 0.640
1000.000 0.640
1001.000 0.646
1002.000 0.647
1003.000 0.648
1004.000 0.648
1005.000 0.648
1006.000 0.649
1007.000 0.650
1008.000 0.651
1009.000 0.649
1010.000 0.648
1011.000 0.648
1012.000 0.647
1013.000 0.647
1014.000 0.650
1015.000 0.651
1016.000 0.652
1017.000 0.653
1018.000 0.653
1019.000 0.655
1020.000 0.656
1021.000 0.657
1022.000 0.658
1023.000 0.659
1024.000 0.660
1025.000 0.660
1026.000 0.660
1027.000 0.660
1028.000 0.660
1029.000 0.659
1030.000 0.660
1031.000 0.661
1032.000 0.660
1033.000 0.660
1034.000 0.661
1035.000 0.661
1036.000 0.661
1037.000 0.662
1038.000 0.664
1039.000 0.665
1040.000 0.665
1041.000 0.665
1042.000 0.665
1043.000 0.666
1044.000 0.665
1045.000 0.666
1046.000 0.667
1047.000 0.667
1048.000 0.667
1049.000 0.668
1050.000 0.668
1051.000 0.668
1052.000 0.668
1053.000 0.669
1054.000 0.669
1055.000 0.670
1056.000 0.671
1057.000 0.671
1058.000 0.672
1059.000 0.673
1060.000 0.672
1061.000 0.671
1062.000 0.672
1063.000 0.672
1064.000 0.673
1065.000 0.674
1066.000 0.674
1067.000 0.673
1068.000 0.674
1069.000 0.675
1070.000 0.675
1071.000 0.676
1072.000 0.676
1073.000 0.677
1074.000 0.677
1075.000 0.678
1076.000 0.678
1077.000 0.678
1078.000 0.677
1079.000 0.676
1080.000 0.676
1081.000 0.677
1082.000 0.678
1083.000 0.678
1084.000 0.678
1085.000 0.679
1086.000 0.679
1087.000 0.680
1088.000 0.680
1089.000 0.679
1090.000 0.680
1091.000 0.681
1092.000 0.681
1093.000 0.682
1094.000 0.682
1095.000 0.681
1096.000 0.682
1097.000 0.683
1098.000 0.684
1099.000 0.684
1100.000 0.684
1101.000 0.685
1102.000 0.685
1103.000 0.686
1104.000 0.687
1105.000 0.686
1106.000 0.684
1107.000 0.682
1108.000 0.681
1109.000 0.682
1110.000 0.683
1111.000 0.687
1112.000 0.689
1113.000 0.689
1114.000 0.688
1115.000 0.686
1116.000 0.686
1117.000 0.688
1118.000 0.690
1119.000 0.695
1120.000 0.699
1121.000 0.701
1122.000 0.698
1123.000 0.695
1124.000 0.690
1125.000 0.691
1126.000 0.700
1127.000 0.700
1128.000 0.694
1129.000 0.696
1130.000 0.702
1131.000 0.697
1132.000 0.696
1133.000 0.701
1134.000 0.699
1135.000 0.700
1136.000 0.697
1137.000 0.687
1138.000 0.678
1139.000 0.667
1140.000 0.664
1141.000 0.669
1142.000 0.670
1143.000 0.674
1144.000 0.672
1145.000 0.668
1146.000 0.663
1147.000 0.654
1148.000 0.646
1149.000 0.650
1150.000 0.652
1151.000 0.656
1152.000 0.661
1153.000 0.659
1154.000 0.655
1155.000 0.651
1156.000 0.649
1157.000 0.648
1158.000 0.650
1159.000 0.649
1160.000 0.647
1161.000 0.645
1162.000 0.642
1163.000 0.641
1164.000 0.642
1165.000 0.643
1166.000 0.645
1167.000 0.647
1168.000 0.647
1169.000 0.646
1170.000 0.646
1171.000 0.646
1172.000 0.645
1173.000 0.645
1174.000 0.646
1175.000 0.646
1176.000 0.645
1177.000 0.645
1178.000 0.645
1179.000 0.646
1180.000 0.645
1181.000 0.644
1182.000 0.643
1183.000 0.641
1184.000 0.640
1185.000 0.640
1186.000 0.641
1187.000 0.642
1188.000 0.642
1189.000 0.642
1190.000 0.643
1191.000 0.644
1192.000 0.644
1193.000 0.644
1194.000 0.645
1195.000 0.645
1196.000 0.645
1197.000 0.645
1198.000 0.646
1199.000 0.646
1200.000 0.647
1201.000 0.648
1202.000 0.648
1203.000 0.648
1204.000 0.648
1205.000 0.646
1206.000 0.646
1207.000 0.646
1208.000 0.647
1209.000 0.649
1210.000 0.650
1211.000 0.650
1212.000 0.650
1213.000 0.648
1214.000 0.648
1215.000 0.648
1216.000 0.649
1217.000 0.651
1218.000 0.653
1219.000 0.654
1220.000 0.655
1221.000 0.656
1222.000 0.657
1223.000 0.657
1224.000 0.656
1225.000 0.655
1226.000 0.653
1227.000 0.654
1228.000 0.654
1229.000 0.655
1230.000 0.655
1231.000 0.656
1232.000 0.658
1233.000 0.659
1234.000 0.660
1235.000 0.661
1236.000 0.660
1237.000 0.660
1238.000 0.661
1239.000 0.661
1240.000 0.661
1241.000 0.661
1242.000 0.661
1243.000 0.662
1244.000 0.664
1245.000 0.664
1246.000 0.664
1247.000 0.664
1248.000 0.664
1249.000 0.664
1250.000 0.664
1251.000 0.664
1252.000 0.664
1253.000 0.666
1254.000 0.667
1255.000 0.668
1256.000 0.670
1257.000 0.670
1258.000 0.671
1259.000 0.672
1260.000 0.673
1261.000 0.674
1262.000 0.674
1263.000 0.673
1264.000 0.672
1265.000 0.671
1266.000 0.670
1267.000 0.668
1268.000 0.669
1269.000 0.669
1270.000 0.669
1271.000 0.670
1272.000 0.672
1273.000 0.674
1274.000 0.674
1275.000 0.675
1276.000 0.675
1277.000 0.675
1278.000 0.675
1279.000 0.675
1280.000 0.677
1281.000 0.677
1282.000 0.676
1283.000 0.676
1284.000 0.675
1285.000 0.675
1286.000 0.675
1287.000 0.675
1288.000 0.676
1289.000 0.676
1290.000 0.676
1291.000 0.676
1292.000 0.676
1293.000 0.675
1294.000 0.674
1295.000 0.672
1296.000 0.671
1297.000 0.671
1298.000 0.671
1299.000 0.673
1300.000 0.672
1301.000 0.671
1302.000 0.669
1303.000 0.666
1304.000 0.665
1305.000 0.664
1306.000 0.663
1307.000 0.665
1308.000 0.665
1309.000 0.665
1310.000 0.665
1311.000 0.663
1312.000 0.661
1313.000 0.660
1314.000 0.659
1315.000 0.661
1316.000 0.661
1317.000 0.658
1318.000 0.656
1319.000 0.653
1320.000 0.650
1321.000 0.647
1322.000 0.646
1323.000 0.644
1324.000 0.642
1325.000 0.641
1326.000 0.640
1327.000 0.638
1328.000 0.635
1329.000 0.634
1330.000 0.632
1331.000 0.629
1332.000 0.626
1333.000 0.623
1334.000 0.618
1335.000 0.614
1336.000 0.616
1337.000 0.615
1338.000 0.613
1339.000 0.611
1340.000 0.612
1341.000 0.610
1342.000 0.603
1343.000 0.603
1344.000 0.610
1345.000 0.616
1346.000 0.641
1347.000 0.662
1348.000 0.679
1349.000 0.675
1350.000 0.681
1351.000 0.652
1352.000 0.659
1353.000 0.664
1354.000 0.296
1355.000 0.274
1356.000 0.374
1357.000 0.522
1358.000 0.638
1359.000 0.461
1360.000 0.439
1361.000 0.458
1362.000 0.480
1363.000 0.778
1364.000 0.656
1365.000 0.412
1366.000 0.244
1367.000 0.323
1368.000 0.292
1369.000 0.174
1370.000 0.124
1371.000 0.174
1372.000 0.303
1373.000 0.486
1374.000 0.616
1375.000 0.634
1376.000 0.634
1377.000 0.637
1378.000 0.665
1379.000 0.633
1380.000 0.643
1381.000 0.622
1382.000 0.629
1383.000 0.680
1384.000 0.305
1385.000 0.378
1386.000 0.305
1387.000 0.363
1388.000 0.869
1389.000 0.826
1390.000 0.795
1391.000 0.402
1392.000 0.479
1393.000 0.814
1394.000 0.757
1395.000 0.666
1396.000 0.594
1397.000 0.519
1398.000 0.400
1399.000 0.305
1400.000 0.246
1401.000 0.139
1402.000 0.734
1403.000 0.534
1404.000 0.340
1405.000 0.174
1406.000 0.219
1407.000 0.605
1408.000 0.444
1409.000 0.440
1410.000 0.456
1411.000 0.471
1412.000 0.495
1413.000 0.538
1414.000 0.466
1415.000 0.181
1416.000 0.193
1417.000 0.345
1418.000 0.374
1419.000 0.400
1420.000 0.454
1421.000 0.377
1422.000 0.367
1423.000 0.415
1424.000 0.393
1425.000 0.408
1426.000 0.532
1427.000 0.376
1428.000 0.238
1429.000 0.128
1430.000 0.283
1431.000 0.413
1432.000 0.402
1433.000 0.270
1434.000 0.240
1435.000 0.204
1436.000 0.286
1437.000 0.565
1438.000 0.459
1439.000 0.360
1440.000 0.282
1441.000 0.144
1442.000 0.397
1443.000 0.525
1444.000 0.526
1445.000 0.389
1446.000 0.355
1447.000 0.348
1448.000 0.265
1449.000 0.269
1450.000 0.262
1451.000 0.276
1452.000 0.279
1453.000 0.289
1454.000 0.312
1455.000 0.311
1456.000 0.296
1457.000 0.289
1458.000 0.272
1459.000 0.274
1460.000 0.295
1461.000 0.289
1462.000 0.272
1463.000 0.267
1464.000 0.264
1465.000 0.255
1466.000 0.267
1467.000 0.251
1468.000 0.192
1469.000 0.192
1470.000 0.223
1471.000 0.229
1472.000 0.268
1473.000 0.262
1474.000 0.211
1475.000 0.204
1476.000 0.210
1477.000 0.214
1478.000 0.238
1479.000 0.244
1480.000 0.248
1481.000 0.248
1482.000 0.240
1483.000 0.243
1484.000 0.250
1485.000 0.249
1486.000 0.242
1487.000 0.244
1488.000 0.246
1489.000 0.247
1490.000 0.256
1491.000 0.257
1492.000 0.249
1493.000 0.248
1494.000 0.249
1495.000 0.248
1496.000 0.249
1497.000 0.251
1498.000 0.251
1499.000 0.252
1500.000 0.250
1501.000 0.254
1502.000 0.260
1503.000 0.265
1504.000 0.273
1505.000 0.279
1506.000 0.278
1507.000 0.269
1508.000 0.268
1509.000 0.263
1510.000 0.265
1511.000 0.270
1512.000 0.275
1513.000 0.281
1514.000 0.285
1515.000 0.288
1516.000 0.291
1517.000 0.292
1518.000 0.292
1519.000 0.292
1520.000 0.294
1521.000 0.294
1522.000 0.297
1523.000 0.303
1524.000 0.306
1525.000 0.312
1526.000 0.315
1527.000 0.316
1528.000 0.317
1529.000 0.315
1530.000 0.315
1531.000 0.314
1532.000 0.316
1533.000 0.318
1534.000 0.320
1535.000 0.324
1536.000 0.328
1537.000 0.330
1538.000 0.332
1539.000 0.334
1540.000 0.335
1541.000 0.335
1542.000 0.337
1543.000 0.340
1544.000 0.342
1545.000 0.346
1546.000 0.347
1547.000 0.347
1548.000 0.348
1549.000 0.347
1550.000 0.348
1551.000 0.351
1552.000 0.354
1553.000 0.359
1554.000 0.362
1555.000 0.364
1556.000 0.365
1557.000 0.364
1558.000 0.366
1559.000 0.369
1560.000 0.370
1561.000 0.374
1562.000 0.376
1563.000 0.374
1564.000 0.375
1565.000 0.377
1566.000 0.378
1567.000 0.384
1568.000 0.386
1569.000 0.387
1570.000 0.390
1571.000 0.391
1572.000 0.393
1573.000 0.398
1574.000 0.400
1575.000 0.403
1576.000 0.405
1577.000 0.403
1578.000 0.402
1579.000 0.399
1580.000 0.399
1581.000 0.402
1582.000 0.405
1583.000 0.412
1584.000 0.415
1585.000 0.420
1586.000 0.421
1587.000 0.416
1588.000 0.416
1589.000 0.414
1590.000 0.415
1591.000 0.421
1592.000 0.423
1593.000 0.426
1594.000 0.427
1595.000 0.429
1596.000 0.430
1597.000 0.429
1598.000 0.431
1599.000 0.432
1600.000 0.433
1601.000 0.438
1602.000 0.440
1603.000 0.440
1604.000 0.441
1605.000 0.438
1606.000 0.438
1607.000 0.440
1608.000 0.441
1609.000 0.442
1610.000 0.442
1611.000 0.440
1612.000 0.440
1613.000 0.443
1614.000 0.445
1615.000 0.447
1616.000 0.449
1617.000 0.452
1618.000 0.453
1619.000 0.455
1620.000 0.457
1621.000 0.456
1622.000 0.457
1623.000 0.462
1624.000 0.463
1625.000 0.463
1626.000 0.464
1627.000 0.463
1628.000 0.463
1629.000 0.463
1630.000 0.464
1631.000 0.464
1632.000 0.466
1633.000 0.473
1634.000 0.475
1635.000 0.474
1636.000 0.473
1637.000 0.469
1638.000 0.468
1639.000 0.471
1640.000 0.471
1641.000 0.473
1642.000 0.474
1643.000 0.476
1644.000 0.476
1645.000 0.473
1646.000 0.472
1647.000 0.469
1648.000 0.468
1649.000 0.470
1650.000 0.470
1651.000 0.467
1652.000 0.466
1653.000 0.464
1654.000 0.465
1655.000 0.471
1656.000 0.475
1657.000 0.481
1658.000 0.484
1659.000 0.483
1660.000 0.484
1661.000 0.482
1662.000 0.483
1663.000 0.486
1664.000 0.487
1665.000 0.487
1666.000 0.485
1667.000 0.479
1668.000 0.477
1669.000 0.475
1670.000 0.475
1671.000 0.474
1672.000 0.475
1673.000 0.475
1674.000 0.477
1675.000 0.482
1676.000 0.485
1677.000 0.491
1678.000 0.491
1679.000 0.488
1680.000 0.485
1681.000 0.475
1682.000 0.471
1683.000 0.469
1684.000 0.469
1685.000 0.472
1686.000 0.474
1687.000 0.479
1688.000 0.481
1689.000 0.481
1690.000 0.479
1691.000 0.471
1692.000 0.469
1693.000 0.470
1694.000 0.468
1695.000 0.467
1696.000 0.469
1697.000 0.472
1698.000 0.472
1699.000 0.475
1700.000 0.475
1701.000 0.471
1702.000 0.469
1703.000 0.468
1704.000 0.471
1705.000 0.475
1706.000 0.473
1707.000 0.470
1708.000 0.469
1709.000 0.465
1710.000 0.466
1711.000 0.475
1712.000 0.478
1713.000 0.478
1714.000 0.474
1715.000 0.470
1716.000 0.467
1717.000 0.460
1718.000 0.459
1719.000 0.456
1720.000 0.453
1721.000 0.451
1722.000 0.448
1723.000 0.451
1724.000 0.451
1725.000 0.454
1726.000 0.454
1727.000 0.452
1728.000 0.457
1729.000 0.465
1730.000 0.475
1731.000 0.479
1732.000 0.475
1733.000 0.467
1734.000 0.462
1735.000 0.460
1736.000 0.457
1737.000 0.454
1738.000 0.449
1739.000 0.447
1740.000 0.444
1741.000 0.444
1742.000 0.446
1743.000 0.447
1744.000 0.456
1745.000 0.459
1746.000 0.457
1747.000 0.453
1748.000 0.436
1749.000 0.431
1750.000 0.429
1751.000 0.429
1752.000 0.443
1753.000 0.445
1754.000 0.435
1755.000 0.438
1756.000 0.442
1757.000 0.444
1758.000 0.454
1759.000 0.450
1760.000 0.451
1761.000 0.455
1762.000 0.465
1763.000 0.474
1764.000 0.468
1765.000 0.463
1766.000 0.459
1767.000 0.460
1768.000 0.468
1769.000 0.479
1770.000 0.486
1771.000 0.486
1772.000 0.482
1773.000 0.480
1774.000 0.467
1775.000 0.458
1776.000 0.465
1777.000 0.450
1778.000 0.447
1779.000 0.447
1780.000 0.439
1781.000 0.459
1782.000 0.468
1783.000 0.476
1784.000 0.474
1785.000 0.453
1786.000 0.437
1787.000 0.415
1788.000 0.402
1789.000 0.393
1790.000 0.404
1791.000 0.426
1792.000 0.466
1793.000 0.469
1794.000 0.492
1795.000 0.500
1796.000 0.459
1797.000 0.430
1798.000 0.420
1799.000 0.439
1800.000 0.545
1801.000 0.700
1802.000 0.712
1803.000 0.826
1804.000 0.814
1805.000 0.791
1806.000 0.622
1807.000 0.411
1808.000 0.428
1809.000 0.634
1810.000 0.192
1811.000 0.454
1812.000 0.679
1813.000 0.603
1814.000 0.548
1815.000 0.604
1816.000 0.605
1817.000 0.596
1818.000 0.537
1819.000 0.478
1820.000 0.481
1821.000 0.476
1822.000 0.458
1823.000 0.393
1824.000 0.431
1825.000 0.393
1826.000 0.403
1827.000 0.583
1828.000 0.248
1829.000 0.266
1830.000 0.323
1831.000 0.293
1832.000 0.253
1833.000 0.224
1834.000 0.207
1835.000 0.488
1836.000 0.314
1837.000 0.319
1838.000 0.333
1839.000 0.342
1840.000 0.172
1841.000 0.343
1842.000 0.378
1843.000 0.579
1844.000 0.309
1845.000 0.445
1846.000 0.408
1847.000 0.419
1848.000 0.420
1849.000 0.497
1850.000 0.450
1851.000 0.433
1852.000 0.341
1853.000 0.273
1854.000 0.478
1855.000 0.599
1856.000 0.726
1857.000 0.364
1858.000 0.419
1859.000 0.314
1860.000 0.328
1861.000 0.341
1862.000 0.525
1863.000 0.565
1864.000 0.419
1865.000 0.398
1866.000 0.413
1867.000 0.769
1868.000 0.668
1869.000 0.570
1870.000 0.444
1871.000 0.320
1872.000 0.328
1873.000 0.372
1874.000 0.367
1875.000 0.257
1876.000 0.307
1877.000 0.406
1878.000 0.471
1879.000 0.551
1880.000 0.396
1881.000 0.418
1882.000 0.704
1883.000 0.701
1884.000 0.682
1885.000 0.692
1886.000 0.751
1887.000 0.487
1888.000 0.354
1889.000 0.661
1890.000 0.621
1891.000 0.727
1892.000 0.727
1893.000 0.707
1894.000 0.373
1895.000 0.292
1896.000 0.514
1897.000 0.346
1898.000 0.613
1899.000 0.626
1900.000 0.683
1901.000 0.687
1902.000 0.270
1903.000 0.257
1904.000 0.336
1905.000 0.411
1906.000 0.834
1907.000 0.491
1908.000 0.554
1909.000 0.642
1910.000 0.525
1911.000 0.507
1912.000 0.481
1913.000 0.454
1914.000 0.471
1915.000 0.470
1916.000 0.190
1917.000 0.551
1918.000 0.430
1919.000 0.478
1920.000 0.308
1921.000 0.330
1922.000 0.366
1923.000 0.225
1924.000 0.227
1925.000 0.270
1926.000 0.298
1927.000 0.381
1928.000 0.311
1929.000 0.507
1930.000 0.484
1931.000 0.459
1932.000 0.394
1933.000 0.386
1934.000 0.318
1935.000 0.628
1936.000 0.796
1937.000 0.414
1938.000 0.524
1939.000 0.509
1940.000 0.498
1941.000 0.539
1942.000 0.541
1943.000 0.498
1944.000 0.562
1945.000 0.522
1946.000 0.493
1947.000 0.476
1948.000 0.454
1949.000 0.472
1950.000 0.503
1951.000 0.614
1952.000 0.481
1953.000 0.431
1954.000 0.486
1955.000 0.383
1956.000 0.687
1957.000 0.651
1958.000 0.308
1959.000 0.278
1960.000 0.283
1961.000 0.299
1962.000 0.291
1963.000 0.266
1964.000 0.328
1965.000 0.338
1966.000 0.277
1967.000 0.191
1968.000 0.336
1969.000 0.436
1970.000 0.322
1971.000 0.372
1972.000 0.389
1973.000 0.472
1974.000 0.548
1975.000 0.445
1976.000 0.468
1977.000 0.497
1978.000 0.509
1979.000 0.520
1980.000 0.550
1981.000 0.480
1982.000 0.375
1983.000 0.286
1984.000 0.274
1985.000 0.293
1986.000 0.274
1987.000 0.274
1988.000 0.253
1989.000 0.171
1990.000 0.180
1991.000 0.174
1992.000 0.262
1993.000 0.254
1994.000 0.337
1995.000 0.479
1996.000 0.358
1997.000 0.499
1998.000 0.517
1999.000 0.527
2000.000 0.372
2001.000 0.290
2002.000 0.259
2003.000 0.201
2004.000 0.180
2005.000 0.176
2006.000 0.177
2007.000 0.172
2008.000 0.198
2009.000 0.255
2010.000 0.336
2011.000 0.171
2012.000 0.182
2013.000 0.196
2014.000 0.217
2015.000 0.256
2016.000 0.340
2017.000 0.310
2018.000 0.320
2019.000 0.429
2020.000 0.270
2021.000 0.274
2022.000 0.245
2023.000 0.177
2024.000 0.237
2025.000 0.235
2026.000 0.221
2027.000 0.180
2028.000 0.181
2029.000 0.164
2030.000 0.156
2031.000 0.153
2032.000 0.149
2033.000 0.151
2034.000 0.152
2035.000 0.171
2036.000 0.142
2037.000 0.137
2038.000 0.156
2039.000 0.156
2040.000 0.161
2041.000 0.191
2042.000 0.195
2043.000 0.182
2044.000 0.181
2045.000 0.152
2046.000 0.153
2047.000 0.153
2048.000 0.162
2049.000 0.186
2050.000 0.235
2051.000 0.252
2052.000 0.252
2053.000 0.226
2054.000 0.215
2055.000 0.210
2056.000 0.173
2057.000 0.175
2058.000 0.232
2059.000 0.245
2060.000 0.231
2061.000 0.232
2062.000 0.238
2063.000 0.188
2064.000 0.174
2065.000 0.191
2066.000 0.211
2067.000 0.229
2068.000 0.219
2069.000 0.217
2070.000 0.214
2071.000 0.235
2072.000 0.248
2073.000 0.269
2074.000 0.281
2075.000 0.300
2076.000 0.293
2077.000 0.268
2078.000 0.259
2079.000 0.244
2080.000 0.235
2081.000 0.223
2082.000 0.223
2083.000 0.222
2084.000 0.201
2085.000 0.192
2086.000 0.190
2087.000 0.194
2088.000 0.203
2089.000 0.216
2090.000 0.227
2091.000 0.236
2092.000 0.258
2093.000 0.268
2094.000 0.252
2095.000 0.252
2096.000 0.255
2097.000 0.254
2098.000 0.262
2099.000 0.258
2100.000 0.254
2101.000 0.242
2102.000 0.247
2103.000 0.239
2104.000 0.231
2105.000 0.216
2106.000 0.207
2107.000 0.200
2108.000 0.192
2109.000 0.186
2110.000 0.186
2111.000 0.180
2112.000 0.191
2113.000 0.240
2114.000 0.253
2115.000 0.257
2116.000 0.257
2117.000 0.231
2118.000 0.199
2119.000 0.204
2120.000 0.203
2121.000 0.209
2122.000 0.219
2123.000 0.220
2124.000 0.226
2125.000 0.234
2126.000 0.240
2127.000 0.260
2128.000 0.305
2129.000 0.317
2130.000 0.318
2131.000 0.316
2132.000 0.279
2133.000 0.268
2134.000 0.278
2135.000 0.277
2136.000 0.276
2137.000 0.265
2138.000 0.252
2139.000 0.234
2140.000 0.229
2141.000 0.240
2142.000 0.252
2143.000 0.292
2144.000 0.293
2145.000 0.279
2146.000 0.275
2147.000 0.241
2148.000 0.240
2149.000 0.256
2150.000 0.260
2151.000 0.270
2152.000 0.271
2153.000 0.262
2154.000 0.260
2155.000 0.256
2156.000 0.260
2157.000 0.261
2158.000 0.273
2159.000 0.291
2160.000 0.293
2161.000 0.290
2162.000 0.279
2163.000 0.284
2164.000 0.284
2165.000 0.282
2166.000 0.284
2167.000 0.281
2168.000 0.265
2169.000 0.260
2170.000 0.254
2171.000 0.262
2172.000 0.283
2173.000 0.296
2174.000 0.332
2175.000 0.339
2176.000 0.321
2177.000 0.309
2178.000 0.300
2179.000 0.281
2180.000 0.265
2181.000 0.274
2182.000 0.282
2183.000 0.273
2184.000 0.285
2185.000 0.321
2186.000 0.327
2187.000 0.333
2188.000 0.329
2189.000 0.306
2190.000 0.294
2191.000 0.292
2192.000 0.278
2193.000 0.256
2194.000 0.250
2195.000 0.241
2196.000 0.240
2197.000 0.251
2198.000 0.259
2199.000 0.273
2200.000 0.282
2201.000 0.288
2202.000 0.299
2203.000 0.338
2204.000 0.327
2205.000 0.324
2206.000 0.335
2207.000 0.297
2208.000 0.279
2209.000 0.268
2210.000 0.264
2211.000 0.249
2212.000 0.246
2213.000 0.247
2214.000 0.246
2215.000 0.248
2216.000 0.261
2217.000 0.262
2218.000 0.252
2219.000 0.252
2220.000 0.250
2221.000 0.249
2222.000 0.256
2223.000 0.255
2224.000 0.250
2225.000 0.242
2226.000 0.230
2227.000 0.216
2228.000 0.225
2229.000 0.215
2230.000 0.204
2231.000 0.219
2232.000 0.236
2233.000 0.257
2234.000 0.283
2235.000 0.306
2236.000 0.299
2237.000 0.279
2238.000 0.278
2239.000 0.289
2240.000 0.282
2241.000 0.277
2242.000 0.260
2243.000 0.217
2244.000 0.205
2245.000 0.209
2246.000 0.211
2247.000 0.211
2248.000 0.226
2249.000 0.259
2250.000 0.281
2251.000 0.319
2252.000 0.349
2253.000 0.346
2254.000 0.342
2255.000 0.336
2256.000 0.324
2257.000 0.311
2258.000 0.268
2259.000 0.220
2260.000 0.207
2261.000 0.184
2262.000 0.180
2263.000 0.213
2264.000 0.233
2265.000 0.236
2266.000 0.237
2267.000 0.248
2268.000 0.218
2269.000 0.218
2270.000 0.229
2271.000 0.221
2272.000 0.242
2273.000 0.249
2274.000 0.271
2275.000 0.265
2276.000 0.244
2277.000 0.217
2278.000 0.179
2279.000 0.167
2280.000 0.159
2281.000 0.156
2282.000 0.173
2283.000 0.187
2284.000 0.187
2285.000 0.198
2286.000 0.213
2287.000 0.228
2288.000 0.291
2289.000 0.298
2290.000 0.255
2291.000 0.232
2292.000 0.184
2293.000 0.151
2294.000 0.148
2295.000 0.150
2296.000 0.163
2297.000 0.187
2298.000 0.208
2299.000 0.254
2300.000 0.271
2301.000 0.274
2302.000 0.277
2303.000 0.277
2304.000 0.247
2305.000 0.226
2306.000 0.228
2307.000 0.211
2308.000 0.236
2309.000 0.253
2310.000 0.225
2311.000 0.205
2312.000 0.170
2313.000 0.192
2314.000 0.235
2315.000 0.275
2316.000 0.258
2317.000 0.269
2318.000 0.289
2319.000 0.335
2320.000 0.227
2321.000 0.197
2322.000 0.172
2323.000 0.120
2324.000 0.127
2325.000 0.134
2326.000 0.148
2327.000 0.126
2328.000 0.140
2329.000 0.202
2330.000 0.218
2331.000 0.242
2332.000 0.233
2333.000 0.203
2334.000 0.181
2335.000 0.177
2336.000 0.231
2337.000 0.150
2338.000 0.155
2339.000 0.173
2340.000 0.188
2341.000 0.174
2342.000 0.196
2343.000 0.369
2344.000 0.324
2345.000 0.106
2346.000 0.122
2347.000 0.342
2348.000 0.157
2349.000 0.301
2350.000 0.467
2351.000 0.523
2352.000 0.340
2353.000 0.278
2354.000 0.287
2355.000 0.284
2356.000 0.333
2357.000 0.303
2358.000 0.425
2359.000 0.516
2360.000 0.842
2361.000 0.517
2362.000 0.784
2363.000 0.696
2364.000 0.637
2365.000 0.588
2366.000 0.477
2367.000 0.254
2368.000 0.181
2369.000 0.173
2370.000 0.116
2371.000 0.192
2372.000 0.221
2373.000 0.274
2374.000 0.274
2375.000 0.330
2376.000 0.249
2377.000 0.284
2378.000 0.399
2379.000 0.621
2380.000 0.589
2381.000 0.334
2382.000 0.233
2383.000 0.254
2384.000 0.380
2385.000 0.383
2386.000 0.435
2387.000 0.365
2388.000 0.324
2389.000 0.270
2390.000 0.205
2391.000 0.243
2392.000 0.438
2393.000 0.527
2394.000 0.184
2395.000 0.291
2396.000 0.431
2397.000 0.463
2398.000 0.524
2399.000 0.424
2400.000 0.589
2401.000 0.561
2402.000 0.514
2403.000 0.294
2404.000 0.278
2405.000 0.305
2406.000 0.295
2407.000 0.304
2408.000 0.193
2409.000 0.229
2410.000 0.199
2411.000 0.140
2412.000 0.058
2413.000 0.277
2414.000 0.405
2415.000 0.574
2416.000 0.424
2417.000 0.383
2418.000 0.355
2419.000 0.317
2420.000 0.542
2421.000 0.578
2422.000 0.238
2423.000 0.344
2424.000 0.360
2425.000 0.391
2426.000 0.370
2427.000 0.355
2428.000 0.341
2429.000 0.400
2430.000 0.385
2431.000 0.387
2432.000 0.359
2433.000 0.764
2434.000 0.734
2435.000 0.748
2436.000 0.471
2437.000 0.170
2438.000 0.480
2439.000 0.639
2440.000 0.745
2441.000 0.476
2442.000 0.330
2443.000 0.181
2444.000 0.544
2445.000 0.427
2446.000 0.362
2447.000 0.276
2448.000 0.215
2449.000 0.649
2450.000 0.745
2451.000 0.513
2452.000 0.257
2453.000 0.480
2454.000 0.157
2455.000 0.439
2456.000 0.311
2457.000 0.102
2458.000 0.551
2459.000 0.681
2460.000 0.777
2461.000 0.681
2462.000 0.598
2463.000 0.434
2464.000 0.608
2465.000 0.469
2466.000 0.626
2467.000 0.510
2468.000 0.560
2469.000 0.587
2470.000 0.453
2471.000 0.252
2472.000 0.091
2473.000 0.165
2474.000 0.261
2475.000 0.742
2476.000 0.543
2477.000 0.379
2478.000 0.531
2479.000 0.722
2480.000 0.525
2481.000 0.678
2482.000 0.537
2483.000 0.289
2484.000 0.597
2485.000 0.474
2486.000 0.348
2487.000 0.374
2488.000 0.641
2489.000 0.261
2490.000 0.340
2491.000 0.461
2492.000 0.579
2493.000 0.714
2494.000 0.458
2495.000 0.468
2496.000 0.460
2497.000 0.436
2498.000 0.394
2499.000 0.378
2500.000 0.499
