391.000 0.026
392.000 0.024
393.000 0.022
394.000 0.022
395.000 0.023
396.000 0.023
397.000 0.023
398.000 0.022
399.000 0.021
400.000 0.022
401.000 0.025
402.000 0.022
403.000 0.022
404.000 0.024
405.000 0.023
406.000 0.023
407.000 0.022
408.000 0.022
409.000 0.024
410.000 0.024
411.000 0.023
412.000 0.023
413.000 0.023
414.000 0.023
415.000 0.023
416.000 0.023
417.000 0.023
418.000 0.023
419.000 0.023
420.000 0.023
421.000 0.023
422.000 0.022
423.000 0.023
424.000 0.022
425.000 0.023
426.000 0.023
427.000 0.023
428.000 0.023
429.000 0.023
430.000 0.023
431.000 0.023
432.000 0.023
433.000 0.023
434.000 0.023
435.000 0.023
436.000 0.022
437.000 0.022
438.000 0.023
439.000 0.023
440.000 0.023
441.000 0.023
442.000 0.023
443.000 0.022
444.000 0.022
445.000 0.023
446.000 0.023
447.000 0.023
448.000 0.023
449.000 0.024
450.000 0.024
451.000 0.023
452.000 0.023
453.000 0.023
454.000 0.024
455.000 0.024
456.000 0.023
457.000 0.023
458.000 0.023
459.000 0.024
460.000 0.024
461.000 0.023
462.000 0.023
463.000 0.023
464.000 0.024
465.000 0.023
466.000 0.023
467.000 0.025
468.000 0.024
469.000 0.024
470.000 0.024
471.000 0.024
472.000 0.023
473.000 0.023
474.000 0.024
475.000 0.024
476.000 0.024
477.000 0.024
478.000 0.024
479.000 0.024
480.000 0.024
481.000 0.024
482.000 0.023
483.000 0.024
484.000 0.024
485.000 0.024
486.000 0.024
487.000 0.024
488.000 0.024
489.000 0.025
490.000 0.024
491.000 0.024
492.000 0.024
493.000 0.024
494.000 0.025
495.000 0.025
496.000 0.025
497.000 0.026
498.000 0.025
499.000 0.026
500.000 0.026
501.000 0.027
502.000 0.027
503.000 0.027
504.000 0.028
505.000 0.029
506.000 0.030
507.000 0.030
508.000 0.031
509.000 0.032
510.000 0.033
511.000 0.034
512.000 0.036
513.000 0.038
514.000 0.039
515.000 0.040
516.000 0.042
517.000 0.044
518.000 0.047
519.000 0.049
520.000 0.051
521.000 0.053
522.000 0.056
523.000 0.058
524.000 0.060
525.000 0.062
526.000 0.065
527.000 0.067
528.000 0.069
529.000 0.071
530.000 0.073
531.000 0.075
532.000 0.076
533.000 0.077
534.000 0.079
535.000 0.080
536.000 0.080
537.000 0.081
538.000 0.082
539.000 0.083
540.000 0.083
541.000 0.084
542.000 0.084
543.000 0.084
544.000 0.084
545.000 0.084
546.000 0.084
547.000 0.085
548.000 0.085
549.000 0.086
550.000 0.085
551.000 0.085
552.000 0.085
553.000 0.086
554.000 0.085
555.000 0.085
556.000 0.084
557.000 0.084
558.000 0.083
559.000 0.082
560.000 0.081
561.000 0.080
562.000 0.079
563.000 0.078
564.000 0.077
565.000 0.075
566.000 0.073
567.000 0.072
568.000 0.071
569.000 0.069
570.000 0.067
571.000 0.066
572.000 0.064
573.000 0.063
574.000 0.062
575.000 0.060
576.000 0.059
577.000 0.058
578.000 0.057
579.000 0.056
580.000 0.056
581.000 0.055
582.000 0.054
583.000 0.053
584.000 0.052
585.000 0.052
586.000 0.051
587.000 0.051
588.000 0.050
589.000 0.049
590.000 0.049
591.000 0.048
592.000 0.047
593.000 0.047
594.000 0.047
595.000 0.046
596.000 0.046
597.000 0.046
598.000 0.046
599.000 0.046
600.000 0.045
601.000 0.045
602.000 0.045
603.000 0.044
604.000 0.044
605.000 0.044
606.000 0.043
607.000 0.043
608.000 0.042
609.000 0.042
610.000 0.042
611.000 0.041
612.000 0.040
613.000 0.040
614.000 0.039
615.000 0.039
616.000 0.038
617.000 0.038
618.000 0.037
619.000 0.037
620.000 0.037
621.000 0.036
622.000 0.036
623.000 0.036
624.000 0.035
625.000 0.036
626.000 0.036
627.000 0.036
628.000 0.036
629.000 0.036
630.000 0.036
631.000 0.036
632.000 0.036
633.000 0.035
634.000 0.035
635.000 0.035
636.000 0.035
637.000 0.033
638.000 0.033
639.000 0.032
640.000 0.032
641.000 0.031
642.000 0.030
643.000 0.030
644.000 0.029
645.000 0.029
646.000 0.028
647.000 0.028
648.000 0.027
649.000 0.027
650.000 0.026
651.000 0.026
652.000 0.026
653.000 0.026
654.000 0.025
655.000 0.026
656.000 0.026
657.000 0.026
658.000 0.026
659.000 0.025
660.000 0.025
661.000 0.025
662.000 0.025
663.000 0.024
664.000 0.024
665.000 0.023
666.000 0.023
667.000 0.023
668.000 0.024
669.000 0.024
670.000 0.024
671.000 0.023
672.000 0.024
673.000 0.025
674.000 0.024
675.000 0.024
676.000 0.025
677.000 0.025
678.000 0.025
679.000 0.026
680.000 0.026
681.000 0.026
682.000 0.027
683.000 0.028
684.000 0.028
685.000 0.029
686.000 0.030
687.000 0.032
688.000 0.034
689.000 0.035
690.000 0.037
691.000 0.040
692.000 0.042
693.000 0.046
694.000 0.051
695.000 0.057
696.000 0.062
697.000 0.068
698.000 0.075
699.000 0.081
700.000 0.089
701.000 0.098
702.000 0.107
703.000 0.116
704.000 0.124
705.000 0.134
706.000 0.143
707.000 0.151
708.000 0.161
709.000 0.171
710.000 0.180
711.000 0.191
712.000 0.201
713.000 0.212
714.000 0.222
715.000 0.232
716.000 0.243
717.000 0.254
718.000 0.266
719.000 0.279
720.000 0.292
721.000 0.303
722.000 0.314
723.000 0.324
724.000 0.335
725.000 0.347
726.000 0.358
727.000 0.369
728.000 0.380
729.000 0.390
730.000 0.400
731.000 0.410
732.000 0.419
733.000 0.428
734.000 0.437
735.000 0.445
736.000 0.452
737.000 0.459
738.000 0.467
739.000 0.473
740.000 0.480
741.000 0.486
742.000 0.492
743.000 0.496
744.000 0.501
745.000 0.505
746.000 0.510
747.000 0.513
748.000 0.517
749.000 0.520
750.000 0.524
751.000 0.526
752.000 0.528
753.000 0.531
754.000 0.533
755.000 0.535
756.000 0.537
757.000 0.538
758.000 0.540
759.000 0.541
760.000 0.541
761.000 0.541
762.000 0.542
763.000 0.542
764.000 0.543
765.000 0.544
766.000 0.546
767.000 0.547
768.000 0.549
769.000 0.550
770.000 0.550
771.000 0.551
772.000 0.552
773.000 0.552
774.000 0.552
775.000 0.553
776.000 0.554
777.000 0.554
778.000 0.554
779.000 0.555
780.000 0.555
781.000 0.556
782.000 0.556
783.000 0.557
784.000 0.557
785.000 0.557
786.000 0.557
787.000 0.557
788.000 0.557
789.000 0.557
790.000 0.558
791.000 0.558
792.000 0.558
793.000 0.559
794.000 0.560
795.000 0.559
796.000 0.560
797.000 0.560
798.000 0.560
799.000 0.561
800.000 0.561
801.000 0.561
802.000 0.561
803.000 0.561
804.000 0.562
805.000 0.562
806.000 0.563
807.000 0.563
808.000 0.563
809.000 0.563
810.000 0.563
811.000 0.563
812.000 0.563
813.000 0.564
814.000 0.563
815.000 0.562
816.000 0.563
817.000 0.563
818.000 0.563
819.000 0.564
820.000 0.564
821.000 0.565
822.000 0.565
823.000 0.565
824.000 0.565
825.000 0.566
826.000 0.567
827.000 0.566
828.000 0.566
829.000 0.567
830.000 0.567
831.000 0.567
832.000 0.568
833.000 0.568
834.000 0.568
835.000 0.569
836.000 0.569
837.000 0.570
838.000 0.570
839.000 0.571
840.000 0.570
841.000 0.571
842.000 0.572
843.000 0.572
844.000 0.572
845.000 0.573
846.000 0.573
847.000 0.573
848.000 0.573
849.000 0.573
850.000 0.574
851.000 0.574
852.000 0.574
853.000 0.575
854.000 0.575
855.000 0.575
856.000 0.575
857.000 0.576
858.000 0.576
859.000 0.576
860.000 0.576
861.000 0.576
862.000 0.576
863.000 0.576
864.000 0.577
865.000 0.577
866.000 0.578
867.000 0.578
868.000 0.577
869.000 0.578
870.000 0.578
871.000 0.579
872.000 0.579
873.000 0.579
874.000 0.579
875.000 0.579
876.000 0.579
877.000 0.579
878.000 0.579
879.000 0.580
880.000 0.580
881.000 0.580
882.000 0.580
883.000 0.580
884.000 0.580
885.000 0.580
886.000 0.580
887.000 0.581
888.000 0.581
889.000 0.581
890.000 0.581
891.000 0.581
892.000 0.581
893.000 0.580
894.000 0.580
895.000 0.580
896.000 0.579
897.000 0.578
898.000 0.578
899.000 0.578
900.000 0.577
901.000 0.578
902.000 0.579
903.000 0.579
904.000 0.579
905.000 0.579
906.000 0.579
907.000 0.579
908.000 0.579
909.000 0.578
910.000 0.579
911.000 0.579
912.000 0.579
913.000 0.578
914.000 0.578
915.000 0.578
916.000 0.579
917.000 0.579
918.000 0.580
919.000 0.580
920.000 0.580
921.000 0.580
922.000 0.581
923.000 0.580
924.000 0.580
925.000 0.580
926.000 0.580
927.000 0.579
928.000 0.577
929.000 0.576
930.000 0.576
931.000 0.575
932.000 0.571
933.000 0.571
934.000 0.570
935.000 0.569
936.000 0.568
937.000 0.567
938.000 0.566
939.000 0.566
940.000 0.568
941.000 0.567
942.000 0.566
943.000 0.566
944.000 0.568
945.000 0.563
946.000 0.561
947.000 0.565
948.000 0.565
949.000 0.560
950.000 0.557
951.000 0.559
952.000 0.561
953.000 0.557
954.000 0.553
955.000 0.551
956.000 0.554
957.000 0.558
958.000 0.558
959.000 0.552
960.000 0.551
961.000 0.553
962.000 0.553
963.000 0.553
964.000 0.552
965.000 0.553
966.000 0.553
967.000 0.554
968.000 0.555
969.000 0.556
970.000 0.556
971.000 0.556
972.000 0.556
973.000 0.556
974.000 0.554
975.000 0.553
976.000 0.554
977.000 0.556
978.000 0.556
979.000 0.556
980.000 0.553
981.000 0.556
982.000 0.558
983.000 0.558
984.000 0.560
985.000 0.560
986.000 0.560
987.000 0.560
988.000 0.564
989.000 0.562
990.000 0.561
991.000 0.563
992.000 0.563
993.000 0.563
994.000 0.565
995.000 0.566
996.000 0.565
997.000 0.566
998.000 0.566
999.000 0.567
1000.000 0.570
1001.000 0.573
1002.000 0.573
1003.000 0.573
1004.000 0.575
1005.000 0.573
1006.000 0.574
1007.000 0.574
1008.000 0.573
1009.000 0.574
1010.000 0.576
1011.000 0.577
1012.000 0.579
1013.000 0.580
1014.000 0.580
1015.000 0.580
1016.000 0.581
1017.000 0.581
1018.000 0.581
1019.000 0.582
1020.000 0.583
1021.000 0.582
1022.000 0.583
1023.000 0.584
1024.000 0.584
1025.000 0.584
1026.000 0.585
1027.000 0.587
1028.000 0.588
1029.000 0.590
1030.000 0.590
1031.000 0.591
1032.000 0.592
1033.000 0.592
1034.000 0.592
1035.000 0.593
1036.000 0.593
1037.000 0.593
1038.000 0.594
1039.000 0.594
1040.000 0.595
1041.000 0.596
1042.000 0.596
1043.000 0.596
1044.000 0.597
1045.000 0.597
1046.000 0.598
1047.000 0.598
1048.000 0.599
1049.000 0.599
1050.000 0.599
1051.000 0.600
1052.000 0.599
1053.000 0.600
1054.000 0.600
1055.000 0.600
1056.000 0.601
1057.000 0.601
1058.000 0.601
1059.000 0.601
1060.000 0.601
1061.000 0.601
1062.000 0.602
1063.000 0.603
1064.000 0.603
1065.000 0.604
1066.000 0.604
1067.000 0.604
1068.000 0.604
1069.000 0.604
1070.000 0.604
1071.000 0.605
1072.000 0.604
1073.000 0.603
1074.000 0.603
1075.000 0.602
1076.000 0.602
1077.000 0.603
1078.000 0.603
1079.000 0.604
1080.000 0.604
1081.000 0.604
1082.000 0.603
1083.000 0.602
1084.000 0.602
1085.000 0.602
1086.000 0.602
1087.000 0.603
1088.000 0.604
1089.000 0.604
1090.000 0.604
1091.000 0.604
1092.000 0.604
1093.000 0.604
1094.000 0.603
1095.000 0.603
1096.000 0.602
1097.000 0.600
1098.000 0.600
1099.000 0.599
1100.000 0.598
1101.000 0.598
1102.000 0.598
1103.000 0.598
1104.000 0.598
1105.000 0.598
1106.000 0.598
1107.000 0.598
1108.000 0.597
1109.000 0.598
1110.000 0.598
1111.000 0.597
1112.000 0.597
1113.000 0.598
1114.000 0.596
1115.000 0.596
1116.000 0.596
1117.000 0.594
1118.000 0.592
1119.000 0.590
1120.000 0.588
1121.000 0.588
1122.000 0.584
1123.000 0.583
1124.000 0.583
1125.000 0.582
1126.000 0.585
1127.000 0.585
1128.000 0.585
1129.000 0.586
1130.000 0.593
1131.000 0.594
1132.000 0.590
1133.000 0.590
1134.000 0.582
1135.000 0.572
1136.000 0.569
1137.000 0.563
1138.000 0.557
1139.000 0.554
1140.000 0.553
1141.000 0.554
1142.000 0.555
1143.000 0.559
1144.000 0.559
1145.000 0.558
1146.000 0.555
1147.000 0.550
1148.000 0.547
1149.000 0.543
1150.000 0.539
1151.000 0.538
1152.000 0.536
1153.000 0.534
1154.000 0.535
1155.000 0.534
1156.000 0.534
1157.000 0.534
1158.000 0.534
1159.000 0.533
1160.000 0.532
1161.000 0.531
1162.000 0.530
1163.000 0.529
1164.000 0.528
1165.000 0.528
1166.000 0.527
1167.000 0.526
1168.000 0.525
1169.000 0.525
1170.000 0.524
1171.000 0.524
1172.000 0.523
1173.000 0.523
1174.000 0.523
1175.000 0.523
1176.000 0.523
1177.000 0.524
1178.000 0.524
1179.000 0.524
1180.000 0.523
1181.000 0.522
1182.000 0.522
1183.000 0.520
1184.000 0.520
1185.000 0.521
1186.000 0.521
1187.000 0.520
1188.000 0.521
1189.000 0.520
1190.000 0.520
1191.000 0.519
1192.000 0.519
1193.000 0.519
1194.000 0.519
1195.000 0.519
1196.000 0.519
1197.000 0.519
1198.000 0.519
1199.000 0.519
1200.000 0.519
1201.000 0.519
1202.000 0.519
1203.000 0.519
1204.000 0.520
1205.000 0.520
1206.000 0.520
1207.000 0.521
1208.000 0.521
1209.000 0.521
1210.000 0.522
1211.000 0.523
1212.000 0.523
1213.000 0.523
1214.000 0.523
1215.000 0.523
1216.000 0.523
1217.000 0.524
1218.000 0.525
1219.000 0.525
1220.000 0.525
1221.000 0.526
1222.000 0.527
1223.000 0.527
1224.000 0.528
1225.000 0.528
1226.000 0.529
1227.000 0.529
1228.000 0.530
1229.000 0.531
1230.000 0.532
1231.000 0.532
1232.000 0.533
1233.000 0.533
1234.000 0.534
1235.000 0.534
1236.000 0.535
1237.000 0.535
1238.000 0.535
1239.000 0.536
1240.000 0.537
1241.000 0.537
1242.000 0.537
1243.000 0.537
1244.000 0.537
1245.000 0.538
1246.000 0.538
1247.000 0.538
1248.000 0.538
1249.000 0.538
1250.000 0.538
1251.000 0.539
1252.000 0.539
1253.000 0.540
1254.000 0.540
1255.000 0.540
1256.000 0.540
1257.000 0.541
1258.000 0.540
1259.000 0.540
1260.000 0.541
1261.000 0.541
1262.000 0.542
1263.000 0.541
1264.000 0.541
1265.000 0.541
1266.000 0.541
1267.000 0.541
1268.000 0.541
1269.000 0.542
1270.000 0.541
1271.000 0.541
1272.000 0.541
1273.000 0.541
1274.000 0.540
1275.000 0.540
1276.000 0.541
1277.000 0.541
1278.000 0.541
1279.000 0.541
1280.000 0.542
1281.000 0.542
1282.000 0.542
1283.000 0.542
1284.000 0.541
1285.000 0.541
1286.000 0.540
1287.000 0.540
1288.000 0.540
1289.000 0.540
1290.000 0.539
1291.000 0.538
1292.000 0.538
1293.000 0.538
1294.000 0.537
1295.000 0.537
1296.000 0.537
1297.000 0.535
1298.000 0.534
1299.000 0.533
1300.000 0.532
1301.000 0.532
1302.000 0.531
1303.000 0.530
1304.000 0.528
1305.000 0.527
1306.000 0.526
1307.000 0.525
1308.000 0.524
1309.000 0.522
1310.000 0.521
1311.000 0.520
1312.000 0.518
1313.000 0.516
1314.000 0.515
1315.000 0.514
1316.000 0.513
1317.000 0.512
1318.000 0.510
1319.000 0.507
1320.000 0.505
1321.000 0.503
1322.000 0.502
1323.000 0.500
1324.000 0.500
1325.000 0.499
1326.000 0.496
1327.000 0.495
1328.000 0.494
1329.000 0.493
1330.000 0.490
1331.000 0.487
1332.000 0.483
1333.000 0.480
1334.000 0.478
1335.000 0.476
1336.000 0.473
1337.000 0.472
1338.000 0.474
1339.000 0.474
1340.000 0.478
1341.000 0.479
1342.000 0.475
1343.000 0.473
1344.000 0.469
1345.000 0.465
1346.000 0.467
1347.000 0.467
1348.000 0.466
1349.000 0.461
1350.000 0.467
1351.000 0.487
1352.000 0.525
1353.000 0.615
1354.000 0.659
1355.000 0.514
1356.000 0.459
1357.000 0.433
1358.000 0.610
1359.000 0.634
1360.000 0.487
1361.000 0.617
1362.000 0.309
1363.000 0.306
1364.000 0.438
1365.000 0.346
1366.000 0.358
1367.000 0.293
1368.000 0.231
1369.000 0.432
1370.000 0.477
1371.000 0.496
1372.000 0.577
1373.000 0.432
1374.000 0.405
1375.000 0.375
1376.000 0.600
1377.000 0.572
1378.000 0.375
1379.000 0.421
1380.000 0.534
1381.000 0.491
1382.000 0.476
1383.000 0.428
1384.000 0.488
1385.000 0.427
1386.000 0.467
1387.000 0.480
1388.000 0.469
1389.000 0.484
1390.000 0.434
1391.000 0.396
1392.000 0.431
1393.000 0.543
1394.000 0.466
1395.000 0.364
1396.000 0.332
1397.000 0.315
1398.000 0.270
1399.000 0.403
1400.000 0.361
1401.000 0.372
1402.000 0.333
1403.000 0.300
1404.000 0.325
1405.000 0.303
1406.000 0.420
1407.000 0.288
1408.000 0.388
1409.000 0.423
1410.000 0.328
1411.000 0.511
1412.000 0.653
1413.000 0.679
1414.000 0.580
1415.000 0.500
1416.000 0.412
1417.000 0.256
1418.000 0.378
1419.000 0.333
1420.000 0.327
1421.000 0.676
1422.000 0.470
1423.000 0.424
1424.000 0.361
1425.000 0.286
1426.000 0.225
1427.000 0.298
1428.000 0.383
1429.000 0.468
1430.000 0.451
1431.000 0.334
1432.000 0.350
1433.000 0.406
1434.000 0.568
1435.000 0.544
1436.000 0.569
1437.000 0.521
1438.000 0.522
1439.000 0.657
1440.000 0.502
1441.000 0.356
1442.000 0.539
1443.000 0.485
1444.000 0.447
1445.000 0.396
1446.000 0.367
1447.000 0.377
1448.000 0.285
1449.000 0.206
1450.000 0.145
1451.000 0.183
1452.000 0.209
1453.000 0.209
1454.000 0.242
1455.000 0.240
1456.000 0.235
1457.000 0.212
1458.000 0.163
1459.000 0.148
1460.000 0.139
1461.000 0.139
1462.000 0.131
1463.000 0.152
1464.000 0.157
1465.000 0.165
1466.000 0.200
1467.000 0.202
1468.000 0.164
1469.000 0.156
1470.000 0.151
1471.000 0.148
1472.000 0.149
1473.000 0.147
1474.000 0.202
1475.000 0.221
1476.000 0.253
1477.000 0.249
1478.000 0.182
1479.000 0.173
1480.000 0.154
1481.000 0.151
1482.000 0.151
1483.000 0.151
1484.000 0.161
1485.000 0.162
1486.000 0.145
1487.000 0.148
1488.000 0.163
1489.000 0.167
1490.000 0.169
1491.000 0.172
1492.000 0.173
1493.000 0.174
1494.000 0.176
1495.000 0.179
1496.000 0.183
1497.000 0.185
1498.000 0.187
1499.000 0.189
1500.000 0.189
1501.000 0.189
1502.000 0.187
1503.000 0.188
1504.000 0.188
1505.000 0.186
1506.000 0.187
1507.000 0.188
1508.000 0.192
1509.000 0.197
1510.000 0.200
1511.000 0.202
1512.000 0.203
1513.000 0.203
1514.000 0.204
1515.000 0.206
1516.000 0.208
1517.000 0.210
1518.000 0.212
1519.000 0.214
1520.000 0.216
1521.000 0.217
1522.000 0.218
1523.000 0.218
1524.000 0.219
1525.000 0.218
1526.000 0.219
1527.000 0.221
1528.000 0.222
1529.000 0.225
1530.000 0.227
1531.000 0.228
1532.000 0.230
1533.000 0.232
1534.000 0.233
1535.000 0.233
1536.000 0.234
1537.000 0.235
1538.000 0.237
1539.000 0.239
1540.000 0.240
1541.000 0.241
1542.000 0.243
1543.000 0.246
1544.000 0.247
1545.000 0.248
1546.000 0.250
1547.000 0.251
1548.000 0.252
1549.000 0.254
1550.000 0.255
1551.000 0.255
1552.000 0.256
1553.000 0.256
1554.000 0.257
1555.000 0.261
1556.000 0.263
1557.000 0.266
1558.000 0.268
1559.000 0.269
1560.000 0.269
1561.000 0.268
1562.000 0.269
1563.000 0.271
1564.000 0.272
1565.000 0.274
1566.000 0.274
1567.000 0.274
1568.000 0.274
1569.000 0.275
1570.000 0.276
1571.000 0.278
1572.000 0.279
1573.000 0.279
1574.000 0.279
1575.000 0.277
1576.000 0.277
1577.000 0.279
1578.000 0.281
1579.000 0.285
1580.000 0.288
1581.000 0.291
1582.000 0.293
1583.000 0.293
1584.000 0.295
1585.000 0.296
1586.000 0.296
1587.000 0.297
1588.000 0.298
1589.000 0.299
1590.000 0.300
1591.000 0.302
1592.000 0.303
1593.000 0.303
1594.000 0.304
1595.000 0.303
1596.000 0.303
1597.000 0.305
1598.000 0.305
1599.000 0.305
1600.000 0.305
1601.000 0.305
1602.000 0.306
1603.000 0.307
1604.000 0.309
1605.000 0.309
1606.000 0.311
1607.000 0.311
1608.000 0.312
1609.000 0.312
1610.000 0.313
1611.000 0.313
1612.000 0.313
1613.000 0.313
1614.000 0.314
1615.000 0.315
1616.000 0.316
1617.000 0.318
1618.000 0.319
1619.000 0.319
1620.000 0.319
1621.000 0.318
1622.000 0.318
1623.000 0.320
1624.000 0.322
1625.000 0.323
1626.000 0.325
1627.000 0.328
1628.000 0.328
1629.000 0.327
1630.000 0.328
1631.000 0.327
1632.000 0.328
1633.000 0.332
1634.000 0.333
1635.000 0.332
1636.000 0.331
1637.000 0.330
1638.000 0.329
1639.000 0.330
1640.000 0.330
1641.000 0.331
1642.000 0.332
1643.000 0.333
1644.000 0.334
1645.000 0.335
1646.000 0.336
1647.000 0.338
1648.000 0.338
1649.000 0.338
1650.000 0.337
1651.000 0.338
1652.000 0.337
1653.000 0.337
1654.000 0.336
1655.000 0.334
1656.000 0.334
1657.000 0.337
1658.000 0.337
1659.000 0.337
1660.000 0.337
1661.000 0.338
1662.000 0.338
1663.000 0.340
1664.000 0.341
1665.000 0.341
1666.000 0.341
1667.000 0.341
1668.000 0.341
1669.000 0.339
1670.000 0.338
1671.000 0.338
1672.000 0.337
1673.000 0.339
1674.000 0.340
1675.000 0.339
1676.000 0.338
1677.000 0.336
1678.000 0.336
1679.000 0.337
1680.000 0.336
1681.000 0.333
1682.000 0.333
1683.000 0.332
1684.000 0.332
1685.000 0.335
1686.000 0.337
1687.000 0.337
1688.000 0.338
1689.000 0.338
1690.000 0.338
1691.000 0.337
1692.000 0.337
1693.000 0.338
1694.000 0.338
1695.000 0.339
1696.000 0.338
1697.000 0.335
1698.000 0.334
1699.000 0.334
1700.000 0.334
1701.000 0.337
1702.000 0.336
1703.000 0.334
1704.000 0.333
1705.000 0.331
1706.000 0.331
1707.000 0.334
1708.000 0.334
1709.000 0.334
1710.000 0.332
1711.000 0.328
1712.000 0.326
1713.000 0.326
1714.000 0.325
1715.000 0.328
1716.000 0.329
1717.000 0.328
1718.000 0.328
1719.000 0.331
1720.000 0.330
1721.000 0.329
1722.000 0.328
1723.000 0.323
1724.000 0.320
1725.000 0.322
1726.000 0.322
1727.000 0.322
1728.000 0.322
1729.000 0.320
1730.000 0.318
1731.000 0.317
1732.000 0.317
1733.000 0.318
1734.000 0.318
1735.000 0.318
1736.000 0.319
1737.000 0.319
1738.000 0.321
1739.000 0.322
1740.000 0.323
1741.000 0.323
1742.000 0.323
1743.000 0.323
1744.000 0.322
1745.000 0.320
1746.000 0.319
1747.000 0.317
1748.000 0.314
1749.000 0.312
1750.000 0.309
1751.000 0.307
1752.000 0.307
1753.000 0.305
1754.000 0.301
1755.000 0.300
1756.000 0.295
1757.000 0.295
1758.000 0.300
1759.000 0.300
1760.000 0.297
1761.000 0.298
1762.000 0.296
1763.000 0.295
1764.000 0.296
1765.000 0.295
1766.000 0.296
1767.000 0.298
1768.000 0.301
1769.000 0.303
1770.000 0.303
1771.000 0.304
1772.000 0.299
1773.000 0.287
1774.000 0.284
1775.000 0.284
1776.000 0.282
1777.000 0.292
1778.000 0.296
1779.000 0.290
1780.000 0.300
1781.000 0.307
1782.000 0.304
1783.000 0.301
1784.000 0.291
1785.000 0.291
1786.000 0.292
1787.000 0.303
1788.000 0.303
1789.000 0.285
1790.000 0.273
1791.000 0.260
1792.000 0.253
1793.000 0.248
1794.000 0.269
1795.000 0.297
1796.000 0.351
1797.000 0.395
1798.000 0.453
1799.000 0.446
1800.000 0.344
1801.000 0.462
1802.000 0.546
1803.000 0.609
1804.000 0.408
1805.000 0.441
1806.000 0.497
1807.000 0.527
1808.000 0.473
1809.000 0.454
1810.000 0.545
1811.000 0.493
1812.000 0.423
1813.000 0.359
1814.000 0.386
1815.000 0.411
1816.000 0.443
1817.000 0.482
1818.000 0.487
1819.000 0.273
1820.000 0.340
1821.000 0.244
1822.000 0.391
1823.000 0.468
1824.000 0.512
1825.000 0.518
1826.000 0.752
1827.000 0.626
1828.000 0.629
1829.000 0.575
1830.000 0.307
1831.000 0.261
1832.000 0.191
1833.000 0.195
1834.000 0.198
1835.000 0.204
1836.000 0.228
1837.000 0.336
1838.000 0.469
1839.000 0.653
1840.000 0.514
1841.000 0.392
1842.000 0.433
1843.000 0.505
1844.000 0.370
1845.000 0.260
1846.000 0.333
1847.000 0.280
1848.000 0.565
1849.000 0.443
1850.000 0.513
1851.000 0.449
1852.000 0.430
1853.000 0.642
1854.000 0.600
1855.000 0.546
1856.000 0.333
1857.000 0.337
1858.000 0.537
1859.000 0.657
1860.000 0.603
1861.000 0.421
1862.000 0.329
1863.000 0.429
1864.000 0.480
1865.000 0.538
1866.000 0.547
1867.000 0.538
1868.000 0.574
1869.000 0.572
1870.000 0.629
1871.000 0.549
1872.000 0.282
1873.000 0.360
1874.000 0.429
1875.000 0.372
1876.000 0.306
1877.000 0.516
1878.000 0.555
1879.000 0.648
1880.000 0.671
1881.000 0.522
1882.000 0.607
1883.000 0.561
1884.000 0.569
1885.000 0.376
1886.000 0.339
1887.000 0.226
1888.000 0.313
1889.000 0.253
1890.000 0.409
1891.000 0.129
1892.000 0.575
1893.000 0.510
1894.000 0.492
1895.000 0.396
1896.000 0.363
1897.000 0.512
1898.000 0.554
1899.000 0.477
1900.000 0.415
1901.000 0.477
1902.000 0.375
1903.000 0.520
1904.000 0.570
1905.000 0.598
1906.000 0.460
1907.000 0.442
1908.000 0.437
1909.000 0.662
1910.000 0.565
1911.000 0.367
1912.000 0.416
1913.000 0.436
1914.000 0.364
1915.000 0.401
1916.000 0.538
1917.000 0.518
1918.000 0.494
1919.000 0.466
1920.000 0.479
1921.000 0.450
1922.000 0.592
1923.000 0.587
1924.000 0.531
1925.000 0.416
1926.000 0.242
1927.000 0.208
1928.000 0.271
1929.000 0.334
1930.000 0.507
1931.000 0.580
1932.000 0.519
1933.000 0.306
1934.000 0.283
1935.000 0.264
1936.000 0.305
1937.000 0.340
1938.000 0.492
1939.000 0.538
1940.000 0.518
1941.000 0.274
1942.000 0.321
1943.000 0.371
1944.000 0.362
1945.000 0.409
1946.000 0.240
1947.000 0.407
1948.000 0.168
1949.000 0.215
1950.000 0.413
1951.000 0.673
1952.000 0.425
1953.000 0.345
1954.000 0.337
1955.000 0.371
1956.000 0.384
1957.000 0.595
1958.000 0.436
1959.000 0.419
1960.000 0.402
1961.000 0.307
1962.000 0.255
1963.000 0.203
1964.000 0.186
1965.000 0.141
1966.000 0.444
1967.000 0.459
1968.000 0.462
1969.000 0.484
1970.000 0.520
1971.000 0.567
1972.000 0.507
1973.000 0.524
1974.000 0.503
1975.000 0.475
1976.000 0.523
1977.000 0.451
1978.000 0.415
1979.000 0.524
1980.000 0.401
1981.000 0.497
1982.000 0.437
1983.000 0.385
1984.000 0.413
1985.000 0.267
1986.000 0.224
1987.000 0.246
1988.000 0.254
1989.000 0.292
1990.000 0.249
1991.000 0.202
1992.000 0.260
1993.000 0.268
1994.000 0.445
1995.000 0.417
1996.000 0.567
1997.000 0.215
1998.000 0.422
1999.000 0.358
2000.000 0.370
2001.000 0.345
2002.000 0.315
2003.000 0.350
2004.000 0.499
2005.000 0.415
2006.000 0.343
2007.000 0.298
2008.000 0.440
2009.000 0.299
2010.000 0.379
2011.000 0.462
2012.000 0.416
2013.000 0.407
2014.000 0.352
2015.000 0.358
2016.000 0.262
2017.000 0.391
2018.000 0.528
2019.000 0.386
2020.000 0.300
2021.000 0.295
2022.000 0.343
2023.000 0.391
2024.000 0.343
2025.000 0.425
2026.000 0.505
2027.000 0.397
2028.000 0.346
2029.000 0.313
2030.000 0.358
2031.000 0.334
2032.000 0.284
2033.000 0.292
2034.000 0.228
2035.000 0.214
2036.000 0.300
2037.000 0.272
2038.000 0.302
2039.000 0.302
2040.000 0.315
2041.000 0.395
2042.000 0.424
2043.000 0.438
2044.000 0.399
2045.000 0.307
2046.000 0.245
2047.000 0.251
2048.000 0.258
2049.000 0.271
2050.000 0.387
2051.000 0.371
2052.000 0.345
2053.000 0.333
2054.000 0.216
2055.000 0.207
2056.000 0.197
2057.000 0.199
2058.000 0.226
2059.000 0.281
2060.000 0.256
2061.000 0.259
2062.000 0.228
2063.000 0.229
2064.000 0.233
2065.000 0.214
2066.000 0.219
2067.000 0.288
2068.000 0.293
2069.000 0.332
2070.000 0.387
2071.000 0.320
2072.000 0.300
2073.000 0.256
2074.000 0.235
2075.000 0.236
2076.000 0.224
2077.000 0.251
2078.000 0.221
2079.000 0.189
2080.000 0.176
2081.000 0.166
2082.000 0.167
2083.000 0.178
2084.000 0.188
2085.000 0.201
2086.000 0.206
2087.000 0.211
2088.000 0.215
2089.000 0.217
2090.000 0.212
2091.000 0.208
2092.000 0.199
2093.000 0.201
2094.000 0.203
2095.000 0.211
2096.000 0.240
2097.000 0.246
2098.000 0.242
2099.000 0.237
2100.000 0.208
2101.000 0.192
2102.000 0.200
2103.000 0.203
2104.000 0.206
2105.000 0.224
2106.000 0.228
2107.000 0.229
2108.000 0.214
2109.000 0.205
2110.000 0.195
2111.000 0.185
2112.000 0.185
2113.000 0.183
2114.000 0.184
2115.000 0.195
2116.000 0.201
2117.000 0.201
2118.000 0.192
2119.000 0.195
2120.000 0.195
2121.000 0.193
2122.000 0.189
2123.000 0.185
2124.000 0.180
2125.000 0.180
2126.000 0.180
2127.000 0.186
2128.000 0.200
2129.000 0.201
2130.000 0.204
2131.000 0.206
2132.000 0.207
2133.000 0.201
2134.000 0.187
2135.000 0.182
2136.000 0.171
2137.000 0.172
2138.000 0.180
2139.000 0.195
2140.000 0.204
2141.000 0.213
2142.000 0.215
2143.000 0.206
2144.000 0.207
2145.000 0.215
2146.000 0.216
2147.000 0.215
2148.000 0.212
2149.000 0.190
2150.000 0.191
2151.000 0.206
2152.000 0.211
2153.000 0.224
2154.000 0.228
2155.000 0.219
2156.000 0.207
2157.000 0.213
2158.000 0.224
2159.000 0.225
2160.000 0.227
2161.000 0.223
2162.000 0.197
2163.000 0.187
2164.000 0.176
2165.000 0.173
2166.000 0.177
2167.000 0.180
2168.000 0.187
2169.000 0.191
2170.000 0.198
2171.000 0.202
2172.000 0.201
2173.000 0.203
2174.000 0.204
2175.000 0.207
2176.000 0.215
2177.000 0.219
2178.000 0.222
2179.000 0.223
2180.000 0.218
2181.000 0.219
2182.000 0.225
2183.000 0.232
2184.000 0.235
2185.000 0.230
2186.000 0.224
2187.000 0.208
2188.000 0.205
2189.000 0.200
2190.000 0.198
2191.000 0.197
2192.000 0.194
2193.000 0.190
2194.000 0.192
2195.000 0.193
2196.000 0.200
2197.000 0.215
2198.000 0.224
2199.000 0.238
2200.000 0.249
2201.000 0.258
2202.000 0.252
2203.000 0.246
2204.000 0.245
2205.000 0.226
2206.000 0.214
2207.000 0.201
2208.000 0.184
2209.000 0.182
2210.000 0.193
2211.000 0.197
2212.000 0.210
2213.000 0.211
2214.000 0.207
2215.000 0.207
2216.000 0.204
2217.000 0.208
2218.000 0.221
2219.000 0.223
2220.000 0.222
2221.000 0.227
2222.000 0.234
2223.000 0.233
2224.000 0.238
2225.000 0.236
2226.000 0.220
2227.000 0.206
2228.000 0.200
2229.000 0.205
2230.000 0.207
2231.000 0.205
2232.000 0.214
2233.000 0.206
2234.000 0.199
2235.000 0.205
2236.000 0.198
2237.000 0.200
2238.000 0.202
2239.000 0.211
2240.000 0.214
2241.000 0.215
2242.000 0.212
2243.000 0.202
2244.000 0.195
2245.000 0.184
2246.000 0.193
2247.000 0.193
2248.000 0.196
2249.000 0.202
2250.000 0.224
2251.000 0.219
2252.000 0.230
2253.000 0.246
2254.000 0.254
2255.000 0.264
2256.000 0.258
2257.000 0.238
2258.000 0.209
2259.000 0.193
2260.000 0.186
2261.000 0.197
2262.000 0.203
2263.000 0.240
2264.000 0.266
2265.000 0.250
2266.000 0.235
2267.000 0.219
2268.000 0.197
2269.000 0.188
2270.000 0.183
2271.000 0.186
2272.000 0.173
2273.000 0.162
2274.000 0.153
2275.000 0.162
2276.000 0.169
2277.000 0.172
2278.000 0.198
2279.000 0.191
2280.000 0.153
2281.000 0.146
2282.000 0.141
2283.000 0.146
2284.000 0.173
2285.000 0.189
2286.000 0.194
2287.000 0.203
2288.000 0.255
2289.000 0.272
2290.000 0.275
2291.000 0.270
2292.000 0.206
2293.000 0.196
2294.000 0.200
2295.000 0.206
2296.000 0.230
2297.000 0.278
2298.000 0.280
2299.000 0.233
2300.000 0.194
2301.000 0.176
2302.000 0.168
2303.000 0.140
2304.000 0.183
2305.000 0.169
2306.000 0.194
2307.000 0.191
2308.000 0.174
2309.000 0.169
2310.000 0.133
2311.000 0.116
2312.000 0.140
2313.000 0.172
2314.000 0.186
2315.000 0.205
2316.000 0.231
2317.000 0.229
2318.000 0.252
2319.000 0.313
2320.000 0.383
2321.000 0.355
2322.000 0.451
2323.000 0.484
2324.000 0.262
2325.000 0.355
2326.000 0.399
2327.000 0.430
2328.000 0.420
2329.000 0.514
2330.000 0.455
2331.000 0.318
2332.000 0.313
2333.000 0.193
2334.000 0.354
2335.000 0.274
2336.000 0.465
2337.000 0.474
2338.000 0.474
2339.000 0.398
2340.000 0.584
2341.000 0.354
2342.000 0.332
2343.000 0.171
2344.000 0.335
2345.000 0.269
2346.000 0.392
2347.000 0.278
2348.000 0.296
2349.000 0.353
2350.000 0.333
2351.000 0.328
2352.000 0.346
2353.000 0.362
2354.000 0.441
2355.000 0.303
2356.000 0.281
2357.000 0.221
2358.000 0.310
2359.000 0.266
2360.000 0.236
2361.000 0.199
2362.000 0.182
2363.000 0.222
2364.000 0.313
2365.000 0.471
2366.000 0.638
2367.000 0.529
2368.000 0.427
2369.000 0.501
2370.000 0.392
2371.000 0.180
2372.000 0.255
2373.000 0.330
2374.000 0.383
2375.000 0.495
2376.000 0.378
2377.000 0.262
2378.000 0.282
2379.000 0.241
2380.000 0.305
2381.000 0.324
2382.000 0.413
2383.000 0.226
2384.000 0.359
2385.000 0.378
2386.000 0.421
2387.000 0.284
2388.000 0.379
2389.000 0.613
2390.000 0.439
2391.000 0.362
2392.000 0.298
2393.000 0.371
2394.000 0.462
2395.000 0.341
2396.000 0.377
2397.000 0.482
2398.000 0.533
2399.000 0.269
2400.000 0.317
2401.000 0.259
2402.000 0.146
2403.000 0.244
2404.000 0.315
2405.000 0.496
2406.000 0.406
2407.000 0.401
2408.000 0.363
2409.000 0.441
2410.000 0.594
2411.000 0.592
2412.000 0.412
2413.000 0.469
2414.000 0.525
2415.000 0.235
2416.000 0.235
2417.000 0.360
2418.000 0.453
2419.000 0.463
2420.000 0.520
2421.000 0.492
2422.000 0.617
2423.000 0.566
2424.000 0.530
2425.000 0.494
2426.000 0.618
2427.000 0.338
2428.000 0.525
2429.000 0.557
2430.000 0.347
2431.000 0.395
2432.000 0.304
2433.000 0.226
2434.000 0.164
2435.000 0.196
2436.000 0.248
2437.000 0.380
2438.000 0.296
2439.000 0.358
2440.000 0.276
2441.000 0.298
2442.000 0.303
2443.000 0.277
2444.000 0.494
2445.000 0.471
2446.000 0.356
2447.000 0.209
2448.000 0.235
2449.000 0.230
2450.000 0.347
2451.000 0.402
2452.000 0.339
2453.000 0.528
2454.000 0.548
2455.000 0.477
2456.000 0.607
2457.000 0.641
2458.000 0.774
2459.000 0.829
2460.000 0.638
2461.000 0.467
2462.000 0.435
2463.000 0.412
2464.000 0.361
2465.000 0.360
2466.000 0.267
2467.000 0.296
2468.000 0.296
2469.000 0.261
2470.000 0.165
2471.000 0.194
2472.000 0.278
2473.000 0.312
2474.000 0.447
2475.000 0.587
2476.000 0.598
2477.000 0.648
2478.000 0.473
2479.000 0.629
2480.000 0.435
2481.000 0.572
2482.000 0.350
2483.000 0.379
2484.000 0.331
2485.000 0.381
2486.000 0.433
2487.000 0.357
2488.000 0.275
2489.000 0.239
2490.000 0.283
2491.000 0.404
2492.000 0.431
2493.000 0.291
2494.000 0.246
2495.000 0.180
2496.000 0.317
2497.000 0.236
2498.000 0.468
2499.000 0.434
2500.000 0.477
