391.000 0.048
392.000 0.033
393.000 0.021
394.000 0.033
395.000 0.036
396.000 0.037
397.000 0.042
398.000 0.043
399.000 0.044
400.000 0.044
401.000 0.045
402.000 0.042
403.000 0.039
404.000 0.038
405.000 0.039
406.000 0.045
407.000 0.047
408.000 0.044
409.000 0.038
410.000 0.037
411.000 0.040
412.000 0.043
413.000 0.043
414.000 0.043
415.000 0.044
416.000 0.049
417.000 0.048
418.000 0.045
419.000 0.042
420.000 0.043
421.000 0.045
422.000 0.045
423.000 0.045
424.000 0.045
425.000 0.043
426.000 0.042
427.000 0.043
428.000 0.044
429.000 0.042
430.000 0.041
431.000 0.045
432.000 0.043
433.000 0.042
434.000 0.045
435.000 0.043
436.000 0.044
437.000 0.045
438.000 0.046
439.000 0.047
440.000 0.046
441.000 0.043
442.000 0.041
443.000 0.043
444.000 0.045
445.000 0.046
446.000 0.047
447.000 0.046
448.000 0.045
449.000 0.047
450.000 0.044
451.000 0.045
452.000 0.047
453.000 0.047
454.000 0.049
455.000 0.050
456.000 0.049
457.000 0.048
458.000 0.047
459.000 0.047
460.000 0.047
461.000 0.048
462.000 0.047
463.000 0.046
464.000 0.048
465.000 0.047
466.000 0.047
467.000 0.049
468.000 0.047
469.000 0.047
470.000 0.049
471.000 0.049
472.000 0.047
473.000 0.047
474.000 0.049
475.000 0.048
476.000 0.047
477.000 0.046
478.000 0.048
479.000 0.049
480.000 0.049
481.000 0.048
482.000 0.047
483.000 0.050
484.000 0.052
485.000 0.051
486.000 0.050
487.000 0.048
488.000 0.047
489.000 0.048
490.000 0.050
491.000 0.051
492.000 0.051
493.000 0.048
494.000 0.050
495.000 0.051
496.000 0.050
497.000 0.051
498.000 0.051
499.000 0.052
500.000 0.054
501.000 0.053
502.000 0.052
503.000 0.052
504.000 0.053
505.000 0.052
506.000 0.050
507.000 0.051
508.000 0.055
509.000 0.056
510.000 0.056
511.000 0.056
512.000 0.056
513.000 0.057
514.000 0.060
515.000 0.060
516.000 0.060
517.000 0.061
518.000 0.063
519.000 0.063
520.000 0.064
521.000 0.065
522.000 0.067
523.000 0.068
524.000 0.069
525.000 0.071
526.000 0.071
527.000 0.072
528.000 0.073
529.000 0.074
530.000 0.076
531.000 0.076
532.000 0.076
533.000 0.078
534.000 0.080
535.000 0.081
536.000 0.081
537.000 0.081
538.000 0.081
539.000 0.082
540.000 0.083
541.000 0.082
542.000 0.083
543.000 0.083
544.000 0.083
545.000 0.083
546.000 0.083
547.000 0.084
548.000 0.084
549.000 0.084
550.000 0.083
551.000 0.084
552.000 0.084
553.000 0.084
554.000 0.083
555.000 0.084
556.000 0.085
557.000 0.085
558.000 0.084
559.000 0.083
560.000 0.083
561.000 0.083
562.000 0.083
563.000 0.082
564.000 0.081
565.000 0.080
566.000 0.080
567.000 0.080
568.000 0.078
569.000 0.077
570.000 0.077
571.000 0.076
572.000 0.076
573.000 0.076
574.000 0.077
575.000 0.076
576.000 0.075
577.000 0.074
578.000 0.073
579.000 0.073
580.000 0.073
581.000 0.072
582.000 0.072
583.000 0.074
584.000 0.073
585.000 0.073
586.000 0.074
587.000 0.072
588.000 0.072
589.000 0.071
590.000 0.070
591.000 0.070
592.000 0.071
593.000 0.071
594.000 0.070
595.000 0.070
596.000 0.070
597.000 0.071
598.000 0.074
599.000 0.073
600.000 0.070
601.000 0.070
602.000 0.070
603.000 0.072
604.000 0.073
605.000 0.071
606.000 0.072
607.000 0.072
608.000 0.071
609.000 0.072
610.000 0.072
611.000 0.070
612.000 0.070
613.000 0.070
614.000 0.070
615.000 0.071
616.000 0.070
617.000 0.071
618.000 0.072
619.000 0.072
620.000 0.072
621.000 0.071
622.000 0.070
623.000 0.073
624.000 0.073
625.000 0.072
626.000 0.073
627.000 0.073
628.000 0.074
629.000 0.074
630.000 0.075
631.000 0.074
632.000 0.074
633.000 0.075
634.000 0.075
635.000 0.075
636.000 0.075
637.000 0.074
638.000 0.074
639.000 0.075
640.000 0.076
641.000 0.075
642.000 0.076
643.000 0.076
644.000 0.075
645.000 0.074
646.000 0.075
647.000 0.076
648.000 0.078
649.000 0.078
650.000 0.077
651.000 0.076
652.000 0.075
653.000 0.076
654.000 0.077
655.000 0.076
656.000 0.078
657.000 0.079
658.000 0.080
659.000 0.079
660.000 0.079
661.000 0.081
662.000 0.081
663.000 0.081
664.000 0.081
665.000 0.081
666.000 0.083
667.000 0.083
668.000 0.084
669.000 0.085
670.000 0.085
671.000 0.083
672.000 0.083
673.000 0.087
674.000 0.087
675.000 0.087
676.000 0.087
677.000 0.088
678.000 0.089
679.000 0.091
680.000 0.091
681.000 0.087
682.000 0.087
683.000 0.090
684.000 0.093
685.000 0.094
686.000 0.094
687.000 0.095
688.000 0.094
689.000 0.096
690.000 0.095
691.000 0.094
692.000 0.097
693.000 0.099
694.000 0.100
695.000 0.102
696.000 0.104
697.000 0.106
698.000 0.108
699.000 0.111
700.000 0.115
701.000 0.119
702.000 0.122
703.000 0.127
704.000 0.131
705.000 0.135
706.000 0.139
707.000 0.142
708.000 0.147
709.000 0.151
710.000 0.156
711.000 0.160
712.000 0.164
713.000 0.169
714.000 0.174
715.000 0.178
716.000 0.182
717.000 0.187
718.000 0.192
719.000 0.196
720.000 0.201
721.000 0.205
722.000 0.210
723.000 0.215
724.000 0.219
725.000 0.224
726.000 0.228
727.000 0.232
728.000 0.237
729.000 0.241
730.000 0.245
731.000 0.250
732.000 0.254
733.000 0.258
734.000 0.262
735.000 0.266
736.000 0.269
737.000 0.273
738.000 0.276
739.000 0.279
740.000 0.282
741.000 0.285
742.000 0.288
743.000 0.291
744.000 0.292
745.000 0.294
746.000 0.297
747.000 0.299
748.000 0.301
749.000 0.302
750.000 0.303
751.000 0.305
752.000 0.306
753.000 0.307
754.000 0.309
755.000 0.310
756.000 0.311
757.000 0.312
758.000 0.312
759.000 0.312
760.000 0.310
761.000 0.309
762.000 0.308
763.000 0.309
764.000 0.310
765.000 0.313
766.000 0.315
767.000 0.316
768.000 0.318
769.000 0.319
770.000 0.320
771.000 0.321
772.000 0.321
773.000 0.321
774.000 0.322
775.000 0.322
776.000 0.323
777.000 0.324
778.000 0.324
779.000 0.324
780.000 0.324
781.000 0.325
782.000 0.326
783.000 0.326
784.000 0.326
785.000 0.326
786.000 0.327
787.000 0.326
788.000 0.327
789.000 0.327
790.000 0.327
791.000 0.328
792.000 0.328
793.000 0.329
794.000 0.329
795.000 0.329
796.000 0.329
797.000 0.330
798.000 0.330
799.000 0.331
800.000 0.331
801.000 0.331
802.000 0.332
803.000 0.332
804.000 0.332
805.000 0.333
806.000 0.334
807.000 0.334
808.000 0.334
809.000 0.334
810.000 0.334
811.000 0.334
812.000 0.333
813.000 0.333
814.000 0.332
815.000 0.332
816.000 0.332
817.000 0.332
818.000 0.333
819.000 0.334
820.000 0.335
821.000 0.335
822.000 0.335
823.000 0.336
824.000 0.337
825.000 0.337
826.000 0.338
827.000 0.338
828.000 0.338
829.000 0.339
830.000 0.339
831.000 0.339
832.000 0.340
833.000 0.341
834.000 0.341
835.000 0.342
836.000 0.342
837.000 0.343
838.000 0.343
839.000 0.344
840.000 0.344
841.000 0.345
842.000 0.346
843.000 0.346
844.000 0.347
845.000 0.347
846.000 0.347
847.000 0.348
848.000 0.348
849.000 0.348
850.000 0.349
851.000 0.349
852.000 0.349
853.000 0.349
854.000 0.350
855.000 0.350
856.000 0.350
857.000 0.351
858.000 0.351
859.000 0.351
860.000 0.351
861.000 0.352
862.000 0.352
863.000 0.352
864.000 0.353
865.000 0.353
866.000 0.353
867.000 0.353
868.000 0.354
869.000 0.354
870.000 0.354
871.000 0.355
872.000 0.355
873.000 0.355
874.000 0.355
875.000 0.356
876.000 0.356
877.000 0.356
878.000 0.356
879.000 0.357
880.000 0.357
881.000 0.357
882.000 0.358
883.000 0.358
884.000 0.358
885.000 0.358
886.000 0.358
887.000 0.359
888.000 0.359
889.000 0.359
890.000 0.359
891.000 0.359
892.000 0.358
893.000 0.358
894.000 0.358
895.000 0.357
896.000 0.356
897.000 0.356
898.000 0.355
899.000 0.355
900.000 0.356
901.000 0.356
902.000 0.356
903.000 0.357
904.000 0.357
905.000 0.357
906.000 0.357
907.000 0.357
908.000 0.357
909.000 0.357
910.000 0.357
911.000 0.356
912.000 0.357
913.000 0.357
914.000 0.357
915.000 0.357
916.000 0.357
917.000 0.358
918.000 0.359
919.000 0.360
920.000 0.361
921.000 0.360
922.000 0.361
923.000 0.361
924.000 0.361
925.000 0.360
926.000 0.359
927.000 0.358
928.000 0.356
929.000 0.356
930.000 0.356
931.000 0.354
932.000 0.353
933.000 0.350
934.000 0.348
935.000 0.347
936.000 0.347
937.000 0.348
938.000 0.349
939.000 0.349
940.000 0.347
941.000 0.347
942.000 0.348
943.000 0.347
944.000 0.348
945.000 0.348
946.000 0.347
947.000 0.347
948.000 0.347
949.000 0.347
950.000 0.347
951.000 0.348
952.000 0.349
953.000 0.350
954.000 0.351
955.000 0.352
956.000 0.349
957.000 0.349
958.000 0.350
959.000 0.351
960.000 0.351
961.000 0.351
962.000 0.352
963.000 0.353
964.000 0.352
965.000 0.353
966.000 0.355
967.000 0.358
968.000 0.358
969.000 0.359
970.000 0.359
971.000 0.359
972.000 0.360
973.000 0.360
974.000 0.360
975.000 0.360
976.000 0.360
977.000 0.360
978.000 0.361
979.000 0.362
980.000 0.362
981.000 0.362
982.000 0.363
983.000 0.364
984.000 0.364
985.000 0.363
986.000 0.364
987.000 0.367
988.000 0.368
989.000 0.367
990.000 0.367
991.000 0.369
992.000 0.371
993.000 0.370
994.000 0.369
995.000 0.370
996.000 0.371
997.000 0.372
998.000 0.371
999.000 0.370
1000.000 0.371
1001.000 0.374
1002.000 0.375
1003.000 0.375
1004.000 0.375
1005.000 0.375
1006.000 0.376
1007.000 0.377
1008.000 0.377
1009.000 0.377
1010.000 0.376
1011.000 0.376
1012.000 0.377
1013.000 0.377
1014.000 0.379
1015.000 0.380
1016.000 0.380
1017.000 0.381
1018.000 0.380
1019.000 0.381
1020.000 0.381
1021.000 0.382
1022.000 0.383
1023.000 0.384
1024.000 0.384
1025.000 0.384
1026.000 0.384
1027.000 0.384
1028.000 0.385
1029.000 0.385
1030.000 0.385
1031.000 0.385
1032.000 0.386
1033.000 0.386
1034.000 0.386
1035.000 0.387
1036.000 0.388
1037.000 0.388
1038.000 0.388
1039.000 0.388
1040.000 0.388
1041.000 0.388
1042.000 0.388
1043.000 0.388
1044.000 0.388
1045.000 0.389
1046.000 0.390
1047.000 0.390
1048.000 0.389
1049.000 0.390
1050.000 0.391
1051.000 0.391
1052.000 0.391
1053.000 0.391
1054.000 0.391
1055.000 0.391
1056.000 0.391
1057.000 0.392
1058.000 0.392
1059.000 0.392
1060.000 0.392
1061.000 0.392
1062.000 0.392
1063.000 0.392
1064.000 0.392
1065.000 0.391
1066.000 0.392
1067.000 0.393
1068.000 0.395
1069.000 0.395
1070.000 0.395
1071.000 0.395
1072.000 0.395
1073.000 0.394
1074.000 0.394
1075.000 0.394
1076.000 0.395
1077.000 0.394
1078.000 0.395
1079.000 0.394
1080.000 0.394
1081.000 0.394
1082.000 0.395
1083.000 0.395
1084.000 0.395
1085.000 0.395
1086.000 0.395
1087.000 0.394
1088.000 0.394
1089.000 0.393
1090.000 0.393
1091.000 0.393
1092.000 0.393
1093.000 0.393
1094.000 0.393
1095.000 0.393
1096.000 0.393
1097.000 0.392
1098.000 0.391
1099.000 0.390
1100.000 0.390
1101.000 0.388
1102.000 0.388
1103.000 0.388
1104.000 0.388
1105.000 0.388
1106.000 0.387
1107.000 0.386
1108.000 0.386
1109.000 0.386
1110.000 0.385
1111.000 0.385
1112.000 0.385
1113.000 0.385
1114.000 0.383
1115.000 0.382
1116.000 0.382
1117.000 0.380
1118.000 0.378
1119.000 0.377
1120.000 0.376
1121.000 0.376
1122.000 0.376
1123.000 0.375
1124.000 0.374
1125.000 0.374
1126.000 0.372
1127.000 0.371
1128.000 0.372
1129.000 0.372
1130.000 0.372
1131.000 0.372
1132.000 0.372
1133.000 0.371
1134.000 0.372
1135.000 0.373
1136.000 0.373
1137.000 0.374
1138.000 0.374
1139.000 0.373
1140.000 0.372
1141.000 0.370
1142.000 0.370
1143.000 0.369
1144.000 0.369
1145.000 0.370
1146.000 0.370
1147.000 0.369
1148.000 0.368
1149.000 0.368
1150.000 0.368
1151.000 0.368
1152.000 0.369
1153.000 0.369
1154.000 0.368
1155.000 0.368
1156.000 0.368
1157.000 0.369
1158.000 0.369
1159.000 0.370
1160.000 0.371
1161.000 0.371
1162.000 0.372
1163.000 0.372
1164.000 0.372
1165.000 0.372
1166.000 0.371
1167.000 0.371
1168.000 0.372
1169.000 0.372
1170.000 0.373
1171.000 0.374
1172.000 0.375
1173.000 0.375
1174.000 0.375
1175.000 0.374
1176.000 0.374
1177.000 0.374
1178.000 0.374
1179.000 0.375
1180.000 0.375
1181.000 0.375
1182.000 0.375
1183.000 0.376
1184.000 0.376
1185.000 0.375
1186.000 0.376
1187.000 0.375
1188.000 0.374
1189.000 0.374
1190.000 0.375
1191.000 0.375
1192.000 0.376
1193.000 0.376
1194.000 0.376
1195.000 0.376
1196.000 0.376
1197.000 0.376
1198.000 0.377
1199.000 0.377
1200.000 0.378
1201.000 0.378
1202.000 0.378
1203.000 0.378
1204.000 0.378
1205.000 0.378
1206.000 0.378
1207.000 0.378
1208.000 0.378
1209.000 0.380
1210.000 0.379
1211.000 0.381
1212.000 0.381
1213.000 0.381
1214.000 0.382
1215.000 0.382
1216.000 0.383
1217.000 0.383
1218.000 0.383
1219.000 0.383
1220.000 0.384
1221.000 0.383
1222.000 0.384
1223.000 0.384
1224.000 0.384
1225.000 0.385
1226.000 0.386
1227.000 0.386
1228.000 0.387
1229.000 0.387
1230.000 0.388
1231.000 0.388
1232.000 0.388
1233.000 0.389
1234.000 0.389
1235.000 0.390
1236.000 0.389
1237.000 0.390
1238.000 0.389
1239.000 0.390
1240.000 0.391
1241.000 0.391
1242.000 0.391
1243.000 0.391
1244.000 0.391
1245.000 0.391
1246.000 0.391
1247.000 0.392
1248.000 0.391
1249.000 0.392
1250.000 0.392
1251.000 0.392
1252.000 0.392
1253.000 0.392
1254.000 0.392
1255.000 0.392
1256.000 0.392
1257.000 0.392
1258.000 0.392
1259.000 0.392
1260.000 0.392
1261.000 0.392
1262.000 0.392
1263.000 0.392
1264.000 0.392
1265.000 0.392
1266.000 0.392
1267.000 0.393
1268.000 0.393
1269.000 0.394
1270.000 0.394
1271.000 0.393
1272.000 0.393
1273.000 0.393
1274.000 0.394
1275.000 0.394
1276.000 0.395
1277.000 0.396
1278.000 0.397
1279.000 0.397
1280.000 0.397
1281.000 0.397
1282.000 0.396
1283.000 0.397
1284.000 0.397
1285.000 0.397
1286.000 0.396
1287.000 0.396
1288.000 0.396
1289.000 0.396
1290.000 0.396
1291.000 0.396
1292.000 0.395
1293.000 0.395
1294.000 0.394
1295.000 0.394
1296.000 0.393
1297.000 0.393
1298.000 0.392
1299.000 0.392
1300.000 0.392
1301.000 0.392
1302.000 0.391
1303.000 0.391
1304.000 0.390
1305.000 0.389
1306.000 0.388
1307.000 0.388
1308.000 0.387
1309.000 0.387
1310.000 0.386
1311.000 0.385
1312.000 0.385
1313.000 0.384
1314.000 0.383
1315.000 0.382
1316.000 0.382
1317.000 0.381
1318.000 0.380
1319.000 0.379
1320.000 0.379
1321.000 0.378
1322.000 0.378
1323.000 0.378
1324.000 0.378
1325.000 0.377
1326.000 0.376
1327.000 0.375
1328.000 0.375
1329.000 0.373
1330.000 0.372
1331.000 0.370
1332.000 0.368
1333.000 0.366
1334.000 0.364
1335.000 0.362
1336.000 0.360
1337.000 0.358
1338.000 0.357
1339.000 0.356
1340.000 0.356
1341.000 0.355
1342.000 0.355
1343.000 0.355
1344.000 0.353
1345.000 0.351
1346.000 0.349
1347.000 0.347
1348.000 0.345
1349.000 0.348
1350.000 0.343
1351.000 0.332
1352.000 0.324
1353.000 0.309
1354.000 0.336
1355.000 0.389
1356.000 0.377
1357.000 0.453
1358.000 0.495
1359.000 0.411
1360.000 0.370
1361.000 0.346
1362.000 0.374
1363.000 0.521
1364.000 0.424
1365.000 0.415
1366.000 0.519
1367.000 0.493
1368.000 0.400
1369.000 0.303
1370.000 0.282
1371.000 0.182
1372.000 0.167
1373.000 0.132
1374.000 0.170
1375.000 0.235
1376.000 0.289
1377.000 0.612
1378.000 0.584
1379.000 0.575
1380.000 0.601
1381.000 0.370
1382.000 0.377
1383.000 0.401
1384.000 0.416
1385.000 0.274
1386.000 0.334
1387.000 0.391
1388.000 0.325
1389.000 0.378
1390.000 0.397
1391.000 0.438
1392.000 0.476
1393.000 0.511
1394.000 0.441
1395.000 0.432
1396.000 0.348
1397.000 0.481
1398.000 0.411
1399.000 0.402
1400.000 0.443
1401.000 0.469
1402.000 0.417
1403.000 0.413
1404.000 0.183
1405.000 0.160
1406.000 0.283
1407.000 0.492
1408.000 0.373
1409.000 0.410
1410.000 0.278
1411.000 0.335
1412.000 0.304
1413.000 0.400
1414.000 0.396
1415.000 0.233
1416.000 0.255
1417.000 0.406
1418.000 0.433
1419.000 0.348
1420.000 0.338
1421.000 0.324
1422.000 0.336
1423.000 0.354
1424.000 0.422
1425.000 0.495
1426.000 0.454
1427.000 0.312
1428.000 0.285
1429.000 0.247
1430.000 0.232
1431.000 0.312
1432.000 0.304
1433.000 0.274
1434.000 0.290
1435.000 0.263
1436.000 0.245
1437.000 0.215
1438.000 0.219
1439.000 0.238
1440.000 0.250
1441.000 0.286
1442.000 0.283
1443.000 0.249
1444.000 0.217
1445.000 0.201
1446.000 0.198
1447.000 0.196
1448.000 0.196
1449.000 0.195
1450.000 0.200
1451.000 0.194
1452.000 0.187
1453.000 0.182
1454.000 0.174
1455.000 0.174
1456.000 0.177
1457.000 0.176
1458.000 0.175
1459.000 0.173
1460.000 0.166
1461.000 0.166
1462.000 0.170
1463.000 0.173
1464.000 0.174
1465.000 0.181
1466.000 0.192
1467.000 0.196
1468.000 0.205
1469.000 0.201
1470.000 0.181
1471.000 0.180
1472.000 0.166
1473.000 0.165
1474.000 0.170
1475.000 0.173
1476.000 0.173
1477.000 0.177
1478.000 0.187
1479.000 0.190
1480.000 0.189
1481.000 0.190
1482.000 0.186
1483.000 0.187
1484.000 0.191
1485.000 0.193
1486.000 0.195
1487.000 0.198
1488.000 0.204
1489.000 0.205
1490.000 0.205
1491.000 0.204
1492.000 0.197
1493.000 0.197
1494.000 0.200
1495.000 0.201
1496.000 0.206
1497.000 0.208
1498.000 0.208
1499.000 0.205
1500.000 0.205
1501.000 0.205
1502.000 0.208
1503.000 0.213
1504.000 0.217
1505.000 0.218
1506.000 0.218
1507.000 0.216
1508.000 0.216
1509.000 0.218
1510.000 0.219
1511.000 0.222
1512.000 0.224
1513.000 0.225
1514.000 0.224
1515.000 0.224
1516.000 0.224
1517.000 0.224
1518.000 0.226
1519.000 0.230
1520.000 0.232
1521.000 0.234
1522.000 0.236
1523.000 0.238
1524.000 0.239
1525.000 0.242
1526.000 0.243
1527.000 0.243
1528.000 0.244
1529.000 0.243
1530.000 0.244
1531.000 0.245
1532.000 0.246
1533.000 0.246
1534.000 0.246
1535.000 0.247
1536.000 0.248
1537.000 0.248
1538.000 0.250
1539.000 0.252
1540.000 0.253
1541.000 0.255
1542.000 0.256
1543.000 0.256
1544.000 0.257
1545.000 0.258
1546.000 0.259
1547.000 0.259
1548.000 0.259
1549.000 0.259
1550.000 0.260
1551.000 0.261
1552.000 0.262
1553.000 0.262
1554.000 0.263
1555.000 0.265
1556.000 0.266
1557.000 0.269
1558.000 0.270
1559.000 0.271
1560.000 0.271
1561.000 0.272
1562.000 0.272
1563.000 0.272
1564.000 0.273
1565.000 0.273
1566.000 0.274
1567.000 0.277
1568.000 0.279
1569.000 0.279
1570.000 0.279
1571.000 0.278
1572.000 0.278
1573.000 0.279
1574.000 0.280
1575.000 0.282
1576.000 0.283
1577.000 0.284
1578.000 0.285
1579.000 0.283
1580.000 0.283
1581.000 0.284
1582.000 0.285
1583.000 0.286
1584.000 0.288
1585.000 0.289
1586.000 0.289
1587.000 0.290
1588.000 0.291
1589.000 0.291
1590.000 0.291
1591.000 0.291
1592.000 0.291
1593.000 0.292
1594.000 0.292
1595.000 0.294
1596.000 0.295
1597.000 0.295
1598.000 0.295
1599.000 0.295
1600.000 0.294
1601.000 0.295
1602.000 0.295
1603.000 0.296
1604.000 0.296
1605.000 0.297
1606.000 0.297
1607.000 0.298
1608.000 0.297
1609.000 0.298
1610.000 0.299
1611.000 0.300
1612.000 0.301
1613.000 0.302
1614.000 0.303
1615.000 0.305
1616.000 0.306
1617.000 0.307
1618.000 0.309
1619.000 0.309
1620.000 0.310
1621.000 0.310
1622.000 0.310
1623.000 0.309
1624.000 0.309
1625.000 0.310
1626.000 0.311
1627.000 0.311
1628.000 0.311
1629.000 0.311
1630.000 0.311
1631.000 0.311
1632.000 0.311
1633.000 0.312
1634.000 0.311
1635.000 0.311
1636.000 0.310
1637.000 0.309
1638.000 0.309
1639.000 0.309
1640.000 0.309
1641.000 0.310
1642.000 0.311
1643.000 0.310
1644.000 0.311
1645.000 0.312
1646.000 0.313
1647.000 0.314
1648.000 0.315
1649.000 0.314
1650.000 0.314
1651.000 0.312
1652.000 0.312
1653.000 0.312
1654.000 0.311
1655.000 0.311
1656.000 0.310
1657.000 0.310
1658.000 0.310
1659.000 0.309
1660.000 0.310
1661.000 0.309
1662.000 0.309
1663.000 0.309
1664.000 0.310
1665.000 0.310
1666.000 0.311
1667.000 0.311
1668.000 0.311
1669.000 0.311
1670.000 0.311
1671.000 0.311
1672.000 0.311
1673.000 0.314
1674.000 0.314
1675.000 0.312
1676.000 0.312
1677.000 0.311
1678.000 0.310
1679.000 0.311
1680.000 0.311
1681.000 0.311
1682.000 0.310
1683.000 0.311
1684.000 0.311
1685.000 0.310
1686.000 0.310
1687.000 0.311
1688.000 0.311
1689.000 0.310
1690.000 0.311
1691.000 0.311
1692.000 0.311
1693.000 0.312
1694.000 0.312
1695.000 0.310
1696.000 0.310
1697.000 0.311
1698.000 0.309
1699.000 0.307
1700.000 0.307
1701.000 0.305
1702.000 0.305
1703.000 0.308
1704.000 0.309
1705.000 0.309
1706.000 0.309
1707.000 0.308
1708.000 0.307
1709.000 0.306
1710.000 0.306
1711.000 0.305
1712.000 0.304
1713.000 0.303
1714.000 0.303
1715.000 0.302
1716.000 0.301
1717.000 0.301
1718.000 0.301
1719.000 0.300
1720.000 0.302
1721.000 0.304
1722.000 0.304
1723.000 0.305
1724.000 0.305
1725.000 0.303
1726.000 0.303
1727.000 0.304
1728.000 0.304
1729.000 0.305
1730.000 0.304
1731.000 0.304
1732.000 0.302
1733.000 0.300
1734.000 0.299
1735.000 0.299
1736.000 0.302
1737.000 0.303
1738.000 0.305
1739.000 0.304
1740.000 0.301
1741.000 0.299
1742.000 0.297
1743.000 0.295
1744.000 0.295
1745.000 0.295
1746.000 0.294
1747.000 0.294
1748.000 0.296
1749.000 0.296
1750.000 0.295
1751.000 0.296
1752.000 0.296
1753.000 0.298
1754.000 0.304
1755.000 0.304
1756.000 0.302
1757.000 0.301
1758.000 0.298
1759.000 0.299
1760.000 0.298
1761.000 0.297
1762.000 0.296
1763.000 0.294
1764.000 0.296
1765.000 0.299
1766.000 0.299
1767.000 0.297
1768.000 0.291
1769.000 0.284
1770.000 0.280
1771.000 0.282
1772.000 0.285
1773.000 0.288
1774.000 0.290
1775.000 0.287
1776.000 0.282
1777.000 0.277
1778.000 0.274
1779.000 0.271
1780.000 0.271
1781.000 0.273
1782.000 0.271
1783.000 0.267
1784.000 0.262
1785.000 0.258
1786.000 0.260
1787.000 0.269
1788.000 0.274
1789.000 0.280
1790.000 0.282
1791.000 0.278
1792.000 0.284
1793.000 0.291
1794.000 0.293
1795.000 0.299
1796.000 0.295
1797.000 0.279
1798.000 0.276
1799.000 0.301
1800.000 0.296
1801.000 0.449
1802.000 0.454
1803.000 0.426
1804.000 0.445
1805.000 0.450
1806.000 0.442
1807.000 0.449
1808.000 0.482
1809.000 0.477
1810.000 0.486
1811.000 0.490
1812.000 0.456
1813.000 0.489
1814.000 0.662
1815.000 0.447
1816.000 0.476
1817.000 0.607
1818.000 0.649
1819.000 0.594
1820.000 0.515
1821.000 0.433
1822.000 0.474
1823.000 0.653
1824.000 0.750
1825.000 0.769
1826.000 0.730
1827.000 0.728
1828.000 0.666
1829.000 0.676
1830.000 0.695
1831.000 0.674
1832.000 0.693
1833.000 0.708
1834.000 0.725
1835.000 0.744
1836.000 0.755
1837.000 0.768
1838.000 0.769
1839.000 0.620
1840.000 0.640
1841.000 0.701
1842.000 0.658
1843.000 0.708
1844.000 0.723
1845.000 0.783
1846.000 0.707
1847.000 0.670
1848.000 0.679
1849.000 0.738
1850.000 0.672
1851.000 0.625
1852.000 0.583
1853.000 0.604
1854.000 0.582
1855.000 0.625
1856.000 0.626
1857.000 0.692
1858.000 0.698
1859.000 0.702
1860.000 0.614
1861.000 0.637
1862.000 0.577
1863.000 0.606
1864.000 0.514
1865.000 0.489
1866.000 0.480
1867.000 0.492
1868.000 0.521
1869.000 0.525
1870.000 0.530
1871.000 0.563
1872.000 0.594
1873.000 0.621
1874.000 0.645
1875.000 0.763
1876.000 0.659
1877.000 0.580
1878.000 0.504
1879.000 0.438
1880.000 0.443
1881.000 0.451
1882.000 0.462
1883.000 0.509
1884.000 0.478
1885.000 0.678
1886.000 0.688
1887.000 0.693
1888.000 0.740
1889.000 0.688
1890.000 0.700
1891.000 0.642
1892.000 0.615
1893.000 0.562
1894.000 0.561
1895.000 0.456
1896.000 0.448
1897.000 0.599
1898.000 0.550
1899.000 0.480
1900.000 0.367
1901.000 0.544
1902.000 0.491
1903.000 0.551
1904.000 0.590
1905.000 0.633
1906.000 0.772
1907.000 0.635
1908.000 0.543
1909.000 0.375
1910.000 0.383
1911.000 0.401
1912.000 0.412
1913.000 0.535
1914.000 0.533
1915.000 0.506
1916.000 0.450
1917.000 0.399
1918.000 0.473
1919.000 0.521
1920.000 0.517
1921.000 0.523
1922.000 0.519
1923.000 0.352
1924.000 0.460
1925.000 0.309
1926.000 0.360
1927.000 0.358
1928.000 0.337
1929.000 0.338
1930.000 0.330
1931.000 0.336
1932.000 0.541
1933.000 0.406
1934.000 0.506
1935.000 0.570
1936.000 0.606
1937.000 0.531
1938.000 0.468
1939.000 0.421
1940.000 0.428
1941.000 0.503
1942.000 0.469
1943.000 0.605
1944.000 0.678
1945.000 0.506
1946.000 0.637
1947.000 0.547
1948.000 0.512
1949.000 0.452
1950.000 0.531
1951.000 0.542
1952.000 0.431
1953.000 0.483
1954.000 0.458
1955.000 0.531
1956.000 0.507
1957.000 0.412
1958.000 0.279
1959.000 0.310
1960.000 0.399
1961.000 0.430
1962.000 0.499
1963.000 0.565
1964.000 0.614
1965.000 0.515
1966.000 0.459
1967.000 0.380
1968.000 0.336
1969.000 0.300
1970.000 0.294
1971.000 0.298
1972.000 0.284
1973.000 0.327
1974.000 0.374
1975.000 0.376
1976.000 0.330
1977.000 0.319
1978.000 0.317
1979.000 0.285
1980.000 0.261
1981.000 0.259
1982.000 0.246
1983.000 0.248
1984.000 0.248
1985.000 0.227
1986.000 0.222
1987.000 0.201
1988.000 0.203
1989.000 0.219
1990.000 0.234
1991.000 0.267
1992.000 0.276
1993.000 0.254
1994.000 0.241
1995.000 0.215
1996.000 0.187
1997.000 0.184
1998.000 0.188
1999.000 0.189
2000.000 0.186
2001.000 0.194
2002.000 0.216
2003.000 0.244
2004.000 0.284
2005.000 0.343
2006.000 0.480
2007.000 0.537
2008.000 0.479
2009.000 0.547
2010.000 0.502
2011.000 0.446
2012.000 0.371
2013.000 0.390
2014.000 0.384
2015.000 0.349
2016.000 0.321
2017.000 0.280
2018.000 0.257
2019.000 0.237
2020.000 0.236
2021.000 0.234
2022.000 0.215
2023.000 0.183
2024.000 0.177
2025.000 0.188
2026.000 0.213
2027.000 0.232
2028.000 0.273
2029.000 0.277
2030.000 0.259
2031.000 0.252
2032.000 0.238
2033.000 0.229
2034.000 0.229
2035.000 0.219
2036.000 0.206
2037.000 0.193
2038.000 0.189
2039.000 0.181
2040.000 0.182
2041.000 0.188
2042.000 0.194
2043.000 0.206
2044.000 0.215
2045.000 0.226
2046.000 0.232
2047.000 0.234
2048.000 0.233
2049.000 0.231
2050.000 0.222
2051.000 0.210
2052.000 0.199
2053.000 0.192
2054.000 0.193
2055.000 0.201
2056.000 0.211
2057.000 0.217
2058.000 0.228
2059.000 0.228
2060.000 0.217
2061.000 0.215
2062.000 0.208
2063.000 0.211
2064.000 0.233
2065.000 0.238
2066.000 0.240
2067.000 0.242
2068.000 0.211
2069.000 0.184
2070.000 0.185
2071.000 0.171
2072.000 0.182
2073.000 0.234
2074.000 0.249
2075.000 0.263
2076.000 0.261
2077.000 0.223
2078.000 0.211
2079.000 0.204
2080.000 0.198
2081.000 0.196
2082.000 0.199
2083.000 0.201
2084.000 0.200
2085.000 0.206
2086.000 0.214
2087.000 0.218
2088.000 0.218
2089.000 0.220
2090.000 0.224
2091.000 0.218
2092.000 0.207
2093.000 0.204
2094.000 0.193
2095.000 0.192
2096.000 0.196
2097.000 0.205
2098.000 0.214
2099.000 0.225
2100.000 0.242
2101.000 0.237
2102.000 0.226
2103.000 0.220
2104.000 0.216
2105.000 0.213
2106.000 0.214
2107.000 0.219
2108.000 0.218
2109.000 0.213
2110.000 0.215
2111.000 0.215
2112.000 0.216
2113.000 0.228
2114.000 0.230
2115.000 0.227
2116.000 0.226
2117.000 0.219
2118.000 0.220
2119.000 0.211
2120.000 0.210
2121.000 0.207
2122.000 0.197
2123.000 0.196
2124.000 0.203
2125.000 0.206
2126.000 0.210
2127.000 0.210
2128.000 0.199
2129.000 0.196
2130.000 0.203
2131.000 0.206
2132.000 0.213
2133.000 0.215
2134.000 0.216
2135.000 0.216
2136.000 0.215
2137.000 0.221
2138.000 0.221
2139.000 0.215
2140.000 0.217
2141.000 0.218
2142.000 0.224
2143.000 0.242
2144.000 0.243
2145.000 0.236
2146.000 0.234
2147.000 0.223
2148.000 0.223
2149.000 0.236
2150.000 0.237
2151.000 0.235
2152.000 0.233
2153.000 0.223
2154.000 0.219
2155.000 0.221
2156.000 0.219
2157.000 0.222
2158.000 0.219
2159.000 0.213
2160.000 0.217
2161.000 0.223
2162.000 0.235
2163.000 0.238
2164.000 0.242
2165.000 0.242
2166.000 0.241
2167.000 0.237
2168.000 0.226
2169.000 0.221
2170.000 0.205
2171.000 0.205
2172.000 0.222
2173.000 0.230
2174.000 0.234
2175.000 0.238
2176.000 0.235
2177.000 0.235
2178.000 0.237
2179.000 0.242
2180.000 0.246
2181.000 0.248
2182.000 0.256
2183.000 0.255
2184.000 0.251
2185.000 0.242
2186.000 0.234
2187.000 0.215
2188.000 0.210
2189.000 0.208
2190.000 0.208
2191.000 0.217
2192.000 0.218
2193.000 0.213
2194.000 0.217
2195.000 0.216
2196.000 0.222
2197.000 0.240
2198.000 0.246
2199.000 0.246
2200.000 0.248
2201.000 0.239
2202.000 0.243
2203.000 0.241
2204.000 0.247
2205.000 0.260
2206.000 0.259
2207.000 0.265
2208.000 0.258
2209.000 0.250
2210.000 0.229
2211.000 0.228
2212.000 0.237
2213.000 0.237
2214.000 0.249
2215.000 0.251
2216.000 0.242
2217.000 0.243
2218.000 0.246
2219.000 0.246
2220.000 0.244
2221.000 0.240
2222.000 0.239
2223.000 0.236
2224.000 0.236
2225.000 0.235
2226.000 0.225
2227.000 0.222
2228.000 0.233
2229.000 0.233
2230.000 0.241
2231.000 0.250
2232.000 0.241
2233.000 0.243
2234.000 0.236
2235.000 0.219
2236.000 0.214
2237.000 0.204
2238.000 0.199
2239.000 0.199
2240.000 0.201
2241.000 0.202
2242.000 0.205
2243.000 0.218
2244.000 0.222
2245.000 0.224
2246.000 0.226
2247.000 0.222
2248.000 0.221
2249.000 0.228
2250.000 0.227
2251.000 0.227
2252.000 0.223
2253.000 0.214
2254.000 0.205
2255.000 0.189
2256.000 0.185
2257.000 0.187
2258.000 0.183
2259.000 0.189
2260.000 0.202
2261.000 0.217
2262.000 0.233
2263.000 0.238
2264.000 0.228
2265.000 0.215
2266.000 0.197
2267.000 0.182
2268.000 0.182
2269.000 0.172
2270.000 0.166
2271.000 0.169
2272.000 0.178
2273.000 0.184
2274.000 0.190
2275.000 0.202
2276.000 0.224
2277.000 0.241
2278.000 0.275
2279.000 0.292
2280.000 0.289
2281.000 0.274
2282.000 0.258
2283.000 0.236
2284.000 0.193
2285.000 0.179
2286.000 0.171
2287.000 0.163
2288.000 0.171
2289.000 0.173
2290.000 0.168
2291.000 0.172
2292.000 0.180
2293.000 0.186
2294.000 0.187
2295.000 0.197
2296.000 0.209
2297.000 0.248
2298.000 0.260
2299.000 0.263
2300.000 0.245
2301.000 0.210
2302.000 0.188
2303.000 0.188
2304.000 0.204
2305.000 0.214
2306.000 0.213
2307.000 0.200
2308.000 0.191
2309.000 0.197
2310.000 0.199
2311.000 0.226
2312.000 0.249
2313.000 0.220
2314.000 0.209
2315.000 0.194
2316.000 0.165
2317.000 0.198
2318.000 0.232
2319.000 0.259
2320.000 0.280
2321.000 0.275
2322.000 0.248
2323.000 0.212
2324.000 0.203
2325.000 0.184
2326.000 0.176
2327.000 0.165
2328.000 0.180
2329.000 0.229
2330.000 0.270
2331.000 0.305
2332.000 0.371
2333.000 0.437
2334.000 0.412
2335.000 0.360
2336.000 0.317
2337.000 0.252
2338.000 0.237
2339.000 0.241
2340.000 0.254
2341.000 0.330
2342.000 0.270
2343.000 0.187
2344.000 0.168
2345.000 0.144
2346.000 0.126
2347.000 0.183
2348.000 0.211
2349.000 0.223
2350.000 0.201
2351.000 0.185
2352.000 0.217
2353.000 0.250
2354.000 0.271
2355.000 0.267
2356.000 0.287
2357.000 0.306
2358.000 0.299
2359.000 0.334
2360.000 0.442
2361.000 0.393
2362.000 0.338
2363.000 0.352
2364.000 0.317
2365.000 0.321
2366.000 0.388
2367.000 0.326
2368.000 0.379
2369.000 0.237
2370.000 0.154
2371.000 0.324
2372.000 0.410
2373.000 0.528
2374.000 0.456
2375.000 0.454
2376.000 0.438
2377.000 0.369
2378.000 0.355
2379.000 0.277
2380.000 0.370
2381.000 0.497
2382.000 0.509
2383.000 0.335
2384.000 0.671
2385.000 0.536
2386.000 0.458
2387.000 0.201
2388.000 0.283
2389.000 0.359
2390.000 0.446
2391.000 0.439
2392.000 0.525
2393.000 0.448
2394.000 0.457
2395.000 0.325
2396.000 0.278
2397.000 0.208
2398.000 0.211
2399.000 0.335
2400.000 0.256
2401.000 0.453
2402.000 0.572
2403.000 0.483
2404.000 0.159
2405.000 0.250
2406.000 0.207
2407.000 0.204
2408.000 0.457
2409.000 0.539
2410.000 0.493
2411.000 0.481
2412.000 0.540
2413.000 0.474
2414.000 0.301
2415.000 0.314
2416.000 0.257
2417.000 0.517
2418.000 0.293
2419.000 0.212
2420.000 0.518
2421.000 0.302
2422.000 0.366
2423.000 0.384
2424.000 0.289
2425.000 0.355
2426.000 0.338
2427.000 0.270
2428.000 0.396
2429.000 0.533
2430.000 0.373
2431.000 0.181
2432.000 0.302
2433.000 0.391
2434.000 0.367
2435.000 0.323
2436.000 0.444
2437.000 0.204
2438.000 0.159
2439.000 0.306
2440.000 0.293
2441.000 0.410
2442.000 0.251
2443.000 0.282
2444.000 0.146
2445.000 0.308
2446.000 0.437
2447.000 0.366
2448.000 0.547
2449.000 0.394
2450.000 0.301
2451.000 0.359
2452.000 0.360
2453.000 0.371
2454.000 0.545
2455.000 0.139
2456.000 0.444
2457.000 0.196
2458.000 0.376
2459.000 0.394
2460.000 0.446
2461.000 0.406
2462.000 0.498
2463.000 0.322
2464.000 0.402
2465.000 0.332
2466.000 0.316
2467.000 0.281
2468.000 0.542
2469.000 0.241
2470.000 0.308
2471.000 0.228
2472.000 0.114
2473.000 0.111
2474.000 0.300
2475.000 0.320
2476.000 0.551
2477.000 0.429
2478.000 0.369
2479.000 0.271
2480.000 0.564
2481.000 0.334
2482.000 0.377
2483.000 0.245
2484.000 0.404
2485.000 0.434
2486.000 0.608
2487.000 0.519
2488.000 0.421
2489.000 0.512
2490.000 0.477
2491.000 0.314
2492.000 0.333
2493.000 0.276
2494.000 0.263
2495.000 0.317
2496.000 0.493
2497.000 0.419
2498.000 0.271
2499.000 0.331
2500.000 0.344
