391.000 0.024
392.000 0.025
393.000 0.025
394.000 0.024
395.000 0.026
396.000 0.027
397.000 0.024
398.000 0.023
399.000 0.024
400.000 0.026
401.000 0.024
402.000 0.023
403.000 0.023
404.000 0.024
405.000 0.023
406.000 0.024
407.000 0.024
408.000 0.025
409.000 0.024
410.000 0.023
411.000 0.023
412.000 0.025
413.000 0.023
414.000 0.024
415.000 0.025
416.000 0.024
417.000 0.024
418.000 0.024
419.000 0.024
420.000 0.025
421.000 0.024
422.000 0.024
423.000 0.025
424.000 0.025
425.000 0.025
426.000 0.025
427.000 0.025
428.000 0.024
429.000 0.025
430.000 0.025
431.000 0.025
432.000 0.025
433.000 0.024
434.000 0.024
435.000 0.025
436.000 0.025
437.000 0.024
438.000 0.025
439.000 0.024
440.000 0.025
441.000 0.025
442.000 0.024
443.000 0.025
444.000 0.025
445.000 0.024
446.000 0.026
447.000 0.025
448.000 0.025
449.000 0.025
450.000 0.025
451.000 0.026
452.000 0.025
453.000 0.025
454.000 0.026
455.000 0.026
456.000 0.025
457.000 0.025
458.000 0.026
459.000 0.025
460.000 0.026
461.000 0.025
462.000 0.025
463.000 0.026
464.000 0.025
465.000 0.025
466.000 0.025
467.000 0.025
468.000 0.025
469.000 0.025
470.000 0.025
471.000 0.026
472.000 0.024
473.000 0.024
474.000 0.025
475.000 0.025
476.000 0.025
477.000 0.025
478.000 0.025
479.000 0.025
480.000 0.025
481.000 0.026
482.000 0.025
483.000 0.026
484.000 0.026
485.000 0.025
486.000 0.025
487.000 0.025
488.000 0.025
489.000 0.026
490.000 0.026
491.000 0.027
492.000 0.026
493.000 0.026
494.000 0.026
495.000 0.026
496.000 0.026
497.000 0.026
498.000 0.026
499.000 0.026
500.000 0.027
501.000 0.028
502.000 0.028
503.000 0.028
504.000 0.028
505.000 0.029
506.000 0.029
507.000 0.030
508.000 0.031
509.000 0.031
510.000 0.032
511.000 0.033
512.000 0.035
513.000 0.036
514.000 0.037
515.000 0.038
516.000 0.039
517.000 0.040
518.000 0.042
519.000 0.044
520.000 0.046
521.000 0.047
522.000 0.049
523.000 0.051
524.000 0.053
525.000 0.055
526.000 0.057
527.000 0.059
528.000 0.061
529.000 0.062
530.000 0.064
531.000 0.065
532.000 0.066
533.000 0.068
534.000 0.069
535.000 0.069
536.000 0.070
537.000 0.071
538.000 0.072
539.000 0.072
540.000 0.072
541.000 0.073
542.000 0.073
543.000 0.073
544.000 0.074
545.000 0.074
546.000 0.074
547.000 0.074
548.000 0.074
549.000 0.075
550.000 0.075
551.000 0.075
552.000 0.076
553.000 0.076
554.000 0.075
555.000 0.074
556.000 0.074
557.000 0.074
558.000 0.073
559.000 0.072
560.000 0.072
561.000 0.071
562.000 0.070
563.000 0.069
564.000 0.068
565.000 0.066
566.000 0.065
567.000 0.064
568.000 0.063
569.000 0.062
570.000 0.061
571.000 0.059
572.000 0.057
573.000 0.056
574.000 0.056
575.000 0.055
576.000 0.053
577.000 0.052
578.000 0.052
579.000 0.051
580.000 0.050
581.000 0.049
582.000 0.048
583.000 0.048
584.000 0.047
585.000 0.047
586.000 0.047
587.000 0.046
588.000 0.046
589.000 0.045
590.000 0.045
591.000 0.045
592.000 0.044
593.000 0.044
594.000 0.044
595.000 0.044
596.000 0.044
597.000 0.043
598.000 0.044
599.000 0.043
600.000 0.042
601.000 0.042
602.000 0.043
603.000 0.042
604.000 0.041
605.000 0.041
606.000 0.041
607.000 0.040
608.000 0.040
609.000 0.040
610.000 0.039
611.000 0.039
612.000 0.039
613.000 0.038
614.000 0.038
615.000 0.038
616.000 0.037
617.000 0.036
618.000 0.036
619.000 0.036
620.000 0.036
621.000 0.036
622.000 0.035
623.000 0.036
624.000 0.035
625.000 0.035
626.000 0.035
627.000 0.035
628.000 0.035
629.000 0.035
630.000 0.035
631.000 0.035
632.000 0.034
633.000 0.035
634.000 0.035
635.000 0.034
636.000 0.034
637.000 0.034
638.000 0.033
639.000 0.033
640.000 0.032
641.000 0.032
642.000 0.032
643.000 0.031
644.000 0.031
645.000 0.031
646.000 0.031
647.000 0.030
648.000 0.030
649.000 0.030
650.000 0.029
651.000 0.028
652.000 0.028
653.000 0.028
654.000 0.029
655.000 0.029
656.000 0.028
657.000 0.029
658.000 0.028
659.000 0.028
660.000 0.027
661.000 0.027
662.000 0.027
663.000 0.027
664.000 0.027
665.000 0.027
666.000 0.028
667.000 0.028
668.000 0.028
669.000 0.027
670.000 0.027
671.000 0.028
672.000 0.028
673.000 0.028
674.000 0.028
675.000 0.028
676.000 0.028
677.000 0.029
678.000 0.028
679.000 0.029
680.000 0.029
681.000 0.029
682.000 0.030
683.000 0.031
684.000 0.032
685.000 0.032
686.000 0.033
687.000 0.034
688.000 0.035
689.000 0.037
690.000 0.038
691.000 0.039
692.000 0.042
693.000 0.044
694.000 0.048
695.000 0.053
696.000 0.058
697.000 0.061
698.000 0.067
699.000 0.073
700.000 0.079
701.000 0.087
702.000 0.094
703.000 0.101
704.000 0.108
705.000 0.116
706.000 0.124
707.000 0.132
708.000 0.141
709.000 0.149
710.000 0.157
711.000 0.166
712.000 0.175
713.000 0.185
714.000 0.194
715.000 0.203
716.000 0.213
717.000 0.224
718.000 0.234
719.000 0.246
720.000 0.258
721.000 0.268
722.000 0.277
723.000 0.287
724.000 0.298
725.000 0.309
726.000 0.320
727.000 0.330
728.000 0.340
729.000 0.350
730.000 0.359
731.000 0.369
732.000 0.378
733.000 0.387
734.000 0.394
735.000 0.402
736.000 0.410
737.000 0.416
738.000 0.424
739.000 0.431
740.000 0.437
741.000 0.443
742.000 0.448
743.000 0.453
744.000 0.458
745.000 0.463
746.000 0.467
747.000 0.471
748.000 0.475
749.000 0.478
750.000 0.481
751.000 0.484
752.000 0.487
753.000 0.489
754.000 0.492
755.000 0.494
756.000 0.496
757.000 0.498
758.000 0.500
759.000 0.501
760.000 0.505
761.000 0.509
762.000 0.512
763.000 0.513
764.000 0.514
765.000 0.513
766.000 0.512
767.000 0.513
768.000 0.513
769.000 0.513
770.000 0.513
771.000 0.514
772.000 0.515
773.000 0.515
774.000 0.516
775.000 0.516
776.000 0.517
777.000 0.518
778.000 0.519
779.000 0.519
780.000 0.520
781.000 0.520
782.000 0.521
783.000 0.521
784.000 0.522
785.000 0.522
786.000 0.523
787.000 0.523
788.000 0.524
789.000 0.524
790.000 0.525
791.000 0.525
792.000 0.526
793.000 0.526
794.000 0.527
795.000 0.527
796.000 0.528
797.000 0.528
798.000 0.529
799.000 0.529
800.000 0.530
801.000 0.530
802.000 0.531
803.000 0.532
804.000 0.532
805.000 0.533
806.000 0.533
807.000 0.533
808.000 0.534
809.000 0.534
810.000 0.535
811.000 0.535
812.000 0.535
813.000 0.536
814.000 0.536
815.000 0.536
816.000 0.536
817.000 0.537
818.000 0.538
819.000 0.539
820.000 0.539
821.000 0.539
822.000 0.540
823.000 0.540
824.000 0.540
825.000 0.540
826.000 0.541
827.000 0.541
828.000 0.542
829.000 0.542
830.000 0.543
831.000 0.543
832.000 0.544
833.000 0.544
834.000 0.544
835.000 0.545
836.000 0.545
837.000 0.546
838.000 0.546
839.000 0.547
840.000 0.547
841.000 0.547
842.000 0.548
843.000 0.549
844.000 0.548
845.000 0.549
846.000 0.549
847.000 0.550
848.000 0.550
849.000 0.550
850.000 0.551
851.000 0.551
852.000 0.552
853.000 0.552
854.000 0.553
855.000 0.553
856.000 0.553
857.000 0.554
858.000 0.554
859.000 0.554
860.000 0.555
861.000 0.555
862.000 0.555
863.000 0.555
864.000 0.556
865.000 0.556
866.000 0.557
867.000 0.557
868.000 0.558
869.000 0.558
870.000 0.558
871.000 0.558
872.000 0.558
873.000 0.559
874.000 0.559
875.000 0.560
876.000 0.560
877.000 0.560
878.000 0.560
879.000 0.561
880.000 0.561
881.000 0.561
882.000 0.562
883.000 0.563
884.000 0.563
885.000 0.563
886.000 0.564
887.000 0.564
888.000 0.564
889.000 0.565
890.000 0.565
891.000 0.565
892.000 0.565
893.000 0.565
894.000 0.566
895.000 0.566
896.000 0.565
897.000 0.565
898.000 0.566
899.000 0.567
900.000 0.566
901.000 0.566
902.000 0.566
903.000 0.567
904.000 0.568
905.000 0.567
906.000 0.568
907.000 0.568
908.000 0.568
909.000 0.568
910.000 0.568
911.000 0.568
912.000 0.569
913.000 0.568
914.000 0.569
915.000 0.569
916.000 0.570
917.000 0.570
918.000 0.570
919.000 0.570
920.000 0.571
921.000 0.571
922.000 0.571
923.000 0.571
924.000 0.573
925.000 0.572
926.000 0.571
927.000 0.569
928.000 0.568
929.000 0.567
930.000 0.565
931.000 0.563
932.000 0.558
933.000 0.555
934.000 0.553
935.000 0.551
936.000 0.550
937.000 0.547
938.000 0.546
939.000 0.549
940.000 0.554
941.000 0.557
942.000 0.555
943.000 0.551
944.000 0.550
945.000 0.551
946.000 0.551
947.000 0.550
948.000 0.550
949.000 0.550
950.000 0.547
951.000 0.544
952.000 0.546
953.000 0.547
954.000 0.545
955.000 0.541
956.000 0.542
957.000 0.549
958.000 0.551
959.000 0.546
960.000 0.547
961.000 0.549
962.000 0.547
963.000 0.544
964.000 0.550
965.000 0.553
966.000 0.552
967.000 0.548
968.000 0.551
969.000 0.552
970.000 0.552
971.000 0.552
972.000 0.553
973.000 0.553
974.000 0.552
975.000 0.550
976.000 0.552
977.000 0.554
978.000 0.554
979.000 0.554
980.000 0.554
981.000 0.553
982.000 0.555
983.000 0.557
984.000 0.556
985.000 0.557
986.000 0.559
987.000 0.560
988.000 0.561
989.000 0.560
990.000 0.560
991.000 0.560
992.000 0.560
993.000 0.559
994.000 0.559
995.000 0.561
996.000 0.563
997.000 0.563
998.000 0.563
999.000 0.563
1000.000 0.564
1001.000 0.574
1002.000 0.574
1003.000 0.575
1004.000 0.576
1005.000 0.575
1006.000 0.576
1007.000 0.576
1008.000 0.576
1009.000 0.576
1010.000 0.577
1011.000 0.578
1012.000 0.579
1013.000 0.580
1014.000 0.580
1015.000 0.581
1016.000 0.582
1017.000 0.582
1018.000 0.583
1019.000 0.584
1020.000 0.584
1021.000 0.584
1022.000 0.585
1023.000 0.586
1024.000 0.587
1025.000 0.588
1026.000 0.589
1027.000 0.590
1028.000 0.590
1029.000 0.590
1030.000 0.592
1031.000 0.592
1032.000 0.594
1033.000 0.596
1034.000 0.597
1035.000 0.598
1036.000 0.599
1037.000 0.598
1038.000 0.599
1039.000 0.600
1040.000 0.600
1041.000 0.602
1042.000 0.602
1043.000 0.601
1044.000 0.601
1045.000 0.601
1046.000 0.601
1047.000 0.604
1048.000 0.605
1049.000 0.606
1050.000 0.607
1051.000 0.607
1052.000 0.607
1053.000 0.607
1054.000 0.607
1055.000 0.608
1056.000 0.609
1057.000 0.610
1058.000 0.611
1059.000 0.611
1060.000 0.612
1061.000 0.612
1062.000 0.612
1063.000 0.612
1064.000 0.613
1065.000 0.613
1066.000 0.613
1067.000 0.615
1068.000 0.615
1069.000 0.615
1070.000 0.615
1071.000 0.616
1072.000 0.615
1073.000 0.617
1074.000 0.616
1075.000 0.616
1076.000 0.616
1077.000 0.616
1078.000 0.615
1079.000 0.616
1080.000 0.616
1081.000 0.615
1082.000 0.616
1083.000 0.615
1084.000 0.614
1085.000 0.615
1086.000 0.615
1087.000 0.616
1088.000 0.617
1089.000 0.618
1090.000 0.618
1091.000 0.618
1092.000 0.618
1093.000 0.617
1094.000 0.617
1095.000 0.618
1096.000 0.618
1097.000 0.618
1098.000 0.618
1099.000 0.618
1100.000 0.618
1101.000 0.618
1102.000 0.616
1103.000 0.615
1104.000 0.615
1105.000 0.615
1106.000 0.615
1107.000 0.616
1108.000 0.616
1109.000 0.616
1110.000 0.616
1111.000 0.616
1112.000 0.615
1113.000 0.615
1114.000 0.612
1115.000 0.609
1116.000 0.608
1117.000 0.604
1118.000 0.603
1119.000 0.601
1120.000 0.597
1121.000 0.594
1122.000 0.591
1123.000 0.588
1124.000 0.589
1125.000 0.586
1126.000 0.585
1127.000 0.585
1128.000 0.582
1129.000 0.581
1130.000 0.587
1131.000 0.589
1132.000 0.586
1133.000 0.583
1134.000 0.580
1135.000 0.577
1136.000 0.579
1137.000 0.579
1138.000 0.577
1139.000 0.572
1140.000 0.567
1141.000 0.560
1142.000 0.558
1143.000 0.558
1144.000 0.559
1145.000 0.565
1146.000 0.566
1147.000 0.566
1148.000 0.562
1149.000 0.557
1150.000 0.553
1151.000 0.550
1152.000 0.547
1153.000 0.544
1154.000 0.542
1155.000 0.540
1156.000 0.540
1157.000 0.542
1158.000 0.544
1159.000 0.544
1160.000 0.546
1161.000 0.546
1162.000 0.544
1163.000 0.543
1164.000 0.543
1165.000 0.543
1166.000 0.543
1167.000 0.545
1168.000 0.546
1169.000 0.545
1170.000 0.545
1171.000 0.543
1172.000 0.543
1173.000 0.542
1174.000 0.542
1175.000 0.542
1176.000 0.542
1177.000 0.541
1178.000 0.540
1179.000 0.540
1180.000 0.539
1181.000 0.539
1182.000 0.538
1183.000 0.538
1184.000 0.538
1185.000 0.539
1186.000 0.540
1187.000 0.540
1188.000 0.540
1189.000 0.538
1190.000 0.537
1191.000 0.537
1192.000 0.538
1193.000 0.538
1194.000 0.540
1195.000 0.540
1196.000 0.539
1197.000 0.540
1198.000 0.540
1199.000 0.540
1200.000 0.540
1201.000 0.541
1202.000 0.541
1203.000 0.541
1204.000 0.542
1205.000 0.542
1206.000 0.543
1207.000 0.543
1208.000 0.543
1209.000 0.543
1210.000 0.543
1211.000 0.543
1212.000 0.543
1213.000 0.543
1214.000 0.543
1215.000 0.544
1216.000 0.544
1217.000 0.546
1218.000 0.546
1219.000 0.547
1220.000 0.547
1221.000 0.547
1222.000 0.548
1223.000 0.548
1224.000 0.549
1225.000 0.550
1226.000 0.549
1227.000 0.550
1228.000 0.551
1229.000 0.551
1230.000 0.552
1231.000 0.553
1232.000 0.554
1233.000 0.555
1234.000 0.557
1235.000 0.557
1236.000 0.557
1237.000 0.558
1238.000 0.558
1239.000 0.558
1240.000 0.558
1241.000 0.558
1242.000 0.560
1243.000 0.561
1244.000 0.561
1245.000 0.561
1246.000 0.560
1247.000 0.560
1248.000 0.562
1249.000 0.563
1250.000 0.562
1251.000 0.564
1252.000 0.565
1253.000 0.565
1254.000 0.565
1255.000 0.566
1256.000 0.566
1257.000 0.567
1258.000 0.568
1259.000 0.569
1260.000 0.571
1261.000 0.572
1262.000 0.573
1263.000 0.573
1264.000 0.574
1265.000 0.574
1266.000 0.574
1267.000 0.574
1268.000 0.574
1269.000 0.574
1270.000 0.574
1271.000 0.574
1272.000 0.572
1273.000 0.572
1274.000 0.572
1275.000 0.571
1276.000 0.572
1277.000 0.571
1278.000 0.571
1279.000 0.571
1280.000 0.571
1281.000 0.571
1282.000 0.571
1283.000 0.570
1284.000 0.570
1285.000 0.570
1286.000 0.570
1287.000 0.570
1288.000 0.570
1289.000 0.570
1290.000 0.570
1291.000 0.570
1292.000 0.569
1293.000 0.568
1294.000 0.567
1295.000 0.566
1296.000 0.565
1297.000 0.564
1298.000 0.564
1299.000 0.564
1300.000 0.564
1301.000 0.563
1302.000 0.561
1303.000 0.559
1304.000 0.558
1305.000 0.557
1306.000 0.555
1307.000 0.554
1308.000 0.553
1309.000 0.550
1310.000 0.549
1311.000 0.549
1312.000 0.548
1313.000 0.546
1314.000 0.545
1315.000 0.543
1316.000 0.540
1317.000 0.539
1318.000 0.538
1319.000 0.536
1320.000 0.534
1321.000 0.532
1322.000 0.531
1323.000 0.530
1324.000 0.529
1325.000 0.527
1326.000 0.526
1327.000 0.525
1328.000 0.523
1329.000 0.521
1330.000 0.519
1331.000 0.517
1332.000 0.515
1333.000 0.511
1334.000 0.506
1335.000 0.502
1336.000 0.497
1337.000 0.494
1338.000 0.495
1339.000 0.494
1340.000 0.495
1341.000 0.494
1342.000 0.491
1343.000 0.489
1344.000 0.486
1345.000 0.484
1346.000 0.486
1347.000 0.486
1348.000 0.486
1349.000 0.483
1350.000 0.491
1351.000 0.512
1352.000 0.515
1353.000 0.455
1354.000 0.478
1355.000 0.459
1356.000 0.512
1357.000 0.561
1358.000 0.549
1359.000 0.555
1360.000 0.548
1361.000 0.587
1362.000 0.626
1363.000 0.696
1364.000 0.788
1365.000 0.818
1366.000 0.749
1367.000 0.652
1368.000 0.527
1369.000 0.411
1370.000 0.567
1371.000 0.213
1372.000 0.177
1373.000 0.343
1374.000 0.374
1375.000 0.425
1376.000 0.499
1377.000 0.526
1378.000 0.036
1379.000 0.347
1380.000 0.208
1381.000 0.186
1382.000 0.457
1383.000 0.528
1384.000 0.583
1385.000 0.575
1386.000 0.371
1387.000 0.387
1388.000 0.383
1389.000 0.408
1390.000 0.417
1391.000 0.437
1392.000 0.496
1393.000 0.528
1394.000 0.503
1395.000 0.523
1396.000 0.535
1397.000 0.517
1398.000 0.497
1399.000 0.480
1400.000 0.391
1401.000 0.360
1402.000 0.720
1403.000 0.482
1404.000 0.509
1405.000 0.409
1406.000 0.315
1407.000 0.249
1408.000 0.234
1409.000 0.207
1410.000 0.171
1411.000 0.215
1412.000 0.264
1413.000 0.326
1414.000 0.251
1415.000 0.169
1416.000 0.154
1417.000 0.253
1418.000 0.339
1419.000 0.371
1420.000 0.349
1421.000 0.320
1422.000 0.248
1423.000 0.251
1424.000 0.179
1425.000 0.215
1426.000 0.184
1427.000 0.231
1428.000 0.248
1429.000 0.267
1430.000 0.288
1431.000 0.248
1432.000 0.282
1433.000 0.267
1434.000 0.253
1435.000 0.203
1436.000 0.186
1437.000 0.246
1438.000 0.163
1439.000 0.208
1440.000 0.127
1441.000 0.112
1442.000 0.160
1443.000 0.191
1444.000 0.219
1445.000 0.265
1446.000 0.252
1447.000 0.233
1448.000 0.206
1449.000 0.170
1450.000 0.262
1451.000 0.206
1452.000 0.144
1453.000 0.174
1454.000 0.204
1455.000 0.208
1456.000 0.199
1457.000 0.215
1458.000 0.200
1459.000 0.174
1460.000 0.150
1461.000 0.127
1462.000 0.211
1463.000 0.169
1464.000 0.150
1465.000 0.157
1466.000 0.150
1467.000 0.164
1468.000 0.152
1469.000 0.172
1470.000 0.190
1471.000 0.172
1472.000 0.172
1473.000 0.174
1474.000 0.181
1475.000 0.168
1476.000 0.185
1477.000 0.196
1478.000 0.191
1479.000 0.198
1480.000 0.226
1481.000 0.218
1482.000 0.209
1483.000 0.203
1484.000 0.191
1485.000 0.191
1486.000 0.202
1487.000 0.206
1488.000 0.200
1489.000 0.203
1490.000 0.204
1491.000 0.204
1492.000 0.198
1493.000 0.197
1494.000 0.196
1495.000 0.197
1496.000 0.202
1497.000 0.205
1498.000 0.209
1499.000 0.210
1500.000 0.208
1501.000 0.208
1502.000 0.205
1503.000 0.202
1504.000 0.200
1505.000 0.199
1506.000 0.201
1507.000 0.206
1508.000 0.209
1509.000 0.215
1510.000 0.218
1511.000 0.221
1512.000 0.221
1513.000 0.219
1514.000 0.219
1515.000 0.218
1516.000 0.220
1517.000 0.224
1518.000 0.226
1519.000 0.230
1520.000 0.231
1521.000 0.231
1522.000 0.232
1523.000 0.234
1524.000 0.235
1525.000 0.236
1526.000 0.237
1527.000 0.240
1528.000 0.241
1529.000 0.243
1530.000 0.245
1531.000 0.245
1532.000 0.246
1533.000 0.247
1534.000 0.249
1535.000 0.253
1536.000 0.256
1537.000 0.258
1538.000 0.260
1539.000 0.258
1540.000 0.259
1541.000 0.263
1542.000 0.265
1543.000 0.266
1544.000 0.267
1545.000 0.268
1546.000 0.269
1547.000 0.270
1548.000 0.270
1549.000 0.270
1550.000 0.271
1551.000 0.274
1552.000 0.276
1553.000 0.278
1554.000 0.280
1555.000 0.281
1556.000 0.282
1557.000 0.282
1558.000 0.283
1559.000 0.285
1560.000 0.286
1561.000 0.288
1562.000 0.290
1563.000 0.290
1564.000 0.293
1565.000 0.296
1566.000 0.297
1567.000 0.298
1568.000 0.299
1569.000 0.300
1570.000 0.301
1571.000 0.303
1572.000 0.306
1573.000 0.307
1574.000 0.309
1575.000 0.309
1576.000 0.310
1577.000 0.312
1578.000 0.312
1579.000 0.309
1580.000 0.309
1581.000 0.310
1582.000 0.312
1583.000 0.316
1584.000 0.317
1585.000 0.316
1586.000 0.317
1587.000 0.316
1588.000 0.317
1589.000 0.321
1590.000 0.322
1591.000 0.322
1592.000 0.323
1593.000 0.324
1594.000 0.325
1595.000 0.326
1596.000 0.327
1597.000 0.329
1598.000 0.330
1599.000 0.330
1600.000 0.331
1601.000 0.330
1602.000 0.331
1603.000 0.333
1604.000 0.334
1605.000 0.336
1606.000 0.337
1607.000 0.335
1608.000 0.336
1609.000 0.337
1610.000 0.338
1611.000 0.339
1612.000 0.340
1613.000 0.340
1614.000 0.341
1615.000 0.343
1616.000 0.345
1617.000 0.346
1618.000 0.348
1619.000 0.349
1620.000 0.349
1621.000 0.348
1622.000 0.348
1623.000 0.346
1624.000 0.346
1625.000 0.346
1626.000 0.347
1627.000 0.349
1628.000 0.350
1629.000 0.351
1630.000 0.352
1631.000 0.353
1632.000 0.354
1633.000 0.357
1634.000 0.358
1635.000 0.359
1636.000 0.360
1637.000 0.359
1638.000 0.359
1639.000 0.360
1640.000 0.360
1641.000 0.361
1642.000 0.361
1643.000 0.362
1644.000 0.362
1645.000 0.363
1646.000 0.364
1647.000 0.363
1648.000 0.363
1649.000 0.362
1650.000 0.363
1651.000 0.363
1652.000 0.363
1653.000 0.363
1654.000 0.363
1655.000 0.362
1656.000 0.362
1657.000 0.364
1658.000 0.365
1659.000 0.366
1660.000 0.368
1661.000 0.367
1662.000 0.367
1663.000 0.366
1664.000 0.366
1665.000 0.367
1666.000 0.366
1667.000 0.366
1668.000 0.367
1669.000 0.366
1670.000 0.366
1671.000 0.367
1672.000 0.367
1673.000 0.366
1674.000 0.367
1675.000 0.368
1676.000 0.368
1677.000 0.368
1678.000 0.368
1679.000 0.367
1680.000 0.366
1681.000 0.367
1682.000 0.366
1683.000 0.364
1684.000 0.362
1685.000 0.360
1686.000 0.361
1687.000 0.363
1688.000 0.364
1689.000 0.366
1690.000 0.366
1691.000 0.363
1692.000 0.364
1693.000 0.366
1694.000 0.367
1695.000 0.368
1696.000 0.369
1697.000 0.366
1698.000 0.365
1699.000 0.364
1700.000 0.363
1701.000 0.363
1702.000 0.362
1703.000 0.360
1704.000 0.360
1705.000 0.359
1706.000 0.358
1707.000 0.360
1708.000 0.359
1709.000 0.358
1710.000 0.357
1711.000 0.355
1712.000 0.357
1713.000 0.358
1714.000 0.357
1715.000 0.359
1716.000 0.356
1717.000 0.353
1718.000 0.357
1719.000 0.357
1720.000 0.358
1721.000 0.361
1722.000 0.357
1723.000 0.353
1724.000 0.352
1725.000 0.351
1726.000 0.351
1727.000 0.352
1728.000 0.352
1729.000 0.349
1730.000 0.350
1731.000 0.351
1732.000 0.350
1733.000 0.349
1734.000 0.344
1735.000 0.341
1736.000 0.342
1737.000 0.340
1738.000 0.338
1739.000 0.336
1740.000 0.334
1741.000 0.335
1742.000 0.339
1743.000 0.341
1744.000 0.346
1745.000 0.347
1746.000 0.345
1747.000 0.344
1748.000 0.343
1749.000 0.343
1750.000 0.346
1751.000 0.344
1752.000 0.342
1753.000 0.340
1754.000 0.339
1755.000 0.337
1756.000 0.336
1757.000 0.336
1758.000 0.334
1759.000 0.335
1760.000 0.337
1761.000 0.337
1762.000 0.339
1763.000 0.338
1764.000 0.336
1765.000 0.339
1766.000 0.338
1767.000 0.343
1768.000 0.345
1769.000 0.339
1770.000 0.332
1771.000 0.320
1772.000 0.311
1773.000 0.302
1774.000 0.303
1775.000 0.308
1776.000 0.315
1777.000 0.330
1778.000 0.325
1779.000 0.316
1780.000 0.308
1781.000 0.296
1782.000 0.295
1783.000 0.304
1784.000 0.313
1785.000 0.301
1786.000 0.298
1787.000 0.294
1788.000 0.294
1789.000 0.311
1790.000 0.321
1791.000 0.317
1792.000 0.332
1793.000 0.361
1794.000 0.277
1795.000 0.272
1796.000 0.281
1797.000 0.321
1798.000 0.335
1799.000 0.357
1800.000 0.348
1801.000 0.428
1802.000 0.445
1803.000 0.423
1804.000 0.423
1805.000 0.449
1806.000 0.444
1807.000 0.508
1808.000 0.815
1809.000 0.813
1810.000 0.831
1811.000 0.826
1812.000 0.533
1813.000 0.442
1814.000 0.436
1815.000 0.399
1816.000 0.446
1817.000 0.505
1818.000 0.453
1819.000 0.450
1820.000 0.509
1821.000 0.491
1822.000 0.527
1823.000 0.533
1824.000 0.524
1825.000 0.494
1826.000 0.705
1827.000 0.631
1828.000 0.582
1829.000 0.537
1830.000 0.488
1831.000 0.486
1832.000 0.383
1833.000 0.281
1834.000 0.216
1835.000 0.161
1836.000 0.116
1837.000 0.156
1838.000 0.253
1839.000 0.570
1840.000 0.300
1841.000 0.269
1842.000 0.216
1843.000 0.174
1844.000 0.126
1845.000 0.112
1846.000 0.154
1847.000 0.121
1848.000 0.120
1849.000 0.128
1850.000 0.273
1851.000 0.445
1852.000 0.521
1853.000 0.496
1854.000 0.486
1855.000 0.422
1856.000 0.630
1857.000 0.552
1858.000 0.496
1859.000 0.448
1860.000 0.474
1861.000 0.458
1862.000 0.406
1863.000 0.379
1864.000 0.332
1865.000 0.307
1866.000 0.618
1867.000 0.417
1868.000 0.544
1869.000 0.600
1870.000 0.567
1871.000 0.633
1872.000 0.598
1873.000 0.560
1874.000 0.546
1875.000 0.466
1876.000 0.360
1877.000 0.647
1878.000 0.655
1879.000 0.714
1880.000 0.712
1881.000 0.687
1882.000 0.725
1883.000 0.748
1884.000 0.740
1885.000 0.590
1886.000 0.532
1887.000 0.360
1888.000 0.425
1889.000 0.381
1890.000 0.387
1891.000 0.648
1892.000 0.682
1893.000 0.626
1894.000 0.589
1895.000 0.489
1896.000 0.581
1897.000 0.604
1898.000 0.620
1899.000 0.684
1900.000 0.823
1901.000 0.820
1902.000 0.793
1903.000 0.810
1904.000 0.759
1905.000 0.698
1906.000 0.721
1907.000 0.645
1908.000 0.565
1909.000 0.544
1910.000 0.504
1911.000 0.461
1912.000 0.334
1913.000 0.270
1914.000 0.170
1915.000 0.607
1916.000 0.761
1917.000 0.628
1918.000 0.626
1919.000 0.621
1920.000 0.495
1921.000 0.448
1922.000 0.546
1923.000 0.548
1924.000 0.542
1925.000 0.684
1926.000 0.395
1927.000 0.710
1928.000 0.482
1929.000 0.545
1930.000 0.586
1931.000 0.587
1932.000 0.579
1933.000 0.589
1934.000 0.604
1935.000 0.625
1936.000 0.635
1937.000 0.626
1938.000 0.667
1939.000 0.710
1940.000 0.739
1941.000 0.648
1942.000 0.440
1943.000 0.408
1944.000 0.415
1945.000 0.423
1946.000 0.607
1947.000 0.637
1948.000 0.529
1949.000 0.488
1950.000 0.385
1951.000 0.420
1952.000 0.410
1953.000 0.563
1954.000 0.597
1955.000 0.608
1956.000 0.576
1957.000 0.379
1958.000 0.494
1959.000 0.396
1960.000 0.352
1961.000 0.190
1962.000 0.164
1963.000 0.138
1964.000 0.136
1965.000 0.117
1966.000 0.226
1967.000 0.228
1968.000 0.170
1969.000 0.162
1970.000 0.140
1971.000 0.122
1972.000 0.169
1973.000 0.182
1974.000 0.114
1975.000 0.115
1976.000 0.111
1977.000 0.125
1978.000 0.171
1979.000 0.139
1980.000 0.129
1981.000 0.130
1982.000 0.134
1983.000 0.145
1984.000 0.147
1985.000 0.143
1986.000 0.135
1987.000 0.147
1988.000 0.098
1989.000 0.154
1990.000 0.078
1991.000 0.109
1992.000 0.191
1993.000 0.215
1994.000 0.201
1995.000 0.220
1996.000 0.235
1997.000 0.198
1998.000 0.199
1999.000 0.248
2000.000 0.223
2001.000 0.224
2002.000 0.243
2003.000 0.239
2004.000 0.236
2005.000 0.199
2006.000 0.197
2007.000 0.235
2008.000 0.268
2009.000 0.249
2010.000 0.228
2011.000 0.248
2012.000 0.192
2013.000 0.217
2014.000 0.241
2015.000 0.263
2016.000 0.288
2017.000 0.309
2018.000 0.322
2019.000 0.236
2020.000 0.193
2021.000 0.195
2022.000 0.183
2023.000 0.202
2024.000 0.187
2025.000 0.205
2026.000 0.193
2027.000 0.193
2028.000 0.217
2029.000 0.180
2030.000 0.143
2031.000 0.158
2032.000 0.175
2033.000 0.194
2034.000 0.208
2035.000 0.214
2036.000 0.158
2037.000 0.166
2038.000 0.153
2039.000 0.153
2040.000 0.165
2041.000 0.183
2042.000 0.192
2043.000 0.239
2044.000 0.269
2045.000 0.187
2046.000 0.175
2047.000 0.166
2048.000 0.171
2049.000 0.203
2050.000 0.214
2051.000 0.201
2052.000 0.216
2053.000 0.128
2054.000 0.157
2055.000 0.195
2056.000 0.179
2057.000 0.196
2058.000 0.198
2059.000 0.190
2060.000 0.227
2061.000 0.238
2062.000 0.210
2063.000 0.185
2064.000 0.175
2065.000 0.171
2066.000 0.173
2067.000 0.190
2068.000 0.194
2069.000 0.208
2070.000 0.200
2071.000 0.175
2072.000 0.164
2073.000 0.166
2074.000 0.165
2075.000 0.163
2076.000 0.162
2077.000 0.212
2078.000 0.240
2079.000 0.244
2080.000 0.251
2081.000 0.204
2082.000 0.171
2083.000 0.188
2084.000 0.173
2085.000 0.185
2086.000 0.197
2087.000 0.205
2088.000 0.224
2089.000 0.215
2090.000 0.186
2091.000 0.197
2092.000 0.191
2093.000 0.186
2094.000 0.188
2095.000 0.183
2096.000 0.166
2097.000 0.167
2098.000 0.177
2099.000 0.189
2100.000 0.198
2101.000 0.220
2102.000 0.207
2103.000 0.212
2104.000 0.211
2105.000 0.201
2106.000 0.200
2107.000 0.211
2108.000 0.211
2109.000 0.240
2110.000 0.249
2111.000 0.228
2112.000 0.210
2113.000 0.224
2114.000 0.219
2115.000 0.222
2116.000 0.208
2117.000 0.226
2118.000 0.254
2119.000 0.225
2120.000 0.222
2121.000 0.230
2122.000 0.227
2123.000 0.228
2124.000 0.206
2125.000 0.212
2126.000 0.238
2127.000 0.225
2128.000 0.227
2129.000 0.228
2130.000 0.193
2131.000 0.185
2132.000 0.180
2133.000 0.191
2134.000 0.209
2135.000 0.213
2136.000 0.236
2137.000 0.222
2138.000 0.260
2139.000 0.274
2140.000 0.275
2141.000 0.239
2142.000 0.233
2143.000 0.250
2144.000 0.245
2145.000 0.232
2146.000 0.220
2147.000 0.226
2148.000 0.220
2149.000 0.224
2150.000 0.210
2151.000 0.198
2152.000 0.201
2153.000 0.232
2154.000 0.244
2155.000 0.263
2156.000 0.258
2157.000 0.260
2158.000 0.251
2159.000 0.288
2160.000 0.295
2161.000 0.263
2162.000 0.259
2163.000 0.248
2164.000 0.254
2165.000 0.244
2166.000 0.241
2167.000 0.238
2168.000 0.234
2169.000 0.230
2170.000 0.233
2171.000 0.229
2172.000 0.213
2173.000 0.213
2174.000 0.210
2175.000 0.208
2176.000 0.203
2177.000 0.212
2178.000 0.213
2179.000 0.202
2180.000 0.196
2181.000 0.206
2182.000 0.207
2183.000 0.228
2184.000 0.212
2185.000 0.239
2186.000 0.255
2187.000 0.286
2188.000 0.253
2189.000 0.258
2190.000 0.258
2191.000 0.252
2192.000 0.245
2193.000 0.246
2194.000 0.243
2195.000 0.262
2196.000 0.250
2197.000 0.240
2198.000 0.251
2199.000 0.256
2200.000 0.243
2201.000 0.252
2202.000 0.282
2203.000 0.235
2204.000 0.253
2205.000 0.253
2206.000 0.238
2207.000 0.238
2208.000 0.229
2209.000 0.223
2210.000 0.217
2211.000 0.211
2212.000 0.200
2213.000 0.205
2214.000 0.218
2215.000 0.224
2216.000 0.242
2217.000 0.245
2218.000 0.231
2219.000 0.227
2220.000 0.212
2221.000 0.211
2222.000 0.217
2223.000 0.219
2224.000 0.221
2225.000 0.220
2226.000 0.231
2227.000 0.222
2228.000 0.219
2229.000 0.222
2230.000 0.223
2231.000 0.221
2232.000 0.218
2233.000 0.233
2234.000 0.222
2235.000 0.219
2236.000 0.224
2237.000 0.239
2238.000 0.242
2239.000 0.239
2240.000 0.227
2241.000 0.226
2242.000 0.234
2243.000 0.250
2244.000 0.256
2245.000 0.274
2246.000 0.271
2247.000 0.245
2248.000 0.238
2249.000 0.227
2250.000 0.226
2251.000 0.238
2252.000 0.240
2253.000 0.246
2254.000 0.244
2255.000 0.247
2256.000 0.243
2257.000 0.238
2258.000 0.239
2259.000 0.226
2260.000 0.198
2261.000 0.186
2262.000 0.190
2263.000 0.195
2264.000 0.201
2265.000 0.217
2266.000 0.214
2267.000 0.211
2268.000 0.268
2269.000 0.262
2270.000 0.249
2271.000 0.239
2272.000 0.223
2273.000 0.228
2274.000 0.235
2275.000 0.248
2276.000 0.261
2277.000 0.271
2278.000 0.227
2279.000 0.204
2280.000 0.198
2281.000 0.185
2282.000 0.176
2283.000 0.173
2284.000 0.175
2285.000 0.181
2286.000 0.236
2287.000 0.237
2288.000 0.231
2289.000 0.221
2290.000 0.203
2291.000 0.199
2292.000 0.210
2293.000 0.206
2294.000 0.213
2295.000 0.196
2296.000 0.187
2297.000 0.190
2298.000 0.191
2299.000 0.216
2300.000 0.227
2301.000 0.216
2302.000 0.214
2303.000 0.208
2304.000 0.199
2305.000 0.201
2306.000 0.189
2307.000 0.200
2308.000 0.220
2309.000 0.188
2310.000 0.185
2311.000 0.191
2312.000 0.173
2313.000 0.182
2314.000 0.166
2315.000 0.202
2316.000 0.200
2317.000 0.255
2318.000 0.252
2319.000 0.228
2320.000 0.220
2321.000 0.200
2322.000 0.188
2323.000 0.220
2324.000 0.222
2325.000 0.259
2326.000 0.257
2327.000 0.259
2328.000 0.161
2329.000 0.208
2330.000 0.230
2331.000 0.255
2332.000 0.256
2333.000 0.211
2334.000 0.260
2335.000 0.221
2336.000 0.240
2337.000 0.230
2338.000 0.213
2339.000 0.204
2340.000 0.182
2341.000 0.185
2342.000 0.196
2343.000 0.205
2344.000 0.202
2345.000 0.154
2346.000 0.201
2347.000 0.160
2348.000 0.220
2349.000 0.266
2350.000 0.293
2351.000 0.349
2352.000 0.382
2353.000 0.384
2354.000 0.379
2355.000 0.352
2356.000 0.267
2357.000 0.257
2358.000 0.244
2359.000 0.243
2360.000 0.177
2361.000 0.137
2362.000 0.156
2363.000 0.168
2364.000 0.193
2365.000 0.213
2366.000 0.186
2367.000 0.195
2368.000 0.271
2369.000 0.131
2370.000 0.178
2371.000 0.199
2372.000 0.245
2373.000 0.207
2374.000 0.156
2375.000 0.200
2376.000 0.172
2377.000 0.179
2378.000 0.213
2379.000 0.219
2380.000 0.187
2381.000 0.224
2382.000 0.175
2383.000 0.135
2384.000 0.153
2385.000 0.188
2386.000 0.244
2387.000 0.212
2388.000 0.215
2389.000 0.166
2390.000 0.197
2391.000 0.134
2392.000 0.105
2393.000 0.141
2394.000 0.138
2395.000 0.189
2396.000 0.219
2397.000 0.187
2398.000 0.147
2399.000 0.148
2400.000 0.146
2401.000 0.276
2402.000 0.202
2403.000 0.362
2404.000 0.359
2405.000 0.285
2406.000 0.191
2407.000 0.214
2408.000 0.170
2409.000 0.204
2410.000 0.298
2411.000 0.444
2412.000 0.634
2413.000 0.481
2414.000 0.338
2415.000 0.393
2416.000 0.667
2417.000 0.566
2418.000 0.547
2419.000 0.526
2420.000 0.515
2421.000 0.428
2422.000 0.469
2423.000 0.382
2424.000 0.279
2425.000 0.189
2426.000 0.285
2427.000 0.310
2428.000 0.392
2429.000 0.351
2430.000 0.268
2431.000 0.263
2432.000 0.366
2433.000 0.341
2434.000 0.335
2435.000 0.283
2436.000 0.251
2437.000 0.207
2438.000 0.105
2439.000 0.378
2440.000 0.446
2441.000 0.348
2442.000 0.229
2443.000 0.260
2444.000 0.129
2445.000 0.221
2446.000 0.404
2447.000 0.437
2448.000 0.163
2449.000 0.323
2450.000 0.548
2451.000 0.499
2452.000 0.485
2453.000 0.642
2454.000 0.610
2455.000 0.352
2456.000 0.084
2457.000 0.185
2458.000 0.528
2459.000 0.440
2460.000 0.367
2461.000 0.305
2462.000 0.259
2463.000 0.563
2464.000 0.343
2465.000 0.449
2466.000 0.131
2467.000 0.188
2468.000 0.181
2469.000 0.452
2470.000 0.348
2471.000 0.305
2472.000 0.312
2473.000 0.264
2474.000 0.284
2475.000 0.422
2476.000 0.248
2477.000 0.368
2478.000 0.290
2479.000 0.286
2480.000 0.174
2481.000 0.332
2482.000 0.347
2483.000 0.384
2484.000 0.231
2485.000 0.212
2486.000 0.178
2487.000 0.232
2488.000 0.305
2489.000 0.320
2490.000 0.216
2491.000 0.736
2492.000 0.526
2493.000 0.606
2494.000 0.661
2495.000 0.532
2496.000 0.538
2497.000 0.529
2498.000 0.545
2499.000 0.492
2500.000 0.279
