391.000 0.019
392.000 0.018
393.000 0.014
394.000 0.014
395.000 0.014
396.000 0.014
397.000 0.015
398.000 0.014
399.000 0.015
400.000 0.015
401.000 0.016
402.000 0.015
403.000 0.015
404.000 0.016
405.000 0.015
406.000 0.015
407.000 0.014
408.000 0.014
409.000 0.016
410.000 0.016
411.000 0.015
412.000 0.015
413.000 0.015
414.000 0.015
415.000 0.015
416.000 0.016
417.000 0.015
418.000 0.015
419.000 0.015
420.000 0.016
421.000 0.015
422.000 0.015
423.000 0.015
424.000 0.015
425.000 0.015
426.000 0.015
427.000 0.015
428.000 0.016
429.000 0.016
430.000 0.015
431.000 0.016
432.000 0.015
433.000 0.015
434.000 0.016
435.000 0.015
436.000 0.015
437.000 0.016
438.000 0.017
439.000 0.015
440.000 0.015
441.000 0.016
442.000 0.015
443.000 0.015
444.000 0.015
445.000 0.016
446.000 0.016
447.000 0.016
448.000 0.016
449.000 0.016
450.000 0.016
451.000 0.016
452.000 0.015
453.000 0.016
454.000 0.016
455.000 0.016
456.000 0.016
457.000 0.015
458.000 0.015
459.000 0.016
460.000 0.016
461.000 0.016
462.000 0.016
463.000 0.015
464.000 0.016
465.000 0.016
466.000 0.016
467.000 0.017
468.000 0.016
469.000 0.016
470.000 0.016
471.000 0.016
472.000 0.016
473.000 0.016
474.000 0.017
475.000 0.017
476.000 0.016
477.000 0.016
478.000 0.015
479.000 0.016
480.000 0.016
481.000 0.016
482.000 0.015
483.000 0.016
484.000 0.016
485.000 0.015
486.000 0.016
487.000 0.016
488.000 0.016
489.000 0.016
490.000 0.016
491.000 0.016
492.000 0.016
493.000 0.016
494.000 0.016
495.000 0.016
496.000 0.017
497.000 0.017
498.000 0.016
499.000 0.016
500.000 0.017
501.000 0.017
502.000 0.018
503.000 0.018
504.000 0.018
505.000 0.018
506.000 0.019
507.000 0.019
508.000 0.019
509.000 0.020
510.000 0.020
511.000 0.021
512.000 0.022
513.000 0.023
514.000 0.023
515.000 0.024
516.000 0.025
517.000 0.027
518.000 0.028
519.000 0.030
520.000 0.031
521.000 0.032
522.000 0.033
523.000 0.035
524.000 0.036
525.000 0.037
526.000 0.038
527.000 0.040
528.000 0.041
529.000 0.042
530.000 0.043
531.000 0.044
532.000 0.045
533.000 0.046
534.000 0.047
535.000 0.047
536.000 0.048
537.000 0.049
538.000 0.050
539.000 0.050
540.000 0.049
541.000 0.050
542.000 0.050
543.000 0.051
544.000 0.051
545.000 0.051
546.000 0.051
547.000 0.051
548.000 0.051
549.000 0.051
550.000 0.051
551.000 0.051
552.000 0.051
553.000 0.052
554.000 0.051
555.000 0.051
556.000 0.051
557.000 0.051
558.000 0.050
559.000 0.050
560.000 0.049
561.000 0.048
562.000 0.048
563.000 0.047
564.000 0.046
565.000 0.045
566.000 0.044
567.000 0.044
568.000 0.043
569.000 0.042
570.000 0.041
571.000 0.040
572.000 0.039
573.000 0.038
574.000 0.037
575.000 0.036
576.000 0.036
577.000 0.036
578.000 0.035
579.000 0.034
580.000 0.034
581.000 0.034
582.000 0.033
583.000 0.033
584.000 0.033
585.000 0.032
586.000 0.032
587.000 0.031
588.000 0.031
589.000 0.031
590.000 0.030
591.000 0.030
592.000 0.030
593.000 0.029
594.000 0.029
595.000 0.029
596.000 0.029
597.000 0.028
598.000 0.029
599.000 0.029
600.000 0.028
601.000 0.028
602.000 0.029
603.000 0.028
604.000 0.027
605.000 0.027
606.000 0.028
607.000 0.028
608.000 0.027
609.000 0.026
610.000 0.026
611.000 0.026
612.000 0.026
613.000 0.026
614.000 0.025
615.000 0.025
616.000 0.025
617.000 0.025
618.000 0.025
619.000 0.024
620.000 0.024
621.000 0.024
622.000 0.024
623.000 0.023
624.000 0.023
625.000 0.023
626.000 0.023
627.000 0.024
628.000 0.024
629.000 0.023
630.000 0.024
631.000 0.024
632.000 0.024
633.000 0.024
634.000 0.024
635.000 0.024
636.000 0.023
637.000 0.023
638.000 0.022
639.000 0.022
640.000 0.022
641.000 0.022
642.000 0.021
643.000 0.021
644.000 0.021
645.000 0.020
646.000 0.019
647.000 0.019
648.000 0.019
649.000 0.020
650.000 0.019
651.000 0.019
652.000 0.019
653.000 0.019
654.000 0.019
655.000 0.019
656.000 0.019
657.000 0.019
658.000 0.019
659.000 0.018
660.000 0.019
661.000 0.019
662.000 0.018
663.000 0.018
664.000 0.018
665.000 0.018
666.000 0.018
667.000 0.018
668.000 0.019
669.000 0.019
670.000 0.018
671.000 0.018
672.000 0.018
673.000 0.019
674.000 0.018
675.000 0.019
676.000 0.020
677.000 0.020
678.000 0.020
679.000 0.020
680.000 0.020
681.000 0.021
682.000 0.021
683.000 0.021
684.000 0.022
685.000 0.022
686.000 0.023
687.000 0.024
688.000 0.025
689.000 0.027
690.000 0.027
691.000 0.029
692.000 0.030
693.000 0.032
694.000 0.035
695.000 0.040
696.000 0.043
697.000 0.047
698.000 0.052
699.000 0.056
700.000 0.060
701.000 0.067
702.000 0.073
703.000 0.078
704.000 0.084
705.000 0.090
706.000 0.096
707.000 0.101
708.000 0.108
709.000 0.115
710.000 0.121
711.000 0.128
712.000 0.135
713.000 0.142
714.000 0.150
715.000 0.157
716.000 0.165
717.000 0.173
718.000 0.183
719.000 0.194
720.000 0.203
721.000 0.211
722.000 0.219
723.000 0.227
724.000 0.237
725.000 0.247
726.000 0.257
727.000 0.266
728.000 0.274
729.000 0.283
730.000 0.292
731.000 0.301
732.000 0.308
733.000 0.316
734.000 0.322
735.000 0.329
736.000 0.336
737.000 0.343
738.000 0.350
739.000 0.356
740.000 0.362
741.000 0.367
742.000 0.372
743.000 0.377
744.000 0.382
745.000 0.386
746.000 0.390
747.000 0.394
748.000 0.397
749.000 0.400
750.000 0.403
751.000 0.406
752.000 0.409
753.000 0.412
754.000 0.414
755.000 0.416
756.000 0.418
757.000 0.419
758.000 0.421
759.000 0.424
760.000 0.428
761.000 0.435
762.000 0.438
763.000 0.439
764.000 0.438
765.000 0.437
766.000 0.435
767.000 0.435
768.000 0.434
769.000 0.434
770.000 0.434
771.000 0.435
772.000 0.436
773.000 0.436
774.000 0.436
775.000 0.437
776.000 0.438
777.000 0.438
778.000 0.439
779.000 0.439
780.000 0.440
781.000 0.441
782.000 0.441
783.000 0.442
784.000 0.442
785.000 0.443
786.000 0.444
787.000 0.445
788.000 0.446
789.000 0.446
790.000 0.447
791.000 0.447
792.000 0.448
793.000 0.448
794.000 0.449
795.000 0.449
796.000 0.450
797.000 0.451
798.000 0.451
799.000 0.452
800.000 0.452
801.000 0.452
802.000 0.453
803.000 0.453
804.000 0.454
805.000 0.454
806.000 0.455
807.000 0.455
808.000 0.455
809.000 0.456
810.000 0.457
811.000 0.458
812.000 0.460
813.000 0.462
814.000 0.463
815.000 0.465
816.000 0.466
817.000 0.467
818.000 0.467
819.000 0.467
820.000 0.467
821.000 0.466
822.000 0.467
823.000 0.468
824.000 0.468
825.000 0.468
826.000 0.468
827.000 0.468
828.000 0.469
829.000 0.468
830.000 0.469
831.000 0.469
832.000 0.469
833.000 0.469
834.000 0.469
835.000 0.469
836.000 0.469
837.000 0.469
838.000 0.469
839.000 0.469
840.000 0.469
841.000 0.469
842.000 0.469
843.000 0.470
844.000 0.470
845.000 0.470
846.000 0.470
847.000 0.470
848.000 0.471
849.000 0.471
850.000 0.471
851.000 0.472
852.000 0.472
853.000 0.473
854.000 0.473
855.000 0.473
856.000 0.474
857.000 0.474
858.000 0.474
859.000 0.474
860.000 0.474
861.000 0.474
862.000 0.475
863.000 0.475
864.000 0.476
865.000 0.476
866.000 0.477
867.000 0.477
868.000 0.477
869.000 0.477
870.000 0.478
871.000 0.478
872.000 0.479
873.000 0.479
874.000 0.479
875.000 0.479
876.000 0.480
877.000 0.480
878.000 0.480
879.000 0.481
880.000 0.481
881.000 0.481
882.000 0.482
883.000 0.482
884.000 0.483
885.000 0.483
886.000 0.484
887.000 0.484
888.000 0.484
889.000 0.485
890.000 0.485
891.000 0.486
892.000 0.487
893.000 0.488
894.000 0.490
895.000 0.491
896.000 0.492
897.000 0.494
898.000 0.496
899.000 0.497
900.000 0.497
901.000 0.497
902.000 0.498
903.000 0.498
904.000 0.497
905.000 0.497
906.000 0.498
907.000 0.499
908.000 0.500
909.000 0.502
910.000 0.502
911.000 0.503
912.000 0.504
913.000 0.504
914.000 0.504
915.000 0.505
916.000 0.506
917.000 0.505
918.000 0.505
919.000 0.505
920.000 0.503
921.000 0.503
922.000 0.503
923.000 0.503
924.000 0.503
925.000 0.505
926.000 0.507
927.000 0.508
928.000 0.510
929.000 0.511
930.000 0.514
931.000 0.518
932.000 0.521
933.000 0.527
934.000 0.531
935.000 0.531
936.000 0.534
937.000 0.536
938.000 0.533
939.000 0.530
940.000 0.531
941.000 0.529
942.000 0.528
943.000 0.532
944.000 0.535
945.000 0.532
946.000 0.528
947.000 0.529
948.000 0.529
949.000 0.525
950.000 0.525
951.000 0.526
952.000 0.527
953.000 0.522
954.000 0.516
955.000 0.514
956.000 0.516
957.000 0.516
958.000 0.515
959.000 0.514
960.000 0.510
961.000 0.509
962.000 0.509
963.000 0.506
964.000 0.502
965.000 0.500
966.000 0.499
967.000 0.498
968.000 0.497
969.000 0.498
970.000 0.497
971.000 0.496
972.000 0.496
973.000 0.496
974.000 0.495
975.000 0.494
976.000 0.496
977.000 0.497
978.000 0.498
979.000 0.496
980.000 0.492
981.000 0.494
982.000 0.494
983.000 0.493
984.000 0.494
985.000 0.493
986.000 0.493
987.000 0.494
988.000 0.494
989.000 0.494
990.000 0.494
991.000 0.494
992.000 0.495
993.000 0.493
994.000 0.494
995.000 0.496
996.000 0.495
997.000 0.497
998.000 0.497
999.000 0.498
1000.000 0.499
1001.000 0.503
1002.000 0.504
1003.000 0.504
1004.000 0.504
1005.000 0.503
1006.000 0.504
1007.000 0.505
1008.000 0.505
1009.000 0.506
1010.000 0.506
1011.000 0.507
1012.000 0.508
1013.000 0.509
1014.000 0.510
1015.000 0.511
1016.000 0.511
1017.000 0.512
1018.000 0.512
1019.000 0.514
1020.000 0.514
1021.000 0.515
1022.000 0.515
1023.000 0.516
1024.000 0.516
1025.000 0.516
1026.000 0.516
1027.000 0.517
1028.000 0.517
1029.000 0.518
1030.000 0.519
1031.000 0.520
1032.000 0.521
1033.000 0.521
1034.000 0.521
1035.000 0.521
1036.000 0.521
1037.000 0.521
1038.000 0.522
1039.000 0.523
1040.000 0.524
1041.000 0.525
1042.000 0.526
1043.000 0.526
1044.000 0.526
1045.000 0.527
1046.000 0.528
1047.000 0.528
1048.000 0.528
1049.000 0.528
1050.000 0.529
1051.000 0.529
1052.000 0.530
1053.000 0.530
1054.000 0.530
1055.000 0.531
1056.000 0.532
1057.000 0.532
1058.000 0.532
1059.000 0.533
1060.000 0.532
1061.000 0.533
1062.000 0.534
1063.000 0.535
1064.000 0.535
1065.000 0.536
1066.000 0.535
1067.000 0.535
1068.000 0.536
1069.000 0.537
1070.000 0.538
1071.000 0.539
1072.000 0.539
1073.000 0.539
1074.000 0.538
1075.000 0.538
1076.000 0.538
1077.000 0.539
1078.000 0.539
1079.000 0.540
1080.000 0.540
1081.000 0.541
1082.000 0.541
1083.000 0.541
1084.000 0.541
1085.000 0.541
1086.000 0.542
1087.000 0.543
1088.000 0.544
1089.000 0.545
1090.000 0.546
1091.000 0.546
1092.000 0.547
1093.000 0.548
1094.000 0.547
1095.000 0.548
1096.000 0.549
1097.000 0.550
1098.000 0.551
1099.000 0.552
1100.000 0.553
1101.000 0.555
1102.000 0.556
1103.000 0.557
1104.000 0.559
1105.000 0.560
1106.000 0.561
1107.000 0.561
1108.000 0.562
1109.000 0.564
1110.000 0.566
1111.000 0.568
1112.000 0.571
1113.000 0.573
1114.000 0.575
1115.000 0.577
1116.000 0.581
1117.000 0.583
1118.000 0.588
1119.000 0.594
1120.000 0.599
1121.000 0.607
1122.000 0.609
1123.000 0.613
1124.000 0.618
1125.000 0.623
1126.000 0.629
1127.000 0.630
1128.000 0.629
1129.000 0.627
1130.000 0.630
1131.000 0.628
1132.000 0.622
1133.000 0.623
1134.000 0.616
1135.000 0.607
1136.000 0.602
1137.000 0.592
1138.000 0.584
1139.000 0.578
1140.000 0.575
1141.000 0.577
1142.000 0.578
1143.000 0.582
1144.000 0.582
1145.000 0.579
1146.000 0.575
1147.000 0.568
1148.000 0.560
1149.000 0.556
1150.000 0.552
1151.000 0.552
1152.000 0.550
1153.000 0.545
1154.000 0.542
1155.000 0.537
1156.000 0.533
1157.000 0.529
1158.000 0.528
1159.000 0.525
1160.000 0.520
1161.000 0.518
1162.000 0.515
1163.000 0.513
1164.000 0.512
1165.000 0.511
1166.000 0.511
1167.000 0.510
1168.000 0.508
1169.000 0.507
1170.000 0.506
1171.000 0.505
1172.000 0.504
1173.000 0.504
1174.000 0.504
1175.000 0.502
1176.000 0.502
1177.000 0.503
1178.000 0.503
1179.000 0.504
1180.000 0.503
1181.000 0.502
1182.000 0.501
1183.000 0.501
1184.000 0.500
1185.000 0.501
1186.000 0.502
1187.000 0.501
1188.000 0.501
1189.000 0.500
1190.000 0.499
1191.000 0.499
1192.000 0.499
1193.000 0.499
1194.000 0.499
1195.000 0.499
1196.000 0.499
1197.000 0.499
1198.000 0.498
1199.000 0.498
1200.000 0.499
1201.000 0.499
1202.000 0.500
1203.000 0.500
1204.000 0.501
1205.000 0.500
1206.000 0.500
1207.000 0.501
1208.000 0.502
1209.000 0.503
1210.000 0.505
1211.000 0.505
1212.000 0.505
1213.000 0.504
1214.000 0.503
1215.000 0.503
1216.000 0.503
1217.000 0.504
1218.000 0.505
1219.000 0.505
1220.000 0.505
1221.000 0.506
1222.000 0.507
1223.000 0.507
1224.000 0.507
1225.000 0.507
1226.000 0.506
1227.000 0.507
1228.000 0.507
1229.000 0.508
1230.000 0.509
1231.000 0.510
1232.000 0.510
1233.000 0.511
1234.000 0.511
1235.000 0.512
1236.000 0.512
1237.000 0.513
1238.000 0.513
1239.000 0.513
1240.000 0.514
1241.000 0.515
1242.000 0.514
1243.000 0.514
1244.000 0.516
1245.000 0.516
1246.000 0.516
1247.000 0.516
1248.000 0.517
1249.000 0.517
1250.000 0.517
1251.000 0.518
1252.000 0.518
1253.000 0.519
1254.000 0.520
1255.000 0.521
1256.000 0.522
1257.000 0.522
1258.000 0.522
1259.000 0.523
1260.000 0.524
1261.000 0.526
1262.000 0.526
1263.000 0.527
1264.000 0.527
1265.000 0.526
1266.000 0.526
1267.000 0.526
1268.000 0.526
1269.000 0.526
1270.000 0.527
1271.000 0.527
1272.000 0.528
1273.000 0.527
1274.000 0.527
1275.000 0.527
1276.000 0.527
1277.000 0.527
1278.000 0.528
1279.000 0.528
1280.000 0.529
1281.000 0.529
1282.000 0.528
1283.000 0.528
1284.000 0.528
1285.000 0.528
1286.000 0.527
1287.000 0.528
1288.000 0.527
1289.000 0.527
1290.000 0.527
1291.000 0.527
1292.000 0.528
1293.000 0.527
1294.000 0.527
1295.000 0.528
1296.000 0.528
1297.000 0.527
1298.000 0.527
1299.000 0.527
1300.000 0.527
1301.000 0.527
1302.000 0.526
1303.000 0.525
1304.000 0.525
1305.000 0.524
1306.000 0.524
1307.000 0.524
1308.000 0.524
1309.000 0.525
1310.000 0.524
1311.000 0.522
1312.000 0.522
1313.000 0.521
1314.000 0.519
1315.000 0.520
1316.000 0.521
1317.000 0.519
1318.000 0.519
1319.000 0.516
1320.000 0.515
1321.000 0.515
1322.000 0.514
1323.000 0.514
1324.000 0.513
1325.000 0.513
1326.000 0.512
1327.000 0.512
1328.000 0.514
1329.000 0.514
1330.000 0.512
1331.000 0.511
1332.000 0.508
1333.000 0.506
1334.000 0.505
1335.000 0.503
1336.000 0.499
1337.000 0.498
1338.000 0.500
1339.000 0.501
1340.000 0.509
1341.000 0.512
1342.000 0.509
1343.000 0.509
1344.000 0.506
1345.000 0.506
1346.000 0.518
1347.000 0.526
1348.000 0.535
1349.000 0.538
1350.000 0.551
1351.000 0.561
1352.000 0.604
1353.000 0.680
1354.000 0.485
1355.000 0.597
1356.000 0.350
1357.000 0.591
1358.000 0.665
1359.000 0.551
1360.000 0.638
1361.000 0.621
1362.000 0.572
1363.000 0.606
1364.000 0.625
1365.000 0.431
1366.000 0.286
1367.000 0.245
1368.000 0.227
1369.000 0.425
1370.000 0.419
1371.000 0.419
1372.000 0.561
1373.000 0.534
1374.000 0.520
1375.000 0.332
1376.000 0.338
1377.000 0.331
1378.000 0.685
1379.000 0.779
1380.000 0.782
1381.000 0.800
1382.000 0.788
1383.000 0.782
1384.000 0.446
1385.000 0.338
1386.000 0.235
1387.000 0.216
1388.000 0.412
1389.000 0.432
1390.000 0.444
1391.000 0.404
1392.000 0.492
1393.000 0.559
1394.000 0.789
1395.000 0.709
1396.000 0.725
1397.000 0.800
1398.000 0.743
1399.000 0.710
1400.000 0.719
1401.000 0.642
1402.000 0.671
1403.000 0.530
1404.000 0.332
1405.000 0.261
1406.000 0.344
1407.000 0.375
1408.000 0.311
1409.000 0.348
1410.000 0.609
1411.000 0.617
1412.000 0.633
1413.000 0.515
1414.000 0.367
1415.000 0.239
1416.000 0.212
1417.000 0.173
1418.000 0.220
1419.000 0.518
1420.000 0.517
1421.000 0.474
1422.000 0.390
1423.000 0.423
1424.000 0.439
1425.000 0.429
1426.000 0.509
1427.000 0.545
1428.000 0.533
1429.000 0.503
1430.000 0.544
1431.000 0.430
1432.000 0.476
1433.000 0.489
1434.000 0.565
1435.000 0.609
1436.000 0.566
1437.000 0.495
1438.000 0.509
1439.000 0.395
1440.000 0.728
1441.000 0.370
1442.000 0.542
1443.000 0.557
1444.000 0.512
1445.000 0.442
1446.000 0.396
1447.000 0.353
1448.000 0.314
1449.000 0.386
1450.000 0.380
1451.000 0.283
1452.000 0.280
1453.000 0.272
1454.000 0.279
1455.000 0.306
1456.000 0.301
1457.000 0.269
1458.000 0.202
1459.000 0.191
1460.000 0.187
1461.000 0.183
1462.000 0.183
1463.000 0.185
1464.000 0.223
1465.000 0.231
1466.000 0.246
1467.000 0.215
1468.000 0.192
1469.000 0.191
1470.000 0.228
1471.000 0.230
1472.000 0.246
1473.000 0.246
1474.000 0.254
1475.000 0.251
1476.000 0.247
1477.000 0.212
1478.000 0.184
1479.000 0.185
1480.000 0.186
1481.000 0.189
1482.000 0.197
1483.000 0.197
1484.000 0.187
1485.000 0.186
1486.000 0.180
1487.000 0.182
1488.000 0.195
1489.000 0.199
1490.000 0.202
1491.000 0.203
1492.000 0.198
1493.000 0.196
1494.000 0.193
1495.000 0.193
1496.000 0.196
1497.000 0.197
1498.000 0.197
1499.000 0.201
1500.000 0.201
1501.000 0.201
1502.000 0.204
1503.000 0.206
1504.000 0.208
1505.000 0.208
1506.000 0.207
1507.000 0.203
1508.000 0.203
1509.000 0.204
1510.000 0.206
1511.000 0.209
1512.000 0.211
1513.000 0.213
1514.000 0.215
1515.000 0.217
1516.000 0.218
1517.000 0.218
1518.000 0.217
1519.000 0.216
1520.000 0.217
1521.000 0.218
1522.000 0.220
1523.000 0.225
1524.000 0.227
1525.000 0.226
1526.000 0.227
1527.000 0.228
1528.000 0.229
1529.000 0.231
1530.000 0.232
1531.000 0.231
1532.000 0.231
1533.000 0.232
1534.000 0.233
1535.000 0.234
1536.000 0.235
1537.000 0.237
1538.000 0.239
1539.000 0.240
1540.000 0.242
1541.000 0.245
1542.000 0.246
1543.000 0.249
1544.000 0.250
1545.000 0.250
1546.000 0.250
1547.000 0.250
1548.000 0.250
1549.000 0.249
1550.000 0.249
1551.000 0.250
1552.000 0.251
1553.000 0.254
1554.000 0.256
1555.000 0.259
1556.000 0.262
1557.000 0.264
1558.000 0.266
1559.000 0.267
1560.000 0.268
1561.000 0.267
1562.000 0.268
1563.000 0.269
1564.000 0.270
1565.000 0.271
1566.000 0.272
1567.000 0.272
1568.000 0.273
1569.000 0.274
1570.000 0.275
1571.000 0.278
1572.000 0.279
1573.000 0.280
1574.000 0.280
1575.000 0.281
1576.000 0.282
1577.000 0.285
1578.000 0.286
1579.000 0.286
1580.000 0.288
1581.000 0.289
1582.000 0.291
1583.000 0.294
1584.000 0.295
1585.000 0.297
1586.000 0.297
1587.000 0.297
1588.000 0.298
1589.000 0.299
1590.000 0.301
1591.000 0.304
1592.000 0.305
1593.000 0.305
1594.000 0.306
1595.000 0.305
1596.000 0.304
1597.000 0.305
1598.000 0.306
1599.000 0.306
1600.000 0.307
1601.000 0.309
1602.000 0.311
1603.000 0.312
1604.000 0.314
1605.000 0.315
1606.000 0.316
1607.000 0.317
1608.000 0.318
1609.000 0.316
1610.000 0.316
1611.000 0.315
1612.000 0.315
1613.000 0.316
1614.000 0.317
1615.000 0.318
1616.000 0.320
1617.000 0.323
1618.000 0.324
1619.000 0.325
1620.000 0.326
1621.000 0.324
1622.000 0.325
1623.000 0.326
1624.000 0.327
1625.000 0.328
1626.000 0.330
1627.000 0.332
1628.000 0.332
1629.000 0.331
1630.000 0.332
1631.000 0.332
1632.000 0.332
1633.000 0.336
1634.000 0.337
1635.000 0.337
1636.000 0.336
1637.000 0.336
1638.000 0.336
1639.000 0.337
1640.000 0.337
1641.000 0.338
1642.000 0.339
1643.000 0.339
1644.000 0.339
1645.000 0.339
1646.000 0.340
1647.000 0.340
1648.000 0.340
1649.000 0.342
1650.000 0.342
1651.000 0.342
1652.000 0.342
1653.000 0.341
1654.000 0.340
1655.000 0.342
1656.000 0.342
1657.000 0.345
1658.000 0.346
1659.000 0.344
1660.000 0.344
1661.000 0.343
1662.000 0.344
1663.000 0.348
1664.000 0.349
1665.000 0.350
1666.000 0.350
1667.000 0.350
1668.000 0.348
1669.000 0.342
1670.000 0.340
1671.000 0.340
1672.000 0.340
1673.000 0.343
1674.000 0.344
1675.000 0.343
1676.000 0.343
1677.000 0.344
1678.000 0.345
1679.000 0.347
1680.000 0.347
1681.000 0.343
1682.000 0.342
1683.000 0.339
1684.000 0.338
1685.000 0.341
1686.000 0.342
1687.000 0.344
1688.000 0.345
1689.000 0.346
1690.000 0.346
1691.000 0.344
1692.000 0.343
1693.000 0.343
1694.000 0.342
1695.000 0.342
1696.000 0.341
1697.000 0.338
1698.000 0.338
1699.000 0.340
1700.000 0.340
1701.000 0.342
1702.000 0.342
1703.000 0.341
1704.000 0.341
1705.000 0.340
1706.000 0.339
1707.000 0.338
1708.000 0.338
1709.000 0.337
1710.000 0.336
1711.000 0.336
1712.000 0.336
1713.000 0.336
1714.000 0.333
1715.000 0.334
1716.000 0.333
1717.000 0.328
1718.000 0.328
1719.000 0.329
1720.000 0.329
1721.000 0.329
1722.000 0.327
1723.000 0.324
1724.000 0.324
1725.000 0.327
1726.000 0.327
1727.000 0.327
1728.000 0.326
1729.000 0.324
1730.000 0.326
1731.000 0.328
1732.000 0.328
1733.000 0.329
1734.000 0.327
1735.000 0.327
1736.000 0.327
1737.000 0.327
1738.000 0.326
1739.000 0.326
1740.000 0.326
1741.000 0.326
1742.000 0.326
1743.000 0.326
1744.000 0.328
1745.000 0.327
1746.000 0.323
1747.000 0.319
1748.000 0.314
1749.000 0.310
1750.000 0.310
1751.000 0.309
1752.000 0.311
1753.000 0.310
1754.000 0.305
1755.000 0.305
1756.000 0.303
1757.000 0.304
1758.000 0.312
1759.000 0.310
1760.000 0.310
1761.000 0.312
1762.000 0.312
1763.000 0.319
1764.000 0.321
1765.000 0.319
1766.000 0.320
1767.000 0.315
1768.000 0.317
1769.000 0.317
1770.000 0.315
1771.000 0.313
1772.000 0.303
1773.000 0.296
1774.000 0.294
1775.000 0.294
1776.000 0.302
1777.000 0.308
1778.000 0.311
1779.000 0.304
1780.000 0.305
1781.000 0.316
1782.000 0.319
1783.000 0.322
1784.000 0.321
1785.000 0.312
1786.000 0.308
1787.000 0.314
1788.000 0.311
1789.000 0.294
1790.000 0.283
1791.000 0.272
1792.000 0.267
1793.000 0.271
1794.000 0.292
1795.000 0.321
1796.000 0.354
1797.000 0.399
1798.000 0.435
1799.000 0.420
1800.000 0.368
1801.000 0.516
1802.000 0.594
1803.000 0.737
1804.000 0.620
1805.000 0.570
1806.000 0.502
1807.000 0.549
1808.000 0.559
1809.000 0.606
1810.000 0.453
1811.000 0.425
1812.000 0.462
1813.000 0.384
1814.000 0.287
1815.000 0.371
1816.000 0.426
1817.000 0.609
1818.000 0.592
1819.000 0.427
1820.000 0.362
1821.000 0.436
1822.000 0.485
1823.000 0.499
1824.000 0.496
1825.000 0.466
1826.000 0.643
1827.000 0.703
1828.000 0.628
1829.000 0.618
1830.000 0.620
1831.000 0.538
1832.000 0.446
1833.000 0.386
1834.000 0.319
1835.000 0.263
1836.000 0.259
1837.000 0.479
1838.000 0.465
1839.000 0.463
1840.000 0.392
1841.000 0.357
1842.000 0.384
1843.000 0.628
1844.000 0.439
1845.000 0.347
1846.000 0.271
1847.000 0.276
1848.000 0.298
1849.000 0.539
1850.000 0.602
1851.000 0.551
1852.000 0.514
1853.000 0.530
1854.000 0.566
1855.000 0.531
1856.000 0.225
1857.000 0.371
1858.000 0.631
1859.000 0.639
1860.000 0.409
1861.000 0.338
1862.000 0.496
1863.000 0.322
1864.000 0.291
1865.000 0.333
1866.000 0.416
1867.000 0.497
1868.000 0.499
1869.000 0.506
1870.000 0.486
1871.000 0.687
1872.000 0.736
1873.000 0.627
1874.000 0.506
1875.000 0.438
1876.000 0.452
1877.000 0.462
1878.000 0.527
1879.000 0.631
1880.000 0.629
1881.000 0.560
1882.000 0.511
1883.000 0.650
1884.000 0.660
1885.000 0.533
1886.000 0.518
1887.000 0.445
1888.000 0.322
1889.000 0.463
1890.000 0.396
1891.000 0.591
1892.000 0.402
1893.000 0.442
1894.000 0.386
1895.000 0.376
1896.000 0.412
1897.000 0.738
1898.000 0.293
1899.000 0.297
1900.000 0.344
1901.000 0.385
1902.000 0.360
1903.000 0.404
1904.000 0.452
1905.000 0.423
1906.000 0.667
1907.000 0.609
1908.000 0.638
1909.000 0.648
1910.000 0.665
1911.000 0.617
1912.000 0.492
1913.000 0.453
1914.000 0.452
1915.000 0.588
1916.000 0.480
1917.000 0.588
1918.000 0.524
1919.000 0.529
1920.000 0.576
1921.000 0.632
1922.000 0.647
1923.000 0.579
1924.000 0.548
1925.000 0.579
1926.000 0.522
1927.000 0.588
1928.000 0.562
1929.000 0.468
1930.000 0.585
1931.000 0.577
1932.000 0.532
1933.000 0.426
1934.000 0.354
1935.000 0.440
1936.000 0.567
1937.000 0.634
1938.000 0.706
1939.000 0.603
1940.000 0.543
1941.000 0.631
1942.000 0.650
1943.000 0.366
1944.000 0.371
1945.000 0.336
1946.000 0.308
1947.000 0.341
1948.000 0.372
1949.000 0.373
1950.000 0.416
1951.000 0.554
1952.000 0.341
1953.000 0.322
1954.000 0.343
1955.000 0.348
1956.000 0.464
1957.000 0.496
1958.000 0.492
1959.000 0.481
1960.000 0.446
1961.000 0.511
1962.000 0.339
1963.000 0.225
1964.000 0.171
1965.000 0.175
1966.000 0.441
1967.000 0.448
1968.000 0.528
1969.000 0.596
1970.000 0.613
1971.000 0.641
1972.000 0.522
1973.000 0.567
1974.000 0.569
1975.000 0.545
1976.000 0.539
1977.000 0.568
1978.000 0.614
1979.000 0.675
1980.000 0.691
1981.000 0.687
1982.000 0.593
1983.000 0.560
1984.000 0.508
1985.000 0.454
1986.000 0.408
1987.000 0.391
1988.000 0.389
1989.000 0.423
1990.000 0.446
1991.000 0.502
1992.000 0.580
1993.000 0.561
1994.000 0.562
1995.000 0.542
1996.000 0.192
1997.000 0.209
1998.000 0.256
1999.000 0.286
2000.000 0.306
2001.000 0.351
2002.000 0.364
2003.000 0.397
2004.000 0.395
2005.000 0.410
2006.000 0.416
2007.000 0.367
2008.000 0.436
2009.000 0.712
2010.000 0.671
2011.000 0.494
2012.000 0.153
2013.000 0.592
2014.000 0.457
2015.000 0.448
2016.000 0.657
2017.000 0.687
2018.000 0.638
2019.000 0.570
2020.000 0.466
2021.000 0.399
2022.000 0.205
2023.000 0.305
2024.000 0.337
2025.000 0.481
2026.000 0.616
2027.000 0.412
2028.000 0.277
2029.000 0.273
2030.000 0.337
2031.000 0.282
2032.000 0.324
2033.000 0.331
2034.000 0.305
2035.000 0.308
2036.000 0.388
2037.000 0.263
2038.000 0.286
2039.000 0.268
2040.000 0.237
2041.000 0.337
2042.000 0.373
2043.000 0.431
2044.000 0.406
2045.000 0.287
2046.000 0.265
2047.000 0.242
2048.000 0.245
2049.000 0.415
2050.000 0.469
2051.000 0.387
2052.000 0.430
2053.000 0.422
2054.000 0.298
2055.000 0.257
2056.000 0.249
2057.000 0.272
2058.000 0.285
2059.000 0.342
2060.000 0.315
2061.000 0.295
2062.000 0.238
2063.000 0.233
2064.000 0.224
2065.000 0.246
2066.000 0.276
2067.000 0.359
2068.000 0.394
2069.000 0.474
2070.000 0.453
2071.000 0.423
2072.000 0.383
2073.000 0.293
2074.000 0.259
2075.000 0.248
2076.000 0.242
2077.000 0.255
2078.000 0.250
2079.000 0.266
2080.000 0.263
2081.000 0.255
2082.000 0.239
2083.000 0.235
2084.000 0.231
2085.000 0.234
2086.000 0.256
2087.000 0.252
2088.000 0.238
2089.000 0.228
2090.000 0.207
2091.000 0.201
2092.000 0.200
2093.000 0.206
2094.000 0.218
2095.000 0.232
2096.000 0.270
2097.000 0.280
2098.000 0.278
2099.000 0.262
2100.000 0.238
2101.000 0.227
2102.000 0.235
2103.000 0.236
2104.000 0.233
2105.000 0.227
2106.000 0.231
2107.000 0.237
2108.000 0.232
2109.000 0.238
2110.000 0.238
2111.000 0.227
2112.000 0.228
2113.000 0.242
2114.000 0.244
2115.000 0.246
2116.000 0.244
2117.000 0.234
2118.000 0.223
2119.000 0.228
2120.000 0.240
2121.000 0.243
2122.000 0.247
2123.000 0.238
2124.000 0.206
2125.000 0.202
2126.000 0.197
2127.000 0.206
2128.000 0.254
2129.000 0.257
2130.000 0.239
2131.000 0.234
2132.000 0.210
2133.000 0.201
2134.000 0.207
2135.000 0.211
2136.000 0.212
2137.000 0.216
2138.000 0.227
2139.000 0.241
2140.000 0.241
2141.000 0.237
2142.000 0.235
2143.000 0.227
2144.000 0.228
2145.000 0.238
2146.000 0.236
2147.000 0.227
2148.000 0.229
2149.000 0.236
2150.000 0.241
2151.000 0.265
2152.000 0.272
2153.000 0.264
2154.000 0.254
2155.000 0.233
2156.000 0.222
2157.000 0.220
2158.000 0.214
2159.000 0.227
2160.000 0.239
2161.000 0.246
2162.000 0.255
2163.000 0.256
2164.000 0.258
2165.000 0.251
2166.000 0.231
2167.000 0.222
2168.000 0.207
2169.000 0.204
2170.000 0.212
2171.000 0.216
2172.000 0.225
2173.000 0.236
2174.000 0.254
2175.000 0.262
2176.000 0.265
2177.000 0.268
2178.000 0.263
2179.000 0.249
2180.000 0.238
2181.000 0.245
2182.000 0.262
2183.000 0.271
2184.000 0.279
2185.000 0.296
2186.000 0.290
2187.000 0.266
2188.000 0.262
2189.000 0.253
2190.000 0.252
2191.000 0.268
2192.000 0.265
2193.000 0.248
2194.000 0.243
2195.000 0.236
2196.000 0.237
2197.000 0.248
2198.000 0.259
2199.000 0.291
2200.000 0.300
2201.000 0.297
2202.000 0.292
2203.000 0.282
2204.000 0.255
2205.000 0.234
2206.000 0.230
2207.000 0.209
2208.000 0.201
2209.000 0.201
2210.000 0.212
2211.000 0.215
2212.000 0.224
2213.000 0.220
2214.000 0.205
2215.000 0.203
2216.000 0.202
2217.000 0.205
2218.000 0.216
2219.000 0.225
2220.000 0.234
2221.000 0.246
2222.000 0.270
2223.000 0.278
2224.000 0.284
2225.000 0.281
2226.000 0.265
2227.000 0.241
2228.000 0.231
2229.000 0.221
2230.000 0.213
2231.000 0.215
2232.000 0.232
2233.000 0.236
2234.000 0.242
2235.000 0.246
2236.000 0.231
2237.000 0.226
2238.000 0.225
2239.000 0.228
2240.000 0.228
2241.000 0.229
2242.000 0.223
2243.000 0.212
2244.000 0.203
2245.000 0.186
2246.000 0.192
2247.000 0.197
2248.000 0.212
2249.000 0.241
2250.000 0.268
2251.000 0.272
2252.000 0.287
2253.000 0.296
2254.000 0.306
2255.000 0.337
2256.000 0.336
2257.000 0.319
2258.000 0.275
2259.000 0.243
2260.000 0.221
2261.000 0.204
2262.000 0.215
2263.000 0.241
2264.000 0.248
2265.000 0.237
2266.000 0.206
2267.000 0.238
2268.000 0.238
2269.000 0.233
2270.000 0.248
2271.000 0.248
2272.000 0.210
2273.000 0.211
2274.000 0.224
2275.000 0.226
2276.000 0.197
2277.000 0.182
2278.000 0.184
2279.000 0.165
2280.000 0.128
2281.000 0.121
2282.000 0.136
2283.000 0.138
2284.000 0.152
2285.000 0.172
2286.000 0.187
2287.000 0.204
2288.000 0.252
2289.000 0.269
2290.000 0.269
2291.000 0.263
2292.000 0.184
2293.000 0.174
2294.000 0.182
2295.000 0.202
2296.000 0.271
2297.000 0.368
2298.000 0.369
2299.000 0.292
2300.000 0.293
2301.000 0.236
2302.000 0.262
2303.000 0.310
2304.000 0.347
2305.000 0.357
2306.000 0.359
2307.000 0.297
2308.000 0.239
2309.000 0.190
2310.000 0.205
2311.000 0.169
2312.000 0.135
2313.000 0.121
2314.000 0.130
2315.000 0.168
2316.000 0.178
2317.000 0.222
2318.000 0.201
2319.000 0.247
2320.000 0.376
2321.000 0.412
2322.000 0.356
2323.000 0.438
2324.000 0.520
2325.000 0.354
2326.000 0.386
2327.000 0.370
2328.000 0.508
2329.000 0.669
2330.000 0.612
2331.000 0.437
2332.000 0.460
2333.000 0.348
2334.000 0.361
2335.000 0.375
2336.000 0.369
2337.000 0.419
2338.000 0.437
2339.000 0.398
2340.000 0.385
2341.000 0.395
2342.000 0.410
2343.000 0.450
2344.000 0.591
2345.000 0.328
2346.000 0.384
2347.000 0.279
2348.000 0.212
2349.000 0.371
2350.000 0.368
2351.000 0.437
2352.000 0.445
2353.000 0.428
2354.000 0.509
2355.000 0.480
2356.000 0.391
2357.000 0.263
2358.000 0.314
2359.000 0.371
2360.000 0.450
2361.000 0.496
2362.000 0.415
2363.000 0.351
2364.000 0.475
2365.000 0.482
2366.000 0.218
2367.000 0.218
2368.000 0.240
2369.000 0.295
2370.000 0.300
2371.000 0.268
2372.000 0.368
2373.000 0.468
2374.000 0.327
2375.000 0.602
2376.000 0.616
2377.000 0.591
2378.000 0.436
2379.000 0.375
2380.000 0.367
2381.000 0.343
2382.000 0.273
2383.000 0.457
2384.000 0.467
2385.000 0.640
2386.000 0.772
2387.000 0.684
2388.000 0.569
2389.000 0.574
2390.000 0.528
2391.000 0.349
2392.000 0.305
2393.000 0.577
2394.000 0.392
2395.000 0.384
2396.000 0.284
2397.000 0.351
2398.000 0.424
2399.000 0.377
2400.000 0.533
2401.000 0.396
2402.000 0.443
2403.000 0.450
2404.000 0.535
2405.000 0.202
2406.000 0.212
2407.000 0.109
2408.000 0.233
2409.000 0.190
2410.000 0.232
2411.000 0.372
2412.000 0.447
2413.000 0.572
2414.000 0.536
2415.000 0.466
2416.000 0.361
2417.000 0.238
2418.000 0.270
2419.000 0.365
2420.000 0.454
2421.000 0.663
2422.000 0.422
2423.000 0.444
2424.000 0.521
2425.000 0.392
2426.000 0.301
2427.000 0.156
2428.000 0.462
2429.000 0.670
2430.000 0.604
2431.000 0.456
2432.000 0.407
2433.000 0.399
2434.000 0.292
2435.000 0.256
2436.000 0.229
2437.000 0.261
2438.000 0.323
2439.000 0.694
2440.000 0.462
2441.000 0.246
2442.000 0.320
2443.000 0.368
2444.000 0.336
2445.000 0.271
2446.000 0.205
2447.000 0.235
2448.000 0.247
2449.000 0.303
2450.000 0.396
2451.000 0.414
2452.000 0.203
2453.000 0.347
2454.000 0.324
2455.000 0.489
2456.000 0.489
2457.000 0.272
2458.000 0.386
2459.000 0.462
2460.000 0.382
2461.000 0.297
2462.000 0.375
2463.000 0.267
2464.000 0.324
2465.000 0.268
2466.000 0.274
2467.000 0.281
2468.000 0.380
2469.000 0.416
2470.000 0.368
2471.000 0.258
2472.000 0.518
2473.000 0.380
2474.000 0.434
2475.000 0.544
2476.000 0.416
2477.000 0.303
2478.000 0.475
2479.000 0.383
2480.000 0.239
2481.000 0.355
2482.000 0.298
2483.000 0.228
2484.000 0.433
2485.000 0.282
2486.000 0.344
2487.000 0.337
2488.000 0.372
2489.000 0.250
2490.000 0.273
2491.000 0.256
2492.000 0.255
2493.000 0.582
2494.000 0.431
2495.000 0.347
2496.000 0.507
2497.000 0.405
2498.000 0.423
2499.000 0.373
2500.000 0.478
