391.000 0.025
392.000 0.016
393.000 0.021
394.000 0.026
395.000 0.024
396.000 0.023
397.000 0.030
398.000 0.026
399.000 0.025
400.000 0.024
401.000 0.022
402.000 0.022
403.000 0.023
404.000 0.021
405.000 0.017
406.000 0.023
407.000 0.026
408.000 0.024
409.000 0.021
410.000 0.020
411.000 0.023
412.000 0.026
413.000 0.022
414.000 0.024
415.000 0.027
416.000 0.028
417.000 0.026
418.000 0.024
419.000 0.023
420.000 0.021
421.000 0.024
422.000 0.025
423.000 0.022
424.000 0.021
425.000 0.022
426.000 0.024
427.000 0.024
428.000 0.025
429.000 0.026
430.000 0.027
431.000 0.024
432.000 0.021
433.000 0.022
434.000 0.023
435.000 0.025
436.000 0.025
437.000 0.025
438.000 0.026
439.000 0.025
440.000 0.024
441.000 0.022
442.000 0.023
443.000 0.024
444.000 0.026
445.000 0.026
446.000 0.025
447.000 0.025
448.000 0.025
449.000 0.025
450.000 0.025
451.000 0.025
452.000 0.024
453.000 0.026
454.000 0.026
455.000 0.026
456.000 0.027
457.000 0.027
458.000 0.026
459.000 0.025
460.000 0.024
461.000 0.025
462.000 0.026
463.000 0.027
464.000 0.029
465.000 0.028
466.000 0.026
467.000 0.028
468.000 0.027
469.000 0.027
470.000 0.026
471.000 0.025
472.000 0.025
473.000 0.026
474.000 0.028
475.000 0.028
476.000 0.027
477.000 0.026
478.000 0.026
479.000 0.025
480.000 0.026
481.000 0.026
482.000 0.026
483.000 0.027
484.000 0.029
485.000 0.027
486.000 0.026
487.000 0.027
488.000 0.027
489.000 0.028
490.000 0.027
491.000 0.027
492.000 0.029
493.000 0.029
494.000 0.028
495.000 0.027
496.000 0.027
497.000 0.029
498.000 0.030
499.000 0.031
500.000 0.030
501.000 0.029
502.000 0.028
503.000 0.026
504.000 0.026
505.000 0.027
506.000 0.028
507.000 0.031
508.000 0.031
509.000 0.032
510.000 0.032
511.000 0.032
512.000 0.033
513.000 0.033
514.000 0.034
515.000 0.035
516.000 0.035
517.000 0.036
518.000 0.037
519.000 0.037
520.000 0.036
521.000 0.037
522.000 0.039
523.000 0.040
524.000 0.040
525.000 0.040
526.000 0.041
527.000 0.042
528.000 0.044
529.000 0.044
530.000 0.045
531.000 0.045
532.000 0.045
533.000 0.047
534.000 0.047
535.000 0.048
536.000 0.049
537.000 0.048
538.000 0.049
539.000 0.049
540.000 0.049
541.000 0.049
542.000 0.051
543.000 0.050
544.000 0.051
545.000 0.050
546.000 0.049
547.000 0.049
548.000 0.050
549.000 0.050
550.000 0.050
551.000 0.050
552.000 0.050
553.000 0.050
554.000 0.050
555.000 0.050
556.000 0.051
557.000 0.051
558.000 0.051
559.000 0.049
560.000 0.049
561.000 0.049
562.000 0.049
563.000 0.048
564.000 0.048
565.000 0.048
566.000 0.048
567.000 0.047
568.000 0.046
569.000 0.045
570.000 0.045
571.000 0.046
572.000 0.045
573.000 0.046
574.000 0.045
575.000 0.044
576.000 0.044
577.000 0.043
578.000 0.042
579.000 0.042
580.000 0.042
581.000 0.042
582.000 0.042
583.000 0.043
584.000 0.044
585.000 0.043
586.000 0.042
587.000 0.042
588.000 0.041
589.000 0.040
590.000 0.040
591.000 0.039
592.000 0.041
593.000 0.041
594.000 0.041
595.000 0.041
596.000 0.041
597.000 0.040
598.000 0.042
599.000 0.040
600.000 0.038
601.000 0.040
602.000 0.039
603.000 0.040
604.000 0.041
605.000 0.040
606.000 0.041
607.000 0.040
608.000 0.039
609.000 0.041
610.000 0.041
611.000 0.040
612.000 0.040
613.000 0.039
614.000 0.039
615.000 0.039
616.000 0.039
617.000 0.039
618.000 0.039
619.000 0.039
620.000 0.039
621.000 0.038
622.000 0.039
623.000 0.040
624.000 0.040
625.000 0.040
626.000 0.040
627.000 0.041
628.000 0.041
629.000 0.040
630.000 0.041
631.000 0.040
632.000 0.040
633.000 0.041
634.000 0.040
635.000 0.040
636.000 0.041
637.000 0.041
638.000 0.040
639.000 0.038
640.000 0.039
641.000 0.040
642.000 0.039
643.000 0.039
644.000 0.038
645.000 0.039
646.000 0.038
647.000 0.039
648.000 0.040
649.000 0.042
650.000 0.041
651.000 0.039
652.000 0.038
653.000 0.040
654.000 0.040
655.000 0.039
656.000 0.039
657.000 0.040
658.000 0.040
659.000 0.040
660.000 0.040
661.000 0.040
662.000 0.041
663.000 0.042
664.000 0.041
665.000 0.039
666.000 0.039
667.000 0.040
668.000 0.041
669.000 0.042
670.000 0.042
671.000 0.041
672.000 0.040
673.000 0.040
674.000 0.041
675.000 0.043
676.000 0.044
677.000 0.043
678.000 0.042
679.000 0.044
680.000 0.044
681.000 0.041
682.000 0.042
683.000 0.044
684.000 0.047
685.000 0.047
686.000 0.046
687.000 0.047
688.000 0.048
689.000 0.049
690.000 0.050
691.000 0.051
692.000 0.053
693.000 0.055
694.000 0.055
695.000 0.056
696.000 0.059
697.000 0.061
698.000 0.063
699.000 0.066
700.000 0.068
701.000 0.071
702.000 0.073
703.000 0.075
704.000 0.078
705.000 0.081
706.000 0.084
707.000 0.086
708.000 0.089
709.000 0.092
710.000 0.095
711.000 0.097
712.000 0.100
713.000 0.104
714.000 0.106
715.000 0.109
716.000 0.112
717.000 0.116
718.000 0.121
719.000 0.124
720.000 0.127
721.000 0.129
722.000 0.132
723.000 0.135
724.000 0.139
725.000 0.142
726.000 0.145
727.000 0.148
728.000 0.151
729.000 0.154
730.000 0.157
731.000 0.156
732.000 0.157
733.000 0.160
734.000 0.162
735.000 0.163
736.000 0.166
737.000 0.168
738.000 0.170
739.000 0.171
740.000 0.173
741.000 0.175
742.000 0.176
743.000 0.178
744.000 0.179
745.000 0.181
746.000 0.182
747.000 0.182
748.000 0.184
749.000 0.184
750.000 0.182
751.000 0.182
752.000 0.183
753.000 0.184
754.000 0.184
755.000 0.186
756.000 0.186
757.000 0.186
758.000 0.187
759.000 0.187
760.000 0.188
761.000 0.190
762.000 0.191
763.000 0.191
764.000 0.191
765.000 0.191
766.000 0.191
767.000 0.191
768.000 0.191
769.000 0.191
770.000 0.191
771.000 0.192
772.000 0.192
773.000 0.192
774.000 0.192
775.000 0.193
776.000 0.193
777.000 0.193
778.000 0.194
779.000 0.194
780.000 0.194
781.000 0.194
782.000 0.195
783.000 0.195
784.000 0.195
785.000 0.195
786.000 0.195
787.000 0.196
788.000 0.196
789.000 0.196
790.000 0.197
791.000 0.197
792.000 0.197
793.000 0.197
794.000 0.198
795.000 0.198
796.000 0.198
797.000 0.198
798.000 0.198
799.000 0.199
800.000 0.199
801.000 0.199
802.000 0.200
803.000 0.200
804.000 0.200
805.000 0.200
806.000 0.200
807.000 0.201
808.000 0.201
809.000 0.201
810.000 0.201
811.000 0.202
812.000 0.202
813.000 0.202
814.000 0.203
815.000 0.203
816.000 0.204
817.000 0.204
818.000 0.204
819.000 0.203
820.000 0.203
821.000 0.203
822.000 0.204
823.000 0.205
824.000 0.205
825.000 0.205
826.000 0.205
827.000 0.205
828.000 0.206
829.000 0.206
830.000 0.206
831.000 0.206
832.000 0.206
833.000 0.206
834.000 0.207
835.000 0.207
836.000 0.206
837.000 0.207
838.000 0.207
839.000 0.207
840.000 0.207
841.000 0.207
842.000 0.208
843.000 0.208
844.000 0.208
845.000 0.208
846.000 0.208
847.000 0.209
848.000 0.209
849.000 0.209
850.000 0.209
851.000 0.209
852.000 0.209
853.000 0.209
854.000 0.210
855.000 0.210
856.000 0.210
857.000 0.210
858.000 0.210
859.000 0.210
860.000 0.210
861.000 0.210
862.000 0.211
863.000 0.211
864.000 0.211
865.000 0.211
866.000 0.211
867.000 0.212
868.000 0.212
869.000 0.212
870.000 0.212
871.000 0.212
872.000 0.212
873.000 0.213
874.000 0.213
875.000 0.213
876.000 0.213
877.000 0.213
878.000 0.213
879.000 0.213
880.000 0.213
881.000 0.214
882.000 0.214
883.000 0.214
884.000 0.214
885.000 0.215
886.000 0.215
887.000 0.215
888.000 0.215
889.000 0.215
890.000 0.216
891.000 0.215
892.000 0.216
893.000 0.216
894.000 0.216
895.000 0.216
896.000 0.216
897.000 0.217
898.000 0.217
899.000 0.218
900.000 0.219
901.000 0.219
902.000 0.218
903.000 0.218
904.000 0.218
905.000 0.218
906.000 0.218
907.000 0.218
908.000 0.219
909.000 0.220
910.000 0.219
911.000 0.219
912.000 0.220
913.000 0.219
914.000 0.220
915.000 0.220
916.000 0.220
917.000 0.220
918.000 0.220
919.000 0.220
920.000 0.220
921.000 0.221
922.000 0.221
923.000 0.221
924.000 0.221
925.000 0.220
926.000 0.220
927.000 0.221
928.000 0.221
929.000 0.220
930.000 0.206
931.000 0.207
932.000 0.208
933.000 0.207
934.000 0.206
935.000 0.207
936.000 0.207
937.000 0.205
938.000 0.205
939.000 0.207
940.000 0.207
941.000 0.205
942.000 0.205
943.000 0.207
944.000 0.208
945.000 0.206
946.000 0.206
947.000 0.208
948.000 0.207
949.000 0.206
950.000 0.206
951.000 0.207
952.000 0.206
953.000 0.205
954.000 0.205
955.000 0.208
956.000 0.210
957.000 0.207
958.000 0.207
959.000 0.208
960.000 0.205
961.000 0.215
962.000 0.221
963.000 0.221
964.000 0.217
965.000 0.219
966.000 0.220
967.000 0.220
968.000 0.222
969.000 0.221
970.000 0.220
971.000 0.221
972.000 0.222
973.000 0.221
974.000 0.220
975.000 0.220
976.000 0.222
977.000 0.223
978.000 0.222
979.000 0.223
980.000 0.223
981.000 0.223
982.000 0.222
983.000 0.221
984.000 0.222
985.000 0.222
986.000 0.222
987.000 0.221
988.000 0.222
989.000 0.222
990.000 0.221
991.000 0.222
992.000 0.223
993.000 0.223
994.000 0.223
995.000 0.223
996.000 0.225
997.000 0.225
998.000 0.224
999.000 0.222
1000.000 0.224
1001.000 0.229
1002.000 0.229
1003.000 0.229
1004.000 0.230
1005.000 0.230
1006.000 0.229
1007.000 0.229
1008.000 0.230
1009.000 0.230
1010.000 0.230
1011.000 0.230
1012.000 0.230
1013.000 0.231
1014.000 0.231
1015.000 0.231
1016.000 0.231
1017.000 0.232
1018.000 0.232
1019.000 0.232
1020.000 0.232
1021.000 0.232
1022.000 0.232
1023.000 0.233
1024.000 0.233
1025.000 0.233
1026.000 0.233
1027.000 0.232
1028.000 0.233
1029.000 0.233
1030.000 0.233
1031.000 0.234
1032.000 0.234
1033.000 0.234
1034.000 0.234
1035.000 0.235
1036.000 0.235
1037.000 0.235
1038.000 0.235
1039.000 0.235
1040.000 0.235
1041.000 0.235
1042.000 0.235
1043.000 0.235
1044.000 0.236
1045.000 0.235
1046.000 0.236
1047.000 0.235
1048.000 0.235
1049.000 0.235
1050.000 0.235
1051.000 0.235
1052.000 0.235
1053.000 0.235
1054.000 0.236
1055.000 0.237
1056.000 0.237
1057.000 0.237
1058.000 0.237
1059.000 0.237
1060.000 0.237
1061.000 0.237
1062.000 0.237
1063.000 0.238
1064.000 0.238
1065.000 0.238
1066.000 0.238
1067.000 0.238
1068.000 0.238
1069.000 0.238
1070.000 0.238
1071.000 0.238
1072.000 0.238
1073.000 0.238
1074.000 0.238
1075.000 0.238
1076.000 0.239
1077.000 0.239
1078.000 0.239
1079.000 0.239
1080.000 0.239
1081.000 0.239
1082.000 0.239
1083.000 0.240
1084.000 0.240
1085.000 0.240
1086.000 0.240
1087.000 0.239
1088.000 0.239
1089.000 0.239
1090.000 0.239
1091.000 0.240
1092.000 0.240
1093.000 0.240
1094.000 0.239
1095.000 0.240
1096.000 0.240
1097.000 0.240
1098.000 0.240
1099.000 0.236
1100.000 0.226
1101.000 0.225
1102.000 0.225
1103.000 0.225
1104.000 0.224
1105.000 0.224
1106.000 0.224
1107.000 0.224
1108.000 0.223
1109.000 0.223
1110.000 0.223
1111.000 0.223
1112.000 0.223
1113.000 0.223
1114.000 0.224
1115.000 0.224
1116.000 0.225
1117.000 0.226
1118.000 0.227
1119.000 0.228
1120.000 0.229
1121.000 0.228
1122.000 0.230
1123.000 0.229
1124.000 0.228
1125.000 0.228
1126.000 0.227
1127.000 0.226
1128.000 0.225
1129.000 0.226
1130.000 0.224
1131.000 0.222
1132.000 0.223
1133.000 0.223
1134.000 0.221
1135.000 0.221
1136.000 0.219
1137.000 0.218
1138.000 0.219
1139.000 0.219
1140.000 0.220
1141.000 0.220
1142.000 0.220
1143.000 0.220
1144.000 0.220
1145.000 0.219
1146.000 0.219
1147.000 0.218
1148.000 0.218
1149.000 0.219
1150.000 0.220
1151.000 0.220
1152.000 0.220
1153.000 0.218
1154.000 0.217
1155.000 0.216
1156.000 0.228
1157.000 0.232
1158.000 0.233
1159.000 0.233
1160.000 0.232
1161.000 0.232
1162.000 0.231
1163.000 0.231
1164.000 0.231
1165.000 0.231
1166.000 0.231
1167.000 0.231
1168.000 0.230
1169.000 0.230
1170.000 0.230
1171.000 0.230
1172.000 0.231
1173.000 0.231
1174.000 0.231
1175.000 0.231
1176.000 0.231
1177.000 0.231
1178.000 0.231
1179.000 0.231
1180.000 0.231
1181.000 0.231
1182.000 0.230
1183.000 0.230
1184.000 0.230
1185.000 0.230
1186.000 0.230
1187.000 0.231
1188.000 0.231
1189.000 0.231
1190.000 0.230
1191.000 0.230
1192.000 0.230
1193.000 0.230
1194.000 0.230
1195.000 0.230
1196.000 0.230
1197.000 0.230
1198.000 0.230
1199.000 0.231
1200.000 0.231
1201.000 0.232
1202.000 0.232
1203.000 0.232
1204.000 0.232
1205.000 0.232
1206.000 0.232
1207.000 0.231
1208.000 0.232
1209.000 0.232
1210.000 0.233
1211.000 0.233
1212.000 0.234
1213.000 0.233
1214.000 0.232
1215.000 0.232
1216.000 0.232
1217.000 0.233
1218.000 0.233
1219.000 0.233
1220.000 0.234
1221.000 0.233
1222.000 0.233
1223.000 0.233
1224.000 0.233
1225.000 0.233
1226.000 0.234
1227.000 0.234
1228.000 0.235
1229.000 0.235
1230.000 0.234
1231.000 0.234
1232.000 0.235
1233.000 0.235
1234.000 0.235
1235.000 0.236
1236.000 0.236
1237.000 0.236
1238.000 0.236
1239.000 0.235
1240.000 0.236
1241.000 0.236
1242.000 0.236
1243.000 0.236
1244.000 0.236
1245.000 0.236
1246.000 0.236
1247.000 0.236
1248.000 0.236
1249.000 0.236
1250.000 0.236
1251.000 0.236
1252.000 0.236
1253.000 0.236
1254.000 0.237
1255.000 0.237
1256.000 0.237
1257.000 0.238
1258.000 0.238
1259.000 0.237
1260.000 0.238
1261.000 0.238
1262.000 0.238
1263.000 0.238
1264.000 0.238
1265.000 0.239
1266.000 0.239
1267.000 0.239
1268.000 0.239
1269.000 0.239
1270.000 0.238
1271.000 0.239
1272.000 0.239
1273.000 0.239
1274.000 0.240
1275.000 0.240
1276.000 0.239
1277.000 0.239
1278.000 0.239
1279.000 0.239
1280.000 0.240
1281.000 0.240
1282.000 0.240
1283.000 0.240
1284.000 0.240
1285.000 0.240
1286.000 0.240
1287.000 0.240
1288.000 0.240
1289.000 0.240
1290.000 0.240
1291.000 0.240
1292.000 0.240
1293.000 0.240
1294.000 0.240
1295.000 0.239
1296.000 0.238
1297.000 0.238
1298.000 0.238
1299.000 0.238
1300.000 0.238
1301.000 0.238
1302.000 0.239
1303.000 0.238
1304.000 0.238
1305.000 0.237
1306.000 0.237
1307.000 0.237
1308.000 0.237
1309.000 0.236
1310.000 0.237
1311.000 0.236
1312.000 0.237
1313.000 0.236
1314.000 0.236
1315.000 0.236
1316.000 0.235
1317.000 0.234
1318.000 0.233
1319.000 0.233
1320.000 0.232
1321.000 0.232
1322.000 0.232
1323.000 0.232
1324.000 0.232
1325.000 0.231
1326.000 0.232
1327.000 0.231
1328.000 0.231
1329.000 0.231
1330.000 0.230
1331.000 0.230
1332.000 0.231
1333.000 0.231
1334.000 0.231
1335.000 0.230
1336.000 0.228
1337.000 0.227
1338.000 0.226
1339.000 0.224
1340.000 0.223
1341.000 0.222
1342.000 0.222
1343.000 0.223
1344.000 0.228
1345.000 0.230
1346.000 0.231
1347.000 0.233
1348.000 0.231
1349.000 0.214
1350.000 0.212
1351.000 0.211
1352.000 0.214
1353.000 0.226
1354.000 0.223
1355.000 0.197
1356.000 0.212
1357.000 0.253
1358.000 0.238
1359.000 0.253
1360.000 0.435
1361.000 0.408
1362.000 0.429
1363.000 0.542
1364.000 0.430
1365.000 0.422
1366.000 0.649
1367.000 0.534
1368.000 0.500
1369.000 0.415
1370.000 0.312
1371.000 0.238
1372.000 0.233
1373.000 0.280
1374.000 0.258
1375.000 0.177
1376.000 0.226
1377.000 0.272
1378.000 0.302
1379.000 0.246
1380.000 0.284
1381.000 0.264
1382.000 0.541
1383.000 0.764
1384.000 0.729
1385.000 0.693
1386.000 0.362
1387.000 0.477
1388.000 0.489
1389.000 0.483
1390.000 0.505
1391.000 0.528
1392.000 0.470
1393.000 0.261
1394.000 0.480
1395.000 0.370
1396.000 0.351
1397.000 0.298
1398.000 0.167
1399.000 0.107
1400.000 0.236
1401.000 0.161
1402.000 0.199
1403.000 0.186
1404.000 0.289
1405.000 0.390
1406.000 0.478
1407.000 0.374
1408.000 0.336
1409.000 0.189
1410.000 0.157
1411.000 0.267
1412.000 0.243
1413.000 0.251
1414.000 0.240
1415.000 0.301
1416.000 0.280
1417.000 0.412
1418.000 0.482
1419.000 0.327
1420.000 0.360
1421.000 0.344
1422.000 0.338
1423.000 0.355
1424.000 0.383
1425.000 0.423
1426.000 0.393
1427.000 0.359
1428.000 0.311
1429.000 0.131
1430.000 0.186
1431.000 0.210
1432.000 0.210
1433.000 0.354
1434.000 0.224
1435.000 0.215
1436.000 0.211
1437.000 0.269
1438.000 0.253
1439.000 0.270
1440.000 0.309
1441.000 0.267
1442.000 0.238
1443.000 0.229
1444.000 0.243
1445.000 0.281
1446.000 0.268
1447.000 0.238
1448.000 0.208
1449.000 0.175
1450.000 0.149
1451.000 0.136
1452.000 0.144
1453.000 0.146
1454.000 0.171
1455.000 0.180
1456.000 0.196
1457.000 0.202
1458.000 0.192
1459.000 0.184
1460.000 0.182
1461.000 0.176
1462.000 0.161
1463.000 0.149
1464.000 0.148
1465.000 0.152
1466.000 0.164
1467.000 0.165
1468.000 0.166
1469.000 0.166
1470.000 0.153
1471.000 0.151
1472.000 0.161
1473.000 0.159
1474.000 0.151
1475.000 0.148
1476.000 0.144
1477.000 0.144
1478.000 0.149
1479.000 0.152
1480.000 0.152
1481.000 0.152
1482.000 0.153
1483.000 0.152
1484.000 0.146
1485.000 0.146
1486.000 0.148
1487.000 0.150
1488.000 0.156
1489.000 0.161
1490.000 0.165
1491.000 0.164
1492.000 0.161
1493.000 0.159
1494.000 0.153
1495.000 0.150
1496.000 0.147
1497.000 0.146
1498.000 0.146
1499.000 0.146
1500.000 0.147
1501.000 0.148
1502.000 0.149
1503.000 0.149
1504.000 0.147
1505.000 0.147
1506.000 0.148
1507.000 0.149
1508.000 0.151
1509.000 0.157
1510.000 0.158
1511.000 0.158
1512.000 0.158
1513.000 0.157
1514.000 0.156
1515.000 0.156
1516.000 0.156
1517.000 0.155
1518.000 0.155
1519.000 0.153
1520.000 0.154
1521.000 0.156
1522.000 0.157
1523.000 0.160
1524.000 0.161
1525.000 0.162
1526.000 0.161
1527.000 0.160
1528.000 0.161
1529.000 0.163
1530.000 0.164
1531.000 0.166
1532.000 0.166
1533.000 0.163
1534.000 0.163
1535.000 0.163
1536.000 0.163
1537.000 0.164
1538.000 0.165
1539.000 0.164
1540.000 0.164
1541.000 0.163
1542.000 0.163
1543.000 0.164
1544.000 0.164
1545.000 0.164
1546.000 0.165
1547.000 0.169
1548.000 0.170
1549.000 0.172
1550.000 0.173
1551.000 0.171
1552.000 0.171
1553.000 0.172
1554.000 0.173
1555.000 0.175
1556.000 0.176
1557.000 0.175
1558.000 0.175
1559.000 0.173
1560.000 0.173
1561.000 0.174
1562.000 0.174
1563.000 0.174
1564.000 0.175
1565.000 0.176
1566.000 0.176
1567.000 0.176
1568.000 0.176
1569.000 0.174
1570.000 0.175
1571.000 0.176
1572.000 0.177
1573.000 0.178
1574.000 0.178
1575.000 0.178
1576.000 0.178
1577.000 0.180
1578.000 0.180
1579.000 0.181
1580.000 0.182
1581.000 0.181
1582.000 0.181
1583.000 0.179
1584.000 0.178
1585.000 0.178
1586.000 0.178
1587.000 0.179
1588.000 0.180
1589.000 0.180
1590.000 0.181
1591.000 0.181
1592.000 0.182
1593.000 0.182
1594.000 0.183
1595.000 0.182
1596.000 0.182
1597.000 0.182
1598.000 0.182
1599.000 0.184
1600.000 0.186
1601.000 0.188
1602.000 0.184
1603.000 0.185
1604.000 0.186
1605.000 0.187
1606.000 0.188
1607.000 0.187
1608.000 0.187
1609.000 0.188
1610.000 0.187
1611.000 0.188
1612.000 0.188
1613.000 0.186
1614.000 0.186
1615.000 0.185
1616.000 0.185
1617.000 0.187
1618.000 0.188
1619.000 0.190
1620.000 0.191
1621.000 0.191
1622.000 0.191
1623.000 0.190
1624.000 0.190
1625.000 0.189
1626.000 0.188
1627.000 0.188
1628.000 0.188
1629.000 0.187
1630.000 0.187
1631.000 0.188
1632.000 0.188
1633.000 0.189
1634.000 0.190
1635.000 0.190
1636.000 0.190
1637.000 0.190
1638.000 0.190
1639.000 0.191
1640.000 0.192
1641.000 0.192
1642.000 0.193
1643.000 0.194
1644.000 0.194
1645.000 0.194
1646.000 0.193
1647.000 0.192
1648.000 0.191
1649.000 0.190
1650.000 0.189
1651.000 0.190
1652.000 0.190
1653.000 0.189
1654.000 0.189
1655.000 0.188
1656.000 0.188
1657.000 0.188
1658.000 0.189
1659.000 0.190
1660.000 0.191
1661.000 0.192
1662.000 0.192
1663.000 0.193
1664.000 0.193
1665.000 0.191
1666.000 0.190
1667.000 0.190
1668.000 0.189
1669.000 0.191
1670.000 0.191
1671.000 0.192
1672.000 0.192
1673.000 0.193
1674.000 0.192
1675.000 0.192
1676.000 0.191
1677.000 0.191
1678.000 0.192
1679.000 0.193
1680.000 0.194
1681.000 0.195
1682.000 0.195
1683.000 0.194
1684.000 0.193
1685.000 0.191
1686.000 0.190
1687.000 0.190
1688.000 0.190
1689.000 0.191
1690.000 0.192
1691.000 0.194
1692.000 0.194
1693.000 0.192
1694.000 0.193
1695.000 0.191
1696.000 0.191
1697.000 0.194
1698.000 0.195
1699.000 0.194
1700.000 0.193
1701.000 0.193
1702.000 0.192
1703.000 0.190
1704.000 0.189
1705.000 0.185
1706.000 0.183
1707.000 0.184
1708.000 0.184
1709.000 0.185
1710.000 0.185
1711.000 0.186
1712.000 0.185
1713.000 0.183
1714.000 0.183
1715.000 0.183
1716.000 0.183
1717.000 0.184
1718.000 0.187
1719.000 0.188
1720.000 0.189
1721.000 0.189
1722.000 0.188
1723.000 0.188
1724.000 0.189
1725.000 0.192
1726.000 0.193
1727.000 0.193
1728.000 0.194
1729.000 0.193
1730.000 0.194
1731.000 0.192
1732.000 0.189
1733.000 0.187
1734.000 0.187
1735.000 0.189
1736.000 0.190
1737.000 0.190
1738.000 0.187
1739.000 0.186
1740.000 0.186
1741.000 0.187
1742.000 0.190
1743.000 0.191
1744.000 0.191
1745.000 0.192
1746.000 0.190
1747.000 0.186
1748.000 0.181
1749.000 0.180
1750.000 0.177
1751.000 0.176
1752.000 0.180
1753.000 0.179
1754.000 0.177
1755.000 0.178
1756.000 0.178
1757.000 0.180
1758.000 0.189
1759.000 0.187
1760.000 0.193
1761.000 0.194
1762.000 0.193
1763.000 0.192
1764.000 0.189
1765.000 0.181
1766.000 0.181
1767.000 0.182
1768.000 0.180
1769.000 0.181
1770.000 0.181
1771.000 0.180
1772.000 0.184
1773.000 0.191
1774.000 0.183
1775.000 0.182
1776.000 0.179
1777.000 0.176
1778.000 0.179
1779.000 0.177
1780.000 0.179
1781.000 0.183
1782.000 0.177
1783.000 0.179
1784.000 0.182
1785.000 0.174
1786.000 0.172
1787.000 0.161
1788.000 0.162
1789.000 0.180
1790.000 0.185
1791.000 0.188
1792.000 0.192
1793.000 0.182
1794.000 0.182
1795.000 0.184
1796.000 0.182
1797.000 0.187
1798.000 0.192
1799.000 0.192
1800.000 0.192
1801.000 0.359
1802.000 0.369
1803.000 0.377
1804.000 0.420
1805.000 0.436
1806.000 0.412
1807.000 0.415
1808.000 0.422
1809.000 0.430
1810.000 0.442
1811.000 0.457
1812.000 0.490
1813.000 0.536
1814.000 0.558
1815.000 0.575
1816.000 0.545
1817.000 0.536
1818.000 0.455
1819.000 0.320
1820.000 0.372
1821.000 0.508
1822.000 0.589
1823.000 0.582
1824.000 0.532
1825.000 0.534
1826.000 0.558
1827.000 0.548
1828.000 0.547
1829.000 0.467
1830.000 0.479
1831.000 0.511
1832.000 0.623
1833.000 0.641
1834.000 0.684
1835.000 0.766
1836.000 0.792
1837.000 0.737
1838.000 0.739
1839.000 0.770
1840.000 0.629
1841.000 0.584
1842.000 0.522
1843.000 0.460
1844.000 0.371
1845.000 0.295
1846.000 0.292
1847.000 0.311
1848.000 0.341
1849.000 0.399
1850.000 0.456
1851.000 0.663
1852.000 0.550
1853.000 0.504
1854.000 0.394
1855.000 0.350
1856.000 0.335
1857.000 0.274
1858.000 0.269
1859.000 0.304
1860.000 0.318
1861.000 0.280
1862.000 0.377
1863.000 0.374
1864.000 0.386
1865.000 0.382
1866.000 0.374
1867.000 0.339
1868.000 0.348
1869.000 0.342
1870.000 0.333
1871.000 0.356
1872.000 0.352
1873.000 0.514
1874.000 0.430
1875.000 0.426
1876.000 0.413
1877.000 0.516
1878.000 0.457
1879.000 0.422
1880.000 0.420
1881.000 0.367
1882.000 0.395
1883.000 0.264
1884.000 0.223
1885.000 0.191
1886.000 0.159
1887.000 0.188
1888.000 0.518
1889.000 0.652
1890.000 0.721
1891.000 0.778
1892.000 0.602
1893.000 0.568
1894.000 0.532
1895.000 0.474
1896.000 0.520
1897.000 0.449
1898.000 0.439
1899.000 0.467
1900.000 0.699
1901.000 0.744
1902.000 0.573
1903.000 0.673
1904.000 0.733
1905.000 0.778
1906.000 0.708
1907.000 0.663
1908.000 0.656
1909.000 0.698
1910.000 0.659
1911.000 0.527
1912.000 0.444
1913.000 0.354
1914.000 0.421
1915.000 0.380
1916.000 0.331
1917.000 0.285
1918.000 0.229
1919.000 0.185
1920.000 0.210
1921.000 0.153
1922.000 0.198
1923.000 0.253
1924.000 0.292
1925.000 0.317
1926.000 0.281
1927.000 0.334
1928.000 0.294
1929.000 0.306
1930.000 0.399
1931.000 0.377
1932.000 0.358
1933.000 0.355
1934.000 0.470
1935.000 0.603
1936.000 0.454
1937.000 0.473
1938.000 0.516
1939.000 0.629
1940.000 0.611
1941.000 0.683
1942.000 0.707
1943.000 0.738
1944.000 0.725
1945.000 0.706
1946.000 0.555
1947.000 0.516
1948.000 0.509
1949.000 0.395
1950.000 0.361
1951.000 0.329
1952.000 0.441
1953.000 0.389
1954.000 0.529
1955.000 0.499
1956.000 0.435
1957.000 0.359
1958.000 0.276
1959.000 0.226
1960.000 0.244
1961.000 0.270
1962.000 0.312
1963.000 0.529
1964.000 0.521
1965.000 0.413
1966.000 0.442
1967.000 0.393
1968.000 0.297
1969.000 0.285
1970.000 0.237
1971.000 0.227
1972.000 0.191
1973.000 0.192
1974.000 0.227
1975.000 0.226
1976.000 0.184
1977.000 0.177
1978.000 0.169
1979.000 0.162
1980.000 0.205
1981.000 0.204
1982.000 0.192
1983.000 0.145
1984.000 0.147
1985.000 0.162
1986.000 0.176
1987.000 0.208
1988.000 0.215
1989.000 0.196
1990.000 0.201
1991.000 0.207
1992.000 0.209
1993.000 0.234
1994.000 0.290
1995.000 0.320
1996.000 0.340
1997.000 0.359
1998.000 0.352
1999.000 0.335
2000.000 0.336
2001.000 0.336
2002.000 0.319
2003.000 0.291
2004.000 0.341
2005.000 0.372
2006.000 0.381
2007.000 0.382
2008.000 0.455
2009.000 0.415
2010.000 0.418
2011.000 0.448
2012.000 0.362
2013.000 0.312
2014.000 0.304
2015.000 0.266
2016.000 0.251
2017.000 0.261
2018.000 0.252
2019.000 0.226
2020.000 0.214
2021.000 0.221
2022.000 0.224
2023.000 0.172
2024.000 0.168
2025.000 0.155
2026.000 0.179
2027.000 0.152
2028.000 0.152
2029.000 0.154
2030.000 0.145
2031.000 0.142
2032.000 0.143
2033.000 0.140
2034.000 0.130
2035.000 0.127
2036.000 0.128
2037.000 0.133
2038.000 0.146
2039.000 0.151
2040.000 0.135
2041.000 0.129
2042.000 0.145
2043.000 0.158
2044.000 0.165
2045.000 0.154
2046.000 0.156
2047.000 0.155
2048.000 0.156
2049.000 0.152
2050.000 0.155
2051.000 0.152
2052.000 0.154
2053.000 0.153
2054.000 0.158
2055.000 0.178
2056.000 0.190
2057.000 0.197
2058.000 0.203
2059.000 0.201
2060.000 0.190
2061.000 0.180
2062.000 0.151
2063.000 0.140
2064.000 0.128
2065.000 0.132
2066.000 0.181
2067.000 0.213
2068.000 0.206
2069.000 0.189
2070.000 0.179
2071.000 0.165
2072.000 0.159
2073.000 0.150
2074.000 0.150
2075.000 0.162
2076.000 0.160
2077.000 0.161
2078.000 0.162
2079.000 0.148
2080.000 0.149
2081.000 0.161
2082.000 0.169
2083.000 0.180
2084.000 0.194
2085.000 0.183
2086.000 0.167
2087.000 0.158
2088.000 0.146
2089.000 0.144
2090.000 0.151
2091.000 0.149
2092.000 0.141
2093.000 0.139
2094.000 0.131
2095.000 0.134
2096.000 0.153
2097.000 0.166
2098.000 0.185
2099.000 0.187
2100.000 0.192
2101.000 0.183
2102.000 0.167
2103.000 0.167
2104.000 0.164
2105.000 0.159
2106.000 0.156
2107.000 0.153
2108.000 0.153
2109.000 0.153
2110.000 0.156
2111.000 0.171
2112.000 0.172
2113.000 0.162
2114.000 0.156
2115.000 0.142
2116.000 0.138
2117.000 0.141
2118.000 0.150
2119.000 0.153
2120.000 0.158
2121.000 0.155
2122.000 0.141
2123.000 0.138
2124.000 0.135
2125.000 0.138
2126.000 0.151
2127.000 0.155
2128.000 0.155
2129.000 0.157
2130.000 0.164
2131.000 0.162
2132.000 0.156
2133.000 0.153
2134.000 0.145
2135.000 0.140
2136.000 0.140
2137.000 0.144
2138.000 0.142
2139.000 0.140
2140.000 0.145
2141.000 0.148
2142.000 0.152
2143.000 0.161
2144.000 0.159
2145.000 0.139
2146.000 0.142
2147.000 0.143
2148.000 0.147
2149.000 0.160
2150.000 0.165
2151.000 0.165
2152.000 0.166
2153.000 0.166
2154.000 0.167
2155.000 0.170
2156.000 0.176
2157.000 0.175
2158.000 0.172
2159.000 0.170
2160.000 0.160
2161.000 0.154
2162.000 0.144
2163.000 0.142
2164.000 0.145
2165.000 0.149
2166.000 0.153
2167.000 0.159
2168.000 0.175
2169.000 0.176
2170.000 0.175
2171.000 0.170
2172.000 0.140
2173.000 0.132
2174.000 0.136
2175.000 0.136
2176.000 0.140
2177.000 0.147
2178.000 0.144
2179.000 0.141
2180.000 0.145
2181.000 0.150
2182.000 0.153
2183.000 0.152
2184.000 0.158
2185.000 0.166
2186.000 0.171
2187.000 0.190
2188.000 0.187
2189.000 0.167
2190.000 0.155
2191.000 0.134
2192.000 0.128
2193.000 0.135
2194.000 0.138
2195.000 0.152
2196.000 0.156
2197.000 0.151
2198.000 0.148
2199.000 0.154
2200.000 0.152
2201.000 0.137
2202.000 0.140
2203.000 0.138
2204.000 0.144
2205.000 0.155
2206.000 0.163
2207.000 0.168
2208.000 0.161
2209.000 0.158
2210.000 0.146
2211.000 0.144
2212.000 0.149
2213.000 0.147
2214.000 0.146
2215.000 0.144
2216.000 0.141
2217.000 0.138
2218.000 0.138
2219.000 0.139
2220.000 0.144
2221.000 0.143
2222.000 0.139
2223.000 0.137
2224.000 0.129
2225.000 0.127
2226.000 0.132
2227.000 0.137
2228.000 0.133
2229.000 0.136
2230.000 0.133
2231.000 0.133
2232.000 0.144
2233.000 0.138
2234.000 0.135
2235.000 0.144
2236.000 0.137
2237.000 0.135
2238.000 0.134
2239.000 0.130
2240.000 0.131
2241.000 0.135
2242.000 0.139
2243.000 0.147
2244.000 0.150
2245.000 0.153
2246.000 0.152
2247.000 0.143
2248.000 0.137
2249.000 0.126
2250.000 0.120
2251.000 0.115
2252.000 0.122
2253.000 0.126
2254.000 0.129
2255.000 0.124
2256.000 0.129
2257.000 0.134
2258.000 0.142
2259.000 0.148
2260.000 0.150
2261.000 0.152
2262.000 0.153
2263.000 0.150
2264.000 0.146
2265.000 0.147
2266.000 0.139
2267.000 0.131
2268.000 0.128
2269.000 0.126
2270.000 0.121
2271.000 0.132
2272.000 0.149
2273.000 0.156
2274.000 0.168
2275.000 0.173
2276.000 0.144
2277.000 0.157
2278.000 0.198
2279.000 0.209
2280.000 0.235
2281.000 0.224
2282.000 0.193
2283.000 0.173
2284.000 0.151
2285.000 0.138
2286.000 0.114
2287.000 0.124
2288.000 0.126
2289.000 0.148
2290.000 0.112
2291.000 0.120
2292.000 0.128
2293.000 0.134
2294.000 0.172
2295.000 0.218
2296.000 0.233
2297.000 0.251
2298.000 0.239
2299.000 0.196
2300.000 0.167
2301.000 0.137
2302.000 0.130
2303.000 0.124
2304.000 0.146
2305.000 0.164
2306.000 0.190
2307.000 0.196
2308.000 0.188
2309.000 0.177
2310.000 0.174
2311.000 0.181
2312.000 0.174
2313.000 0.167
2314.000 0.148
2315.000 0.117
2316.000 0.080
2317.000 0.090
2318.000 0.111
2319.000 0.149
2320.000 0.198
2321.000 0.198
2322.000 0.161
2323.000 0.162
2324.000 0.152
2325.000 0.142
2326.000 0.134
2327.000 0.139
2328.000 0.147
2329.000 0.172
2330.000 0.164
2331.000 0.222
2332.000 0.242
2333.000 0.243
2334.000 0.229
2335.000 0.186
2336.000 0.233
2337.000 0.181
2338.000 0.191
2339.000 0.254
2340.000 0.243
2341.000 0.308
2342.000 0.304
2343.000 0.261
2344.000 0.272
2345.000 0.223
2346.000 0.252
2347.000 0.336
2348.000 0.350
2349.000 0.231
2350.000 0.243
2351.000 0.271
2352.000 0.226
2353.000 0.122
2354.000 0.119
2355.000 0.142
2356.000 0.157
2357.000 0.190
2358.000 0.260
2359.000 0.656
2360.000 0.582
2361.000 0.498
2362.000 0.458
2363.000 0.397
2364.000 0.416
2365.000 0.276
2366.000 0.265
2367.000 0.344
2368.000 0.407
2369.000 0.486
2370.000 0.456
2371.000 0.372
2372.000 0.303
2373.000 0.446
2374.000 0.289
2375.000 0.513
2376.000 0.451
2377.000 0.482
2378.000 0.333
2379.000 0.189
2380.000 0.168
2381.000 0.204
2382.000 0.383
2383.000 0.379
2384.000 0.420
2385.000 0.439
2386.000 0.603
2387.000 0.412
2388.000 0.304
2389.000 0.282
2390.000 0.321
2391.000 0.306
2392.000 0.277
2393.000 0.450
2394.000 0.489
2395.000 0.304
2396.000 0.277
2397.000 0.216
2398.000 0.233
2399.000 0.191
2400.000 0.294
2401.000 0.467
2402.000 0.340
2403.000 0.797
2404.000 0.732
2405.000 0.683
2406.000 0.702
2407.000 0.581
2408.000 0.482
2409.000 0.477
2410.000 0.273
2411.000 0.127
2412.000 0.254
2413.000 0.302
2414.000 0.337
2415.000 0.421
2416.000 0.278
2417.000 0.641
2418.000 0.740
2419.000 0.757
2420.000 0.650
2421.000 0.536
2422.000 0.388
2423.000 0.488
2424.000 0.244
2425.000 0.493
2426.000 0.634
2427.000 0.409
2428.000 0.380
2429.000 0.756
2430.000 0.751
2431.000 0.753
2432.000 0.736
2433.000 0.254
2434.000 0.266
2435.000 0.243
2436.000 0.181
2437.000 0.258
2438.000 0.322
2439.000 0.429
2440.000 0.531
2441.000 0.373
2442.000 0.324
2443.000 0.505
2444.000 0.420
2445.000 0.463
2446.000 0.414
2447.000 0.435
2448.000 0.233
2449.000 0.261
2450.000 0.375
2451.000 0.410
2452.000 0.298
2453.000 0.333
2454.000 0.428
2455.000 0.218
2456.000 0.145
2457.000 0.183
2458.000 0.203
2459.000 0.277
2460.000 0.363
2461.000 0.404
2462.000 0.646
2463.000 0.532
2464.000 0.385
2465.000 0.168
2466.000 0.455
2467.000 0.423
2468.000 0.424
2469.000 0.263
2470.000 0.275
2471.000 0.288
2472.000 0.214
2473.000 0.293
2474.000 0.195
2475.000 0.210
2476.000 0.157
2477.000 0.427
2478.000 0.641
2479.000 0.510
2480.000 0.730
2481.000 0.308
2482.000 0.282
2483.000 0.325
2484.000 0.309
2485.000 0.231
2486.000 0.271
2487.000 0.499
2488.000 0.342
2489.000 0.370
2490.000 0.322
2491.000 0.275
2492.000 0.269
2493.000 0.257
2494.000 0.261
2495.000 0.297
2496.000 0.352
2497.000 0.419
2498.000 0.479
2499.000 0.335
2500.000 0.134
