391.000 0.018
392.000 0.017
393.000 0.014
394.000 0.016
395.000 0.015
396.000 0.014
397.000 0.014
398.000 0.013
399.000 0.013
400.000 0.015
401.000 0.018
402.000 0.014
403.000 0.014
404.000 0.016
405.000 0.016
406.000 0.015
407.000 0.014
408.000 0.013
409.000 0.016
410.000 0.016
411.000 0.015
412.000 0.015
413.000 0.015
414.000 0.015
415.000 0.016
416.000 0.016
417.000 0.016
418.000 0.016
419.000 0.016
420.000 0.016
421.000 0.016
422.000 0.015
423.000 0.015
424.000 0.015
425.000 0.015
426.000 0.016
427.000 0.016
428.000 0.016
429.000 0.016
430.000 0.015
431.000 0.016
432.000 0.015
433.000 0.016
434.000 0.017
435.000 0.016
436.000 0.015
437.000 0.016
438.000 0.017
439.000 0.016
440.000 0.015
441.000 0.016
442.000 0.015
443.000 0.015
444.000 0.015
445.000 0.016
446.000 0.016
447.000 0.016
448.000 0.016
449.000 0.017
450.000 0.016
451.000 0.016
452.000 0.016
453.000 0.017
454.000 0.017
455.000 0.017
456.000 0.016
457.000 0.016
458.000 0.016
459.000 0.017
460.000 0.017
461.000 0.016
462.000 0.016
463.000 0.015
464.000 0.016
465.000 0.016
466.000 0.016
467.000 0.017
468.000 0.017
469.000 0.017
470.000 0.017
471.000 0.017
472.000 0.016
473.000 0.016
474.000 0.018
475.000 0.018
476.000 0.017
477.000 0.016
478.000 0.016
479.000 0.017
480.000 0.017
481.000 0.017
482.000 0.016
483.000 0.017
484.000 0.017
485.000 0.016
486.000 0.017
487.000 0.017
488.000 0.018
489.000 0.018
490.000 0.016
491.000 0.016
492.000 0.017
493.000 0.017
494.000 0.017
495.000 0.018
496.000 0.018
497.000 0.018
498.000 0.018
499.000 0.017
500.000 0.018
501.000 0.019
502.000 0.019
503.000 0.019
504.000 0.019
505.000 0.019
506.000 0.020
507.000 0.020
508.000 0.020
509.000 0.021
510.000 0.022
511.000 0.023
512.000 0.024
513.000 0.024
514.000 0.024
515.000 0.025
516.000 0.027
517.000 0.028
518.000 0.029
519.000 0.031
520.000 0.032
521.000 0.033
522.000 0.034
523.000 0.035
524.000 0.036
525.000 0.037
526.000 0.039
527.000 0.040
528.000 0.041
529.000 0.042
530.000 0.043
531.000 0.044
532.000 0.045
533.000 0.046
534.000 0.047
535.000 0.047
536.000 0.047
537.000 0.048
538.000 0.049
539.000 0.049
540.000 0.048
541.000 0.050
542.000 0.050
543.000 0.050
544.000 0.050
545.000 0.050
546.000 0.050
547.000 0.050
548.000 0.051
549.000 0.051
550.000 0.051
551.000 0.051
552.000 0.051
553.000 0.051
554.000 0.051
555.000 0.051
556.000 0.051
557.000 0.051
558.000 0.050
559.000 0.050
560.000 0.048
561.000 0.048
562.000 0.048
563.000 0.047
564.000 0.047
565.000 0.046
566.000 0.045
567.000 0.044
568.000 0.043
569.000 0.043
570.000 0.042
571.000 0.041
572.000 0.040
573.000 0.039
574.000 0.039
575.000 0.037
576.000 0.038
577.000 0.037
578.000 0.036
579.000 0.036
580.000 0.036
581.000 0.035
582.000 0.034
583.000 0.035
584.000 0.035
585.000 0.034
586.000 0.034
587.000 0.033
588.000 0.033
589.000 0.032
590.000 0.032
591.000 0.032
592.000 0.032
593.000 0.031
594.000 0.032
595.000 0.031
596.000 0.031
597.000 0.030
598.000 0.031
599.000 0.031
600.000 0.031
601.000 0.031
602.000 0.031
603.000 0.030
604.000 0.030
605.000 0.030
606.000 0.030
607.000 0.030
608.000 0.029
609.000 0.029
610.000 0.029
611.000 0.029
612.000 0.028
613.000 0.028
614.000 0.028
615.000 0.028
616.000 0.028
617.000 0.027
618.000 0.028
619.000 0.028
620.000 0.027
621.000 0.027
622.000 0.027
623.000 0.026
624.000 0.026
625.000 0.027
626.000 0.027
627.000 0.027
628.000 0.027
629.000 0.027
630.000 0.027
631.000 0.027
632.000 0.027
633.000 0.027
634.000 0.027
635.000 0.027
636.000 0.027
637.000 0.026
638.000 0.025
639.000 0.026
640.000 0.026
641.000 0.025
642.000 0.024
643.000 0.024
644.000 0.025
645.000 0.024
646.000 0.023
647.000 0.024
648.000 0.024
649.000 0.023
650.000 0.023
651.000 0.023
652.000 0.024
653.000 0.023
654.000 0.023
655.000 0.024
656.000 0.023
657.000 0.023
658.000 0.023
659.000 0.023
660.000 0.023
661.000 0.023
662.000 0.022
663.000 0.022
664.000 0.023
665.000 0.022
666.000 0.021
667.000 0.022
668.000 0.023
669.000 0.023
670.000 0.023
671.000 0.022
672.000 0.022
673.000 0.024
674.000 0.023
675.000 0.023
676.000 0.024
677.000 0.024
678.000 0.025
679.000 0.025
680.000 0.024
681.000 0.025
682.000 0.025
683.000 0.026
684.000 0.026
685.000 0.027
686.000 0.028
687.000 0.029
688.000 0.030
689.000 0.031
690.000 0.032
691.000 0.034
692.000 0.035
693.000 0.037
694.000 0.039
695.000 0.044
696.000 0.047
697.000 0.051
698.000 0.055
699.000 0.058
700.000 0.063
701.000 0.068
702.000 0.074
703.000 0.078
704.000 0.083
705.000 0.089
706.000 0.094
707.000 0.099
708.000 0.105
709.000 0.110
710.000 0.116
711.000 0.122
712.000 0.128
713.000 0.134
714.000 0.140
715.000 0.146
716.000 0.153
717.000 0.160
718.000 0.168
719.000 0.177
720.000 0.186
721.000 0.192
722.000 0.199
723.000 0.206
724.000 0.214
725.000 0.223
726.000 0.231
727.000 0.239
728.000 0.247
729.000 0.254
730.000 0.262
731.000 0.270
732.000 0.277
733.000 0.283
734.000 0.289
735.000 0.295
736.000 0.301
737.000 0.307
738.000 0.313
739.000 0.319
740.000 0.324
741.000 0.329
742.000 0.333
743.000 0.338
744.000 0.342
745.000 0.346
746.000 0.349
747.000 0.353
748.000 0.356
749.000 0.359
750.000 0.362
751.000 0.364
752.000 0.366
753.000 0.369
754.000 0.371
755.000 0.372
756.000 0.374
757.000 0.376
758.000 0.377
759.000 0.380
760.000 0.383
761.000 0.388
762.000 0.390
763.000 0.391
764.000 0.391
765.000 0.390
766.000 0.389
767.000 0.389
768.000 0.389
769.000 0.389
770.000 0.389
771.000 0.390
772.000 0.391
773.000 0.391
774.000 0.391
775.000 0.392
776.000 0.393
777.000 0.393
778.000 0.394
779.000 0.394
780.000 0.395
781.000 0.395
782.000 0.396
783.000 0.397
784.000 0.396
785.000 0.397
786.000 0.398
787.000 0.399
788.000 0.400
789.000 0.400
790.000 0.401
791.000 0.401
792.000 0.402
793.000 0.402
794.000 0.402
795.000 0.403
796.000 0.404
797.000 0.404
798.000 0.404
799.000 0.405
800.000 0.406
801.000 0.406
802.000 0.407
803.000 0.407
804.000 0.407
805.000 0.408
806.000 0.408
807.000 0.408
808.000 0.409
809.000 0.409
810.000 0.410
811.000 0.411
812.000 0.413
813.000 0.414
814.000 0.415
815.000 0.416
816.000 0.418
817.000 0.418
818.000 0.418
819.000 0.418
820.000 0.418
821.000 0.418
822.000 0.418
823.000 0.419
824.000 0.419
825.000 0.419
826.000 0.419
827.000 0.419
828.000 0.420
829.000 0.420
830.000 0.420
831.000 0.420
832.000 0.421
833.000 0.421
834.000 0.421
835.000 0.421
836.000 0.421
837.000 0.421
838.000 0.421
839.000 0.421
840.000 0.421
841.000 0.421
842.000 0.422
843.000 0.422
844.000 0.422
845.000 0.422
846.000 0.422
847.000 0.423
848.000 0.423
849.000 0.423
850.000 0.423
851.000 0.424
852.000 0.424
853.000 0.425
854.000 0.425
855.000 0.425
856.000 0.426
857.000 0.426
858.000 0.426
859.000 0.426
860.000 0.427
861.000 0.427
862.000 0.427
863.000 0.427
864.000 0.428
865.000 0.428
866.000 0.429
867.000 0.429
868.000 0.429
869.000 0.429
870.000 0.430
871.000 0.431
872.000 0.431
873.000 0.431
874.000 0.431
875.000 0.431
876.000 0.432
877.000 0.432
878.000 0.432
879.000 0.433
880.000 0.433
881.000 0.433
882.000 0.434
883.000 0.434
884.000 0.434
885.000 0.435
886.000 0.435
887.000 0.435
888.000 0.436
889.000 0.436
890.000 0.437
891.000 0.437
892.000 0.438
893.000 0.439
894.000 0.440
895.000 0.441
896.000 0.442
897.000 0.443
898.000 0.445
899.000 0.446
900.000 0.446
901.000 0.446
902.000 0.446
903.000 0.447
904.000 0.446
905.000 0.446
906.000 0.447
907.000 0.448
908.000 0.449
909.000 0.450
910.000 0.450
911.000 0.451
912.000 0.452
913.000 0.452
914.000 0.452
915.000 0.453
916.000 0.453
917.000 0.453
918.000 0.453
919.000 0.453
920.000 0.451
921.000 0.452
922.000 0.451
923.000 0.451
924.000 0.452
925.000 0.454
926.000 0.455
927.000 0.455
928.000 0.456
929.000 0.458
930.000 0.460
931.000 0.463
932.000 0.464
933.000 0.469
934.000 0.473
935.000 0.474
936.000 0.477
937.000 0.476
938.000 0.474
939.000 0.472
940.000 0.472
941.000 0.471
942.000 0.471
943.000 0.474
944.000 0.477
945.000 0.473
946.000 0.470
947.000 0.471
948.000 0.471
949.000 0.467
950.000 0.466
951.000 0.469
952.000 0.469
953.000 0.464
954.000 0.459
955.000 0.458
956.000 0.461
957.000 0.461
958.000 0.460
959.000 0.458
960.000 0.455
961.000 0.455
962.000 0.455
963.000 0.453
964.000 0.450
965.000 0.449
966.000 0.448
967.000 0.448
968.000 0.447
969.000 0.447
970.000 0.447
971.000 0.446
972.000 0.446
973.000 0.446
974.000 0.445
975.000 0.444
976.000 0.446
977.000 0.447
978.000 0.447
979.000 0.446
980.000 0.443
981.000 0.444
982.000 0.445
983.000 0.443
984.000 0.445
985.000 0.445
986.000 0.444
987.000 0.445
988.000 0.446
989.000 0.446
990.000 0.445
991.000 0.445
992.000 0.446
993.000 0.445
994.000 0.446
995.000 0.447
996.000 0.447
997.000 0.449
998.000 0.448
999.000 0.449
1000.000 0.451
1001.000 0.454
1002.000 0.455
1003.000 0.455
1004.000 0.455
1005.000 0.454
1006.000 0.455
1007.000 0.456
1008.000 0.456
1009.000 0.457
1010.000 0.458
1011.000 0.459
1012.000 0.460
1013.000 0.461
1014.000 0.461
1015.000 0.461
1016.000 0.462
1017.000 0.462
1018.000 0.463
1019.000 0.464
1020.000 0.464
1021.000 0.464
1022.000 0.464
1023.000 0.465
1024.000 0.465
1025.000 0.465
1026.000 0.466
1027.000 0.466
1028.000 0.467
1029.000 0.469
1030.000 0.470
1031.000 0.471
1032.000 0.471
1033.000 0.471
1034.000 0.471
1035.000 0.471
1036.000 0.471
1037.000 0.471
1038.000 0.472
1039.000 0.472
1040.000 0.473
1041.000 0.474
1042.000 0.475
1043.000 0.475
1044.000 0.476
1045.000 0.476
1046.000 0.477
1047.000 0.477
1048.000 0.477
1049.000 0.477
1050.000 0.477
1051.000 0.477
1052.000 0.478
1053.000 0.478
1054.000 0.478
1055.000 0.479
1056.000 0.480
1057.000 0.480
1058.000 0.480
1059.000 0.480
1060.000 0.480
1061.000 0.481
1062.000 0.481
1063.000 0.482
1064.000 0.483
1065.000 0.484
1066.000 0.484
1067.000 0.483
1068.000 0.484
1069.000 0.484
1070.000 0.485
1071.000 0.486
1072.000 0.486
1073.000 0.485
1074.000 0.485
1075.000 0.485
1076.000 0.485
1077.000 0.486
1078.000 0.486
1079.000 0.487
1080.000 0.487
1081.000 0.488
1082.000 0.488
1083.000 0.488
1084.000 0.488
1085.000 0.488
1086.000 0.489
1087.000 0.490
1088.000 0.491
1089.000 0.492
1090.000 0.493
1091.000 0.493
1092.000 0.494
1093.000 0.494
1094.000 0.494
1095.000 0.494
1096.000 0.495
1097.000 0.495
1098.000 0.495
1099.000 0.496
1100.000 0.496
1101.000 0.498
1102.000 0.499
1103.000 0.500
1104.000 0.501
1105.000 0.502
1106.000 0.503
1107.000 0.504
1108.000 0.505
1109.000 0.507
1110.000 0.508
1111.000 0.510
1112.000 0.512
1113.000 0.514
1114.000 0.515
1115.000 0.517
1116.000 0.520
1117.000 0.522
1118.000 0.525
1119.000 0.529
1120.000 0.534
1121.000 0.540
1122.000 0.543
1123.000 0.547
1124.000 0.552
1125.000 0.555
1126.000 0.559
1127.000 0.560
1128.000 0.559
1129.000 0.556
1130.000 0.558
1131.000 0.557
1132.000 0.553
1133.000 0.555
1134.000 0.549
1135.000 0.540
1136.000 0.536
1137.000 0.527
1138.000 0.521
1139.000 0.516
1140.000 0.515
1141.000 0.516
1142.000 0.517
1143.000 0.520
1144.000 0.521
1145.000 0.518
1146.000 0.514
1147.000 0.508
1148.000 0.503
1149.000 0.499
1150.000 0.495
1151.000 0.494
1152.000 0.492
1153.000 0.489
1154.000 0.487
1155.000 0.483
1156.000 0.481
1157.000 0.478
1158.000 0.476
1159.000 0.473
1160.000 0.470
1161.000 0.467
1162.000 0.466
1163.000 0.464
1164.000 0.463
1165.000 0.462
1166.000 0.461
1167.000 0.460
1168.000 0.459
1169.000 0.458
1170.000 0.457
1171.000 0.456
1172.000 0.455
1173.000 0.456
1174.000 0.455
1175.000 0.454
1176.000 0.454
1177.000 0.455
1178.000 0.455
1179.000 0.455
1180.000 0.455
1181.000 0.454
1182.000 0.453
1183.000 0.453
1184.000 0.453
1185.000 0.454
1186.000 0.455
1187.000 0.453
1188.000 0.453
1189.000 0.453
1190.000 0.452
1191.000 0.452
1192.000 0.452
1193.000 0.451
1194.000 0.452
1195.000 0.451
1196.000 0.451
1197.000 0.451
1198.000 0.451
1199.000 0.451
1200.000 0.452
1201.000 0.452
1202.000 0.452
1203.000 0.453
1204.000 0.453
1205.000 0.453
1206.000 0.453
1207.000 0.454
1208.000 0.455
1209.000 0.455
1210.000 0.457
1211.000 0.457
1212.000 0.457
1213.000 0.456
1214.000 0.456
1215.000 0.455
1216.000 0.456
1217.000 0.457
1218.000 0.457
1219.000 0.458
1220.000 0.458
1221.000 0.459
1222.000 0.459
1223.000 0.459
1224.000 0.460
1225.000 0.460
1226.000 0.459
1227.000 0.460
1228.000 0.460
1229.000 0.461
1230.000 0.462
1231.000 0.462
1232.000 0.462
1233.000 0.463
1234.000 0.463
1235.000 0.464
1236.000 0.464
1237.000 0.465
1238.000 0.465
1239.000 0.465
1240.000 0.466
1241.000 0.467
1242.000 0.466
1243.000 0.466
1244.000 0.467
1245.000 0.467
1246.000 0.468
1247.000 0.468
1248.000 0.469
1249.000 0.469
1250.000 0.469
1251.000 0.470
1252.000 0.470
1253.000 0.470
1254.000 0.471
1255.000 0.472
1256.000 0.473
1257.000 0.473
1258.000 0.473
1259.000 0.473
1260.000 0.474
1261.000 0.475
1262.000 0.476
1263.000 0.476
1264.000 0.476
1265.000 0.476
1266.000 0.476
1267.000 0.476
1268.000 0.476
1269.000 0.477
1270.000 0.477
1271.000 0.478
1272.000 0.478
1273.000 0.477
1274.000 0.477
1275.000 0.477
1276.000 0.477
1277.000 0.477
1278.000 0.478
1279.000 0.478
1280.000 0.479
1281.000 0.479
1282.000 0.479
1283.000 0.479
1284.000 0.479
1285.000 0.479
1286.000 0.478
1287.000 0.478
1288.000 0.478
1289.000 0.478
1290.000 0.478
1291.000 0.478
1292.000 0.478
1293.000 0.478
1294.000 0.478
1295.000 0.479
1296.000 0.479
1297.000 0.478
1298.000 0.478
1299.000 0.478
1300.000 0.477
1301.000 0.478
1302.000 0.478
1303.000 0.477
1304.000 0.476
1305.000 0.476
1306.000 0.475
1307.000 0.476
1308.000 0.475
1309.000 0.476
1310.000 0.475
1311.000 0.474
1312.000 0.473
1313.000 0.471
1314.000 0.470
1315.000 0.471
1316.000 0.471
1317.000 0.471
1318.000 0.470
1319.000 0.468
1320.000 0.467
1321.000 0.466
1322.000 0.466
1323.000 0.465
1324.000 0.464
1325.000 0.464
1326.000 0.463
1327.000 0.463
1328.000 0.465
1329.000 0.465
1330.000 0.463
1331.000 0.461
1332.000 0.458
1333.000 0.456
1334.000 0.455
1335.000 0.453
1336.000 0.450
1337.000 0.451
1338.000 0.453
1339.000 0.455
1340.000 0.462
1341.000 0.465
1342.000 0.463
1343.000 0.464
1344.000 0.460
1345.000 0.460
1346.000 0.467
1347.000 0.471
1348.000 0.477
1349.000 0.481
1350.000 0.493
1351.000 0.503
1352.000 0.543
1353.000 0.646
1354.000 0.529
1355.000 0.681
1356.000 0.396
1357.000 0.472
1358.000 0.624
1359.000 0.544
1360.000 0.548
1361.000 0.605
1362.000 0.559
1363.000 0.519
1364.000 0.615
1365.000 0.363
1366.000 0.285
1367.000 0.279
1368.000 0.266
1369.000 0.531
1370.000 0.484
1371.000 0.478
1372.000 0.608
1373.000 0.522
1374.000 0.490
1375.000 0.374
1376.000 0.380
1377.000 0.353
1378.000 0.597
1379.000 0.685
1380.000 0.682
1381.000 0.701
1382.000 0.668
1383.000 0.651
1384.000 0.431
1385.000 0.284
1386.000 0.236
1387.000 0.252
1388.000 0.372
1389.000 0.434
1390.000 0.399
1391.000 0.414
1392.000 0.472
1393.000 0.491
1394.000 0.660
1395.000 0.547
1396.000 0.621
1397.000 0.762
1398.000 0.643
1399.000 0.613
1400.000 0.703
1401.000 0.669
1402.000 0.627
1403.000 0.534
1404.000 0.348
1405.000 0.260
1406.000 0.311
1407.000 0.295
1408.000 0.304
1409.000 0.319
1410.000 0.482
1411.000 0.594
1412.000 0.736
1413.000 0.655
1414.000 0.537
1415.000 0.356
1416.000 0.332
1417.000 0.245
1418.000 0.297
1419.000 0.521
1420.000 0.514
1421.000 0.520
1422.000 0.413
1423.000 0.387
1424.000 0.381
1425.000 0.369
1426.000 0.430
1427.000 0.534
1428.000 0.497
1429.000 0.470
1430.000 0.484
1431.000 0.410
1432.000 0.440
1433.000 0.556
1434.000 0.647
1435.000 0.695
1436.000 0.635
1437.000 0.471
1438.000 0.470
1439.000 0.417
1440.000 0.672
1441.000 0.402
1442.000 0.493
1443.000 0.497
1444.000 0.465
1445.000 0.416
1446.000 0.382
1447.000 0.368
1448.000 0.298
1449.000 0.338
1450.000 0.336
1451.000 0.275
1452.000 0.271
1453.000 0.258
1454.000 0.267
1455.000 0.287
1456.000 0.291
1457.000 0.260
1458.000 0.194
1459.000 0.179
1460.000 0.173
1461.000 0.170
1462.000 0.173
1463.000 0.175
1464.000 0.203
1465.000 0.214
1466.000 0.230
1467.000 0.210
1468.000 0.200
1469.000 0.199
1470.000 0.229
1471.000 0.226
1472.000 0.225
1473.000 0.219
1474.000 0.249
1475.000 0.252
1476.000 0.270
1477.000 0.245
1478.000 0.199
1479.000 0.196
1480.000 0.187
1481.000 0.186
1482.000 0.194
1483.000 0.193
1484.000 0.184
1485.000 0.182
1486.000 0.173
1487.000 0.174
1488.000 0.186
1489.000 0.189
1490.000 0.192
1491.000 0.193
1492.000 0.191
1493.000 0.190
1494.000 0.188
1495.000 0.188
1496.000 0.189
1497.000 0.190
1498.000 0.191
1499.000 0.195
1500.000 0.194
1501.000 0.195
1502.000 0.197
1503.000 0.198
1504.000 0.199
1505.000 0.198
1506.000 0.198
1507.000 0.197
1508.000 0.198
1509.000 0.202
1510.000 0.204
1511.000 0.205
1512.000 0.206
1513.000 0.207
1514.000 0.208
1515.000 0.210
1516.000 0.210
1517.000 0.211
1518.000 0.211
1519.000 0.211
1520.000 0.212
1521.000 0.213
1522.000 0.214
1523.000 0.217
1524.000 0.218
1525.000 0.217
1526.000 0.217
1527.000 0.217
1528.000 0.217
1529.000 0.219
1530.000 0.220
1531.000 0.220
1532.000 0.221
1533.000 0.223
1534.000 0.224
1535.000 0.224
1536.000 0.225
1537.000 0.227
1538.000 0.229
1539.000 0.230
1540.000 0.232
1541.000 0.234
1542.000 0.235
1543.000 0.238
1544.000 0.239
1545.000 0.239
1546.000 0.239
1547.000 0.239
1548.000 0.239
1549.000 0.240
1550.000 0.240
1551.000 0.240
1552.000 0.241
1553.000 0.242
1554.000 0.244
1555.000 0.247
1556.000 0.249
1557.000 0.252
1558.000 0.254
1559.000 0.253
1560.000 0.254
1561.000 0.253
1562.000 0.253
1563.000 0.255
1564.000 0.256
1565.000 0.257
1566.000 0.258
1567.000 0.258
1568.000 0.258
1569.000 0.259
1570.000 0.260
1571.000 0.263
1572.000 0.264
1573.000 0.264
1574.000 0.265
1575.000 0.265
1576.000 0.265
1577.000 0.268
1578.000 0.270
1579.000 0.273
1580.000 0.275
1581.000 0.277
1582.000 0.278
1583.000 0.279
1584.000 0.280
1585.000 0.281
1586.000 0.281
1587.000 0.281
1588.000 0.282
1589.000 0.283
1590.000 0.285
1591.000 0.287
1592.000 0.288
1593.000 0.288
1594.000 0.288
1595.000 0.288
1596.000 0.288
1597.000 0.289
1598.000 0.289
1599.000 0.289
1600.000 0.289
1601.000 0.290
1602.000 0.291
1603.000 0.292
1604.000 0.294
1605.000 0.295
1606.000 0.296
1607.000 0.298
1608.000 0.298
1609.000 0.297
1610.000 0.296
1611.000 0.296
1612.000 0.296
1613.000 0.296
1614.000 0.297
1615.000 0.297
1616.000 0.299
1617.000 0.301
1618.000 0.303
1619.000 0.303
1620.000 0.304
1621.000 0.302
1622.000 0.302
1623.000 0.303
1624.000 0.303
1625.000 0.304
1626.000 0.305
1627.000 0.309
1628.000 0.309
1629.000 0.309
1630.000 0.310
1631.000 0.309
1632.000 0.310
1633.000 0.314
1634.000 0.315
1635.000 0.315
1636.000 0.315
1637.000 0.314
1638.000 0.314
1639.000 0.314
1640.000 0.315
1641.000 0.316
1642.000 0.316
1643.000 0.316
1644.000 0.317
1645.000 0.317
1646.000 0.318
1647.000 0.320
1648.000 0.321
1649.000 0.322
1650.000 0.322
1651.000 0.322
1652.000 0.321
1653.000 0.319
1654.000 0.319
1655.000 0.319
1656.000 0.319
1657.000 0.322
1658.000 0.323
1659.000 0.321
1660.000 0.321
1661.000 0.321
1662.000 0.320
1663.000 0.323
1664.000 0.324
1665.000 0.324
1666.000 0.323
1667.000 0.324
1668.000 0.323
1669.000 0.319
1670.000 0.318
1671.000 0.317
1672.000 0.317
1673.000 0.319
1674.000 0.320
1675.000 0.319
1676.000 0.318
1677.000 0.318
1678.000 0.319
1679.000 0.320
1680.000 0.320
1681.000 0.317
1682.000 0.317
1683.000 0.316
1684.000 0.315
1685.000 0.317
1686.000 0.319
1687.000 0.320
1688.000 0.321
1689.000 0.322
1690.000 0.323
1691.000 0.320
1692.000 0.320
1693.000 0.319
1694.000 0.319
1695.000 0.320
1696.000 0.319
1697.000 0.317
1698.000 0.316
1699.000 0.316
1700.000 0.317
1701.000 0.319
1702.000 0.319
1703.000 0.317
1704.000 0.316
1705.000 0.315
1706.000 0.314
1707.000 0.315
1708.000 0.315
1709.000 0.315
1710.000 0.313
1711.000 0.310
1712.000 0.309
1713.000 0.308
1714.000 0.306
1715.000 0.307
1716.000 0.307
1717.000 0.304
1718.000 0.304
1719.000 0.305
1720.000 0.306
1721.000 0.307
1722.000 0.306
1723.000 0.302
1724.000 0.302
1725.000 0.304
1726.000 0.305
1727.000 0.306
1728.000 0.305
1729.000 0.303
1730.000 0.303
1731.000 0.302
1732.000 0.301
1733.000 0.302
1734.000 0.300
1735.000 0.301
1736.000 0.302
1737.000 0.303
1738.000 0.303
1739.000 0.304
1740.000 0.304
1741.000 0.305
1742.000 0.302
1743.000 0.303
1744.000 0.304
1745.000 0.304
1746.000 0.303
1747.000 0.301
1748.000 0.298
1749.000 0.295
1750.000 0.293
1751.000 0.290
1752.000 0.288
1753.000 0.285
1754.000 0.280
1755.000 0.279
1756.000 0.276
1757.000 0.277
1758.000 0.283
1759.000 0.283
1760.000 0.283
1761.000 0.285
1762.000 0.284
1763.000 0.289
1764.000 0.294
1765.000 0.291
1766.000 0.291
1767.000 0.286
1768.000 0.285
1769.000 0.286
1770.000 0.285
1771.000 0.287
1772.000 0.280
1773.000 0.272
1774.000 0.270
1775.000 0.273
1776.000 0.278
1777.000 0.285
1778.000 0.291
1779.000 0.288
1780.000 0.296
1781.000 0.310
1782.000 0.311
1783.000 0.306
1784.000 0.302
1785.000 0.290
1786.000 0.286
1787.000 0.297
1788.000 0.293
1789.000 0.274
1790.000 0.264
1791.000 0.252
1792.000 0.249
1793.000 0.261
1794.000 0.290
1795.000 0.318
1796.000 0.373
1797.000 0.434
1798.000 0.512
1799.000 0.500
1800.000 0.408
1801.000 0.544
1802.000 0.575
1803.000 0.758
1804.000 0.527
1805.000 0.524
1806.000 0.504
1807.000 0.558
1808.000 0.549
1809.000 0.586
1810.000 0.510
1811.000 0.477
1812.000 0.492
1813.000 0.411
1814.000 0.328
1815.000 0.422
1816.000 0.461
1817.000 0.626
1818.000 0.597
1819.000 0.373
1820.000 0.330
1821.000 0.397
1822.000 0.454
1823.000 0.484
1824.000 0.486
1825.000 0.448
1826.000 0.599
1827.000 0.663
1828.000 0.650
1829.000 0.603
1830.000 0.572
1831.000 0.451
1832.000 0.373
1833.000 0.349
1834.000 0.315
1835.000 0.236
1836.000 0.259
1837.000 0.456
1838.000 0.472
1839.000 0.518
1840.000 0.423
1841.000 0.383
1842.000 0.467
1843.000 0.640
1844.000 0.453
1845.000 0.331
1846.000 0.317
1847.000 0.287
1848.000 0.368
1849.000 0.479
1850.000 0.578
1851.000 0.508
1852.000 0.481
1853.000 0.556
1854.000 0.538
1855.000 0.430
1856.000 0.168
1857.000 0.356
1858.000 0.575
1859.000 0.631
1860.000 0.414
1861.000 0.287
1862.000 0.446
1863.000 0.349
1864.000 0.323
1865.000 0.404
1866.000 0.573
1867.000 0.515
1868.000 0.492
1869.000 0.551
1870.000 0.529
1871.000 0.687
1872.000 0.709
1873.000 0.597
1874.000 0.483
1875.000 0.428
1876.000 0.446
1877.000 0.453
1878.000 0.543
1879.000 0.671
1880.000 0.663
1881.000 0.523
1882.000 0.443
1883.000 0.612
1884.000 0.658
1885.000 0.465
1886.000 0.444
1887.000 0.442
1888.000 0.353
1889.000 0.422
1890.000 0.371
1891.000 0.501
1892.000 0.324
1893.000 0.342
1894.000 0.328
1895.000 0.316
1896.000 0.301
1897.000 0.651
1898.000 0.274
1899.000 0.233
1900.000 0.294
1901.000 0.348
1902.000 0.389
1903.000 0.451
1904.000 0.506
1905.000 0.476
1906.000 0.573
1907.000 0.545
1908.000 0.545
1909.000 0.556
1910.000 0.614
1911.000 0.535
1912.000 0.466
1913.000 0.453
1914.000 0.446
1915.000 0.582
1916.000 0.499
1917.000 0.483
1918.000 0.475
1919.000 0.507
1920.000 0.584
1921.000 0.652
1922.000 0.644
1923.000 0.598
1924.000 0.533
1925.000 0.587
1926.000 0.548
1927.000 0.596
1928.000 0.588
1929.000 0.486
1930.000 0.515
1931.000 0.602
1932.000 0.580
1933.000 0.455
1934.000 0.404
1935.000 0.409
1936.000 0.511
1937.000 0.594
1938.000 0.710
1939.000 0.654
1940.000 0.606
1941.000 0.572
1942.000 0.596
1943.000 0.445
1944.000 0.433
1945.000 0.376
1946.000 0.339
1947.000 0.381
1948.000 0.407
1949.000 0.390
1950.000 0.448
1951.000 0.554
1952.000 0.392
1953.000 0.341
1954.000 0.362
1955.000 0.366
1956.000 0.448
1957.000 0.504
1958.000 0.561
1959.000 0.585
1960.000 0.528
1961.000 0.504
1962.000 0.326
1963.000 0.247
1964.000 0.208
1965.000 0.181
1966.000 0.495
1967.000 0.503
1968.000 0.559
1969.000 0.600
1970.000 0.660
1971.000 0.711
1972.000 0.522
1973.000 0.596
1974.000 0.545
1975.000 0.531
1976.000 0.525
1977.000 0.523
1978.000 0.574
1979.000 0.673
1980.000 0.677
1981.000 0.675
1982.000 0.536
1983.000 0.520
1984.000 0.544
1985.000 0.460
1986.000 0.413
1987.000 0.410
1988.000 0.408
1989.000 0.425
1990.000 0.460
1991.000 0.501
1992.000 0.562
1993.000 0.523
1994.000 0.543
1995.000 0.485
1996.000 0.256
1997.000 0.208
1998.000 0.259
1999.000 0.301
2000.000 0.373
2001.000 0.465
2002.000 0.457
2003.000 0.483
2004.000 0.435
2005.000 0.432
2006.000 0.432
2007.000 0.348
2008.000 0.388
2009.000 0.699
2010.000 0.711
2011.000 0.553
2012.000 0.252
2013.000 0.587
2014.000 0.463
2015.000 0.477
2016.000 0.555
2017.000 0.678
2018.000 0.650
2019.000 0.532
2020.000 0.472
2021.000 0.384
2022.000 0.252
2023.000 0.359
2024.000 0.342
2025.000 0.486
2026.000 0.622
2027.000 0.425
2028.000 0.300
2029.000 0.285
2030.000 0.339
2031.000 0.296
2032.000 0.341
2033.000 0.342
2034.000 0.314
2035.000 0.304
2036.000 0.386
2037.000 0.261
2038.000 0.278
2039.000 0.263
2040.000 0.239
2041.000 0.335
2042.000 0.375
2043.000 0.440
2044.000 0.422
2045.000 0.312
2046.000 0.295
2047.000 0.273
2048.000 0.271
2049.000 0.405
2050.000 0.447
2051.000 0.382
2052.000 0.422
2053.000 0.412
2054.000 0.306
2055.000 0.285
2056.000 0.282
2057.000 0.295
2058.000 0.292
2059.000 0.337
2060.000 0.325
2061.000 0.305
2062.000 0.266
2063.000 0.268
2064.000 0.257
2065.000 0.264
2066.000 0.270
2067.000 0.339
2068.000 0.371
2069.000 0.443
2070.000 0.443
2071.000 0.413
2072.000 0.377
2073.000 0.296
2074.000 0.258
2075.000 0.232
2076.000 0.223
2077.000 0.239
2078.000 0.227
2079.000 0.245
2080.000 0.249
2081.000 0.249
2082.000 0.238
2083.000 0.239
2084.000 0.241
2085.000 0.236
2086.000 0.247
2087.000 0.242
2088.000 0.229
2089.000 0.222
2090.000 0.219
2091.000 0.218
2092.000 0.215
2093.000 0.219
2094.000 0.220
2095.000 0.232
2096.000 0.270
2097.000 0.277
2098.000 0.276
2099.000 0.261
2100.000 0.230
2101.000 0.210
2102.000 0.210
2103.000 0.210
2104.000 0.207
2105.000 0.205
2106.000 0.212
2107.000 0.225
2108.000 0.221
2109.000 0.234
2110.000 0.238
2111.000 0.233
2112.000 0.236
2113.000 0.247
2114.000 0.248
2115.000 0.246
2116.000 0.244
2117.000 0.237
2118.000 0.228
2119.000 0.226
2120.000 0.239
2121.000 0.245
2122.000 0.245
2123.000 0.237
2124.000 0.211
2125.000 0.207
2126.000 0.200
2127.000 0.206
2128.000 0.247
2129.000 0.248
2130.000 0.230
2131.000 0.226
2132.000 0.210
2133.000 0.203
2134.000 0.209
2135.000 0.211
2136.000 0.208
2137.000 0.214
2138.000 0.227
2139.000 0.238
2140.000 0.240
2141.000 0.233
2142.000 0.229
2143.000 0.218
2144.000 0.217
2145.000 0.225
2146.000 0.222
2147.000 0.214
2148.000 0.213
2149.000 0.212
2150.000 0.217
2151.000 0.240
2152.000 0.249
2153.000 0.252
2154.000 0.250
2155.000 0.234
2156.000 0.227
2157.000 0.228
2158.000 0.219
2159.000 0.230
2160.000 0.234
2161.000 0.236
2162.000 0.237
2163.000 0.235
2164.000 0.235
2165.000 0.228
2166.000 0.214
2167.000 0.208
2168.000 0.200
2169.000 0.199
2170.000 0.208
2171.000 0.210
2172.000 0.211
2173.000 0.218
2174.000 0.226
2175.000 0.232
2176.000 0.242
2177.000 0.248
2178.000 0.249
2179.000 0.248
2180.000 0.235
2181.000 0.240
2182.000 0.254
2183.000 0.258
2184.000 0.265
2185.000 0.286
2186.000 0.279
2187.000 0.253
2188.000 0.247
2189.000 0.233
2190.000 0.230
2191.000 0.243
2192.000 0.240
2193.000 0.226
2194.000 0.223
2195.000 0.226
2196.000 0.230
2197.000 0.240
2198.000 0.249
2199.000 0.268
2200.000 0.272
2201.000 0.266
2202.000 0.259
2203.000 0.246
2204.000 0.228
2205.000 0.209
2206.000 0.203
2207.000 0.190
2208.000 0.183
2209.000 0.185
2210.000 0.200
2211.000 0.205
2212.000 0.212
2213.000 0.210
2214.000 0.198
2215.000 0.198
2216.000 0.201
2217.000 0.206
2218.000 0.220
2219.000 0.227
2220.000 0.229
2221.000 0.237
2222.000 0.256
2223.000 0.261
2224.000 0.268
2225.000 0.265
2226.000 0.251
2227.000 0.227
2228.000 0.214
2229.000 0.206
2230.000 0.204
2231.000 0.206
2232.000 0.222
2233.000 0.226
2234.000 0.228
2235.000 0.233
2236.000 0.222
2237.000 0.220
2238.000 0.220
2239.000 0.221
2240.000 0.221
2241.000 0.225
2242.000 0.222
2243.000 0.217
2244.000 0.210
2245.000 0.191
2246.000 0.199
2247.000 0.203
2248.000 0.219
2249.000 0.236
2250.000 0.263
2251.000 0.258
2252.000 0.262
2253.000 0.272
2254.000 0.282
2255.000 0.310
2256.000 0.307
2257.000 0.287
2258.000 0.249
2259.000 0.222
2260.000 0.198
2261.000 0.196
2262.000 0.212
2263.000 0.241
2264.000 0.257
2265.000 0.248
2266.000 0.214
2267.000 0.240
2268.000 0.249
2269.000 0.244
2270.000 0.253
2271.000 0.246
2272.000 0.207
2273.000 0.207
2274.000 0.207
2275.000 0.209
2276.000 0.180
2277.000 0.171
2278.000 0.187
2279.000 0.172
2280.000 0.140
2281.000 0.135
2282.000 0.143
2283.000 0.146
2284.000 0.167
2285.000 0.186
2286.000 0.199
2287.000 0.209
2288.000 0.242
2289.000 0.254
2290.000 0.269
2291.000 0.265
2292.000 0.195
2293.000 0.188
2294.000 0.194
2295.000 0.211
2296.000 0.270
2297.000 0.357
2298.000 0.362
2299.000 0.282
2300.000 0.264
2301.000 0.219
2302.000 0.237
2303.000 0.274
2304.000 0.328
2305.000 0.350
2306.000 0.378
2307.000 0.313
2308.000 0.259
2309.000 0.206
2310.000 0.205
2311.000 0.159
2312.000 0.139
2313.000 0.138
2314.000 0.153
2315.000 0.193
2316.000 0.207
2317.000 0.225
2318.000 0.198
2319.000 0.242
2320.000 0.364
2321.000 0.388
2322.000 0.337
2323.000 0.424
2324.000 0.479
2325.000 0.325
2326.000 0.363
2327.000 0.407
2328.000 0.509
2329.000 0.669
2330.000 0.597
2331.000 0.392
2332.000 0.417
2333.000 0.323
2334.000 0.373
2335.000 0.397
2336.000 0.390
2337.000 0.469
2338.000 0.500
2339.000 0.418
2340.000 0.381
2341.000 0.367
2342.000 0.369
2343.000 0.382
2344.000 0.536
2345.000 0.335
2346.000 0.367
2347.000 0.267
2348.000 0.231
2349.000 0.278
2350.000 0.263
2351.000 0.400
2352.000 0.448
2353.000 0.465
2354.000 0.571
2355.000 0.439
2356.000 0.370
2357.000 0.281
2358.000 0.384
2359.000 0.446
2360.000 0.453
2361.000 0.473
2362.000 0.361
2363.000 0.298
2364.000 0.404
2365.000 0.443
2366.000 0.279
2367.000 0.312
2368.000 0.299
2369.000 0.363
2370.000 0.302
2371.000 0.282
2372.000 0.409
2373.000 0.480
2374.000 0.389
2375.000 0.592
2376.000 0.591
2377.000 0.555
2378.000 0.442
2379.000 0.371
2380.000 0.372
2381.000 0.382
2382.000 0.340
2383.000 0.468
2384.000 0.495
2385.000 0.585
2386.000 0.670
2387.000 0.616
2388.000 0.505
2389.000 0.600
2390.000 0.579
2391.000 0.439
2392.000 0.301
2393.000 0.403
2394.000 0.377
2395.000 0.368
2396.000 0.284
2397.000 0.344
2398.000 0.427
2399.000 0.338
2400.000 0.507
2401.000 0.370
2402.000 0.401
2403.000 0.398
2404.000 0.486
2405.000 0.303
2406.000 0.347
2407.000 0.175
2408.000 0.288
2409.000 0.243
2410.000 0.372
2411.000 0.468
2412.000 0.493
2413.000 0.585
2414.000 0.488
2415.000 0.411
2416.000 0.360
2417.000 0.254
2418.000 0.308
2419.000 0.405
2420.000 0.467
2421.000 0.645
2422.000 0.518
2423.000 0.494
2424.000 0.620
2425.000 0.464
2426.000 0.375
2427.000 0.237
2428.000 0.547
2429.000 0.697
2430.000 0.637
2431.000 0.472
2432.000 0.413
2433.000 0.324
2434.000 0.227
2435.000 0.216
2436.000 0.211
2437.000 0.255
2438.000 0.294
2439.000 0.590
2440.000 0.394
2441.000 0.288
2442.000 0.383
2443.000 0.462
2444.000 0.325
2445.000 0.273
2446.000 0.223
2447.000 0.279
2448.000 0.284
2449.000 0.296
2450.000 0.376
2451.000 0.447
2452.000 0.232
2453.000 0.394
2454.000 0.443
2455.000 0.573
2456.000 0.612
2457.000 0.453
2458.000 0.459
2459.000 0.485
2460.000 0.386
2461.000 0.284
2462.000 0.331
2463.000 0.247
2464.000 0.305
2465.000 0.295
2466.000 0.298
2467.000 0.330
2468.000 0.414
2469.000 0.403
2470.000 0.329
2471.000 0.254
2472.000 0.477
2473.000 0.374
2474.000 0.450
2475.000 0.484
2476.000 0.361
2477.000 0.311
2478.000 0.453
2479.000 0.417
2480.000 0.286
2481.000 0.406
2482.000 0.345
2483.000 0.296
2484.000 0.380
2485.000 0.257
2486.000 0.387
2487.000 0.418
2488.000 0.409
2489.000 0.315
2490.000 0.272
2491.000 0.247
2492.000 0.235
2493.000 0.471
2494.000 0.387
2495.000 0.319
2496.000 0.507
2497.000 0.375
2498.000 0.444
2499.000 0.357
2500.000 0.545
