391.000 0.019
392.000 0.022
393.000 0.015
394.000 0.013
395.000 0.016
396.000 0.017
397.000 0.016
398.000 0.021
399.000 0.023
400.000 0.021
401.000 0.020
402.000 0.029
403.000 0.026
404.000 0.019
405.000 0.025
406.000 0.018
407.000 0.014
408.000 0.019
409.000 0.023
410.000 0.024
411.000 0.022
412.000 0.019
413.000 0.021
414.000 0.020
415.000 0.020
416.000 0.023
417.000 0.024
418.000 0.027
419.000 0.028
420.000 0.025
421.000 0.021
422.000 0.022
423.000 0.025
424.000 0.022
425.000 0.023
426.000 0.026
427.000 0.023
428.000 0.022
429.000 0.023
430.000 0.024
431.000 0.026
432.000 0.028
433.000 0.026
434.000 0.022
435.000 0.022
436.000 0.021
437.000 0.021
438.000 0.025
439.000 0.023
440.000 0.024
441.000 0.025
442.000 0.018
443.000 0.020
444.000 0.022
445.000 0.024
446.000 0.026
447.000 0.024
448.000 0.023
449.000 0.026
450.000 0.022
451.000 0.022
452.000 0.025
453.000 0.027
454.000 0.025
455.000 0.024
456.000 0.026
457.000 0.025
458.000 0.025
459.000 0.026
460.000 0.025
461.000 0.023
462.000 0.023
463.000 0.025
464.000 0.024
465.000 0.023
466.000 0.024
467.000 0.025
468.000 0.023
469.000 0.024
470.000 0.025
471.000 0.026
472.000 0.024
473.000 0.022
474.000 0.022
475.000 0.027
476.000 0.027
477.000 0.024
478.000 0.022
479.000 0.023
480.000 0.026
481.000 0.028
482.000 0.028
483.000 0.026
484.000 0.023
485.000 0.022
486.000 0.023
487.000 0.028
488.000 0.031
489.000 0.026
490.000 0.025
491.000 0.026
492.000 0.027
493.000 0.028
494.000 0.028
495.000 0.026
496.000 0.024
497.000 0.029
498.000 0.031
499.000 0.031
500.000 0.028
501.000 0.029
502.000 0.030
503.000 0.031
504.000 0.027
505.000 0.028
506.000 0.031
507.000 0.033
508.000 0.032
509.000 0.032
510.000 0.033
511.000 0.034
512.000 0.032
513.000 0.032
514.000 0.035
515.000 0.036
516.000 0.035
517.000 0.035
518.000 0.037
519.000 0.037
520.000 0.038
521.000 0.041
522.000 0.043
523.000 0.043
524.000 0.044
525.000 0.046
526.000 0.047
527.000 0.047
528.000 0.048
529.000 0.049
530.000 0.050
531.000 0.050
532.000 0.051
533.000 0.052
534.000 0.053
535.000 0.054
536.000 0.055
537.000 0.054
538.000 0.055
539.000 0.057
540.000 0.055
541.000 0.056
542.000 0.057
543.000 0.057
544.000 0.057
545.000 0.057
546.000 0.058
547.000 0.057
548.000 0.057
549.000 0.057
550.000 0.057
551.000 0.057
552.000 0.057
553.000 0.057
554.000 0.058
555.000 0.057
556.000 0.057
557.000 0.057
558.000 0.056
559.000 0.055
560.000 0.056
561.000 0.057
562.000 0.055
563.000 0.054
564.000 0.055
565.000 0.055
566.000 0.054
567.000 0.053
568.000 0.051
569.000 0.052
570.000 0.051
571.000 0.050
572.000 0.049
573.000 0.048
574.000 0.047
575.000 0.047
576.000 0.046
577.000 0.046
578.000 0.047
579.000 0.046
580.000 0.045
581.000 0.045
582.000 0.046
583.000 0.045
584.000 0.043
585.000 0.043
586.000 0.043
587.000 0.043
588.000 0.044
589.000 0.044
590.000 0.044
591.000 0.042
592.000 0.044
593.000 0.045
594.000 0.042
595.000 0.042
596.000 0.043
597.000 0.044
598.000 0.044
599.000 0.043
600.000 0.044
601.000 0.045
602.000 0.044
603.000 0.041
604.000 0.040
605.000 0.045
606.000 0.044
607.000 0.042
608.000 0.041
609.000 0.041
610.000 0.039
611.000 0.039
612.000 0.042
613.000 0.042
614.000 0.040
615.000 0.040
616.000 0.043
617.000 0.041
618.000 0.040
619.000 0.042
620.000 0.038
621.000 0.039
622.000 0.042
623.000 0.041
624.000 0.042
625.000 0.044
626.000 0.044
627.000 0.042
628.000 0.040
629.000 0.039
630.000 0.039
631.000 0.044
632.000 0.044
633.000 0.041
634.000 0.041
635.000 0.042
636.000 0.041
637.000 0.042
638.000 0.041
639.000 0.043
640.000 0.043
641.000 0.038
642.000 0.039
643.000 0.039
644.000 0.039
645.000 0.041
646.000 0.040
647.000 0.038
648.000 0.038
649.000 0.039
650.000 0.038
651.000 0.038
652.000 0.042
653.000 0.040
654.000 0.039
655.000 0.042
656.000 0.045
657.000 0.044
658.000 0.043
659.000 0.043
660.000 0.038
661.000 0.038
662.000 0.040
663.000 0.041
664.000 0.042
665.000 0.041
666.000 0.039
667.000 0.041
668.000 0.042
669.000 0.041
670.000 0.045
671.000 0.042
672.000 0.042
673.000 0.044
674.000 0.042
675.000 0.042
676.000 0.043
677.000 0.041
678.000 0.045
679.000 0.046
680.000 0.044
681.000 0.047
682.000 0.047
683.000 0.047
684.000 0.047
685.000 0.045
686.000 0.047
687.000 0.051
688.000 0.053
689.000 0.054
690.000 0.051
691.000 0.049
692.000 0.054
693.000 0.056
694.000 0.059
695.000 0.062
696.000 0.064
697.000 0.068
698.000 0.070
699.000 0.074
700.000 0.079
701.000 0.084
702.000 0.089
703.000 0.091
704.000 0.093
705.000 0.097
706.000 0.103
707.000 0.109
708.000 0.115
709.000 0.119
710.000 0.123
711.000 0.126
712.000 0.131
713.000 0.136
714.000 0.141
715.000 0.148
716.000 0.154
717.000 0.159
718.000 0.166
719.000 0.172
720.000 0.177
721.000 0.183
722.000 0.188
723.000 0.193
724.000 0.198
725.000 0.203
726.000 0.209
727.000 0.215
728.000 0.220
729.000 0.225
730.000 0.230
731.000 0.234
732.000 0.240
733.000 0.244
734.000 0.248
735.000 0.252
736.000 0.256
737.000 0.260
738.000 0.264
739.000 0.267
740.000 0.271
741.000 0.273
742.000 0.277
743.000 0.279
744.000 0.282
745.000 0.284
746.000 0.287
747.000 0.290
748.000 0.292
749.000 0.294
750.000 0.295
751.000 0.297
752.000 0.299
753.000 0.300
754.000 0.302
755.000 0.303
756.000 0.304
757.000 0.305
758.000 0.307
759.000 0.308
760.000 0.310
761.000 0.312
762.000 0.315
763.000 0.316
764.000 0.317
765.000 0.317
766.000 0.316
767.000 0.315
768.000 0.315
769.000 0.316
770.000 0.316
771.000 0.316
772.000 0.317
773.000 0.318
774.000 0.319
775.000 0.319
776.000 0.320
777.000 0.320
778.000 0.320
779.000 0.321
780.000 0.321
781.000 0.322
782.000 0.322
783.000 0.323
784.000 0.324
785.000 0.324
786.000 0.324
787.000 0.326
788.000 0.326
789.000 0.327
790.000 0.328
791.000 0.328
792.000 0.328
793.000 0.328
794.000 0.329
795.000 0.330
796.000 0.330
797.000 0.330
798.000 0.330
799.000 0.331
800.000 0.332
801.000 0.333
802.000 0.333
803.000 0.333
804.000 0.334
805.000 0.334
806.000 0.334
807.000 0.335
808.000 0.335
809.000 0.336
810.000 0.337
811.000 0.338
812.000 0.338
813.000 0.338
814.000 0.339
815.000 0.340
816.000 0.341
817.000 0.341
818.000 0.342
819.000 0.342
820.000 0.342
821.000 0.342
822.000 0.343
823.000 0.343
824.000 0.343
825.000 0.344
826.000 0.344
827.000 0.345
828.000 0.345
829.000 0.346
830.000 0.346
831.000 0.346
832.000 0.346
833.000 0.347
834.000 0.347
835.000 0.347
836.000 0.347
837.000 0.347
838.000 0.348
839.000 0.349
840.000 0.349
841.000 0.349
842.000 0.350
843.000 0.350
844.000 0.350
845.000 0.350
846.000 0.351
847.000 0.351
848.000 0.352
849.000 0.352
850.000 0.352
851.000 0.352
852.000 0.353
853.000 0.353
854.000 0.352
855.000 0.353
856.000 0.354
857.000 0.354
858.000 0.354
859.000 0.354
860.000 0.355
861.000 0.356
862.000 0.355
863.000 0.356
864.000 0.356
865.000 0.356
866.000 0.356
867.000 0.357
868.000 0.357
869.000 0.357
870.000 0.358
871.000 0.359
872.000 0.359
873.000 0.358
874.000 0.358
875.000 0.359
876.000 0.360
877.000 0.360
878.000 0.360
879.000 0.361
880.000 0.362
881.000 0.362
882.000 0.362
883.000 0.362
884.000 0.363
885.000 0.363
886.000 0.364
887.000 0.365
888.000 0.365
889.000 0.365
890.000 0.365
891.000 0.366
892.000 0.366
893.000 0.367
894.000 0.367
895.000 0.368
896.000 0.369
897.000 0.369
898.000 0.368
899.000 0.368
900.000 0.369
901.000 0.371
902.000 0.373
903.000 0.373
904.000 0.372
905.000 0.372
906.000 0.371
907.000 0.372
908.000 0.374
909.000 0.374
910.000 0.372
911.000 0.372
912.000 0.375
913.000 0.375
914.000 0.376
915.000 0.377
916.000 0.376
917.000 0.376
918.000 0.377
919.000 0.378
920.000 0.377
921.000 0.376
922.000 0.377
923.000 0.378
924.000 0.379
925.000 0.379
926.000 0.378
927.000 0.377
928.000 0.376
929.000 0.373
930.000 0.373
931.000 0.378
932.000 0.379
933.000 0.373
934.000 0.370
935.000 0.374
936.000 0.366
937.000 0.358
938.000 0.360
939.000 0.369
940.000 0.374
941.000 0.380
942.000 0.381
943.000 0.376
944.000 0.374
945.000 0.366
946.000 0.367
947.000 0.377
948.000 0.372
949.000 0.363
950.000 0.364
951.000 0.372
952.000 0.360
953.000 0.372
954.000 0.379
955.000 0.371
956.000 0.375
957.000 0.378
958.000 0.374
959.000 0.367
960.000 0.370
961.000 0.367
962.000 0.368
963.000 0.374
964.000 0.370
965.000 0.372
966.000 0.376
967.000 0.376
968.000 0.376
969.000 0.376
970.000 0.376
971.000 0.377
972.000 0.379
973.000 0.374
974.000 0.372
975.000 0.375
976.000 0.368
977.000 0.377
978.000 0.378
979.000 0.371
980.000 0.380
981.000 0.380
982.000 0.377
983.000 0.376
984.000 0.376
985.000 0.377
986.000 0.378
987.000 0.379
988.000 0.380
989.000 0.377
990.000 0.376
991.000 0.377
992.000 0.376
993.000 0.378
994.000 0.381
995.000 0.383
996.000 0.383
997.000 0.385
998.000 0.386
999.000 0.387
1000.000 0.386
1001.000 0.381
1002.000 0.381
1003.000 0.382
1004.000 0.383
1005.000 0.383
1006.000 0.384
1007.000 0.386
1008.000 0.387
1009.000 0.390
1010.000 0.392
1011.000 0.392
1012.000 0.393
1013.000 0.393
1014.000 0.391
1015.000 0.392
1016.000 0.394
1017.000 0.394
1018.000 0.393
1019.000 0.396
1020.000 0.396
1021.000 0.394
1022.000 0.395
1023.000 0.393
1024.000 0.393
1025.000 0.396
1026.000 0.396
1027.000 0.398
1028.000 0.400
1029.000 0.397
1030.000 0.398
1031.000 0.399
1032.000 0.401
1033.000 0.401
1034.000 0.401
1035.000 0.401
1036.000 0.401
1037.000 0.401
1038.000 0.402
1039.000 0.404
1040.000 0.404
1041.000 0.404
1042.000 0.404
1043.000 0.405
1044.000 0.406
1045.000 0.406
1046.000 0.407
1047.000 0.408
1048.000 0.407
1049.000 0.406
1050.000 0.405
1051.000 0.406
1052.000 0.407
1053.000 0.407
1054.000 0.408
1055.000 0.409
1056.000 0.409
1057.000 0.411
1058.000 0.412
1059.000 0.411
1060.000 0.411
1061.000 0.411
1062.000 0.412
1063.000 0.413
1064.000 0.414
1065.000 0.415
1066.000 0.414
1067.000 0.413
1068.000 0.413
1069.000 0.414
1070.000 0.414
1071.000 0.413
1072.000 0.414
1073.000 0.413
1074.000 0.414
1075.000 0.415
1076.000 0.416
1077.000 0.416
1078.000 0.415
1079.000 0.416
1080.000 0.416
1081.000 0.416
1082.000 0.418
1083.000 0.418
1084.000 0.418
1085.000 0.421
1086.000 0.422
1087.000 0.423
1088.000 0.423
1089.000 0.422
1090.000 0.421
1091.000 0.420
1092.000 0.421
1093.000 0.421
1094.000 0.421
1095.000 0.422
1096.000 0.422
1097.000 0.422
1098.000 0.424
1099.000 0.424
1100.000 0.425
1101.000 0.426
1102.000 0.425
1103.000 0.424
1104.000 0.423
1105.000 0.424
1106.000 0.423
1107.000 0.424
1108.000 0.424
1109.000 0.427
1110.000 0.428
1111.000 0.428
1112.000 0.430
1113.000 0.430
1114.000 0.429
1115.000 0.427
1116.000 0.428
1117.000 0.429
1118.000 0.425
1119.000 0.435
1120.000 0.442
1121.000 0.439
1122.000 0.439
1123.000 0.433
1124.000 0.404
1125.000 0.396
1126.000 0.406
1127.000 0.405
1128.000 0.404
1129.000 0.399
1130.000 0.401
1131.000 0.405
1132.000 0.410
1133.000 0.417
1134.000 0.407
1135.000 0.397
1136.000 0.391
1137.000 0.386
1138.000 0.396
1139.000 0.405
1140.000 0.411
1141.000 0.429
1142.000 0.436
1143.000 0.431
1144.000 0.425
1145.000 0.411
1146.000 0.400
1147.000 0.384
1148.000 0.379
1149.000 0.380
1150.000 0.383
1151.000 0.389
1152.000 0.396
1153.000 0.396
1154.000 0.395
1155.000 0.398
1156.000 0.398
1157.000 0.396
1158.000 0.394
1159.000 0.394
1160.000 0.395
1161.000 0.394
1162.000 0.395
1163.000 0.395
1164.000 0.392
1165.000 0.391
1166.000 0.391
1167.000 0.393
1168.000 0.393
1169.000 0.392
1170.000 0.392
1171.000 0.393
1172.000 0.393
1173.000 0.394
1174.000 0.395
1175.000 0.397
1176.000 0.397
1177.000 0.399
1178.000 0.398
1179.000 0.397
1180.000 0.395
1181.000 0.392
1182.000 0.390
1183.000 0.388
1184.000 0.388
1185.000 0.391
1186.000 0.393
1187.000 0.394
1188.000 0.395
1189.000 0.395
1190.000 0.396
1191.000 0.396
1192.000 0.396
1193.000 0.395
1194.000 0.394
1195.000 0.394
1196.000 0.395
1197.000 0.396
1198.000 0.398
1199.000 0.398
1200.000 0.397
1201.000 0.397
1202.000 0.396
1203.000 0.396
1204.000 0.398
1205.000 0.398
1206.000 0.398
1207.000 0.399
1208.000 0.399
1209.000 0.397
1210.000 0.397
1211.000 0.397
1212.000 0.396
1213.000 0.396
1214.000 0.397
1215.000 0.398
1216.000 0.398
1217.000 0.399
1218.000 0.399
1219.000 0.399
1220.000 0.400
1221.000 0.402
1222.000 0.403
1223.000 0.403
1224.000 0.403
1225.000 0.403
1226.000 0.402
1227.000 0.401
1228.000 0.402
1229.000 0.402
1230.000 0.403
1231.000 0.404
1232.000 0.405
1233.000 0.406
1234.000 0.406
1235.000 0.406
1236.000 0.405
1237.000 0.405
1238.000 0.405
1239.000 0.406
1240.000 0.408
1241.000 0.410
1242.000 0.410
1243.000 0.411
1244.000 0.412
1245.000 0.412
1246.000 0.412
1247.000 0.412
1248.000 0.412
1249.000 0.412
1250.000 0.413
1251.000 0.414
1252.000 0.415
1253.000 0.416
1254.000 0.417
1255.000 0.418
1256.000 0.419
1257.000 0.419
1258.000 0.419
1259.000 0.419
1260.000 0.419
1261.000 0.420
1262.000 0.420
1263.000 0.420
1264.000 0.420
1265.000 0.422
1266.000 0.422
1267.000 0.423
1268.000 0.423
1269.000 0.421
1270.000 0.420
1271.000 0.421
1272.000 0.420
1273.000 0.420
1274.000 0.421
1275.000 0.422
1276.000 0.423
1277.000 0.423
1278.000 0.423
1279.000 0.424
1280.000 0.424
1281.000 0.424
1282.000 0.424
1283.000 0.424
1284.000 0.423
1285.000 0.422
1286.000 0.422
1287.000 0.421
1288.000 0.421
1289.000 0.421
1290.000 0.423
1291.000 0.423
1292.000 0.424
1293.000 0.424
1294.000 0.424
1295.000 0.424
1296.000 0.423
1297.000 0.422
1298.000 0.421
1299.000 0.421
1300.000 0.420
1301.000 0.422
1302.000 0.422
1303.000 0.422
1304.000 0.422
1305.000 0.422
1306.000 0.422
1307.000 0.422
1308.000 0.422
1309.000 0.422
1310.000 0.421
1311.000 0.419
1312.000 0.417
1313.000 0.414
1314.000 0.412
1315.000 0.410
1316.000 0.408
1317.000 0.408
1318.000 0.408
1319.000 0.405
1320.000 0.404
1321.000 0.403
1322.000 0.402
1323.000 0.402
1324.000 0.404
1325.000 0.404
1326.000 0.405
1327.000 0.404
1328.000 0.400
1329.000 0.396
1330.000 0.390
1331.000 0.388
1332.000 0.390
1333.000 0.389
1334.000 0.390
1335.000 0.391
1336.000 0.391
1337.000 0.391
1338.000 0.390
1339.000 0.391
1340.000 0.391
1341.000 0.391
1342.000 0.398
1343.000 0.404
1344.000 0.415
1345.000 0.417
1346.000 0.404
1347.000 0.401
1348.000 0.402
1349.000 0.392
1350.000 0.397
1351.000 0.472
1352.000 0.441
1353.000 0.454
1354.000 0.525
1355.000 0.456
1356.000 0.463
1357.000 0.452
1358.000 0.611
1359.000 0.623
1360.000 0.670
1361.000 0.491
1362.000 0.568
1363.000 0.586
1364.000 0.516
1365.000 0.351
1366.000 0.459
1367.000 0.563
1368.000 0.757
1369.000 0.561
1370.000 0.491
1371.000 0.613
1372.000 0.641
1373.000 0.697
1374.000 0.494
1375.000 0.380
1376.000 0.346
1377.000 0.335
1378.000 0.462
1379.000 0.503
1380.000 0.371
1381.000 0.352
1382.000 0.392
1383.000 0.286
1384.000 0.362
1385.000 0.299
1386.000 0.290
1387.000 0.561
1388.000 0.562
1389.000 0.281
1390.000 0.251
1391.000 0.190
1392.000 0.453
1393.000 0.378
1394.000 0.495
1395.000 0.522
1396.000 0.657
1397.000 0.539
1398.000 0.504
1399.000 0.540
1400.000 0.764
1401.000 0.928
1402.000 0.454
1403.000 0.404
1404.000 0.685
1405.000 0.646
1406.000 0.533
1407.000 0.509
1408.000 0.388
1409.000 0.313
1410.000 0.450
1411.000 0.547
1412.000 0.490
1413.000 0.536
1414.000 0.523
1415.000 0.518
1416.000 0.549
1417.000 0.520
1418.000 0.516
1419.000 0.272
1420.000 0.257
1421.000 0.264
1422.000 0.223
1423.000 0.253
1424.000 0.405
1425.000 0.370
1426.000 0.323
1427.000 0.329
1428.000 0.417
1429.000 0.391
1430.000 0.394
1431.000 0.410
1432.000 0.391
1433.000 0.307
1434.000 0.325
1435.000 0.376
1436.000 0.395
1437.000 0.424
1438.000 0.379
1439.000 0.321
1440.000 0.292
1441.000 0.307
1442.000 0.418
1443.000 0.403
1444.000 0.406
1445.000 0.278
1446.000 0.335
1447.000 0.197
1448.000 0.149
1449.000 0.350
1450.000 0.513
1451.000 0.163
1452.000 0.517
1453.000 0.459
1454.000 0.358
1455.000 0.372
1456.000 0.323
1457.000 0.211
1458.000 0.347
1459.000 0.490
1460.000 0.307
1461.000 0.268
1462.000 0.193
1463.000 0.180
1464.000 0.383
1465.000 0.266
1466.000 0.336
1467.000 0.254
1468.000 0.293
1469.000 0.329
1470.000 0.368
1471.000 0.415
1472.000 0.464
1473.000 0.431
1474.000 0.346
1475.000 0.320
1476.000 0.277
1477.000 0.363
1478.000 0.302
1479.000 0.241
1480.000 0.406
1481.000 0.348
1482.000 0.227
1483.000 0.212
1484.000 0.254
1485.000 0.287
1486.000 0.326
1487.000 0.387
1488.000 0.340
1489.000 0.373
1490.000 0.314
1491.000 0.282
1492.000 0.260
1493.000 0.250
1494.000 0.264
1495.000 0.241
1496.000 0.197
1497.000 0.186
1498.000 0.165
1499.000 0.163
1500.000 0.183
1501.000 0.200
1502.000 0.204
1503.000 0.202
1504.000 0.195
1505.000 0.197
1506.000 0.196
1507.000 0.195
1508.000 0.194
1509.000 0.192
1510.000 0.195
1511.000 0.204
1512.000 0.204
1513.000 0.204
1514.000 0.201
1515.000 0.190
1516.000 0.185
1517.000 0.179
1518.000 0.181
1519.000 0.188
1520.000 0.191
1521.000 0.204
1522.000 0.207
1523.000 0.200
1524.000 0.204
1525.000 0.212
1526.000 0.219
1527.000 0.234
1528.000 0.236
1529.000 0.230
1530.000 0.229
1531.000 0.224
1532.000 0.222
1533.000 0.224
1534.000 0.223
1535.000 0.220
1536.000 0.220
1537.000 0.222
1538.000 0.221
1539.000 0.216
1540.000 0.216
1541.000 0.218
1542.000 0.219
1543.000 0.220
1544.000 0.224
1545.000 0.226
1546.000 0.228
1547.000 0.231
1548.000 0.236
1549.000 0.242
1550.000 0.242
1551.000 0.240
1552.000 0.237
1553.000 0.224
1554.000 0.221
1555.000 0.227
1556.000 0.230
1557.000 0.241
1558.000 0.242
1559.000 0.234
1560.000 0.230
1561.000 0.221
1562.000 0.218
1563.000 0.217
1564.000 0.219
1565.000 0.224
1566.000 0.229
1567.000 0.238
1568.000 0.244
1569.000 0.250
1570.000 0.253
1571.000 0.254
1572.000 0.256
1573.000 0.256
1574.000 0.257
1575.000 0.257
1576.000 0.258
1577.000 0.259
1578.000 0.262
1579.000 0.264
1580.000 0.268
1581.000 0.274
1582.000 0.277
1583.000 0.278
1584.000 0.279
1585.000 0.277
1586.000 0.275
1587.000 0.270
1588.000 0.269
1589.000 0.268
1590.000 0.269
1591.000 0.276
1592.000 0.280
1593.000 0.285
1594.000 0.287
1595.000 0.282
1596.000 0.282
1597.000 0.281
1598.000 0.282
1599.000 0.292
1600.000 0.295
1601.000 0.295
1602.000 0.293
1603.000 0.283
1604.000 0.278
1605.000 0.270
1606.000 0.269
1607.000 0.275
1608.000 0.280
1609.000 0.292
1610.000 0.297
1611.000 0.299
1612.000 0.298
1613.000 0.289
1614.000 0.287
1615.000 0.289
1616.000 0.286
1617.000 0.279
1618.000 0.278
1619.000 0.275
1620.000 0.276
1621.000 0.288
1622.000 0.293
1623.000 0.293
1624.000 0.294
1625.000 0.294
1626.000 0.294
1627.000 0.295
1628.000 0.295
1629.000 0.295
1630.000 0.295
1631.000 0.295
1632.000 0.298
1633.000 0.308
1634.000 0.311
1635.000 0.313
1636.000 0.315
1637.000 0.311
1638.000 0.309
1639.000 0.307
1640.000 0.306
1641.000 0.308
1642.000 0.307
1643.000 0.306
1644.000 0.304
1645.000 0.296
1646.000 0.294
1647.000 0.295
1648.000 0.296
1649.000 0.302
1650.000 0.303
1651.000 0.300
1652.000 0.301
1653.000 0.304
1654.000 0.307
1655.000 0.319
1656.000 0.320
1657.000 0.312
1658.000 0.310
1659.000 0.306
1660.000 0.304
1661.000 0.304
1662.000 0.306
1663.000 0.309
1664.000 0.312
1665.000 0.325
1666.000 0.325
1667.000 0.311
1668.000 0.309
1669.000 0.308
1670.000 0.306
1671.000 0.313
1672.000 0.315
1673.000 0.313
1674.000 0.308
1675.000 0.301
1676.000 0.299
1677.000 0.295
1678.000 0.292
1679.000 0.293
1680.000 0.292
1681.000 0.288
1682.000 0.289
1683.000 0.295
1684.000 0.299
1685.000 0.305
1686.000 0.309
1687.000 0.317
1688.000 0.317
1689.000 0.312
1690.000 0.310
1691.000 0.301
1692.000 0.300
1693.000 0.306
1694.000 0.303
1695.000 0.300
1696.000 0.295
1697.000 0.278
1698.000 0.276
1699.000 0.279
1700.000 0.282
1701.000 0.296
1702.000 0.303
1703.000 0.307
1704.000 0.309
1705.000 0.306
1706.000 0.306
1707.000 0.304
1708.000 0.305
1709.000 0.311
1710.000 0.314
1711.000 0.320
1712.000 0.316
1713.000 0.314
1714.000 0.311
1715.000 0.294
1716.000 0.287
1717.000 0.288
1718.000 0.286
1719.000 0.294
1720.000 0.294
1721.000 0.286
1722.000 0.290
1723.000 0.293
1724.000 0.299
1725.000 0.312
1726.000 0.308
1727.000 0.300
1728.000 0.301
1729.000 0.305
1730.000 0.310
1731.000 0.321
1732.000 0.334
1733.000 0.321
1734.000 0.307
1735.000 0.294
1736.000 0.285
1737.000 0.278
1738.000 0.282
1739.000 0.278
1740.000 0.265
1741.000 0.260
1742.000 0.254
1743.000 0.255
1744.000 0.264
1745.000 0.268
1746.000 0.275
1747.000 0.280
1748.000 0.284
1749.000 0.280
1750.000 0.268
1751.000 0.261
1752.000 0.246
1753.000 0.242
1754.000 0.242
1755.000 0.246
1756.000 0.260
1757.000 0.260
1758.000 0.260
1759.000 0.258
1760.000 0.261
1761.000 0.266
1762.000 0.289
1763.000 0.308
1764.000 0.295
1765.000 0.300
1766.000 0.295
1767.000 0.267
1768.000 0.262
1769.000 0.271
1770.000 0.283
1771.000 0.310
1772.000 0.328
1773.000 0.318
1774.000 0.324
1775.000 0.318
1776.000 0.292
1777.000 0.278
1778.000 0.256
1779.000 0.245
1780.000 0.258
1781.000 0.264
1782.000 0.262
1783.000 0.263
1784.000 0.266
1785.000 0.353
1786.000 0.353
1787.000 0.341
1788.000 0.316
1789.000 0.252
1790.000 0.231
1791.000 0.205
1792.000 0.193
1793.000 0.189
1794.000 0.192
1795.000 0.183
1796.000 0.180
1797.000 0.139
1798.000 0.102
1799.000 0.125
1800.000 0.156
1801.000 0.460
1802.000 0.465
1803.000 0.603
1804.000 0.430
1805.000 0.434
1806.000 0.561
1807.000 0.702
1808.000 0.550
1809.000 0.617
1810.000 0.780
1811.000 0.707
1812.000 0.645
1813.000 0.671
1814.000 0.537
1815.000 0.579
1816.000 0.580
1817.000 0.537
1818.000 0.524
1819.000 0.454
1820.000 0.413
1821.000 0.402
1822.000 0.323
1823.000 0.386
1824.000 0.427
1825.000 0.504
1826.000 0.695
1827.000 0.628
1828.000 0.547
1829.000 0.366
1830.000 0.371
1831.000 0.372
1832.000 0.473
1833.000 0.465
1834.000 0.479
1835.000 0.432
1836.000 0.406
1837.000 0.365
1838.000 0.322
1839.000 0.389
1840.000 0.442
1841.000 0.543
1842.000 0.543
1843.000 0.443
1844.000 0.398
1845.000 0.387
1846.000 0.323
1847.000 0.363
1848.000 0.322
1849.000 0.404
1850.000 0.441
1851.000 0.476
1852.000 0.678
1853.000 0.721
1854.000 0.686
1855.000 0.663
1856.000 0.799
1857.000 0.851
1858.000 0.788
1859.000 0.721
1860.000 0.656
1861.000 0.520
1862.000 0.341
1863.000 0.409
1864.000 0.350
1865.000 0.291
1866.000 0.258
1867.000 0.246
1868.000 0.327
1869.000 0.170
1870.000 0.375
1871.000 0.529
1872.000 0.463
1873.000 0.444
1874.000 0.374
1875.000 0.458
1876.000 0.520
1877.000 0.605
1878.000 0.611
1879.000 0.636
1880.000 0.682
1881.000 0.748
1882.000 0.594
1883.000 0.476
1884.000 0.438
1885.000 0.466
1886.000 0.388
1887.000 0.602
1888.000 0.543
1889.000 0.457
1890.000 0.463
1891.000 0.609
1892.000 0.708
1893.000 0.575
1894.000 0.485
1895.000 0.276
1896.000 0.506
1897.000 0.689
1898.000 0.683
1899.000 0.644
1900.000 0.339
1901.000 0.228
1902.000 0.383
1903.000 0.275
1904.000 0.360
1905.000 0.165
1906.000 0.179
1907.000 0.275
1908.000 0.342
1909.000 0.501
1910.000 0.385
1911.000 0.370
1912.000 0.377
1913.000 0.406
1914.000 0.468
1915.000 0.687
1916.000 0.533
1917.000 0.391
1918.000 0.241
1919.000 0.298
1920.000 0.552
1921.000 0.592
1922.000 0.509
1923.000 0.461
1924.000 0.490
1925.000 0.470
1926.000 0.569
1927.000 0.654
1928.000 0.658
1929.000 0.638
1930.000 0.783
1931.000 0.484
1932.000 0.487
1933.000 0.454
1934.000 0.583
1935.000 0.473
1936.000 0.521
1937.000 0.476
1938.000 0.630
1939.000 0.468
1940.000 0.471
1941.000 0.414
1942.000 0.546
1943.000 0.447
1944.000 0.605
1945.000 0.405
1946.000 0.249
1947.000 0.201
1948.000 0.063
1949.000 0.399
1950.000 0.504
1951.000 0.600
1952.000 0.621
1953.000 0.576
1954.000 0.399
1955.000 0.450
1956.000 0.467
1957.000 0.469
1958.000 0.497
1959.000 0.544
1960.000 0.367
1961.000 0.353
1962.000 0.326
1963.000 0.326
1964.000 0.334
1965.000 0.378
1966.000 0.341
1967.000 0.148
1968.000 0.234
1969.000 0.292
1970.000 0.361
1971.000 0.259
1972.000 0.423
1973.000 0.339
1974.000 0.495
1975.000 0.554
1976.000 0.590
1977.000 0.580
1978.000 0.552
1979.000 0.546
1980.000 0.541
1981.000 0.550
1982.000 0.549
1983.000 0.545
1984.000 0.537
1985.000 0.521
1986.000 0.122
1987.000 0.277
1988.000 0.462
1989.000 0.492
1990.000 0.545
1991.000 0.354
1992.000 0.316
1993.000 0.312
1994.000 0.262
1995.000 0.230
1996.000 0.203
1997.000 0.190
1998.000 0.176
1999.000 0.160
2000.000 0.217
2001.000 0.389
2002.000 0.267
2003.000 0.161
2004.000 0.167
2005.000 0.347
2006.000 0.500
2007.000 0.387
2008.000 0.411
2009.000 0.410
2010.000 0.422
2011.000 0.549
2012.000 0.279
2013.000 0.434
2014.000 0.356
2015.000 0.188
2016.000 0.180
2017.000 0.354
2018.000 0.359
2019.000 0.289
2020.000 0.310
2021.000 0.217
2022.000 0.184
2023.000 0.216
2024.000 0.275
2025.000 0.313
2026.000 0.346
2027.000 0.337
2028.000 0.341
2029.000 0.324
2030.000 0.402
2031.000 0.474
2032.000 0.180
2033.000 0.333
2034.000 0.325
2035.000 0.329
2036.000 0.352
2037.000 0.348
2038.000 0.354
2039.000 0.361
2040.000 0.491
2041.000 0.192
2042.000 0.286
2043.000 0.280
2044.000 0.271
2045.000 0.310
2046.000 0.298
2047.000 0.316
2048.000 0.330
2049.000 0.282
2050.000 0.310
2051.000 0.290
2052.000 0.295
2053.000 0.259
2054.000 0.161
2055.000 0.127
2056.000 0.268
2057.000 0.301
2058.000 0.429
2059.000 0.342
2060.000 0.325
2061.000 0.342
2062.000 0.170
2063.000 0.140
2064.000 0.222
2065.000 0.263
2066.000 0.262
2067.000 0.266
2068.000 0.465
2069.000 0.345
2070.000 0.230
2071.000 0.248
2072.000 0.273
2073.000 0.209
2074.000 0.185
2075.000 0.267
2076.000 0.278
2077.000 0.275
2078.000 0.273
2079.000 0.202
2080.000 0.237
2081.000 0.272
2082.000 0.336
2083.000 0.382
2084.000 0.409
2085.000 0.424
2086.000 0.515
2087.000 0.576
2088.000 0.550
2089.000 0.534
2090.000 0.527
2091.000 0.419
2092.000 0.329
2093.000 0.324
2094.000 0.354
2095.000 0.350
2096.000 0.435
2097.000 0.383
2098.000 0.348
2099.000 0.265
2100.000 0.212
2101.000 0.195
2102.000 0.181
2103.000 0.182
2104.000 0.226
2105.000 0.227
2106.000 0.231
2107.000 0.172
2108.000 0.250
2109.000 0.392
2110.000 0.298
2111.000 0.356
2112.000 0.393
2113.000 0.353
2114.000 0.342
2115.000 0.310
2116.000 0.311
2117.000 0.390
2118.000 0.261
2119.000 0.279
2120.000 0.290
2121.000 0.253
2122.000 0.265
2123.000 0.254
2124.000 0.208
2125.000 0.258
2126.000 0.377
2127.000 0.294
2128.000 0.305
2129.000 0.286
2130.000 0.222
2131.000 0.274
2132.000 0.390
2133.000 0.431
2134.000 0.275
2135.000 0.247
2136.000 0.187
2137.000 0.183
2138.000 0.272
2139.000 0.410
2140.000 0.294
2141.000 0.294
2142.000 0.258
2143.000 0.238
2144.000 0.224
2145.000 0.184
2146.000 0.198
2147.000 0.208
2148.000 0.231
2149.000 0.316
2150.000 0.323
2151.000 0.369
2152.000 0.425
2153.000 0.236
2154.000 0.222
2155.000 0.284
2156.000 0.359
2157.000 0.334
2158.000 0.382
2159.000 0.262
2160.000 0.360
2161.000 0.377
2162.000 0.380
2163.000 0.246
2164.000 0.213
2165.000 0.520
2166.000 0.474
2167.000 0.271
2168.000 0.313
2169.000 0.288
2170.000 0.415
2171.000 0.364
2172.000 0.376
2173.000 0.201
2174.000 0.366
2175.000 0.361
2176.000 0.373
2177.000 0.388
2178.000 0.343
2179.000 0.597
2180.000 0.444
2181.000 0.194
2182.000 0.209
2183.000 0.248
2184.000 0.203
2185.000 0.169
2186.000 0.148
2187.000 0.134
2188.000 0.148
2189.000 0.165
2190.000 0.170
2191.000 0.258
2192.000 0.307
2193.000 0.490
2194.000 0.460
2195.000 0.426
2196.000 0.396
2197.000 0.359
2198.000 0.323
2199.000 0.287
2200.000 0.233
2201.000 0.208
2202.000 0.194
2203.000 0.219
2204.000 0.256
2205.000 0.271
2206.000 0.264
2207.000 0.269
2208.000 0.297
2209.000 0.319
2210.000 0.336
2211.000 0.345
2212.000 0.353
2213.000 0.324
2214.000 0.264
2215.000 0.204
2216.000 0.247
2217.000 0.278
2218.000 0.341
2219.000 0.362
2220.000 0.309
2221.000 0.338
2222.000 0.373
2223.000 0.340
2224.000 0.258
2225.000 0.200
2226.000 0.177
2227.000 0.188
2228.000 0.236
2229.000 0.293
2230.000 0.287
2231.000 0.432
2232.000 0.227
2233.000 0.280
2234.000 0.276
2235.000 0.219
2236.000 0.285
2237.000 0.221
2238.000 0.219
2239.000 0.245
2240.000 0.231
2241.000 0.241
2242.000 0.258
2243.000 0.285
2244.000 0.288
2245.000 0.279
2246.000 0.285
2247.000 0.342
2248.000 0.308
2249.000 0.251
2250.000 0.225
2251.000 0.143
2252.000 0.139
2253.000 0.119
2254.000 0.208
2255.000 0.236
2256.000 0.258
2257.000 0.372
2258.000 0.224
2259.000 0.079
2260.000 0.507
2261.000 0.502
2262.000 0.494
2263.000 0.275
2264.000 0.287
2265.000 0.250
2266.000 0.259
2267.000 0.277
2268.000 0.196
2269.000 0.220
2270.000 0.177
2271.000 0.156
2272.000 0.147
2273.000 0.154
2274.000 0.174
2275.000 0.195
2276.000 0.294
2277.000 0.328
2278.000 0.305
2279.000 0.267
2280.000 0.286
2281.000 0.300
2282.000 0.239
2283.000 0.210
2284.000 0.262
2285.000 0.237
2286.000 0.327
2287.000 0.399
2288.000 0.443
2289.000 0.381
2290.000 0.173
2291.000 0.216
2292.000 0.147
2293.000 0.158
2294.000 0.172
2295.000 0.218
2296.000 0.346
2297.000 0.339
2298.000 0.262
2299.000 0.226
2300.000 0.170
2301.000 0.455
2302.000 0.338
2303.000 0.222
2304.000 0.098
2305.000 0.085
2306.000 0.416
2307.000 0.225
2308.000 0.177
2309.000 0.165
2310.000 0.165
2311.000 0.234
2312.000 0.206
2313.000 0.267
2314.000 0.283
2315.000 0.205
2316.000 0.171
2317.000 0.140
2318.000 0.083
2319.000 0.128
2320.000 0.151
2321.000 0.212
2322.000 0.250
2323.000 0.297
2324.000 0.300
2325.000 0.221
2326.000 0.218
2327.000 0.380
2328.000 0.344
2329.000 0.449
2330.000 0.436
2331.000 0.315
2332.000 0.129
2333.000 0.251
2334.000 0.232
2335.000 0.306
2336.000 0.357
2337.000 0.300
2338.000 0.268
2339.000 0.249
2340.000 0.247
2341.000 0.304
2342.000 0.216
2343.000 0.269
2344.000 0.317
2345.000 0.309
2346.000 0.535
2347.000 0.405
2348.000 0.127
2349.000 0.389
2350.000 0.465
2351.000 0.402
2352.000 0.306
2353.000 0.266
2354.000 0.314
2355.000 0.066
2356.000 0.281
2357.000 0.289
2358.000 0.314
2359.000 0.341
2360.000 0.474
2361.000 0.566
2362.000 0.552
2363.000 0.558
2364.000 0.557
2365.000 0.286
2366.000 0.395
2367.000 0.105
2368.000 0.129
2369.000 0.149
2370.000 0.204
2371.000 0.169
2372.000 0.116
2373.000 0.232
2374.000 0.234
2375.000 0.297
2376.000 0.344
2377.000 0.360
2378.000 0.383
2379.000 0.162
2380.000 0.427
2381.000 0.363
2382.000 0.118
2383.000 0.585
2384.000 0.300
2385.000 0.431
2386.000 0.370
2387.000 0.293
2388.000 0.249
2389.000 0.148
2390.000 0.072
2391.000 0.269
2392.000 0.438
2393.000 0.372
2394.000 0.226
2395.000 0.131
2396.000 0.194
2397.000 0.217
2398.000 0.151
2399.000 0.214
2400.000 0.229
2401.000 0.348
2402.000 0.390
2403.000 0.450
2404.000 0.506
2405.000 0.510
2406.000 0.534
2407.000 0.543
2408.000 0.324
2409.000 0.257
2410.000 0.288
2411.000 0.517
2412.000 0.466
2413.000 0.450
2414.000 0.430
2415.000 0.394
2416.000 0.386
2417.000 0.499
2418.000 0.413
2419.000 0.285
2420.000 0.260
2421.000 0.279
2422.000 0.528
2423.000 0.610
2424.000 0.553
2425.000 0.607
2426.000 0.192
2427.000 0.338
2428.000 0.226
2429.000 0.329
2430.000 0.376
2431.000 0.501
2432.000 0.574
2433.000 0.376
2434.000 0.349
2435.000 0.343
2436.000 0.331
2437.000 0.548
2438.000 0.543
2439.000 0.539
2440.000 0.499
2441.000 0.407
2442.000 0.325
2443.000 0.397
2444.000 0.477
2445.000 0.403
2446.000 0.481
2447.000 0.397
2448.000 0.492
2449.000 0.185
2450.000 0.317
2451.000 0.284
2452.000 0.256
2453.000 0.385
2454.000 0.500
2455.000 0.584
2456.000 0.484
2457.000 0.664
2458.000 0.571
2459.000 0.430
2460.000 0.634
2461.000 0.537
2462.000 0.522
2463.000 0.140
2464.000 0.615
2465.000 0.332
2466.000 0.284
2467.000 0.301
2468.000 0.333
2469.000 0.320
2470.000 0.348
2471.000 0.462
2472.000 0.425
2473.000 0.362
2474.000 0.265
2475.000 0.211
2476.000 0.405
2477.000 0.320
2478.000 0.377
2479.000 0.324
2480.000 0.348
2481.000 0.412
2482.000 0.332
2483.000 0.372
2484.000 0.357
2485.000 0.303
2486.000 0.252
2487.000 0.139
2488.000 0.344
2489.000 0.506
2490.000 0.507
2491.000 0.416
2492.000 0.465
2493.000 0.475
2494.000 0.347
2495.000 0.289
2496.000 0.266
2497.000 0.410
2498.000 0.518
2499.000 0.528
2500.000 0.469
